<?xml version="1.0" encoding="utf-8"?>
<!-- Generator: Adobe Illustrator 16.0.0, SVG Export Plug-In . SVG Version: 6.00 Build 0)  -->
<!DOCTYPE svg PUBLIC "-//W3C//DTD SVG 1.1//EN" "http://www.w3.org/Graphics/SVG/1.1/DTD/svg11.dtd">
<svg version="1.1" id="Capa_1" xmlns="http://www.w3.org/2000/svg" xmlns:xlink="http://www.w3.org/1999/xlink" x="0px" y="0px"
	 width="237px" height="180px" viewBox="0 0 237 180" enable-background="new 0 0 237 180" xml:space="preserve">
<g>
	<rect x="1.703" y="48.148" fill="#0D6EAD" width="233.594" height="129.93"/>
	<rect x="1.703" y="48.148" fill="none" width="233.594" height="129.93"/>
	<circle fill="#FFFFFF" cx="119.75" cy="34.333" r="32.411"/>
	<circle fill="none" cx="119.75" cy="34.333" r="32.411"/>
	<circle fill="#0D6EAD" cx="119.75" cy="34.333" r="27.533"/>
	<path fill="#FFFFFF" d="M130.563,40.456c0,0,0.248,4.825-2.572,7.648c-2.822,2.823-7.647,2.574-7.647,2.574
		s-0.247-4.824,2.573-7.646C125.74,40.209,130.563,40.456,130.563,40.456z"/>
	<path fill="#FFFFFF" d="M129.307,32.317c0,0,0.207,4.034-2.152,6.394c-2.36,2.359-6.395,2.15-6.395,2.15s-0.209-4.032,2.152-6.392
		C125.271,32.11,129.307,32.317,129.307,32.317z"/>
	<path fill="#FFFFFF" d="M127.775,25.988c0,0,0.156,3.072-1.642,4.868c-1.797,1.797-4.868,1.639-4.868,1.639
		s-0.158-3.07,1.637-4.867C124.703,25.833,127.775,25.988,127.775,25.988z"/>
	<path fill="#FFFFFF" d="M108.938,40.456c0,0-0.247,4.825,2.575,7.648c2.822,2.823,7.646,2.574,7.646,2.574s0.25-4.824-2.575-7.646
		C113.764,40.209,108.938,40.456,108.938,40.456z"/>
	<path fill="#FFFFFF" d="M110.196,32.317c0,0-0.208,4.034,2.152,6.394c2.359,2.359,6.396,2.15,6.396,2.15s0.209-4.032-2.154-6.392
		C114.23,32.111,110.196,32.317,110.196,32.317z"/>
	<path fill="#FFFFFF" d="M111.727,25.988c0,0-0.155,3.072,1.643,4.868c1.796,1.797,4.868,1.639,4.868,1.639s0.158-3.07-1.639-4.867
		C114.801,25.833,111.727,25.988,111.727,25.988z"/>
	<path fill="#FFFFFF" d="M119.748,17.98c0,0,2.285,2.063,2.287,4.604c0,2.542-2.281,4.602-2.281,4.602s-2.285-2.06-2.287-4.602
		C117.465,20.044,119.748,17.98,119.748,17.98z"/>
</g>
<g>
	<path fill="#FFFFFF" d="M99.294,87.235c0.942,0.483,2.392,0.966,3.886,0.966c1.61,0,2.461-0.667,2.461-1.679
		c0-0.966-0.736-1.518-2.599-2.185c-2.575-0.896-4.254-2.322-4.254-4.576c0-2.644,2.207-4.668,5.863-4.668
		c1.748,0,3.035,0.368,3.955,0.782l-0.781,2.828c-0.621-0.299-1.725-0.735-3.242-0.735s-2.254,0.689-2.254,1.494
		c0,0.989,0.874,1.426,2.874,2.185c2.736,1.012,4.024,2.438,4.024,4.622c0,2.599-2,4.806-6.255,4.806
		c-1.771,0-3.518-0.459-4.392-0.942L99.294,87.235z"/>
	<path fill="#FFFFFF" d="M125.787,82.936c0,5.082-3.082,8.163-7.612,8.163c-4.599,0-7.289-3.473-7.289-7.888
		c0-4.645,2.967-8.117,7.543-8.117C123.189,75.094,125.787,78.658,125.787,82.936z M114.588,83.143c0,3.035,1.426,5.174,3.771,5.174
		c2.369,0,3.724-2.254,3.724-5.266c0-2.783-1.332-5.174-3.748-5.174C115.968,77.877,114.588,80.13,114.588,83.143z"/>
	<path fill="#FFFFFF" d="M132,79.003h-0.047l-2.852,1.357l-0.574-2.622l3.955-1.839h2.896v14.946H132V79.003z"/>
	<path fill="#FFFFFF" d="M34.19,100.31v5.077h5.87v-5.077h1.584v12.136H40.06v-5.689h-5.87v5.689h-1.566V100.31H34.19z"/>
	<path fill="#FFFFFF" d="M45.188,108.376c0.036,2.143,1.405,3.025,2.989,3.025c1.135,0,1.818-0.198,2.413-0.45l0.27,1.134
		c-0.558,0.252-1.513,0.54-2.898,0.54c-2.683,0-4.285-1.764-4.285-4.393s1.548-4.7,4.087-4.7c2.845,0,3.601,2.503,3.601,4.105
		c0,0.324-0.035,0.576-0.054,0.738H45.188z M49.833,107.242c0.019-1.009-0.414-2.575-2.196-2.575c-1.603,0-2.305,1.477-2.431,2.575
		H49.833z"/>
	<path fill="#FFFFFF" d="M53.324,99.661h1.584v12.784h-1.584V99.661z"/>
	<path fill="#FFFFFF" d="M57.572,106.575c0-1.116-0.036-2.017-0.072-2.845h1.423l0.071,1.495h0.036
		c0.648-1.063,1.675-1.693,3.098-1.693c2.106,0,3.69,1.783,3.69,4.43c0,3.133-1.908,4.682-3.961,4.682
		c-1.152,0-2.16-0.504-2.683-1.368h-0.036v4.735h-1.566V106.575z M59.138,108.898c0,0.234,0.036,0.45,0.072,0.648
		c0.288,1.098,1.242,1.854,2.377,1.854c1.674,0,2.646-1.369,2.646-3.367c0-1.747-0.918-3.241-2.593-3.241
		c-1.08,0-2.089,0.774-2.395,1.963c-0.055,0.198-0.108,0.432-0.108,0.648V108.898z"/>
	<path fill="#FFFFFF" d="M72.511,108.376c0.036,2.143,1.404,3.025,2.989,3.025c1.135,0,1.818-0.198,2.413-0.45l0.27,1.134
		c-0.558,0.252-1.513,0.54-2.898,0.54c-2.683,0-4.285-1.764-4.285-4.393s1.548-4.7,4.087-4.7c2.845,0,3.601,2.503,3.601,4.105
		c0,0.324-0.035,0.576-0.054,0.738H72.511z M77.157,107.242c0.019-1.009-0.414-2.575-2.196-2.575c-1.603,0-2.305,1.477-2.431,2.575
		H77.157z"/>
	<path fill="#FFFFFF" d="M80.647,99.661h1.584v12.784h-1.584V99.661z"/>
	<path fill="#FFFFFF" d="M86.66,101.282c0.018,0.54-0.378,0.972-1.009,0.972c-0.558,0-0.954-0.432-0.954-0.972
		c0-0.559,0.414-0.99,0.99-0.99C86.282,100.292,86.66,100.724,86.66,101.282z M84.895,112.445v-8.715h1.584v8.715H84.895z"/>
	<path fill="#FFFFFF" d="M89.107,106.09c0-0.9-0.018-1.639-0.072-2.359h1.387l0.072,1.404h0.054
		c0.486-0.828,1.296-1.603,2.736-1.603c1.188,0,2.089,0.721,2.467,1.747h0.036c0.271-0.486,0.612-0.864,0.973-1.135
		c0.522-0.396,1.099-0.612,1.927-0.612c1.152,0,2.862,0.757,2.862,3.781v5.132H100v-4.934c0-1.675-0.612-2.683-1.891-2.683
		c-0.9,0-1.603,0.666-1.873,1.44c-0.072,0.216-0.126,0.504-0.126,0.792v5.384h-1.549v-5.222c0-1.387-0.611-2.395-1.818-2.395
		c-0.99,0-1.71,0.792-1.962,1.584c-0.091,0.234-0.126,0.505-0.126,0.774v5.258h-1.549V106.09z"/>
	<path fill="#FFFFFF" d="M105.883,101.282c0.018,0.54-0.378,0.972-1.009,0.972c-0.558,0-0.954-0.432-0.954-0.972
		c0-0.559,0.414-0.99,0.99-0.99C105.505,100.292,105.883,100.724,105.883,101.282z M104.119,112.445v-8.715h1.584v8.715H104.119z"/>
	<path fill="#FFFFFF" d="M108.331,106.09c0-0.9-0.019-1.639-0.072-2.359h1.404l0.091,1.44h0.035c0.433-0.828,1.44-1.639,2.881-1.639
		c1.207,0,3.079,0.721,3.079,3.71v5.203h-1.584v-5.023c0-1.404-0.522-2.575-2.017-2.575c-1.045,0-1.854,0.738-2.125,1.621
		c-0.072,0.198-0.108,0.468-0.108,0.738v5.239h-1.584V106.09z"/>
	<path fill="#FFFFFF" d="M123.145,112.445l-0.125-1.099h-0.055c-0.486,0.685-1.422,1.297-2.664,1.297
		c-1.765,0-2.666-1.242-2.666-2.503c0-2.106,1.873-3.259,5.24-3.241v-0.18c0-0.721-0.197-2.017-1.98-2.017
		c-0.811,0-1.656,0.252-2.269,0.648l-0.359-1.045c0.72-0.468,1.765-0.774,2.863-0.774c2.664,0,3.313,1.819,3.313,3.565v3.259
		c0,0.757,0.037,1.495,0.145,2.089H123.145z M122.912,107.998c-1.729-0.036-3.691,0.27-3.691,1.963c0,1.026,0.684,1.512,1.494,1.512
		c1.135,0,1.854-0.72,2.105-1.458c0.055-0.162,0.092-0.342,0.092-0.504V107.998z"/>
	<path fill="#FFFFFF" d="M128.832,101.228v2.503h2.27v1.207h-2.27v4.699c0,1.08,0.307,1.692,1.189,1.692
		c0.414,0,0.721-0.054,0.918-0.108l0.072,1.188c-0.307,0.126-0.793,0.216-1.404,0.216c-0.738,0-1.332-0.233-1.711-0.666
		c-0.449-0.468-0.611-1.242-0.611-2.269v-4.753h-1.352v-1.207h1.352v-2.088L128.832,101.228z"/>
	<path fill="#FFFFFF" d="M133.656,108.376c0.035,2.143,1.404,3.025,2.988,3.025c1.135,0,1.818-0.198,2.414-0.45l0.27,1.134
		c-0.559,0.252-1.514,0.54-2.898,0.54c-2.684,0-4.285-1.764-4.285-4.393s1.547-4.7,4.086-4.7c2.846,0,3.602,2.503,3.602,4.105
		c0,0.324-0.035,0.576-0.055,0.738H133.656z M138.301,107.242c0.02-1.009-0.414-2.575-2.195-2.575c-1.604,0-2.305,1.477-2.432,2.575
		H138.301z"/>
	<path fill="#FFFFFF" d="M145.607,99.661h1.584v5.438h0.037c0.252-0.45,0.648-0.847,1.135-1.117c0.467-0.27,1.025-0.45,1.619-0.45
		c1.172,0,3.043,0.721,3.043,3.728v5.186h-1.584v-5.006c0-1.404-0.521-2.593-2.016-2.593c-1.027,0-1.838,0.721-2.125,1.585
		c-0.09,0.216-0.109,0.45-0.109,0.756v5.258h-1.584V99.661z"/>
	<path fill="#FFFFFF" d="M162.891,110.068c0,0.9,0.018,1.692,0.072,2.377h-1.404l-0.09-1.423h-0.037
		c-0.414,0.702-1.332,1.621-2.881,1.621c-1.369,0-3.006-0.757-3.006-3.817v-5.096h1.584v4.826c0,1.656,0.504,2.772,1.943,2.772
		c1.063,0,1.801-0.738,2.09-1.44c0.09-0.234,0.145-0.522,0.145-0.811v-5.348h1.584V110.068z"/>
	<path fill="#FFFFFF" d="M165.516,106.09c0-0.9-0.018-1.639-0.072-2.359h1.404l0.092,1.44h0.035
		c0.432-0.828,1.439-1.639,2.881-1.639c1.207,0,3.078,0.721,3.078,3.71v5.203h-1.584v-5.023c0-1.404-0.521-2.575-2.016-2.575
		c-1.045,0-1.855,0.738-2.125,1.621c-0.072,0.198-0.109,0.468-0.109,0.738v5.239h-1.584V106.09z"/>
	<path fill="#FFFFFF" d="M183.014,103.73c-0.035,0.631-0.072,1.333-0.072,2.395v5.06c0,1.999-0.396,3.224-1.242,3.979
		c-0.846,0.792-2.07,1.044-3.17,1.044c-1.043,0-2.195-0.252-2.898-0.72l0.396-1.206c0.576,0.359,1.477,0.684,2.557,0.684
		c1.621,0,2.809-0.846,2.809-3.043v-0.972h-0.035c-0.486,0.81-1.422,1.458-2.773,1.458c-2.16,0-3.709-1.837-3.709-4.249
		c0-2.953,1.926-4.628,3.926-4.628c1.512,0,2.34,0.793,2.719,1.513h0.035l0.072-1.314H183.014z M181.375,107.17
		c0-0.271-0.018-0.504-0.09-0.721c-0.289-0.918-1.063-1.674-2.215-1.674c-1.512,0-2.592,1.278-2.592,3.295
		c0,1.71,0.863,3.133,2.574,3.133c0.973,0,1.854-0.612,2.197-1.621c0.09-0.27,0.125-0.576,0.125-0.846V107.17z"/>
	<path fill="#FFFFFF" d="M186.449,108.376c0.035,2.143,1.404,3.025,2.988,3.025c1.135,0,1.818-0.198,2.414-0.45l0.27,1.134
		c-0.559,0.252-1.514,0.54-2.898,0.54c-2.684,0-4.285-1.764-4.285-4.393s1.547-4.7,4.086-4.7c2.846,0,3.602,2.503,3.602,4.105
		c0,0.324-0.035,0.576-0.055,0.738H186.449z M191.094,107.242c0.02-1.009-0.414-2.575-2.195-2.575c-1.604,0-2.305,1.477-2.432,2.575
		H191.094z"/>
	<path fill="#FFFFFF" d="M194.586,106.449c0-1.026-0.018-1.908-0.072-2.719h1.387l0.053,1.711h0.072
		c0.396-1.171,1.352-1.909,2.414-1.909c0.18,0,0.305,0.019,0.449,0.055v1.494c-0.162-0.036-0.324-0.054-0.541-0.054
		c-1.115,0-1.908,0.846-2.123,2.034c-0.037,0.216-0.072,0.469-0.072,0.738v4.646h-1.566V106.449z"/>
	<path fill="#FFFFFF" d="M198.49,114.66c0.396-1.063,0.883-2.989,1.08-4.304l1.766-0.18c-0.414,1.53-1.207,3.529-1.711,4.375
		L198.49,114.66z"/>
	<path fill="#FFFFFF" d="M45.827,134.046v-7.508h-1.225v-1.207h1.225v-0.414c0-1.225,0.27-2.341,1.008-3.043
		c0.595-0.576,1.387-0.81,2.125-0.81c0.559,0,1.044,0.126,1.351,0.252l-0.216,1.224c-0.234-0.107-0.559-0.197-1.009-0.197
		c-1.351,0-1.692,1.188-1.692,2.521v0.468H49.5v1.207h-2.106v7.508H45.827z"/>
	<path fill="#FFFFFF" d="M58.574,129.616c0,3.224-2.233,4.628-4.34,4.628c-2.358,0-4.177-1.729-4.177-4.483
		c0-2.917,1.908-4.628,4.321-4.628C56.88,125.133,58.574,126.952,58.574,129.616z M51.66,129.707c0,1.908,1.098,3.349,2.646,3.349
		c1.513,0,2.646-1.423,2.646-3.385c0-1.477-0.738-3.35-2.61-3.35C52.469,126.321,51.66,128.05,51.66,129.707z"/>
	<path fill="#FFFFFF" d="M68.456,129.616c0,3.224-2.233,4.628-4.34,4.628c-2.358,0-4.177-1.729-4.177-4.483
		c0-2.917,1.908-4.628,4.321-4.628C66.762,125.133,68.456,126.952,68.456,129.616z M61.542,129.707c0,1.908,1.098,3.349,2.646,3.349
		c1.513,0,2.646-1.423,2.646-3.385c0-1.477-0.738-3.35-2.61-3.35C62.351,126.321,61.542,128.05,61.542,129.707z"/>
	<path fill="#FFFFFF" d="M77.977,121.262v10.533c0,0.774,0.018,1.657,0.072,2.251h-1.423l-0.072-1.513h-0.036
		c-0.485,0.973-1.548,1.711-2.971,1.711c-2.106,0-3.727-1.783-3.727-4.43c-0.019-2.898,1.782-4.682,3.907-4.682
		c1.332,0,2.232,0.631,2.628,1.333h0.036v-5.204H77.977z M76.392,128.878c0-0.197-0.018-0.468-0.071-0.666
		c-0.234-1.008-1.099-1.836-2.287-1.836c-1.639,0-2.61,1.44-2.61,3.366c0,1.765,0.864,3.224,2.574,3.224
		c1.063,0,2.035-0.702,2.323-1.891c0.054-0.216,0.071-0.433,0.071-0.685V128.878z"/>
	<path fill="#FFFFFF" d="M86.183,122.883c0.018,0.54-0.378,0.972-1.009,0.972c-0.558,0-0.954-0.432-0.954-0.972
		c0-0.559,0.414-0.99,0.99-0.99C85.805,121.893,86.183,122.324,86.183,122.883z M84.418,134.046v-8.715h1.584v8.715H84.418z"/>
	<path fill="#FFFFFF" d="M88.63,127.69c0-0.9-0.018-1.639-0.072-2.359h1.404l0.09,1.44h0.036c0.433-0.828,1.44-1.639,2.881-1.639
		c1.207,0,3.079,0.721,3.079,3.71v5.203h-1.584v-5.023c0-1.404-0.522-2.575-2.017-2.575c-1.045,0-1.854,0.738-2.125,1.621
		c-0.072,0.198-0.108,0.468-0.108,0.738v5.239H88.63V127.69z"/>
	<path fill="#FFFFFF" d="M98.404,132.426c0.468,0.306,1.296,0.63,2.088,0.63c1.152,0,1.693-0.576,1.693-1.297
		c0-0.756-0.45-1.17-1.621-1.603c-1.566-0.558-2.305-1.422-2.305-2.466c0-1.405,1.135-2.558,3.007-2.558
		c0.883,0,1.657,0.253,2.143,0.541l-0.396,1.152c-0.343-0.217-0.973-0.505-1.783-0.505c-0.936,0-1.458,0.54-1.458,1.188
		c0,0.721,0.522,1.045,1.656,1.477c1.513,0.576,2.287,1.332,2.287,2.629c0,1.53-1.188,2.61-3.259,2.61
		c-0.955,0-1.837-0.233-2.449-0.594L98.404,132.426z"/>
	<path fill="#FFFFFF" d="M106.629,129.977c0.036,2.143,1.405,3.025,2.989,3.025c1.135,0,1.818-0.198,2.413-0.45l0.27,1.134
		c-0.558,0.252-1.513,0.54-2.898,0.54c-2.683,0-4.285-1.765-4.285-4.393c0-2.629,1.548-4.7,4.087-4.7
		c2.845,0,3.601,2.503,3.601,4.105c0,0.324-0.035,0.576-0.054,0.738H106.629z M111.275,128.843c0.019-1.009-0.414-2.575-2.196-2.575
		c-1.603,0-2.305,1.477-2.431,2.575H111.275z"/>
	<path fill="#FFFFFF" d="M120.979,133.722c-0.414,0.216-1.332,0.504-2.503,0.504c-2.629,0-4.339-1.782-4.339-4.447
		c0-2.683,1.836-4.627,4.681-4.627c0.937,0,1.765,0.234,2.197,0.45l-0.359,1.225c-0.379-0.217-0.973-0.414-1.837-0.414
		c-1.998,0-3.078,1.476-3.078,3.295c0,2.017,1.296,3.259,3.024,3.259c0.901,0,1.495-0.234,1.944-0.433L120.979,133.722z"/>
	<path fill="#FFFFFF" d="M130.121,131.669c0,0.9,0.02,1.692,0.072,2.377h-1.404l-0.09-1.423h-0.035
		c-0.414,0.703-1.334,1.621-2.881,1.621c-1.369,0-3.008-0.757-3.008-3.817v-5.096h1.584v4.825c0,1.657,0.504,2.773,1.945,2.773
		c1.063,0,1.801-0.738,2.088-1.44c0.09-0.234,0.145-0.522,0.145-0.811v-5.348h1.584V131.669z"/>
	<path fill="#FFFFFF" d="M132.748,128.05c0-1.026-0.018-1.908-0.072-2.719h1.387l0.053,1.711h0.072
		c0.396-1.171,1.352-1.909,2.414-1.909c0.18,0,0.305,0.019,0.449,0.055v1.494c-0.162-0.036-0.324-0.054-0.541-0.054
		c-1.115,0-1.908,0.846-2.123,2.034c-0.037,0.216-0.072,0.469-0.072,0.738v4.646h-1.566V128.05z"/>
	<path fill="#FFFFFF" d="M140.471,122.883c0.018,0.54-0.379,0.972-1.01,0.972c-0.557,0-0.953-0.432-0.953-0.972
		c0-0.559,0.414-0.99,0.99-0.99C140.092,121.893,140.471,122.324,140.471,122.883z M138.705,134.046v-8.715h1.584v8.715H138.705z"/>
	<path fill="#FFFFFF" d="M144.826,122.828v2.503h2.268v1.207h-2.268v4.699c0,1.08,0.307,1.692,1.188,1.692
		c0.414,0,0.721-0.054,0.92-0.108l0.07,1.188c-0.305,0.126-0.791,0.216-1.404,0.216c-0.738,0-1.332-0.233-1.709-0.666
		c-0.451-0.468-0.613-1.242-0.613-2.269v-4.753h-1.35v-1.207h1.35v-2.089L144.826,122.828z"/>
	<path fill="#FFFFFF" d="M149.613,125.331l1.908,5.149c0.197,0.576,0.414,1.261,0.559,1.783h0.035
		c0.162-0.522,0.342-1.188,0.559-1.818l1.729-5.114h1.674l-2.377,6.212c-1.133,2.989-1.908,4.52-2.988,5.456
		c-0.773,0.684-1.549,0.954-1.945,1.026l-0.395-1.333c0.395-0.126,0.918-0.378,1.385-0.774c0.434-0.342,0.973-0.954,1.334-1.764
		c0.072-0.162,0.125-0.288,0.125-0.379c0-0.09-0.035-0.216-0.107-0.414l-3.223-8.03H149.613z"/>
	<path fill="#FFFFFF" d="M166.156,134.046l-0.127-1.099h-0.053c-0.486,0.685-1.424,1.297-2.666,1.297
		c-1.764,0-2.664-1.242-2.664-2.503c0-2.106,1.873-3.259,5.24-3.241v-0.18c0-0.721-0.199-2.017-1.98-2.017
		c-0.811,0-1.658,0.252-2.27,0.648l-0.359-1.045c0.719-0.468,1.764-0.774,2.861-0.774c2.666,0,3.314,1.819,3.314,3.565v3.259
		c0,0.757,0.035,1.495,0.143,2.089H166.156z M165.922,129.599c-1.729-0.036-3.691,0.271-3.691,1.963
		c0,1.026,0.684,1.512,1.494,1.512c1.135,0,1.855-0.72,2.107-1.458c0.055-0.162,0.09-0.342,0.09-0.504V129.599z"/>
	<path fill="#FFFFFF" d="M170.006,127.69c0-0.9-0.018-1.639-0.072-2.359h1.404l0.092,1.44h0.035
		c0.432-0.828,1.439-1.639,2.881-1.639c1.207,0,3.078,0.721,3.078,3.71v5.203h-1.584v-5.023c0-1.404-0.521-2.575-2.016-2.575
		c-1.045,0-1.855,0.738-2.125,1.621c-0.072,0.198-0.109,0.468-0.109,0.738v5.239h-1.584V127.69z"/>
	<path fill="#FFFFFF" d="M187.523,121.262v10.533c0,0.774,0.018,1.657,0.072,2.251h-1.424l-0.072-1.513h-0.035
		c-0.486,0.973-1.549,1.711-2.971,1.711c-2.107,0-3.727-1.783-3.727-4.43c-0.02-2.898,1.781-4.682,3.906-4.682
		c1.332,0,2.232,0.631,2.629,1.333h0.035v-5.204H187.523z M185.938,128.878c0-0.197-0.018-0.468-0.07-0.666
		c-0.234-1.008-1.1-1.836-2.287-1.836c-1.639,0-2.611,1.44-2.611,3.366c0,1.765,0.865,3.224,2.574,3.224
		c1.063,0,2.035-0.702,2.324-1.891c0.053-0.216,0.07-0.433,0.07-0.685V128.878z"/>
	<path fill="#FFFFFF" d="M70.945,149.29c0-0.9-0.018-1.639-0.072-2.359h1.387l0.072,1.404h0.054
		c0.486-0.828,1.296-1.603,2.736-1.603c1.188,0,2.089,0.721,2.467,1.747h0.036c0.271-0.486,0.612-0.864,0.973-1.135
		c0.522-0.396,1.099-0.612,1.927-0.612c1.152,0,2.862,0.757,2.862,3.781v5.132h-1.548v-4.934c0-1.675-0.612-2.683-1.891-2.683
		c-0.9,0-1.603,0.666-1.873,1.44c-0.072,0.216-0.126,0.504-0.126,0.792v5.384H76.4v-5.222c0-1.387-0.611-2.395-1.818-2.395
		c-0.99,0-1.71,0.792-1.962,1.584c-0.091,0.234-0.126,0.505-0.126,0.774v5.258h-1.549V149.29z"/>
	<path fill="#FFFFFF" d="M90.782,155.646l-0.126-1.099h-0.054c-0.486,0.685-1.423,1.297-2.665,1.297
		c-1.765,0-2.665-1.242-2.665-2.503c0-2.106,1.873-3.259,5.24-3.241v-0.18c0-0.721-0.198-2.017-1.981-2.017
		c-0.81,0-1.656,0.252-2.269,0.648l-0.359-1.045c0.72-0.468,1.765-0.774,2.862-0.774c2.665,0,3.313,1.819,3.313,3.565v3.259
		c0,0.757,0.036,1.495,0.144,2.089H90.782z M90.548,151.198c-1.729-0.036-3.691,0.271-3.691,1.963c0,1.026,0.684,1.512,1.494,1.512
		c1.135,0,1.854-0.72,2.106-1.458c0.055-0.162,0.091-0.342,0.091-0.504V151.198z"/>
	<path fill="#FFFFFF" d="M94.632,142.861h1.584v12.784h-1.584V142.861z"/>
	<path fill="#FFFFFF" d="M98.88,149.29c0-0.9-0.018-1.639-0.072-2.359h1.404l0.09,1.44h0.036c0.433-0.828,1.44-1.639,2.881-1.639
		c1.207,0,3.079,0.721,3.079,3.71v5.203h-1.584v-5.023c0-1.404-0.522-2.575-2.017-2.575c-1.045,0-1.854,0.738-2.125,1.621
		c-0.072,0.198-0.108,0.468-0.108,0.738v5.239H98.88V149.29z"/>
	<path fill="#FFFFFF" d="M116.163,153.269c0,0.9,0.019,1.692,0.072,2.377h-1.404l-0.09-1.423h-0.036
		c-0.414,0.703-1.333,1.621-2.881,1.621c-1.369,0-3.007-0.757-3.007-3.817v-5.096h1.584v4.825c0,1.657,0.504,2.773,1.944,2.773
		c1.063,0,1.801-0.738,2.089-1.44c0.09-0.234,0.145-0.522,0.145-0.811v-5.348h1.584V153.269z"/>
	<path fill="#FFFFFF" d="M120.697,144.428v2.503h2.268v1.207h-2.268v4.699c0,1.08,0.307,1.692,1.188,1.692
		c0.414,0,0.721-0.054,0.92-0.108l0.07,1.188c-0.305,0.126-0.791,0.216-1.404,0.216c-0.738,0-1.332-0.233-1.709-0.666
		c-0.451-0.468-0.613-1.242-0.613-2.269v-4.753h-1.35v-1.207h1.35v-2.089L120.697,144.428z"/>
	<path fill="#FFFFFF" d="M124.746,149.649c0-1.026-0.018-1.908-0.072-2.719h1.387l0.055,1.711h0.072
		c0.396-1.171,1.35-1.909,2.412-1.909c0.18,0,0.307,0.019,0.451,0.055v1.494c-0.162-0.036-0.324-0.054-0.541-0.054
		c-1.117,0-1.908,0.846-2.125,2.034c-0.035,0.216-0.072,0.469-0.072,0.738v4.646h-1.566V149.649z"/>
	<path fill="#FFFFFF" d="M132.469,144.482c0.018,0.54-0.377,0.972-1.008,0.972c-0.559,0-0.955-0.432-0.955-0.972
		c0-0.559,0.414-0.99,0.99-0.99C132.092,143.492,132.469,143.924,132.469,144.482z M130.705,155.646v-8.715h1.584v8.715H130.705z"/>
	<path fill="#FFFFFF" d="M136.824,144.428v2.503h2.268v1.207h-2.268v4.699c0,1.08,0.307,1.692,1.188,1.692
		c0.414,0,0.721-0.054,0.92-0.108l0.07,1.188c-0.305,0.126-0.791,0.216-1.404,0.216c-0.738,0-1.332-0.233-1.709-0.666
		c-0.451-0.468-0.613-1.242-0.613-2.269v-4.753h-1.35v-1.207h1.35v-2.089L136.824,144.428z"/>
	<path fill="#FFFFFF" d="M142.639,144.482c0.018,0.54-0.379,0.972-1.01,0.972c-0.557,0-0.953-0.432-0.953-0.972
		c0-0.559,0.414-0.99,0.99-0.99C142.26,143.492,142.639,143.924,142.639,144.482z M140.873,155.646v-8.715h1.584v8.715H140.873z"/>
	<path fill="#FFFFFF" d="M152.973,151.216c0,3.224-2.234,4.628-4.34,4.628c-2.359,0-4.178-1.729-4.178-4.483
		c0-2.917,1.908-4.628,4.322-4.628C151.279,146.732,152.973,148.552,152.973,151.216z M146.059,151.307
		c0,1.908,1.098,3.349,2.646,3.349c1.512,0,2.646-1.423,2.646-3.385c0-1.477-0.738-3.35-2.611-3.35S146.059,149.649,146.059,151.307
		z"/>
	<path fill="#FFFFFF" d="M154.967,149.29c0-0.9-0.018-1.639-0.072-2.359h1.404l0.092,1.44h0.035
		c0.432-0.828,1.439-1.639,2.881-1.639c1.207,0,3.078,0.721,3.078,3.71v5.203h-1.584v-5.023c0-1.404-0.521-2.575-2.016-2.575
		c-1.045,0-1.855,0.738-2.125,1.621c-0.072,0.198-0.109,0.468-0.109,0.738v5.239h-1.584V149.29z"/>
	<path fill="#FFFFFF" d="M164.58,154.709c0-0.666,0.449-1.134,1.08-1.134c0.629,0,1.063,0.468,1.063,1.134
		c0,0.648-0.414,1.135-1.08,1.135C165.012,155.844,164.58,155.357,164.58,154.709z"/>
</g>
</svg>
