<?xml version="1.0" encoding="utf-8"?>
<!-- Generator: Adobe Illustrator 16.0.0, SVG Export Plug-In . SVG Version: 6.00 Build 0)  -->
<!DOCTYPE svg PUBLIC "-//W3C//DTD SVG 1.1//EN" "http://www.w3.org/Graphics/SVG/1.1/DTD/svg11.dtd">
<svg version="1.1" id="Capa_1" xmlns="http://www.w3.org/2000/svg" xmlns:xlink="http://www.w3.org/1999/xlink" x="0px" y="0px"
	 width="237px" height="180px" viewBox="0 0 237 180" enable-background="new 0 0 237 180" xml:space="preserve">
<g>
	<rect x="1.704" y="48.149" fill="#0097AD" width="233.593" height="129.929"/>
	<rect x="1.704" y="48.149" fill="none" width="233.593" height="129.929"/>
	<circle fill="#FFFFFF" cx="118.5" cy="34.333" r="32.411"/>
	<circle fill="none" cx="118.5" cy="34.333" r="32.411"/>
	<circle fill="#0097AD" cx="118.5" cy="34.333" r="27.533"/>
	<polygon fill="#FFFFFF" points="122.938,40.507 118.5,15.864 114.062,40.507 106.186,40.488 112.341,46.645 118.5,52.801 
		124.656,46.645 130.814,40.488 	"/>
	<g>
		<path fill="#FFFFFF" d="M97.938,90.108l0.736-2.921c1.326,0.675,2.676,1.012,4.048,1.012c0.789,0,1.405-0.149,1.846-0.448
			c0.44-0.299,0.661-0.709,0.661-1.231c0-0.467-0.199-0.858-0.598-1.173c-0.398-0.314-1.089-0.636-2.07-0.966
			c-2.959-0.981-4.438-2.522-4.438-4.623c0-1.357,0.544-2.474,1.633-3.353c1.088-0.877,2.537-1.316,4.347-1.316
			c1.579,0,2.959,0.269,4.14,0.805l-0.805,2.829c-1.081-0.506-2.208-0.759-3.381-0.759c-0.721,0-1.284,0.138-1.69,0.414
			c-0.406,0.276-0.609,0.636-0.609,1.081c0,0.406,0.17,0.753,0.512,1.041c0.341,0.288,1.159,0.661,2.455,1.121
			c1.434,0.506,2.482,1.133,3.146,1.88s0.994,1.677,0.994,2.789c0,1.426-0.56,2.584-1.679,3.473
			c-1.119,0.89-2.684,1.334-4.692,1.334C100.775,91.097,99.257,90.767,97.938,90.108z"/>
		<path fill="#FFFFFF" d="M126.09,82.955c0,2.461-0.723,4.434-2.167,5.917c-1.445,1.483-3.345,2.225-5.698,2.225
			c-2.285,0-4.125-0.738-5.521-2.214c-1.396-1.476-2.093-3.367-2.093-5.675c0-2.361,0.729-4.305,2.185-5.83
			c1.457-1.526,3.335-2.289,5.636-2.289c2.314,0,4.17,0.736,5.565,2.208C125.393,78.769,126.09,80.655,126.09,82.955z
			 M114.36,83.116c0,1.518,0.364,2.76,1.093,3.726c0.728,0.966,1.683,1.449,2.863,1.449c1.211,0,2.177-0.479,2.897-1.438
			c0.721-0.958,1.081-2.219,1.081-3.783c0-1.502-0.362-2.741-1.087-3.714c-0.724-0.974-1.681-1.461-2.869-1.461
			c-1.195,0-2.158,0.489-2.886,1.466C114.725,80.338,114.36,81.59,114.36,83.116z"/>
		<path fill="#FFFFFF" d="M127.838,89.993l0.736-2.645c1.265,0.629,2.476,0.943,3.634,0.943c0.874,0,1.557-0.178,2.047-0.535
			s0.736-0.83,0.736-1.42c0-0.652-0.286-1.167-0.857-1.547c-0.57-0.379-1.297-0.569-2.179-0.569h-1.564v-2.553h1.495
			c0.744,0,1.374-0.151,1.892-0.455c0.518-0.303,0.776-0.719,0.776-1.248c0-0.468-0.197-0.841-0.592-1.122
			c-0.396-0.279-0.949-0.419-1.662-0.419c-1.111,0-2.2,0.314-3.266,0.943l-0.759-2.553c1.318-0.782,2.921-1.173,4.807-1.173
			c1.549,0,2.783,0.353,3.703,1.058c0.92,0.706,1.38,1.603,1.38,2.691c0,1.664-0.928,2.822-2.783,3.473v0.046
			c1.005,0.176,1.808,0.596,2.409,1.259s0.903,1.447,0.903,2.352c0,1.35-0.567,2.45-1.702,3.301
			c-1.135,0.851-2.646,1.276-4.531,1.276C130.59,91.097,129.049,90.729,127.838,89.993z"/>
		<path fill="#FFFFFF" d="M71.16,112.443v-11.97c0.948-0.18,2.004-0.271,3.168-0.271c1.608,0,2.778,0.301,3.511,0.9
			c0.731,0.601,1.098,1.41,1.098,2.43c0,0.721-0.206,1.352-0.616,1.895c-0.411,0.544-0.98,0.938-1.706,1.184
			c0.876,0.342,1.47,1.164,1.782,2.466c0.492,1.986,0.815,3.108,0.972,3.366h-1.728c-0.168-0.281-0.438-1.242-0.811-2.88
			c-0.191-0.852-0.477-1.455-0.854-1.809c-0.378-0.354-0.915-0.531-1.611-0.531h-1.53v5.22H71.16z M72.834,101.626v4.338h1.675
			c0.84,0,1.509-0.204,2.007-0.612s0.747-0.954,0.747-1.638c0-0.727-0.242-1.279-0.725-1.661c-0.483-0.381-1.178-0.571-2.084-0.571
			C73.752,101.481,73.213,101.529,72.834,101.626z"/>
		<path fill="#FFFFFF" d="M88.422,108.43h-6.318c0.024,0.942,0.315,1.663,0.873,2.164c0.559,0.501,1.281,0.752,2.169,0.752
			c0.966,0,1.813-0.15,2.538-0.45l0.288,1.17c-0.858,0.384-1.872,0.576-3.042,0.576c-1.355,0-2.436-0.402-3.24-1.206
			c-0.804-0.804-1.206-1.872-1.206-3.204s0.386-2.448,1.157-3.348c0.771-0.9,1.808-1.351,3.109-1.351c1.2,0,2.121,0.401,2.763,1.202
			s0.963,1.78,0.963,2.938C88.476,108.004,88.458,108.256,88.422,108.43z M82.122,107.224h4.733c0-0.75-0.193-1.354-0.58-1.813
			s-0.938-0.688-1.651-0.688c-0.679,0-1.239,0.229-1.684,0.688C82.497,105.869,82.224,106.474,82.122,107.224z"/>
		<path fill="#FFFFFF" d="M96.648,99.628h1.674v10.529c0,0.973,0.024,1.734,0.072,2.286H96.9l-0.126-1.548
			c-0.288,0.552-0.702,0.981-1.242,1.287s-1.151,0.459-1.836,0.459c-1.104,0-2.024-0.415-2.763-1.246s-1.107-1.886-1.107-3.164
			c0-1.386,0.389-2.516,1.166-3.389c0.776-0.873,1.738-1.31,2.885-1.31c0.611,0,1.159,0.12,1.643,0.36
			c0.482,0.24,0.859,0.564,1.129,0.972V99.628z M96.648,108.699v-1.386c0-0.738-0.238-1.333-0.716-1.786
			c-0.477-0.453-1.048-0.68-1.714-0.68c-0.811,0-1.463,0.303-1.958,0.909c-0.495,0.605-0.742,1.395-0.742,2.367
			c0,0.912,0.234,1.668,0.702,2.268s1.122,0.9,1.962,0.9c0.642,0,1.214-0.235,1.715-0.707
			C96.398,110.114,96.648,109.485,96.648,108.699z"/>
		<path fill="#FFFFFF" d="M108.6,103.731v6.3c0,0.99,0.024,1.795,0.072,2.412h-1.476l-0.145-1.476
			c-0.672,1.116-1.668,1.674-2.988,1.674c-0.953,0-1.708-0.327-2.263-0.981c-0.556-0.653-0.833-1.616-0.833-2.889v-5.04h1.674v4.752
			c0,1.849,0.666,2.772,1.998,2.772c0.612,0,1.146-0.219,1.603-0.657c0.456-0.438,0.684-0.969,0.684-1.593v-5.274H108.6z"/>
		<path fill="#FFFFFF" d="M117.475,110.859l0.27,1.26c-0.738,0.349-1.608,0.522-2.61,0.522c-1.344,0-2.43-0.411-3.258-1.233
			c-0.828-0.821-1.242-1.893-1.242-3.213c0-1.374,0.446-2.494,1.337-3.361s2.06-1.301,3.506-1.301c0.876,0,1.644,0.162,2.304,0.486
			l-0.36,1.278c-0.552-0.288-1.193-0.433-1.926-0.433c-0.954,0-1.718,0.302-2.29,0.905c-0.573,0.603-0.86,1.375-0.86,2.317
			c0,0.978,0.291,1.756,0.873,2.335s1.323,0.869,2.224,0.869C116.136,111.292,116.814,111.147,117.475,110.859z"/>
		<path fill="#FFFFFF" d="M126.834,108.43h-6.318c0.024,0.942,0.315,1.663,0.873,2.164c0.559,0.501,1.281,0.752,2.169,0.752
			c0.966,0,1.813-0.15,2.538-0.45l0.288,1.17c-0.858,0.384-1.872,0.576-3.042,0.576c-1.355,0-2.436-0.402-3.24-1.206
			c-0.804-0.804-1.206-1.872-1.206-3.204s0.386-2.448,1.157-3.348c0.771-0.9,1.808-1.351,3.109-1.351c1.2,0,2.121,0.401,2.763,1.202
			s0.963,1.78,0.963,2.938C126.888,108.004,126.87,108.256,126.834,108.43z M120.534,107.224h4.733c0-0.75-0.193-1.354-0.58-1.813
			s-0.938-0.688-1.651-0.688c-0.679,0-1.239,0.229-1.684,0.688C120.909,105.869,120.636,106.474,120.534,107.224z"/>
		<path fill="#FFFFFF" d="M132.827,112.443v-5.939c0-1.128-0.023-2.053-0.071-2.772h1.476l0.108,1.746
			c0.222-0.612,0.561-1.089,1.017-1.431s0.951-0.514,1.485-0.514c0.113,0,0.264,0.013,0.45,0.036v1.584
			c-0.162-0.036-0.354-0.054-0.576-0.054c-0.606,0-1.127,0.237-1.562,0.711c-0.436,0.474-0.652,1.149-0.652,2.025v4.607H132.827z"/>
		<path fill="#FFFFFF" d="M146.525,103.731v6.3c0,0.99,0.024,1.795,0.072,2.412h-1.476l-0.145-1.476
			c-0.672,1.116-1.668,1.674-2.988,1.674c-0.953,0-1.708-0.327-2.263-0.981c-0.556-0.653-0.833-1.616-0.833-2.889v-5.04h1.674v4.752
			c0,1.849,0.666,2.772,1.998,2.772c0.612,0,1.146-0.219,1.603-0.657c0.456-0.438,0.684-0.969,0.684-1.593v-5.274H146.525z"/>
		<path fill="#FFFFFF" d="M149.226,112.443v-5.939c0-1.128-0.023-2.053-0.071-2.772h1.476l0.108,1.746
			c0.222-0.612,0.561-1.089,1.017-1.431s0.951-0.514,1.485-0.514c0.113,0,0.264,0.013,0.45,0.036v1.584
			c-0.162-0.036-0.354-0.054-0.576-0.054c-0.606,0-1.127,0.237-1.562,0.711c-0.436,0.474-0.652,1.149-0.652,2.025v4.607H149.226z"/>
		<path fill="#FFFFFF" d="M161.609,107.17v3.186c0,0.864,0.048,1.561,0.145,2.088h-1.53l-0.198-1.116
			c-0.653,0.877-1.571,1.314-2.754,1.314c-0.828,0-1.491-0.244-1.989-0.733s-0.746-1.078-0.746-1.769
			c0-1.056,0.459-1.863,1.377-2.421c0.918-0.559,2.259-0.837,4.022-0.837v-0.162c0-0.618-0.17-1.1-0.509-1.444
			c-0.339-0.346-0.841-0.518-1.507-0.518c-0.889,0-1.681,0.222-2.376,0.666l-0.378-1.099c0.84-0.527,1.842-0.792,3.006-0.792
			c1.134,0,1.99,0.313,2.569,0.937S161.609,105.994,161.609,107.17z M159.972,109.474v-1.44c-1.404,0-2.379,0.168-2.925,0.505
			c-0.546,0.336-0.819,0.798-0.819,1.386c0,0.462,0.137,0.823,0.409,1.084c0.273,0.262,0.635,0.392,1.085,0.392
			c0.636,0,1.17-0.196,1.602-0.589C159.756,110.417,159.972,109.972,159.972,109.474z"/>
		<path fill="#FFFFFF" d="M164.219,112.443V99.628h1.675v12.815H164.219z"/>
		<path fill="#FFFFFF" d="M88.737,134.044v-11.988c0.924-0.168,1.986-0.252,3.187-0.252c1.529,0,2.677,0.329,3.442,0.985
			c0.765,0.657,1.147,1.522,1.147,2.597c0,1.267-0.441,2.24-1.323,2.921s-2.037,1.021-3.465,1.021c-0.606,0-1.044-0.042-1.314-0.126
			v4.842H88.737z M90.411,123.244v4.607c0.313,0.097,0.763,0.145,1.351,0.145c0.972,0,1.728-0.224,2.268-0.671
			c0.54-0.446,0.811-1.069,0.811-1.867c0-0.75-0.254-1.327-0.761-1.732s-1.22-0.607-2.138-0.607
			C91.359,123.118,90.85,123.16,90.411,123.244z"/>
		<path fill="#FFFFFF" d="M106.396,129.598c0,0.937-0.195,1.755-0.585,2.457c-0.391,0.702-0.937,1.242-1.639,1.62
			c-0.701,0.378-1.461,0.567-2.276,0.567c-1.272,0-2.322-0.416-3.15-1.247s-1.242-1.909-1.242-3.235c0-1.41,0.428-2.533,1.283-3.37
			c0.854-0.837,1.934-1.256,3.235-1.256c1.296,0,2.349,0.416,3.159,1.247C105.99,127.212,106.396,128.284,106.396,129.598z
			 M99.213,129.706c0,0.954,0.256,1.741,0.766,2.362s1.148,0.932,1.917,0.932c0.786,0,1.441-0.312,1.967-0.937
			c0.524-0.623,0.787-1.428,0.787-2.411c0-0.906-0.241-1.679-0.725-2.318c-0.483-0.639-1.142-0.958-1.976-0.958
			c-0.846,0-1.514,0.316-2.002,0.949C99.458,127.959,99.213,128.752,99.213,129.706z"/>
		<path fill="#FFFFFF" d="M107.152,125.332h1.817l1.854,5.13c0.21,0.576,0.432,1.224,0.666,1.944
			c0.162-0.546,0.41-1.287,0.747-2.224l1.736-4.851h1.782l-3.546,8.712h-1.638L107.152,125.332z"/>
		<path fill="#FFFFFF" d="M124.342,130.03h-6.318c0.024,0.941,0.315,1.663,0.873,2.164c0.559,0.501,1.281,0.752,2.169,0.752
			c0.966,0,1.813-0.15,2.538-0.45l0.288,1.17c-0.858,0.384-1.872,0.576-3.042,0.576c-1.355,0-2.436-0.402-3.24-1.206
			c-0.804-0.804-1.206-1.872-1.206-3.204s0.386-2.448,1.157-3.348c0.771-0.9,1.808-1.351,3.109-1.351c1.2,0,2.121,0.4,2.763,1.201
			c0.642,0.802,0.963,1.781,0.963,2.939C124.396,129.604,124.378,129.856,124.342,130.03z M118.042,128.824h4.733
			c0-0.75-0.193-1.354-0.58-1.813s-0.938-0.688-1.651-0.688c-0.679,0-1.239,0.229-1.684,0.688
			C118.417,127.47,118.144,128.074,118.042,128.824z"/>
		<path fill="#FFFFFF" d="M126.411,134.044v-5.94c0-1.128-0.023-2.052-0.071-2.771h1.476l0.108,1.746
			c0.222-0.612,0.561-1.089,1.017-1.432c0.456-0.342,0.951-0.513,1.485-0.513c0.113,0,0.264,0.013,0.45,0.036v1.584
			c-0.162-0.036-0.354-0.054-0.576-0.054c-0.606,0-1.127,0.237-1.562,0.711c-0.436,0.474-0.652,1.148-0.652,2.024v4.608H126.411z"/>
		<path fill="#FFFFFF" d="M133.306,123.712l1.638-0.486v2.106h2.322v1.278h-2.322v4.535c0,0.606,0.098,1.043,0.292,1.31
			c0.195,0.268,0.506,0.4,0.932,0.4c0.391,0,0.708-0.035,0.954-0.107l0.072,1.26c-0.414,0.156-0.912,0.234-1.494,0.234
			c-1.596,0-2.394-0.996-2.394-2.988v-4.644h-1.368v-1.278h1.368V123.712z"/>
		<path fill="#FFFFFF" d="M138.094,125.332h1.836l1.979,5.193c0.168,0.432,0.366,0.986,0.595,1.665
			c0.233-0.811,0.414-1.396,0.54-1.756l1.781-5.103h1.801l-2.467,6.228c-0.785,1.98-1.423,3.349-1.912,4.104
			s-1.021,1.315-1.593,1.679c-0.573,0.362-1.108,0.589-1.606,0.679l-0.396-1.403c0.906-0.282,1.612-0.769,2.12-1.458
			c0.507-0.69,0.76-1.152,0.76-1.386c0-0.103-0.035-0.24-0.107-0.414L138.094,125.332z"/>
		<path fill="#FFFFFF" d="M149.019,133.072c0,0.336-0.106,0.615-0.319,0.837s-0.484,0.333-0.814,0.333
			c-0.324,0-0.591-0.112-0.801-0.338c-0.21-0.225-0.315-0.502-0.315-0.832c0-0.343,0.106-0.626,0.32-0.851
			c0.213-0.226,0.484-0.338,0.814-0.338s0.599,0.109,0.806,0.329C148.915,132.432,149.019,132.718,149.019,133.072z"/>
	</g>
</g>
</svg>
