<?xml version="1.0" encoding="utf-8"?>
<!-- Generator: Adobe Illustrator 16.0.0, SVG Export Plug-In . SVG Version: 6.00 Build 0)  -->
<!DOCTYPE svg PUBLIC "-//W3C//DTD SVG 1.0//EN" "http://www.w3.org/TR/2001/REC-SVG-20010904/DTD/svg10.dtd">
<svg version="1.0" id="Capa_1" xmlns="http://www.w3.org/2000/svg" xmlns:xlink="http://www.w3.org/1999/xlink" x="0px" y="0px"
	 width="404.792px" height="113.357px" viewBox="0 0 404.792 113.357" enable-background="new 0 0 404.792 113.357"
	 xml:space="preserve">
<polygon id="XMLID_22_" fill="#20578C" points="367.663,4.603 3.303,4.603 37.131,58.028 3.303,108.755 367.663,108.755 
	401.489,58.028 "/>
<g>
	<path fill="#FFFFFF" d="M153.698,39.219h5.76l-5.12,26.96h-5.76L153.698,39.219z"/>
	<path fill="#FFFFFF" d="M165.177,66.179h-5.76l2.48-13.2c0.133-0.746,0.333-1.906,0.6-3.479c0.186-1.12,0.333-2.08,0.44-2.88h5.12
		l-0.4,3.239c0.934-1.253,1.986-2.18,3.16-2.779c1.173-0.601,2.44-0.9,3.8-0.9c1.573,0,2.8,0.467,3.68,1.4s1.32,2.239,1.32,3.92
		c0,0.533-0.027,1.047-0.08,1.54c-0.054,0.493-0.134,1.087-0.24,1.779l-2.16,11.36h-5.76l2.04-10.84
		c0.08-0.427,0.133-0.773,0.16-1.04c0.026-0.267,0.04-0.653,0.04-1.16c0-0.746-0.147-1.32-0.44-1.72
		c-0.293-0.4-0.787-0.601-1.48-0.601c-0.987,0-1.934,0.574-2.84,1.721c-0.987,1.253-1.667,2.906-2.04,4.96L165.177,66.179z"/>
	<path fill="#FFFFFF" d="M186.097,74.139h-5.72l3.76-19.948c0.08-0.348,0.253-1.368,0.52-3.064c0.266-1.696,0.48-3.252,0.64-4.667
		h5.16l-0.36,3c1.733-2.187,3.853-3.28,6.36-3.28c2.026,0,3.6,0.731,4.72,2.195c1.04,1.357,1.56,3.088,1.56,5.19
		c0,3.54-1.027,6.561-3.08,9.062c-2.16,2.635-4.907,3.953-8.24,3.953c-0.747,0-1.44-0.07-2.08-0.209
		c-0.64-0.141-1.16-0.323-1.56-0.552L186.097,74.139z M189.301,57.077l-0.724,4.185c0.696,0.639,1.581,0.957,2.653,0.957
		c1.474,0,2.76-0.87,3.859-2.61c1.099-1.741,1.648-3.607,1.648-5.601c0-0.931-0.174-1.661-0.522-2.192
		c-0.429-0.664-1.099-0.997-2.01-0.997c-1.125,0-2.138,0.565-3.035,1.694C190.272,53.643,189.649,55.164,189.301,57.077z"/>
	<path fill="#FFFFFF" d="M220.033,46.619h5.744l-2.52,13.199l-1.04,6.36h-5.08l0.36-3.2c-0.987,1.2-2.074,2.101-3.26,2.7
		c-1.187,0.6-2.38,0.9-3.58,0.9c-1.6,0-2.834-0.452-3.7-1.357c-0.867-0.905-1.3-2.275-1.3-4.111c0-1.092,0.133-2.289,0.4-3.594
		l2.04-10.897h5.76l-1.925,10.452c-0.184,1.037-0.275,1.889-0.275,2.554c0,0.691,0.146,1.243,0.438,1.655
		c0.292,0.413,0.798,0.618,1.516,0.618c1.01,0,1.955-0.564,2.832-1.695c0.877-1.13,1.502-2.653,1.875-4.568L220.033,46.619z"/>
	<path fill="#FFFFFF" d="M232.061,42.932l5.916-1.643l-1,5.33l4.151-0.002l-0.858,4.356l-4.141,0.005l-1.313,6.641
		c-0.054,0.267-0.12,0.687-0.2,1.26c-0.08,0.573-0.119,0.979-0.119,1.22c0,0.534,0.12,0.94,0.36,1.22
		c0.24,0.28,0.667,0.42,1.28,0.42h0.6c0.24,0,0.573-0.025,1-0.079l-0.68,4.483c-0.32,0.132-0.8,0.237-1.44,0.317
		c-0.64,0.079-1.294,0.119-1.96,0.119c-1.68,0-2.947-0.386-3.8-1.154c-0.854-0.77-1.28-1.791-1.28-3.064
		c0-0.981,0.133-2.189,0.4-3.622l1.52-7.76l-2.486-0.001l0.813-4.357l2.518-0.001L232.061,42.932z"/>
	<path fill="#FFFFFF" d="M240.176,65.059l1.394-4.04c0.637,0.32,1.44,0.627,2.409,0.92c0.969,0.294,1.865,0.44,2.688,0.44
		c0.77,0,1.374-0.166,1.812-0.5c0.438-0.333,0.657-0.753,0.657-1.26c0-0.48-0.172-0.906-0.517-1.28
		c-0.345-0.373-0.98-0.786-1.908-1.24c-1.246-0.613-2.214-1.307-2.902-2.08c-0.822-0.933-1.232-1.973-1.232-3.12
		c0-2,0.793-3.62,2.379-4.859c1.586-1.24,3.66-1.86,6.22-1.86c1.119,0,2.105,0.094,2.959,0.28c0.853,0.187,1.546,0.427,2.08,0.72
		l-1.36,4.08c-0.56-0.267-1.147-0.48-1.76-0.64c-0.613-0.16-1.333-0.24-2.159-0.24c-0.774,0-1.394,0.153-1.86,0.46
		s-0.699,0.727-0.699,1.26c0,0.72,0.8,1.467,2.4,2.24c1.28,0.613,2.266,1.294,2.96,2.04c0.933,0.986,1.4,2.094,1.4,3.319
		c0,2.188-0.82,3.881-2.46,5.08c-1.64,1.2-3.807,1.801-6.5,1.801c-1.28,0-2.44-0.134-3.48-0.4S240.816,65.539,240.176,65.059z"/>
</g>
<g>
	<polygon id="XMLID_84_" fill="#F9C600" points="986.619,-347.365 622.253,-347.365 656.082,-293.937 622.253,-243.211 
		986.619,-243.211 1020.447,-293.937 	"/>
	<g id="XMLID_97_">
		<defs>
			<polygon id="XMLID_83_" points="986.619,-347.365 622.253,-347.365 656.082,-293.937 622.253,-243.211 986.619,-243.211 
				1020.447,-293.937 			"/>
		</defs>
		<clipPath id="XMLID_2_">
			<use xlink:href="#XMLID_83_"  overflow="visible"/>
		</clipPath>
	</g>
</g>
<g>
	<polygon id="XMLID_102_" fill="#EC7A2F" points="989.574,-230.271 625.206,-230.271 659.036,-176.844 625.206,-126.117 
		989.574,-126.117 1023.4,-176.844 	"/>
	<g id="XMLID_88_">
		<defs>
			<polygon id="XMLID_95_" points="989.574,-230.271 625.206,-230.271 659.036,-176.844 625.206,-126.117 989.574,-126.117 
				1023.4,-176.844 			"/>
		</defs>
		<clipPath id="XMLID_3_">
			<use xlink:href="#XMLID_95_"  overflow="visible"/>
		</clipPath>
	</g>
</g>
<g>
	<polygon id="XMLID_233_" fill="#C02550" points="989.572,-119.096 625.206,-119.096 659.035,-65.668 625.206,-14.943 
		989.572,-14.943 1023.4,-65.668 	"/>
	<g id="XMLID_100_">
		<defs>
			<polygon id="XMLID_103_" points="989.572,-119.096 625.206,-119.096 659.035,-65.668 625.206,-14.943 989.572,-14.943 
				1023.4,-65.668 			"/>
		</defs>
		<clipPath id="XMLID_4_">
			<use xlink:href="#XMLID_103_"  overflow="visible"/>
		</clipPath>
	</g>
</g>
<g>
	<path fill="#FFFFFF" d="M771.4-310.938h5.76l-5.119,26.96h-5.76L771.4-310.938z"/>
	<path fill="#FFFFFF" d="M782.68-283.978h-5.56l2.44-13.2c0.08-0.506,0.252-1.593,0.52-3.26c0.266-1.667,0.426-2.7,0.48-3.101h4.959
		l-0.359,3.16c0.88-1.199,1.906-2.1,3.08-2.699c1.173-0.601,2.4-0.9,3.68-0.9c1.439,0,2.586,0.4,3.439,1.2
		c0.721,0.667,1.121,1.493,1.201,2.479c0.826-1.199,1.832-2.113,3.02-2.74c1.186-0.625,2.42-0.939,3.7-0.939
		c1.521,0,2.7,0.46,3.54,1.38s1.26,2.207,1.26,3.86c0,1.039-0.12,2.16-0.359,3.359l-2.121,11.4h-5.56l1.96-10.68
		c0.08-0.4,0.146-0.801,0.2-1.2s0.08-0.8,0.08-1.2c0-0.746-0.153-1.32-0.46-1.72c-0.307-0.4-0.807-0.601-1.5-0.601
		c-0.987,0-1.9,0.594-2.74,1.78s-1.447,2.767-1.82,4.74l-1.64,8.88h-5.56l2-10.76c0.186-0.934,0.279-1.68,0.279-2.24
		c0-0.746-0.133-1.333-0.4-1.76c-0.266-0.426-0.746-0.641-1.439-0.641c-1.014,0-1.96,0.614-2.84,1.84
		c-0.88,1.228-1.507,2.814-1.88,4.761L782.68-283.978z"/>
	<path fill="#FFFFFF" d="M814.52-276.018h-5.72l3.761-19.948c0.079-0.348,0.252-1.369,0.52-3.064c0.266-1.695,0.48-3.252,0.64-4.668
		h5.16l-0.36,3c1.733-2.186,3.854-3.279,6.36-3.279c2.026,0,3.601,0.732,4.72,2.195c1.04,1.357,1.561,3.088,1.561,5.19
		c0,3.54-1.027,6.561-3.08,9.062c-2.16,2.635-4.907,3.953-8.24,3.953c-0.747,0-1.439-0.07-2.08-0.209
		c-0.641-0.141-1.16-0.323-1.561-0.551L814.52-276.018z M817.724-293.079L817-288.895c0.696,0.638,1.58,0.957,2.652,0.957
		c1.475,0,2.761-0.87,3.859-2.61s1.648-3.607,1.648-5.602c0-0.93-0.175-1.66-0.523-2.191c-0.428-0.664-1.098-0.996-2.01-0.996
		c-1.125,0-2.137,0.564-3.035,1.693C818.695-296.514,818.072-294.993,817.724-293.079z"/>
	<path fill="#FFFFFF" d="M851.16-283.978h-5.281l0.281-3.88c-0.908,1.507-1.988,2.616-3.24,3.329
		c-1.094,0.633-2.254,0.951-3.48,0.951c-1.76,0-3.193-0.619-4.3-1.856s-1.66-2.881-1.66-4.931c0-3.619,1.134-6.707,3.399-9.262
		c2.587-2.9,6.134-4.352,10.641-4.352c1.12,0,2.253,0.087,3.4,0.26c1.146,0.174,2.146,0.407,3,0.7l-1.961,10.24
		c-0.213,1.12-0.399,2.587-0.56,4.399C851.239-286.563,851.16-285.098,851.16-283.978z M846.64-294.954l0.84-4.504
		c-0.347-0.053-0.606-0.093-0.78-0.119c-0.174-0.027-0.434-0.041-0.779-0.041c-1.76,0-3.274,0.877-4.541,2.631
		c-1.266,1.754-1.899,3.602-1.899,5.541c0,0.957,0.206,1.734,0.62,2.332c0.413,0.598,1.006,0.896,1.779,0.896
		c0.961,0,1.854-0.518,2.681-1.555C845.546-290.995,846.239-292.722,846.64-294.954z"/>
	<path fill="#FFFFFF" d="M869.398-288.978l0.04,4.359c-0.693,0.32-1.5,0.574-2.42,0.761s-1.967,0.28-3.14,0.28
		c-2.447,0-4.426-0.719-5.936-2.156c-1.51-1.437-2.265-3.393-2.265-5.869c0-3.512,1.192-6.453,3.58-8.822
		c2.386-2.368,5.433-3.553,9.14-3.553c0.801,0,1.547,0.066,2.24,0.2s1.279,0.294,1.76,0.479l-1.439,4.4
		c-0.294-0.133-0.561-0.227-0.801-0.28c-0.506-0.133-1.119-0.2-1.84-0.2c-1.947,0-3.539,0.711-4.779,2.133s-1.86,3.09-1.86,5.002
		c0,1.303,0.36,2.299,1.08,2.989c0.72,0.691,1.64,1.036,2.76,1.036c0.773,0,1.446-0.063,2.021-0.189
		C868.111-288.534,868.732-288.724,869.398-288.978z"/>
	<path fill="#FFFFFF" d="M878.082-307.225l5.916-1.643l-1,5.33h4.152l-0.859,4.355l-4.141,0.005l-1.313,6.64
		c-0.054,0.268-0.12,0.688-0.2,1.261s-0.119,0.979-0.119,1.22c0,0.533,0.121,0.939,0.36,1.221c0.24,0.279,0.667,0.42,1.28,0.42h0.6
		c0.24,0,0.573-0.027,1-0.08l-0.68,4.483c-0.32,0.132-0.801,0.237-1.439,0.317c-0.641,0.078-1.295,0.119-1.961,0.119
		c-1.68,0-2.947-0.385-3.8-1.154c-0.854-0.77-1.28-1.791-1.28-3.064c0-0.981,0.133-2.189,0.4-3.621l1.521-7.761l-2.486-0.001
		l0.813-4.357l2.519-0.002L878.082-307.225z"/>
</g>
<g>
	<path fill="#FFFFFF" d="M755.758-165.741c-3.439,0-6.127-1.052-8.061-3.155c-1.934-2.104-2.899-4.794-2.899-8.069
		c0-2.476,0.42-4.819,1.261-7.029c0.84-2.211,2.045-4.087,3.619-5.633c1.28-1.225,2.767-2.183,4.46-2.875s3.513-1.039,5.46-1.039
		c3.467,0,6.174,1.066,8.12,3.195c1.841,2.024,2.761,4.701,2.761,8.029c0,2.529-0.407,4.893-1.221,7.09s-1.994,4.055-3.54,5.572
		c-1.227,1.225-2.7,2.184-4.42,2.875C759.578-166.088,757.73-165.741,755.758-165.741z M756.479-170.542
		c2.213,0,4.105-1.303,5.68-3.91c1.439-2.369,2.16-4.937,2.16-7.703c0-1.943-0.374-3.459-1.121-4.551
		c-0.906-1.357-2.346-2.035-4.319-2.035c-2.267,0-4.2,1.29-5.8,3.871c-1.467,2.369-2.2,4.936-2.2,7.703
		c0,2.022,0.46,3.633,1.38,4.83S754.584-170.542,756.479-170.542z"/>
	<path fill="#FFFFFF" d="M787.174-185.702h5.744l-2.52,13.201l-1.041,6.359h-5.08l0.36-3.2c-0.987,1.2-2.073,2.101-3.26,2.7
		s-2.38,0.9-3.58,0.9c-1.601,0-2.834-0.452-3.7-1.357c-0.867-0.904-1.3-2.275-1.3-4.111c0-1.092,0.133-2.289,0.399-3.594
		l2.041-10.898h5.76l-1.926,10.453c-0.184,1.037-0.274,1.889-0.274,2.554c0,0.691,0.146,1.243,0.438,1.655s0.798,0.619,1.516,0.619
		c1.01,0,1.955-0.566,2.832-1.696s1.502-2.653,1.875-4.568L787.174-185.702z"/>
	<path fill="#FFFFFF" d="M799.202-189.389l5.915-1.644l-0.999,5.33h4.151l-0.858,4.355l-4.142,0.005l-1.313,6.64
		c-0.055,0.268-0.121,0.688-0.2,1.261c-0.08,0.573-0.119,0.979-0.119,1.22c0,0.533,0.12,0.939,0.36,1.221
		c0.24,0.279,0.666,0.42,1.279,0.42h0.6c0.24,0,0.574-0.027,1-0.08l-0.68,4.483c-0.32,0.132-0.8,0.237-1.439,0.317
		c-0.641,0.078-1.294,0.119-1.96,0.119c-1.681,0-2.947-0.385-3.8-1.154c-0.854-0.77-1.28-1.791-1.28-3.064
		c0-0.981,0.133-2.189,0.4-3.621l1.521-7.761l-2.486-0.001l0.813-4.357l2.518-0.002L799.202-189.389z"/>
	<path fill="#FFFFFF" d="M822.077-171.142l0.04,4.359c-0.693,0.32-1.5,0.574-2.42,0.761s-1.967,0.28-3.141,0.28
		c-2.446,0-4.424-0.719-5.934-2.156c-1.511-1.437-2.266-3.393-2.266-5.869c0-3.512,1.193-6.453,3.58-8.822
		c2.387-2.368,5.434-3.553,9.14-3.553c0.8,0,1.546,0.066,2.24,0.2c0.692,0.134,1.28,0.294,1.76,0.479l-1.44,4.4
		c-0.293-0.133-0.56-0.227-0.799-0.28c-0.508-0.133-1.121-0.2-1.84-0.2c-1.947,0-3.541,0.711-4.781,2.133
		c-1.239,1.422-1.859,3.09-1.859,5.002c0,1.303,0.359,2.299,1.08,2.989c0.72,0.691,1.64,1.036,2.76,1.036
		c0.773,0,1.446-0.063,2.02-0.189C820.791-170.698,821.41-170.888,822.077-171.142z"/>
	<path fill="#FFFFFF" d="M833.678-165.741c-2.534,0-4.561-0.732-6.08-2.195c-1.521-1.465-2.28-3.421-2.28-5.869
		c0-3.459,1.101-6.381,3.3-8.763c2.2-2.382,5.006-3.573,8.42-3.573c2.533,0,4.573,0.785,6.12,2.355
		c1.44,1.464,2.16,3.354,2.16,5.669c0,3.566-1.094,6.521-3.28,8.862C839.851-166.912,837.063-165.741,833.678-165.741z
		 M834.357-170.142c1.467,0,2.693-0.903,3.68-2.711c0.854-1.567,1.28-3.308,1.28-5.222c0-1.01-0.228-1.847-0.681-2.512
		c-0.533-0.797-1.333-1.196-2.399-1.196c-1.521,0-2.774,0.932-3.761,2.791c-0.826,1.568-1.239,3.256-1.239,5.063
		c0,1.17,0.272,2.094,0.819,2.771C832.604-170.48,833.371-170.142,834.357-170.142z"/>
	<path fill="#FFFFFF" d="M852.637-166.142h-5.56l2.44-13.2c0.08-0.506,0.252-1.593,0.52-3.26c0.266-1.667,0.426-2.7,0.48-3.101
		h4.959l-0.359,3.16c0.88-1.199,1.906-2.1,3.08-2.699c1.173-0.601,2.4-0.9,3.68-0.9c1.439,0,2.586,0.4,3.439,1.2
		c0.721,0.667,1.121,1.493,1.201,2.479c0.826-1.199,1.832-2.113,3.02-2.74c1.186-0.625,2.42-0.939,3.7-0.939
		c1.521,0,2.7,0.46,3.54,1.38s1.26,2.207,1.26,3.86c0,1.039-0.12,2.16-0.359,3.359l-2.121,11.4h-5.56l1.96-10.68
		c0.08-0.4,0.146-0.801,0.2-1.2s0.08-0.8,0.08-1.2c0-0.746-0.153-1.32-0.46-1.72c-0.307-0.4-0.807-0.601-1.5-0.601
		c-0.987,0-1.9,0.594-2.74,1.78s-1.447,2.767-1.82,4.74l-1.64,8.88h-5.56l2-10.76c0.186-0.934,0.279-1.68,0.279-2.24
		c0-0.746-0.133-1.333-0.4-1.76c-0.266-0.426-0.746-0.641-1.439-0.641c-1.014,0-1.96,0.614-2.84,1.84
		c-0.88,1.228-1.507,2.814-1.88,4.761L852.637-166.142z"/>
	<path fill="#FFFFFF" d="M896.277-171.421l0.399,4.119c-1.014,0.533-2.187,0.928-3.521,1.18c-1.333,0.254-2.586,0.381-3.76,0.381
		c-2.746,0-4.847-0.738-6.3-2.216c-1.454-1.478-2.18-3.493-2.18-6.048c0-3.168,1.013-5.936,3.04-8.305
		c2.186-2.555,4.973-3.832,8.359-3.832c2,0,3.634,0.527,4.9,1.58c1.266,1.054,1.9,2.474,1.9,4.26c0,2.374-1.135,4.094-3.4,5.16
		c-2.054,0.96-5.146,1.439-9.279,1.439c0,0.37,0.045,0.713,0.139,1.029c0.094,0.315,0.247,0.633,0.461,0.949
		c0.773,1.002,2.025,1.502,3.76,1.502c1.066,0,2.026-0.096,2.88-0.29C894.529-170.706,895.396-171.009,896.277-171.421z
		 M893.717-180.302c0-0.48-0.193-0.873-0.58-1.18s-0.9-0.46-1.54-0.46c-1.253,0-2.307,0.44-3.159,1.319
		c-0.721,0.748-1.201,1.654-1.44,2.721c2.319,0,4.021-0.18,5.1-0.54C893.177-178.802,893.717-179.421,893.717-180.302z"/>
</g>
<g>
	<path fill="#FFFFFF" d="M763.961-55.338c-3.439,0-6.127-1.052-8.061-3.155s-2.899-4.793-2.899-8.069
		c0-2.476,0.42-4.819,1.261-7.029c0.84-2.21,2.045-4.087,3.619-5.632c1.28-1.225,2.767-2.184,4.46-2.876s3.513-1.038,5.46-1.038
		c3.467,0,6.174,1.064,8.12,3.195c1.841,2.023,2.761,4.699,2.761,8.028c0,2.529-0.407,4.893-1.221,7.09
		c-0.813,2.196-1.994,4.054-3.54,5.571c-1.227,1.226-2.7,2.184-4.42,2.877C767.781-55.685,765.934-55.338,763.961-55.338z
		 M764.682-60.139c2.213,0,4.105-1.304,5.68-3.911c1.439-2.368,2.16-4.936,2.16-7.703c0-1.942-0.374-3.459-1.121-4.55
		c-0.906-1.356-2.346-2.036-4.319-2.036c-2.267,0-4.2,1.291-5.8,3.872c-1.467,2.368-2.2,4.936-2.2,7.703
		c0,2.022,0.46,3.632,1.38,4.83C761.381-60.736,762.787-60.139,764.682-60.139z"/>
	<path fill="#FFFFFF" d="M795.377-75.298h5.744l-2.52,13.199l-1.041,6.36h-5.08l0.36-3.2c-0.987,1.2-2.073,2.101-3.26,2.7
		s-2.38,0.9-3.58,0.9c-1.601,0-2.834-0.452-3.7-1.357c-0.867-0.905-1.3-2.275-1.3-4.111c0-1.092,0.133-2.289,0.399-3.594
		l2.041-10.897h5.76l-1.926,10.452c-0.184,1.037-0.274,1.889-0.274,2.554c0,0.691,0.146,1.243,0.438,1.655
		c0.293,0.413,0.798,0.618,1.516,0.618c1.01,0,1.955-0.564,2.832-1.695c0.877-1.13,1.502-2.653,1.875-4.568L795.377-75.298z"/>
	<path fill="#FFFFFF" d="M807.405-78.985l5.915-1.643l-0.999,5.33l4.151-0.002l-0.858,4.356l-4.142,0.005l-1.313,6.641
		c-0.055,0.267-0.121,0.687-0.2,1.26c-0.08,0.573-0.119,0.979-0.119,1.22c0,0.534,0.12,0.94,0.36,1.22
		c0.24,0.28,0.666,0.42,1.279,0.42h0.6c0.24,0,0.574-0.025,1-0.079l-0.68,4.483c-0.32,0.132-0.8,0.237-1.439,0.317
		c-0.641,0.079-1.294,0.119-1.96,0.119c-1.681,0-2.947-0.386-3.8-1.154c-0.854-0.77-1.28-1.791-1.28-3.064
		c0-0.981,0.133-2.189,0.4-3.622l1.521-7.76l-2.486-0.001l0.813-4.357l2.518-0.001L807.405-78.985z"/>
	<path fill="#FFFFFF" d="M820.36-47.778h-5.72l3.76-19.948c0.08-0.348,0.253-1.368,0.52-3.064s0.48-3.252,0.641-4.667h5.16l-0.36,3
		c1.733-2.187,3.853-3.28,6.36-3.28c2.025,0,3.6,0.732,4.719,2.195c1.041,1.357,1.561,3.088,1.561,5.19
		c0,3.54-1.027,6.561-3.08,9.062c-2.16,2.635-4.906,3.953-8.24,3.953c-0.746,0-1.439-0.07-2.08-0.209
		c-0.64-0.141-1.16-0.323-1.56-0.552L820.36-47.778z M823.564-64.84l-0.725,4.185c0.697,0.639,1.581,0.957,2.653,0.957
		c1.474,0,2.761-0.87,3.858-2.61c1.1-1.741,1.648-3.607,1.648-5.601c0-0.931-0.174-1.661-0.522-2.192
		c-0.429-0.664-1.099-0.997-2.01-0.997c-1.126,0-2.138,0.565-3.035,1.694C824.535-68.274,823.912-66.753,823.564-64.84z"/>
	<path fill="#FFFFFF" d="M854.296-75.298h5.743l-2.52,13.199l-1.039,6.36h-5.08l0.359-3.2c-0.986,1.2-2.074,2.101-3.26,2.7
		c-1.188,0.6-2.381,0.9-3.58,0.9c-1.6,0-2.834-0.452-3.7-1.357s-1.3-2.275-1.3-4.111c0-1.092,0.133-2.289,0.4-3.594l2.039-10.897
		h5.76l-1.924,10.452c-0.184,1.037-0.275,1.889-0.275,2.554c0,0.691,0.146,1.243,0.438,1.655c0.292,0.413,0.798,0.618,1.516,0.618
		c1.011,0,1.954-0.564,2.832-1.695c0.878-1.13,1.503-2.653,1.875-4.568L854.296-75.298z"/>
	<path fill="#FFFFFF" d="M866.324-78.985l5.916-1.643l-1,5.33l4.151-0.002l-0.858,4.356l-4.141,0.005l-1.314,6.641
		c-0.053,0.267-0.119,0.687-0.199,1.26s-0.119,0.979-0.119,1.22c0,0.534,0.12,0.94,0.359,1.22c0.24,0.28,0.667,0.42,1.281,0.42h0.6
		c0.24,0,0.572-0.025,1-0.079l-0.68,4.483c-0.32,0.132-0.801,0.237-1.44,0.317c-0.64,0.079-1.294,0.119-1.96,0.119
		c-1.68,0-2.947-0.386-3.801-1.154c-0.854-0.77-1.279-1.791-1.279-3.064c0-0.981,0.133-2.189,0.4-3.622l1.52-7.76l-2.486-0.001
		l0.813-4.357l2.519-0.001L866.324-78.985z"/>
	<path fill="#FFFFFF" d="M874.439-56.858l1.394-4.04c0.637,0.32,1.44,0.627,2.409,0.92c0.969,0.294,1.864,0.44,2.688,0.44
		c0.77,0,1.374-0.166,1.813-0.5c0.438-0.333,0.656-0.753,0.656-1.26c0-0.48-0.172-0.906-0.516-1.28
		c-0.346-0.373-0.98-0.786-1.908-1.24c-1.246-0.613-2.215-1.307-2.902-2.08c-0.822-0.933-1.232-1.973-1.232-3.12
		c0-2,0.793-3.62,2.379-4.859c1.586-1.24,3.659-1.86,6.219-1.86c1.119,0,2.105,0.094,2.96,0.28c0.853,0.187,1.546,0.427,2.079,0.72
		l-1.359,4.08c-0.561-0.267-1.146-0.48-1.76-0.64c-0.613-0.16-1.332-0.24-2.158-0.24c-0.774,0-1.395,0.153-1.861,0.46
		c-0.466,0.307-0.699,0.727-0.699,1.26c0,0.72,0.801,1.467,2.4,2.24c1.28,0.613,2.266,1.294,2.96,2.04
		c0.933,0.986,1.399,2.094,1.399,3.319c0,2.188-0.819,3.881-2.459,5.08c-1.641,1.2-3.807,1.801-6.5,1.801
		c-1.28,0-2.44-0.134-3.48-0.4S875.079-56.378,874.439-56.858z"/>
</g>
<g>
	<polygon id="XMLID_238_" fill="#912A5B" points="989.57,0 625.209,0 659.037,53.426 625.209,104.153 989.57,104.153 
		1023.396,53.426 	"/>
	<g>
		<path fill="#FFFFFF" d="M766.529,57.633h-7.76l-3.201,7h-6.119l13.119-26.96h7.4l3.16,26.96h-6.04L766.529,57.633z
			 M760.449,53.232h5.84l-0.52-5.8l-0.4-5.28c-0.055,0.134-0.521,1.24-1.4,3.32c-0.427,1.014-0.707,1.667-0.84,1.96L760.449,53.232z
			"/>
		<path fill="#FFFFFF" d="M789.609,59.633l0.039,4.36c-0.693,0.319-1.5,0.573-2.42,0.76s-1.967,0.28-3.14,0.28
			c-2.446,0-4.425-0.719-5.935-2.156c-1.51-1.437-2.266-3.393-2.266-5.868c0-3.513,1.193-6.454,3.58-8.823
			c2.387-2.368,5.434-3.553,9.141-3.553c0.8,0,1.546,0.066,2.24,0.2c0.692,0.134,1.279,0.294,1.76,0.479l-1.44,4.4
			c-0.294-0.133-0.56-0.227-0.8-0.28c-0.507-0.133-1.12-0.2-1.84-0.2c-1.947,0-3.54,0.712-4.78,2.133
			c-1.239,1.422-1.86,3.09-1.86,5.002c0,1.303,0.36,2.299,1.08,2.989c0.721,0.691,1.641,1.036,2.76,1.036
			c0.773,0,1.447-0.063,2.021-0.189S788.942,59.887,789.609,59.633z"/>
		<path fill="#FFFFFF" d="M798.293,41.386l5.915-1.643l-0.999,5.33l4.15-0.002l-0.857,4.356l-4.142,0.005l-1.313,6.641
			c-0.054,0.267-0.12,0.687-0.199,1.26c-0.08,0.573-0.119,0.979-0.119,1.22c0,0.534,0.119,0.94,0.359,1.22
			c0.24,0.28,0.666,0.42,1.28,0.42h0.6c0.24,0,0.573-0.025,1-0.079l-0.68,4.483c-0.32,0.132-0.8,0.237-1.44,0.317
			c-0.64,0.079-1.293,0.119-1.959,0.119c-1.681,0-2.947-0.386-3.801-1.154c-0.854-0.77-1.279-1.791-1.279-3.064
			c0-0.981,0.133-2.189,0.4-3.622l1.52-7.76l-2.486-0.001l0.813-4.357l2.518-0.001L798.293,41.386z"/>
		<path fill="#FFFFFF" d="M812.848,64.633h-5.76l3.72-19.56h5.76L812.848,64.633z M814.447,42.513c-0.88,0-1.6-0.267-2.16-0.8
			c-0.56-0.533-0.84-1.267-0.84-2.2c0-1.013,0.34-1.846,1.02-2.5c0.681-0.653,1.514-0.979,2.5-0.979
			c0.906,0,1.646,0.273,2.221,0.819c0.573,0.547,0.859,1.274,0.859,2.181c0,1.04-0.346,1.88-1.039,2.52
			C816.313,42.192,815.461,42.513,814.447,42.513z"/>
		<path fill="#FFFFFF" d="M818.967,45.073h5.961l0.88,8.56c0.187,1.44,0.319,2.527,0.399,3.26c0.08,0.734,0.121,1.42,0.121,2.061
			h0.159c0.294-0.854,0.566-1.606,0.82-2.261c0.253-0.652,0.7-1.659,1.34-3.02l3.96-8.6h6.439l-10.92,19.56h-5.84L818.967,45.073z"
			/>
		<path fill="#FFFFFF" d="M843.928,64.633h-5.76l3.72-19.56h5.76L843.928,64.633z M845.527,42.513c-0.88,0-1.6-0.267-2.16-0.8
			c-0.56-0.533-0.84-1.267-0.84-2.2c0-1.013,0.34-1.846,1.02-2.5c0.681-0.653,1.514-0.979,2.5-0.979
			c0.906,0,1.646,0.273,2.221,0.819c0.573,0.547,0.859,1.274,0.859,2.181c0,1.04-0.346,1.88-1.039,2.52
			C847.394,42.192,846.541,42.513,845.527,42.513z"/>
		<path fill="#FFFFFF" d="M853.893,41.386l5.915-1.643l-0.999,5.33l4.15-0.002l-0.857,4.356l-4.142,0.005l-1.313,6.641
			c-0.054,0.267-0.12,0.687-0.199,1.26c-0.08,0.573-0.119,0.979-0.119,1.22c0,0.534,0.119,0.94,0.359,1.22
			c0.24,0.28,0.666,0.42,1.28,0.42h0.6c0.24,0,0.573-0.025,1-0.079l-0.68,4.483c-0.32,0.132-0.8,0.237-1.44,0.317
			c-0.64,0.079-1.293,0.119-1.959,0.119c-1.681,0-2.947-0.386-3.801-1.154c-0.854-0.77-1.279-1.791-1.279-3.064
			c0-0.981,0.133-2.189,0.4-3.622l1.52-7.76l-2.486-0.001l0.813-4.357l2.518-0.001L853.893,41.386z"/>
		<path fill="#FFFFFF" d="M868.447,64.633h-5.76l3.72-19.56h5.76L868.447,64.633z M870.047,42.513c-0.88,0-1.6-0.267-2.16-0.8
			c-0.56-0.533-0.84-1.267-0.84-2.2c0-1.013,0.34-1.846,1.02-2.5c0.681-0.653,1.514-0.979,2.5-0.979
			c0.906,0,1.646,0.273,2.221,0.819c0.573,0.547,0.859,1.274,0.859,2.181c0,1.04-0.346,1.88-1.039,2.52
			C871.913,42.192,871.061,42.513,870.047,42.513z"/>
		<path fill="#FFFFFF" d="M889.247,59.353l0.399,4.12c-1.014,0.534-2.186,0.927-3.52,1.18c-1.334,0.254-2.587,0.381-3.76,0.381
			c-2.747,0-4.848-0.738-6.301-2.216s-2.18-3.493-2.18-6.048c0-3.167,1.014-5.936,3.041-8.305c2.186-2.555,4.973-3.832,8.359-3.832
			c2,0,3.633,0.527,4.9,1.58c1.266,1.054,1.899,2.474,1.899,4.26c0,2.374-1.134,4.094-3.399,5.16c-2.055,0.96-5.147,1.44-9.28,1.44
			c0,0.369,0.046,0.712,0.14,1.027c0.094,0.316,0.246,0.634,0.461,0.95c0.772,1.001,2.025,1.502,3.76,1.502
			c1.066,0,2.025-0.096,2.879-0.29C887.5,60.069,888.367,59.766,889.247,59.353z M886.688,50.473c0-0.479-0.194-0.873-0.58-1.18
			c-0.387-0.307-0.9-0.46-1.541-0.46c-1.253,0-2.307,0.439-3.159,1.319c-0.72,0.747-1.2,1.654-1.44,2.721
			c2.32,0,4.021-0.181,5.1-0.54C886.146,51.973,886.688,51.353,886.688,50.473z"/>
		<path fill="#FFFFFF" d="M892.646,63.513l1.395-4.04c0.637,0.32,1.439,0.627,2.408,0.92c0.969,0.294,1.865,0.44,2.688,0.44
			c0.77,0,1.374-0.166,1.812-0.5c0.438-0.333,0.657-0.753,0.657-1.26c0-0.48-0.173-0.906-0.517-1.28
			c-0.346-0.373-0.98-0.786-1.908-1.24c-1.246-0.613-2.214-1.307-2.902-2.08c-0.822-0.933-1.232-1.973-1.232-3.12
			c0-2,0.793-3.62,2.379-4.859c1.586-1.24,3.66-1.86,6.22-1.86c1.119,0,2.105,0.094,2.96,0.28c0.853,0.187,1.545,0.427,2.079,0.72
			l-1.36,4.08c-0.56-0.267-1.146-0.48-1.76-0.64c-0.613-0.16-1.332-0.24-2.158-0.24c-0.773,0-1.395,0.153-1.86,0.46
			s-0.699,0.727-0.699,1.26c0,0.72,0.8,1.467,2.399,2.24c1.281,0.613,2.267,1.294,2.961,2.04c0.933,0.986,1.399,2.094,1.399,3.319
			c0,2.188-0.819,3.881-2.46,5.08c-1.64,1.2-3.807,1.801-6.5,1.801c-1.279,0-2.439-0.134-3.48-0.4
			C894.127,64.366,893.287,63.993,892.646,63.513z"/>
	</g>
</g>
</svg>
