<?xml version="1.0" encoding="utf-8"?>
<!-- Generator: Adobe Illustrator 16.0.0, SVG Export Plug-In . SVG Version: 6.00 Build 0)  -->
<!DOCTYPE svg PUBLIC "-//W3C//DTD SVG 1.1//EN" "http://www.w3.org/Graphics/SVG/1.1/DTD/svg11.dtd">
<svg version="1.1" id="Capa_1" xmlns="http://www.w3.org/2000/svg" xmlns:xlink="http://www.w3.org/1999/xlink" x="0px" y="0px"
	 width="200px" height="200px" viewBox="0 0 200 200" enable-background="new 0 0 200 200" xml:space="preserve">
<g>
	<g>
		<ellipse fill-rule="evenodd" clip-rule="evenodd" fill="#FFFFFF" cx="99.376" cy="182.594" rx="45.532" ry="15.177"/>
		<ellipse fill-rule="evenodd" clip-rule="evenodd" fill="#F9F9F9" cx="99.377" cy="182.334" rx="42.987" ry="14.329"/>
		<ellipse fill-rule="evenodd" clip-rule="evenodd" fill="#F3F3F3" cx="99.376" cy="182.073" rx="40.441" ry="13.48"/>
		<ellipse fill-rule="evenodd" clip-rule="evenodd" fill="#EDEDED" cx="99.377" cy="181.813" rx="37.897" ry="12.633"/>
		<ellipse fill-rule="evenodd" clip-rule="evenodd" fill="#E7E7E7" cx="99.377" cy="181.552" rx="35.352" ry="11.785"/>
		<ellipse fill-rule="evenodd" clip-rule="evenodd" fill="#E2E2E2" cx="99.376" cy="181.291" rx="32.806" ry="10.936"/>
		<ellipse fill-rule="evenodd" clip-rule="evenodd" fill="#DCDCDC" cx="99.376" cy="181.03" rx="30.261" ry="10.087"/>
		<ellipse fill-rule="evenodd" clip-rule="evenodd" fill="#D6D6D6" cx="99.377" cy="180.77" rx="27.717" ry="9.239"/>
		<ellipse fill-rule="evenodd" clip-rule="evenodd" fill="#D0D0D0" cx="99.377" cy="180.509" rx="25.171" ry="8.391"/>
		<ellipse fill-rule="evenodd" clip-rule="evenodd" fill="#CACACA" cx="99.376" cy="180.248" rx="22.626" ry="7.543"/>
		<ellipse fill-rule="evenodd" clip-rule="evenodd" fill="#C4C4C4" cx="99.377" cy="179.987" rx="20.081" ry="6.693"/>
		<ellipse fill-rule="evenodd" clip-rule="evenodd" fill="#BEBEBE" cx="99.376" cy="179.727" rx="17.537" ry="5.846"/>
		<ellipse fill-rule="evenodd" clip-rule="evenodd" fill="#B8B8B8" cx="99.377" cy="179.466" rx="14.991" ry="4.997"/>
		<ellipse fill-rule="evenodd" clip-rule="evenodd" fill="#B3B3B3" cx="99.377" cy="179.205" rx="12.447" ry="4.149"/>
	</g>
	<g>
		<circle fill="#FF6600" cx="100.288" cy="92.735" r="89.371"/>
		<path fill="#FF6600" d="M100.288,92.735"/>
	</g>
	<path fill="#FFA366" d="M15.136,91.79c0-47.218,38.277-85.496,85.494-85.496c24.824,0,47.177,10.579,62.795,27.475
		c-15.242-14.091-35.626-22.701-58.021-22.701c-47.219,0-85.496,38.277-85.496,85.496c0,22.394,8.61,42.778,22.701,58.021
		C25.714,138.965,15.136,116.612,15.136,91.79z"/>
	<g>
		<path fill="#D85700" d="M161.482,31.764c16.116,15.521,26.143,37.321,26.143,61.463c0,47.123-38.2,85.324-85.324,85.324
			c-24.144,0-45.944-10.026-61.465-26.142c15.341,14.774,36.201,23.861,59.183,23.861c47.124,0,85.325-38.201,85.325-85.325
			C185.344,67.964,176.258,47.105,161.482,31.764z"/>
	</g>
</g>
<path fill="#FFFFFF" d="M143.407,91.718c-1.291,1.657-3.118,2.91-4.775,4.261c-0.399,0.326-1.138,0.485-1.638,0.355
	c-4.814-1.257-9.165,0.086-13.394,2.275c-1.048,0.542-2.133,1.01-3.501,1.634c-0.171,0.078-0.329-0.125-0.214-0.271
	c1.415-1.795,2.557-3.273,3.742-4.715c2.569-3.125,5.471-6.028,7.658-9.396c1.7-2.619,3.831-4.564,6.646-4.925
	c4.91-0.626,9.273-2.375,13.471-4.799c0.476-0.274,1.038-0.419,1.576-0.559c1.619-0.417,3.229-0.957,4.878-1.155
	c1.642-0.197,3.322-0.038,4.987-0.035c-4.925-0.865-9.819-0.39-13.951,2.311c-4.224,2.762-9.03,2.33-13.552,3.499
	c-0.164,0.042-0.285-0.148-0.183-0.282c0.379-0.494,0.787-0.933,1.268-1.268c1.256-0.875,2.715-1.507,3.838-2.518
	c1.735-1.562,3.631-2.427,5.951-2.758c2.478-0.354,4.651-1.432,6.657-3.146c0.16-0.137-0.008-0.391-0.196-0.295
	c-1.754,0.897-3.322,1.826-5.014,2.219c-3.163,0.735-5.936,1.992-8.806,3.539c-4.21,2.268-6.434,5.929-9.152,9.468
	c-3.967,5.162-8.475,9.906-12.76,14.823c-0.058,0.068-0.158,0.081-0.233,0.03c-0.22-0.152-0.442-0.303-0.664-0.455
	c-0.071-0.05-0.097-0.146-0.058-0.224c1.412-2.86,2.49-5.962,4.343-8.5c3.994-5.471,8.105-10.81,10.976-17.017
	c3.791-8.198,7.148-16.365,14.509-22.448c0.881-0.681-2.093,0.678-4.551,2.575c-0.127,0.097-0.308-0.008-0.284-0.167
	c0.214-1.521,0.505-2.699,0.416-3.85c-0.087-1.126-0.516-2.227-0.856-3.334c-0.053-0.175-0.301-0.162-0.343,0.017
	c-0.071,0.308-0.01,0.578,0.039,0.85c0.612,3.437,0.365,6.683-1.414,9.847c-2.875,5.111-5.608,10.307-8.235,15.548
	c-3.25,6.481-7.496,12.203-12.708,17.719c-0.106,0.113-0.299,0.042-0.308-0.114c-0.139-2.656-0.236-4.744,1.937-6.713
	c2.969-2.691,5.493-5.898,8.04-9.022c1.125-1.382,1.597-3.075,1.599-4.818c0-0.194-0.271-0.247-0.343-0.067
	c-0.751,1.84-1.326,3.776-2.483,5.256c-2.131,2.727-4.619,5.222-7.218,7.521c-1.817,1.61-3.016,3.471-2.993,5.746
	c0.045,4.197-1.593,7.819-2.97,11.636c-1.483,4.116-4.758,5.627-8.275,6.874c-2.322,0.824-3.346-0.16-3.33-2.735
	c0.019-2.863,0.36-5.732,0.221-8.583c-0.08-1.644,0.53-2.653,1.65-3.584c1.223-1.018,2.607-1.893,3.645-3.074
	c2.753-3.14,5.982-6.167,6.185-10.665c0.223-4.982,3.096-7.861,7.176-9.667c3.267-1.446,5.356-3.76,6.584-6.916
	c1.026-2.642,1.722-5.417,4.182-7.212c0.048-0.034,0.079-0.089,0.105-0.169c0.063-0.172-0.14-0.318-0.28-0.2
	c-0.504,0.427-1.718,1.763-2.151,1.494c0.371-1.543,0.666-3.947,1.039-5.49c0.052-0.215-0.26-0.313-0.339-0.108
	c-0.43,1.096-0.724,2.223-0.947,3.365c-1.38,7.038-3.001,13.87-11.749,15.68c-0.117,0.025-0.225-0.073-0.213-0.192
	c0.14-1.347,0.279-2.694,0.418-4.041c0.022-0.217-0.289-0.275-0.348-0.066c-0.341,1.196-0.563,2.417-0.854,3.621
	c-0.243,1.004-0.686,1.964-1.086,2.924c-0.764,1.827-2.03,3.59-2.229,5.47c-0.26,2.445-0.601,4.798-2.179,6.628
	c-2.556,2.963-5.354,5.716-8.194,8.697c-0.088,0.092-0.243,0.065-0.293-0.051c-1.541-3.567-1.167-6.434,0.567-9.271
	c1.82-2.976,3.661-5.964,5.135-9.114c0.889-1.9,1.622-4.154,1.488-6.188c-0.214-3.271,1.117-5.205,3.619-6.952
	c1.234-0.86,2.242-2.255,2.935-3.62c0.71-1.399,1.184-3.042,1.272-4.605c0.159-2.868,1.854-4.55,3.929-6.079
	c0.005-0.003,0.009-0.007,0.015-0.01c0.175-0.129,0.007-0.399-0.187-0.302c-2.245,1.133-4.148,2.575-4.407,5.608
	c-0.394,4.597-2.608,7.987-7.369,10.222c-0.143,0.068-0.298-0.072-0.244-0.222c1.11-3.065,2.099-5.731,3.031-8.416
	c1.026-2.949,2.263-5.862,2.891-8.897c0.407-1.966,1.208-3.383,2.734-4.466c1.209-0.858,2.457-1.663,3.703-2.47
	c0.181-0.117,0.034-0.396-0.164-0.313c-3.443,1.424-6.404,3.301-7.391,7.601c-0.772,3.371-2.084,6.64-3.386,9.86
	c-1.684,4.166-3.15,8.268-3.063,12.92c0.074,3.966-1.471,7.536-4.58,10.586c-0.094,0.091-0.253,0.052-0.294-0.072
	c-0.763-2.25-1.462-4.204-2.081-6.185c-1.514-4.835-1.846-9.715-0.472-14.654c0.572-2.063,1.487-3.718,3.349-5.077
	c4.521-3.302,7.196-7.75,6.11-13.548c-0.71-3.79-1.766-7.515-2.753-11.253c-0.056-0.213-0.374-0.152-0.349,0.067
	c0.317,2.666,0.763,5.31,1.51,7.867c1.731,5.936,0.456,11.014-4.119,15.003c-2.091,1.824-3.763,3.773-4.761,6.574
	c-0.055,0.155-0.272,0.159-0.333,0.005c-1.033-2.65-1.878-5.118-1.334-7.576c0.324-1.467,0.512-3.173,0.076-4.554
	c-0.757-2.395-0.461-4.499,0.073-6.901c1.396-6.276-1.337-11.125-5.021-15.571c-0.143-0.173-0.409,0.023-0.287,0.21
	c3.545,5.448,6.438,11.05,3.574,18.082c-0.035,0.084-0.129,0.13-0.216,0.105c-4.801-1.387-6.549-3.62-6.766-8.469
	c-0.1-2.232-0.519-4.359-1.588-6.236c-0.104-0.181-0.383-0.067-0.328,0.134c0.508,1.893,1.189,3.813,1.127,5.708
	c-0.16,4.888,2.29,7.652,6.374,9.584c0.662,0.313,1.392,1.225,1.456,1.919c0.192,2.121,0.077,4.269,0.077,6.407
	c0,0.837-0.236,1.752,0.021,2.499c1.408,4.117,1.898,8.343,2.13,12.617c0,0.006,0,0.011,0,0.017
	c-0.077,1.861-0.071,3.701,0.141,4.871c0.331,1.816,0.772,3.674,1.219,5.502c0.755,3.085-2.125,4.32-0.919,8.851
	c1.612,6.062-0.05,12.463-0.241,16.622c-0.088,1.925-0.487,3.758-1.153,5.493c-0.059,0.155-0.276,0.155-0.333,0
	c-0.659-1.736-1.051-3.571-1.133-5.498c-0.176-4.16,0.067-8.335,0.015-12.502c-0.016-1.297-0.079-2.764-0.675-3.849
	c-1.667-3.04-1.177-6.043-0.41-9.126c0.454-1.827,0.892-3.684,1.238-5.499c0.627-3.289-0.298-11.041-0.337-11.362
	c-0.001-0.008-0.002-0.014-0.004-0.021c-0.881-3.618-2.738-5.918-5.164-8.051c-0.009-0.007-0.016-0.013-0.026-0.018
	c-0.269-0.163-4.746-2.959-5.538-9.755c-0.025-0.215-0.344-0.204-0.355,0.013c-0.231,4.854,2.309,8.679,6.298,11.614
	c1.856,1.365,2.765,3.024,3.331,5.088c1.356,4.944,1.007,9.822-0.524,14.652c-0.627,1.978-1.331,3.931-2.103,6.177
	c-0.042,0.124-0.201,0.163-0.294,0.071c-3.099-3.061-4.631-6.636-4.543-10.603c0.104-4.651-1.349-8.759-3.017-12.931
	c-1.29-3.225-2.591-6.499-3.352-9.872c-0.97-4.304-3.925-6.192-7.363-7.627c-0.199-0.083-0.347,0.195-0.166,0.313
	c1.244,0.812,2.489,1.621,3.695,2.483c1.522,1.088,2.318,2.507,2.718,4.475c0.617,3.038,1.843,5.955,2.858,8.907
	c0.923,2.688,1.903,5.357,3.001,8.426c0.053,0.15-0.101,0.29-0.245,0.221c-4.752-2.251-6.956-5.649-7.332-10.248
	c-0.249-3.034-2.147-4.483-4.388-5.624c-0.193-0.098-0.362,0.171-0.188,0.301c0.004,0.003,0.009,0.007,0.014,0.01
	c2.07,1.536,3.757,3.224,3.909,6.092c0.083,1.563,0.55,3.208,1.255,4.609c0.688,1.368,1.691,2.766,2.921,3.631
	c2.496,1.755,3.821,3.693,3.595,6.964c-0.14,2.033,0.584,4.29,1.467,6.193c1.462,3.156,3.293,6.15,5.102,9.132
	c1.725,2.844,2.089,5.712,0.535,9.274c-0.05,0.116-0.206,0.142-0.292,0.05c-2.831-2.991-5.619-5.754-8.164-8.727
	c-1.572-1.835-1.905-4.189-2.156-6.636c-0.193-1.881-1.453-3.647-2.209-5.478c-0.398-0.961-0.836-1.923-1.076-2.927
	c-0.288-1.205-0.506-2.427-0.842-3.624c-0.059-0.209-0.37-0.152-0.349,0.064c0.135,1.347,0.269,2.694,0.403,4.042
	c0.012,0.119-0.097,0.217-0.214,0.192c-8.741-1.841-10.339-8.679-11.693-15.721c-0.219-1.142-0.508-2.271-0.934-3.368
	c-0.08-0.206-0.391-0.109-0.34,0.106c0.368,1.544,0.735,3.089,1.102,4.632c-0.435,0.268-0.42,0.259-0.856,0.526
	c-0.427-0.362-0.869-0.737-1.372-1.166c-0.14-0.119-0.343,0.025-0.282,0.198c0.028,0.08,0.059,0.136,0.105,0.17
	c2.454,1.803,3.139,4.581,4.157,7.227c1.215,3.16,3.296,5.481,6.558,6.939c4.074,1.82,6.938,4.709,7.144,9.693
	c0.185,4.499,3.405,7.537,6.147,10.686c1.032,1.186,2.414,2.065,3.634,3.087c1.116,0.935,1.724,1.946,1.637,3.59
	c-0.149,2.849,0.182,5.72,0.19,8.583c0.007,2.576-1.021,3.557-3.34,2.725c-3.513-1.261-6.782-2.782-8.252-6.903
	c-1.362-3.822-2.988-7.449-2.929-11.646c0.033-2.275-1.16-4.14-2.972-5.756c-2.589-2.309-5.067-4.813-7.19-7.546
	c-1.152-1.484-1.719-3.422-2.463-5.265c-0.073-0.18-0.344-0.128-0.345,0.066c-0.003,1.744,0.461,3.438,1.582,4.824
	c2.536,3.133,5.049,6.349,8.009,9.051c2.164,1.977,2.06,4.064,1.912,6.72c-0.009,0.157-0.201,0.227-0.308,0.113
	c-5.193-5.534-9.418-11.271-12.645-17.764c-2.61-5.251-5.325-10.456-8.182-15.577c-1.768-3.17-2.004-6.417-1.379-9.852
	c0.05-0.272,0.113-0.542,0.042-0.85c-0.041-0.179-0.289-0.193-0.343-0.018c-0.343,1.106-0.778,2.205-0.868,3.331
	c-0.092,1.15,0.195,2.331,0.403,3.852c0.022,0.159-0.159,0.264-0.285,0.167c-1.599-1.243-2.852-2.216-4.106-3.19
	c7.338,6.108,10.23,14.888,13.993,23.099c2.849,6.217,6.941,11.57,10.916,17.056c1.843,2.544,2.911,5.651,4.312,8.516
	c0.039,0.079,0.014,0.174-0.059,0.224c-0.221,0.151-0.444,0.302-0.666,0.452c-0.074,0.051-0.174,0.037-0.233-0.031
	c-4.267-4.932-8.758-9.692-12.707-14.868c-2.707-3.548-4.919-7.217-9.119-9.5c-2.864-1.557-5.634-2.824-8.793-3.569
	c-1.691-0.399-3.255-1.333-5.006-2.237c-0.187-0.097-0.356,0.157-0.197,0.294c1.999,1.721,4.169,2.808,6.646,3.17
	c2.321,0.339,4.213,1.211,5.942,2.779c1.121,1.015,2.576,1.651,3.829,2.532c0.479,0.336,0.884,0.778,1.263,1.272
	c0.103,0.134-0.021,0.324-0.185,0.282c-4.517-1.186-9.326-0.771-13.539-3.547c-4.123-2.715-9.014-3.208-13.942-2.36
	c1.664,0.003,3.347-0.15,4.986,0.053c1.649,0.205,3.257,0.75,4.875,1.172c0.538,0.141,1.099,0.289,1.572,0.564
	c4.19,2.439,8.546,4.203,13.454,4.848c2.815,0.37,4.938,2.323,6.629,4.947c2.176,3.376,5.067,6.29,7.625,9.423
	c1.181,1.446,2.317,2.928,3.726,4.729c0.115,0.147-0.045,0.349-0.214,0.271c-1.366-0.629-2.45-1.101-3.495-1.646
	c-4.221-2.203-8.566-3.562-13.385-2.322c-0.5,0.128-1.239-0.034-1.637-0.361c-1.653-1.356-3.475-2.616-4.761-4.278
	c-2.63-3.398-5.935-4.132-9.871-3.29c-1.712,0.367-3.424,0.733-5.37,1.15c-0.208,0.045-0.177,0.348,0.034,0.352
	c1.016,0.015,1.919,0.028,2.819-0.023c2.481-0.141,4.974-0.615,7.428-0.448c1.218,0.083,2.572,1.075,3.491,2.02
	c1.923,1.978,3.605,4.19,5.659,6.64c0.041,0.049,0.054,0.119,0.031,0.18c-0.938,2.428-3.01,3.209-7.392,2.045
	c-0.195-0.052-0.31,0.214-0.141,0.323c2.506,1.611,5.811,1.46,7.496-0.883c2.43-3.379,5.797-3.381,8.766-2.248
	c5.313,2.028,10.337,4.818,15.444,7.298c0.131,0.064,0.131,0.251,0.001,0.317c-3.081,1.581-5.724,3.058-8.482,4.27
	c-1.62,0.712-3.433,1.014-5.179,1.404c-1.49,0.333-3.002,0.629-4.519,0.756c-0.884,0.074-1.775,0.069-2.675,0.112
	c-0.221,0.012-0.225,0.338-0.004,0.355c0.9,0.074,1.799,0.129,2.689,0.069c2.15-0.147,4.324-0.375,6.411-0.885
	c1.936-0.473,3.74-1.462,5.659-2.038c2.578-0.776,5.198-1.427,7.828-2.004c0.505-0.11,1.162,0.314,1.708,0.58
	c1.192,0.578,2.298,1.536,3.544,1.76c3.097,0.554,4.077,2.731,5.124,5.294c0.001,0.005,0.003,0.009,0.004,0.013
	c3.111,9.154-1.487,17.477-1.036,27.334c0.143,3.119-2.748,9.429-4.046,12.492c-0.05,0.118,0.036,0.246,0.164,0.246l11.226,0.021
	l11.228,0.02c0.128,0,0.214-0.128,0.165-0.246c-1.288-3.068-4.156-9.388-4.002-12.506c0.485-9.856-4.085-18.195-0.941-27.338
	c0.002-0.004,0.004-0.008,0.006-0.013c1.056-2.56,2.043-4.733,5.143-5.276c1.245-0.219,2.356-1.173,3.55-1.747
	c0.546-0.263,1.205-0.687,1.71-0.573c2.627,0.586,5.245,1.246,7.82,2.03c1.916,0.584,3.718,1.579,5.651,2.059
	c2.085,0.517,4.258,0.752,6.406,0.907c0.891,0.063,1.791,0.012,2.69-0.06c0.222-0.017,0.219-0.343-0.003-0.355
	c-0.9-0.046-1.791-0.044-2.674-0.122c-1.517-0.133-3.029-0.434-4.517-0.771c-1.746-0.396-3.556-0.704-5.173-1.422
	c-2.755-1.223-5.394-2.708-8.47-4.299c-0.128-0.068-0.127-0.255,0.004-0.317c5.117-2.464,10.149-5.235,15.471-7.245
	c2.973-1.123,6.339-1.109,8.757,2.278c1.677,2.349,4.981,2.512,7.492,0.909c0.171-0.108,0.055-0.374-0.14-0.323
	c-4.386,1.148-6.456,0.359-7.385-2.072c-0.023-0.061-0.01-0.13,0.031-0.18c2.063-2.441,3.753-4.648,5.684-6.62
	c0.92-0.941,2.28-1.928,3.497-2.007c2.454-0.158,4.945,0.325,7.427,0.475c0.899,0.054,1.804,0.044,2.82,0.032
	c0.21-0.002,0.241-0.306,0.035-0.351c-1.946-0.424-3.657-0.797-5.366-1.17C149.358,87.607,146.05,88.329,143.407,91.718z"/>
</svg>
