<?xml version="1.0" encoding="utf-8"?>
<!-- Generator: Adobe Illustrator 16.0.0, SVG Export Plug-In . SVG Version: 6.00 Build 0)  -->
<!DOCTYPE svg PUBLIC "-//W3C//DTD SVG 1.1//EN" "http://www.w3.org/Graphics/SVG/1.1/DTD/svg11.dtd">
<svg version="1.1" id="Capa_1" xmlns="http://www.w3.org/2000/svg" xmlns:xlink="http://www.w3.org/1999/xlink" x="0px" y="0px"
	 width="200px" height="200px" viewBox="0 0 200 200" enable-background="new 0 0 200 200" xml:space="preserve">
<g id="Fondo">
</g>
<g id="Primer_plano">
</g>
<g id="Guías">
	<g>
		<g>
			<polygon fill="#FF0000" points="42.581,99.81 40.014,106.229 37.445,99.81 40.014,99.81 			"/>
			<path fill="none" stroke="#FF0000" stroke-width="1.2839" stroke-miterlimit="3.8637" d="M40.014,100.238
				c0-33.241,26.926-60.188,60.167-60.188"/>
		</g>
	</g>
</g>
</svg>
