<?xml version="1.0" encoding="utf-8"?>
<!-- Generator: Adobe Illustrator 16.0.0, SVG Export Plug-In . SVG Version: 6.00 Build 0)  -->
<!DOCTYPE svg PUBLIC "-//W3C//DTD SVG 1.1//EN" "http://www.w3.org/Graphics/SVG/1.1/DTD/svg11.dtd">
<svg version="1.1" id="Capa_1" xmlns="http://www.w3.org/2000/svg" xmlns:xlink="http://www.w3.org/1999/xlink" x="0px" y="0px"
	 width="113.333px" height="161.333px" viewBox="0 0 113.333 161.333" enable-background="new 0 0 113.333 161.333"
	 xml:space="preserve">
<g id="Fondo">
</g>
<g id="Guías">
</g>
<g id="Primer_plano">
	<g>
		<path fill="#FFFFFF" d="M1.996,14.432c0-4.518,3.663-8.181,8.181-8.181h92.992c4.52,0,8.182,3.662,8.182,8.181v135.91
			c0,4.519-3.663,8.181-8.182,8.181H10.178c-4.519,0-8.181-3.663-8.181-8.181L1.996,14.432L1.996,14.432z"/>
		<path fill="#F6F6F6" d="M2.631,149.418V15.084c0-4.466,3.62-8.086,8.086-8.086h91.915c4.466,0,8.086,3.62,8.086,8.086v134.333
			c0,4.467-3.62,8.086-8.086,8.086H10.717C6.251,157.504,2.631,153.883,2.631,149.418z"/>
		<path fill="#EEEEEE" d="M3.266,148.493V15.737c0-4.413,3.578-7.991,7.991-7.991h90.833c4.414,0,7.992,3.578,7.992,7.991v132.755
			c0,4.414-3.578,7.991-7.992,7.991H11.257C6.844,156.484,3.266,152.907,3.266,148.493z"/>
		<path fill="#E6E6E6" d="M3.9,147.568V16.389c0-4.361,3.535-7.896,7.896-7.896h89.753c4.361,0,7.896,3.535,7.896,7.896v131.179
			c0,4.36-3.535,7.896-7.896,7.896H11.797C7.436,155.463,3.9,151.928,3.9,147.568z"/>
		<path fill="#DDDDDD" d="M4.535,146.643V17.041c0-4.308,3.493-7.801,7.801-7.801h88.674c4.31,0,7.803,3.493,7.803,7.801v129.602
			c0,4.309-3.492,7.801-7.803,7.801H12.336C8.028,154.444,4.535,150.952,4.535,146.643z"/>
		<path fill="#D4D4D4" d="M5.169,145.717V17.693c0-4.256,3.45-7.706,7.707-7.706h87.596c4.256,0,7.706,3.45,7.706,7.706v128.024
			c0,4.257-3.449,7.707-7.706,7.707H12.876C8.62,153.424,5.169,149.974,5.169,145.717z"/>
		<path fill="#CCCCCC" d="M5.804,18.345c0-4.204,3.408-7.611,7.611-7.611h86.517c4.203,0,7.611,3.408,7.611,7.611v126.449
			c0,4.203-3.408,7.611-7.611,7.611H13.416c-4.204,0-7.611-3.408-7.611-7.611V18.345H5.804z"/>
	</g>
	<g>
		<path fill="#3399CC" d="M3.207,10.71c0-4.418,3.582-8,8-8h90.934c4.418,0,8,3.582,8,8v132.904c0,4.418-3.582,8-8,8H11.207
			c-4.418,0-8-3.582-8-8V10.71z"/>
		<path fill="#3BA1D4" d="M3.828,142.708V11.348c0-4.367,3.54-7.907,7.907-7.907h89.879c4.366,0,7.906,3.54,7.906,7.907v131.361
			c0,4.367-3.54,7.906-7.906,7.906H11.735C7.368,150.616,3.828,147.077,3.828,142.708z"/>
		<path fill="#44AADD" d="M4.448,141.803V11.986c0-4.316,3.499-7.814,7.813-7.814h88.823c4.316,0,7.814,3.499,7.814,7.814v129.817
			c0,4.316-3.498,7.816-7.814,7.816H12.263C7.947,149.62,4.448,146.12,4.448,141.803z"/>
		<path fill="#4DB3E6" d="M5.069,140.9V12.624c0-4.265,3.457-7.721,7.721-7.721h87.767c4.266,0,7.723,3.457,7.723,7.721V140.9
			c0,4.265-3.457,7.722-7.723,7.722H12.79C8.526,148.622,5.069,145.165,5.069,140.9z"/>
		<path fill="#55BBEE" d="M5.689,139.995V13.261c0-4.213,3.415-7.629,7.628-7.629h86.713c4.213,0,7.627,3.416,7.627,7.629v126.734
			c0,4.213-3.414,7.629-7.627,7.629H13.318C9.105,147.624,5.689,144.208,5.689,139.995z"/>
		<path fill="#5EC3F6" d="M6.31,139.09V13.899c0-4.162,3.374-7.536,7.536-7.536h85.657c4.162,0,7.535,3.374,7.535,7.536V139.09
			c0,4.164-3.373,7.537-7.535,7.537H13.846C9.684,146.625,6.31,143.252,6.31,139.09z"/>
		<path fill="#66CCFF" d="M6.931,14.537c0-4.11,3.332-7.443,7.443-7.443h84.601c4.109,0,7.443,3.332,7.443,7.443v123.65
			c0,4.11-3.334,7.442-7.443,7.442H14.373c-4.11,0-7.443-3.332-7.443-7.442L6.931,14.537L6.931,14.537z"/>
	</g>
	<g>
		<path fill="#FFFFFF" d="M56.333,112.963c-0.218,8.865-4.911,13.254-14.077,13.166c-4.234,0-7.628-1.073-10.181-3.221
			c-2.597-2.08-3.918-5.412-3.961-9.994V89.94c0-2.855,0.469-5.213,1.408-7.072c0.851-1.859,1.986-3.287,3.405-4.283
			c1.44-1.04,3.012-1.781,4.714-2.225c1.615-0.376,3.197-0.564,4.747-0.564c3.928-0.044,7.213,0.883,9.854,2.78
			c2.685,1.986,4.049,5.758,4.092,11.319L56.333,112.963L56.333,112.963z M45.45,86.762c-0.094-2.221-1.181-3.311-3.259-3.266
			c-0.969,0-1.712,0.221-2.232,0.666c-0.638,0.512-0.957,1.379-0.957,2.6v28.4c0.047,2.223,1.11,3.312,3.188,3.268
			c0.968,0,1.771-0.268,2.408-0.801c0.567-0.51,0.85-1.332,0.85-2.467v-28.4H45.45z"/>
		<path fill="#FFFFFF" d="M87.607,118.131v7.035H59.321v-5.986c0.045-3.946,0.952-7.395,2.723-10.344
			c1.705-2.969,3.699-5.652,5.979-8.047c2.258-2.416,4.251-4.734,5.979-6.951c1.771-2.217,2.678-4.512,2.724-6.885
			c-0.048-2.305-1.134-3.457-3.257-3.457c-2.172,0-3.258,1.154-3.258,3.463v7.026H59.321v-5.301c0-2.981,0.469-5.334,1.408-7.058
			c0.895-1.7,2.051-2.981,3.471-3.843c1.439-0.861,3.012-1.414,4.713-1.656c1.682-0.221,3.307-0.332,4.879-0.332
			c1.658,0,3.295,0.167,4.91,0.499c1.637,0.399,3.133,1.074,4.486,2.027c1.374,0.953,2.467,2.249,3.273,3.887
			c0.764,1.685,1.146,3.811,1.146,6.381c-0.044,2.769-0.586,5.195-1.627,7.277c-1.128,2.192-2.534,4.197-4.216,6.014
			c-1.684,1.818-3.387,3.645-5.113,5.484c-1.814,1.86-3.375,3.887-4.682,6.08c-0.396,0.709-0.785,1.407-1.161,2.094
			c-0.397,0.731-0.599,1.596-0.599,2.592H87.607L87.607,118.131z"/>
	</g>
	<g>
		
			<line fill="none" stroke="#3BA1D4" stroke-width="0.8" stroke-miterlimit="3.8637" x1="91.609" y1="59.36" x2="21.739" y2="59.36"/>
		
			<line fill="none" stroke="#BCD5F0" stroke-width="0.8" stroke-miterlimit="3.8637" x1="91.609" y1="60.195" x2="21.739" y2="60.195"/>
	</g>
</g>
<g>
	<path fill="#FFFFFF" d="M42.667,41.832c0,1.75-0.56,3.173-1.68,4.272c-1.12,1.099-2.587,1.648-4.4,1.648
		c-0.768,0-1.541-0.112-2.319-0.336c-0.779-0.224-1.36-0.496-1.744-0.816l0.544-1.536c0.469,0.32,1.013,0.582,1.632,0.784
		c0.618,0.203,1.259,0.304,1.92,0.304c1.28,0,2.304-0.384,3.072-1.152c0.768-0.768,1.152-1.781,1.152-3.04
		c0-1.066-0.278-1.979-0.832-2.736c-0.556-0.757-1.388-1.456-2.496-2.096c-1.28-0.725-2.283-1.472-3.009-2.24
		c-1.045-1.13-1.567-2.378-1.567-3.744c0-1.579,0.533-2.88,1.6-3.904s2.421-1.536,4.064-1.536c0.789,0,1.461,0.08,2.016,0.24
		c0.555,0.16,1.013,0.368,1.376,0.624l-0.576,1.536c-0.319-0.213-0.747-0.405-1.279-0.576c-0.534-0.171-1.1-0.256-1.696-0.256
		c-1.195,0-2.134,0.384-2.816,1.152c-0.575,0.661-0.863,1.451-0.863,2.368c0,1.088,0.319,2.005,0.96,2.752
		c0.49,0.576,1.386,1.248,2.688,2.016c1.473,0.896,2.549,1.83,3.232,2.8C42.326,39.331,42.667,40.488,42.667,41.832z"/>
	<path fill="#FFFFFF" d="M55.947,27.496h-4.96v20h-1.824v-20h-4.96v-1.568h11.744V27.496z"/>
	<path fill="#FFFFFF" d="M67.626,47.496h-9.279V25.928h8.831v1.568H60.17V35.4h6.592v1.568H60.17v8.96h7.456V47.496z"/>
	<path fill="#FFFFFF" d="M80.81,31.816c0,0.896-0.106,1.68-0.318,2.352c-0.213,0.672-0.521,1.286-0.924,1.84
		c-0.596,0.811-1.377,1.429-2.344,1.856s-2.014,0.64-3.14,0.64c-0.341,0-0.681,0-1.021,0c-0.276-0.064-0.478-0.106-0.605-0.128v9.12
		h-1.856l0.032-21.28c0.533-0.128,1.109-0.229,1.729-0.304c0.618-0.075,1.301-0.112,2.048-0.112c2.091,0,3.701,0.544,4.832,1.632
		c0.49,0.512,0.874,1.136,1.151,1.872C80.671,30.04,80.81,30.877,80.81,31.816z M78.987,31.911c0-1.417-0.374-2.539-1.12-3.366
		c-0.747-0.827-1.889-1.24-3.424-1.24c-0.875,0-1.536,0.064-1.984,0.193v9.341c0.384,0.108,0.917,0.161,1.6,0.161
		c1.515,0,2.715-0.429,3.601-1.289C78.543,34.853,78.987,33.585,78.987,31.911z"/>
</g>
</svg>
