<?xml version="1.0" encoding="utf-8"?>
<!-- Generator: Adobe Illustrator 16.0.0, SVG Export Plug-In . SVG Version: 6.00 Build 0)  -->
<!DOCTYPE svg PUBLIC "-//W3C//DTD SVG 1.1//EN" "http://www.w3.org/Graphics/SVG/1.1/DTD/svg11.dtd">
<svg version="1.1" id="Capa_1" xmlns="http://www.w3.org/2000/svg" xmlns:xlink="http://www.w3.org/1999/xlink" x="0px" y="0px"
	 width="229.667px" height="336.333px" viewBox="0 0 229.667 336.333" enable-background="new 0 0 229.667 336.333"
	 xml:space="preserve">
<g id="Fondo">
</g>
<g>
	<ellipse fill="#FFFFFF" cx="133.336" cy="320.642" rx="45.662" ry="9.361"/>
	<ellipse fill-rule="evenodd" clip-rule="evenodd" fill="#FDFDFD" cx="133.335" cy="320.603" rx="44.385" ry="9.1"/>
	<ellipse fill-rule="evenodd" clip-rule="evenodd" fill="#FBFBFB" cx="133.335" cy="320.566" rx="43.106" ry="8.84"/>
	<ellipse fill-rule="evenodd" clip-rule="evenodd" fill="#F9F9F9" cx="133.335" cy="320.527" rx="41.828" ry="8.576"/>
	<ellipse fill-rule="evenodd" clip-rule="evenodd" fill="#F7F7F7" cx="133.335" cy="320.488" rx="40.551" ry="8.314"/>
	<ellipse fill-rule="evenodd" clip-rule="evenodd" fill="#F5F5F5" cx="133.335" cy="320.451" rx="39.273" ry="8.053"/>
	<ellipse fill-rule="evenodd" clip-rule="evenodd" fill="#F3F3F3" cx="133.335" cy="320.412" rx="37.996" ry="7.791"/>
	<ellipse fill-rule="evenodd" clip-rule="evenodd" fill="#F1F1F1" cx="133.335" cy="320.373" rx="36.719" ry="7.527"/>
	<ellipse fill-rule="evenodd" clip-rule="evenodd" fill="#EFEFEF" cx="133.335" cy="320.335" rx="35.441" ry="7.268"/>
	<ellipse fill-rule="evenodd" clip-rule="evenodd" fill="#EDEDED" cx="133.336" cy="320.296" rx="34.164" ry="7.006"/>
	<ellipse fill-rule="evenodd" clip-rule="evenodd" fill="#EBEBEB" cx="133.336" cy="320.257" rx="32.886" ry="6.742"/>
	<ellipse fill-rule="evenodd" clip-rule="evenodd" fill="#E9E9E9" cx="133.335" cy="320.218" rx="31.608" ry="6.48"/>
	<ellipse fill-rule="evenodd" clip-rule="evenodd" fill="#E7E7E7" cx="133.335" cy="320.181" rx="30.33" ry="6.219"/>
	<ellipse fill-rule="evenodd" clip-rule="evenodd" fill="#E5E5E5" cx="133.335" cy="320.142" rx="29.053" ry="5.957"/>
	<ellipse fill-rule="evenodd" clip-rule="evenodd" fill="#E4E4E4" cx="133.335" cy="320.103" rx="27.775" ry="5.693"/>
	<ellipse fill-rule="evenodd" clip-rule="evenodd" fill="#E2E2E2" cx="133.335" cy="320.066" rx="26.498" ry="5.434"/>
	<ellipse fill-rule="evenodd" clip-rule="evenodd" fill="#E0E0E0" cx="133.335" cy="320.027" rx="25.221" ry="5.172"/>
	<ellipse fill-rule="evenodd" clip-rule="evenodd" fill="#DEDEDE" cx="133.335" cy="319.988" rx="23.943" ry="4.908"/>
	<ellipse fill-rule="evenodd" clip-rule="evenodd" fill="#DCDCDC" cx="133.335" cy="319.951" rx="22.665" ry="4.648"/>
	<ellipse fill-rule="evenodd" clip-rule="evenodd" fill="#DADADA" cx="133.335" cy="319.912" rx="21.387" ry="4.385"/>
	<ellipse fill-rule="evenodd" clip-rule="evenodd" fill="#D8D8D8" cx="133.335" cy="319.873" rx="20.109" ry="4.123"/>
	<ellipse fill-rule="evenodd" clip-rule="evenodd" fill="#D6D6D6" cx="133.335" cy="319.835" rx="18.832" ry="3.861"/>
	<ellipse fill-rule="evenodd" clip-rule="evenodd" fill="#D4D4D4" cx="133.335" cy="319.796" rx="17.555" ry="3.6"/>
	<ellipse fill-rule="evenodd" clip-rule="evenodd" fill="#D2D2D2" cx="133.335" cy="319.757" rx="16.277" ry="3.338"/>
	<ellipse fill-rule="evenodd" clip-rule="evenodd" fill="#D0D0D0" cx="133.335" cy="319.718" rx="15" ry="3.074"/>
	<ellipse fill-rule="evenodd" clip-rule="evenodd" fill="#CECECE" cx="133.335" cy="319.681" rx="13.723" ry="2.814"/>
	<ellipse fill="#CCCCCC" cx="133.335" cy="319.642" rx="12.445" ry="2.551"/>
	<polygon fill-rule="evenodd" clip-rule="evenodd" fill="#6EBE45" points="65.333,261.787 133.337,267.06 133.337,319.56 
		65.333,305.287 	"/>
	<polygon fill-rule="evenodd" clip-rule="evenodd" fill="#4BA744" points="65.333,237.33 223.333,237.33 223.333,289.83 
		65.333,305.287 	"/>
	<path fill="#6EBE45" d="M6.365,259.83L6.333,14.327c0-4.418,3.582-8,8-8h178.955l30.045,30.036V289.83L6.365,259.83z"/>
	<path fill="#4BA744" d="M192.601,28.933V6.948l29.977,29.985h-21.977C196.183,36.933,192.601,33.352,192.601,28.933z"/>
	<path fill-rule="evenodd" clip-rule="evenodd" d="M111.781,43.328c0.666,0.192,1.336,0.34,2.008,0.442
		c0.674,0.103,1.379,0.154,2.119,0.155c1.822-0.014,3.219-0.411,4.189-1.189c0.973-0.779,1.463-1.854,1.473-3.224
		c0.008-0.801-0.139-1.464-0.438-1.99s-0.799-1.008-1.498-1.446s-1.646-0.925-2.838-1.461c-1.141-0.516-2.01-0.97-2.607-1.36
		c-0.6-0.391-1.006-0.791-1.221-1.2s-0.314-0.9-0.303-1.472c-0.012-0.927,0.33-1.671,1.027-2.232
		c0.695-0.561,1.818-0.849,3.367-0.864c0.688,0.001,1.316,0.046,1.891,0.135c0.572,0.088,1.143,0.211,1.711,0.369l0.166-0.743
		c-0.547-0.158-1.125-0.285-1.732-0.38c-0.609-0.095-1.271-0.144-1.988-0.146c-1.809,0.02-3.153,0.382-4.034,1.088
		c-0.881,0.706-1.319,1.638-1.315,2.798c-0.008,0.778,0.135,1.425,0.427,1.942c0.292,0.518,0.776,0.991,1.456,1.42
		c0.678,0.429,1.594,0.901,2.748,1.415c1.17,0.53,2.066,0.993,2.686,1.387c0.621,0.394,1.043,0.803,1.27,1.227
		c0.225,0.424,0.33,0.945,0.318,1.563c0.006,1.085-0.373,1.952-1.139,2.602c-0.764,0.65-1.953,0.983-3.568,1
		c-0.725-0.002-1.412-0.053-2.063-0.153c-0.652-0.101-1.315-0.242-1.991-0.423L111.781,43.328z"/>
	<polygon fill-rule="evenodd" clip-rule="evenodd" points="127.75,43.662 128.66,43.662 128.66,27.75 133.867,27.75 133.867,26.985 
		122.566,26.985 122.566,27.75 127.75,27.75 	"/>
	<polygon fill-rule="evenodd" clip-rule="evenodd" points="136.847,43.662 145.246,43.662 145.246,42.897 137.757,42.897 
		137.757,35.334 144.669,35.334 144.669,34.569 137.757,34.569 137.757,27.75 145.246,27.75 145.246,26.985 136.847,26.985 	"/>
	<path fill-rule="evenodd" clip-rule="evenodd" d="M150.123,35.073V27.75h3.121c1.475-0.036,2.539,0.186,3.193,0.663
		c0.652,0.478,0.973,1.425,0.961,2.842c0.002,1.377-0.346,2.362-1.049,2.953c-0.701,0.591-1.777,0.879-3.227,0.864H150.123z
		 M149.212,43.662h0.91v-7.824h2.93c1.73,0.015,3.039-0.344,3.924-1.076c0.883-0.732,1.328-1.925,1.33-3.579
		c0.002-1.148-0.172-2.026-0.525-2.635s-0.898-1.025-1.635-1.248s-1.68-0.328-2.83-0.315h-4.104V43.662z"/>
	<path fill-rule="evenodd" clip-rule="evenodd" d="M173.214,24.011H168.5c0.244-1.907,0.93-3.439,2.053-4.598
		c1.568-1.615,3.539-2.422,5.914-2.422c2.117,0,3.893,0.674,5.326,2.023s2.15,2.95,2.15,4.803c0,1.149-0.314,2.199-0.943,3.15
		c-0.629,0.95-1.543,1.718-2.74,2.305c1.572,0.468,2.801,1.284,3.688,2.448c0.885,1.164,1.328,2.535,1.328,4.115
		c0,2.316-0.854,4.278-2.563,5.887c-1.709,1.608-3.887,2.413-6.531,2.413c-2.506,0-4.547-0.757-6.127-2.273
		c-1.58-1.515-2.447-3.578-2.6-6.187h4.859c0.211,1.338,0.676,2.332,1.395,2.983s1.629,0.977,2.727,0.977
		c1.145,0,2.096-0.369,2.85-1.106s1.131-1.64,1.131-2.705c0-1.171-0.508-2.161-1.52-2.969c-1.014-0.808-2.475-1.224-4.385-1.247
		v-4.212c1.178-0.094,2.057-0.28,2.635-0.556c0.576-0.277,1.025-0.657,1.348-1.14c0.32-0.482,0.48-0.995,0.48-1.537
		c0-0.706-0.244-1.292-0.736-1.757s-1.137-0.698-1.932-0.698c-0.703,0-1.342,0.214-1.914,0.642
		C173.818,22.777,173.425,23.331,173.214,24.011z"/>
	<line fill="none" stroke="#99CC00" stroke-miterlimit="3.8637" x1="15.248" y1="55.129" x2="214.419" y2="55.129"/>
	<line fill="none" stroke="#4BA744" stroke-miterlimit="3.8637" x1="15.248" y1="54.062" x2="214.419" y2="54.062"/>
	<path fill-rule="evenodd" clip-rule="evenodd" d="M73.124,135.004c0.001,0.813-0.068,1.436-0.206,1.868
		c-0.138,0.432-0.346,0.727-0.625,0.885s-0.632,0.232-1.057,0.223c-0.426,0.01-0.777-0.065-1.057-0.225
		c-0.279-0.158-0.488-0.457-0.625-0.894c-0.139-0.437-0.207-1.067-0.207-1.892c0-0.813,0.068-1.434,0.205-1.863
		c0.138-0.43,0.345-0.721,0.622-0.877c0.276-0.154,0.625-0.229,1.044-0.219c0.426-0.01,0.779,0.066,1.061,0.225
		c0.283,0.158,0.494,0.455,0.635,0.889C73.054,133.559,73.125,134.185,73.124,135.004z M75.008,134.937
		c-0.001-1.157-0.146-2.055-0.433-2.693c-0.287-0.64-0.709-1.084-1.264-1.334s-1.236-0.369-2.043-0.358
		c-0.801-0.009-1.485,0.12-2.052,0.39c-0.567,0.268-1,0.729-1.3,1.385c-0.301,0.656-0.452,1.561-0.455,2.713
		c0.002,1.156,0.146,2.055,0.434,2.693s0.708,1.083,1.264,1.332c0.555,0.25,1.236,0.37,2.042,0.359
		c0.802,0.01,1.485-0.121,2.052-0.389c0.567-0.269,1-0.73,1.301-1.386S75.005,136.089,75.008,134.937z"/>
	<path fill-rule="evenodd" clip-rule="evenodd" d="M77.199,139.185h1.885v-6.154c0.364-0.24,0.689-0.43,0.975-0.568
		c0.286-0.139,0.539-0.211,0.76-0.213c0.143,0,0.272,0.013,0.389,0.038c0.115,0.025,0.224,0.063,0.324,0.114l0.238-1.681
		c-0.092-0.06-0.192-0.103-0.302-0.13c-0.108-0.027-0.235-0.041-0.378-0.04c-0.373,0.011-0.742,0.126-1.107,0.349
		c-0.365,0.222-0.738,0.49-1.119,0.807l-0.103-0.917h-1.562V139.185z"/>
	<path fill-rule="evenodd" clip-rule="evenodd" d="M87.818,133.56c0.005,0.651-0.123,1.104-0.385,1.355
		c-0.261,0.252-0.683,0.373-1.266,0.361c-0.589,0.01-1.013-0.115-1.271-0.376c-0.258-0.261-0.383-0.714-0.378-1.358
		c-0.005-0.651,0.12-1.102,0.376-1.348c0.257-0.248,0.676-0.365,1.258-0.354c0.59-0.012,1.017,0.109,1.279,0.361
		C87.695,132.455,87.824,132.908,87.818,133.56z M87.325,139.441c0.347,0.074,0.602,0.187,0.763,0.338
		c0.162,0.152,0.242,0.363,0.24,0.633c0.012,0.359-0.146,0.668-0.474,0.924s-0.89,0.391-1.687,0.402
		c-0.775-0.006-1.311-0.123-1.604-0.354s-0.434-0.543-0.419-0.939c0.008-0.363,0.129-0.661,0.361-0.893
		c0.233-0.232,0.532-0.41,0.897-0.535c0.315,0.068,0.634,0.139,0.954,0.212C86.679,139.302,87.001,139.373,87.325,139.441z
		 M90.553,130.79h-2.616c-0.202-0.069-0.448-0.126-0.738-0.171c-0.289-0.043-0.633-0.066-1.031-0.067
		c-1.178-0.007-2.051,0.228-2.619,0.707s-0.851,1.245-0.848,2.302c0.005,0.623,0.094,1.124,0.268,1.504
		c0.174,0.381,0.408,0.678,0.701,0.893c-0.266,0.168-0.47,0.357-0.613,0.57c-0.145,0.213-0.217,0.459-0.219,0.738
		c0.002,0.296,0.087,0.549,0.254,0.758c0.168,0.21,0.406,0.383,0.714,0.518c-0.411,0.191-0.761,0.457-1.047,0.797
		c-0.286,0.339-0.436,0.771-0.448,1.295c-0.016,0.762,0.271,1.35,0.857,1.765c0.588,0.415,1.571,0.625,2.949,0.63
		c1.418-0.015,2.449-0.277,3.094-0.787s0.961-1.176,0.951-1.999c0.006-0.61-0.145-1.073-0.453-1.388
		c-0.309-0.315-0.809-0.545-1.5-0.688c-0.322-0.075-0.68-0.154-1.07-0.236c-0.392-0.081-0.816-0.172-1.276-0.273
		c-0.497-0.108-0.825-0.219-0.986-0.332c-0.161-0.112-0.235-0.24-0.222-0.383c0-0.108,0.034-0.205,0.1-0.291
		c0.066-0.085,0.164-0.17,0.292-0.252c0.129,0.043,0.288,0.079,0.476,0.107c0.189,0.029,0.398,0.044,0.63,0.045
		c1.187,0.008,2.062-0.225,2.626-0.701c0.565-0.475,0.846-1.244,0.842-2.306c-0.002-0.347-0.037-0.636-0.106-0.867
		s-0.165-0.419-0.284-0.562c0.214-0.025,0.436-0.051,0.662-0.076c0.228-0.025,0.448-0.051,0.663-0.076V130.79z"/>
	<path fill-rule="evenodd" clip-rule="evenodd" d="M96.182,135.343v1.785c-0.384,0.258-0.731,0.459-1.042,0.602
		s-0.633,0.215-0.965,0.217c-0.33,0.002-0.595-0.092-0.796-0.283s-0.305-0.494-0.311-0.908c-0.016-0.469,0.16-0.82,0.527-1.057
		s1.02-0.355,1.956-0.355H96.182z M96.182,134.105h-0.731c-1.473,0.006-2.523,0.252-3.156,0.736
		c-0.631,0.484-0.939,1.168-0.924,2.051c0.014,0.831,0.238,1.449,0.674,1.855s1.004,0.609,1.705,0.607
		c0.52-0.008,0.99-0.102,1.41-0.284c0.42-0.182,0.834-0.403,1.243-0.666l0.103,0.78h1.562v-5.914
		c0.015-0.906-0.214-1.576-0.682-2.008c-0.468-0.433-1.261-0.646-2.377-0.644c-0.508,0.002-0.997,0.036-1.47,0.102
		c-0.471,0.065-0.939,0.151-1.403,0.255l0.187,1.393c0.396-0.086,0.788-0.156,1.175-0.209s0.782-0.079,1.188-0.08
		c0.531,0,0.915,0.106,1.15,0.32c0.236,0.215,0.352,0.539,0.347,0.973V134.105z"/>
	<path fill-rule="evenodd" clip-rule="evenodd" d="M100.595,139.185h1.885v-6.171c0.44-0.281,0.845-0.496,1.213-0.644
		c0.367-0.148,0.712-0.223,1.033-0.223c0.433-0.01,0.754,0.106,0.963,0.348c0.209,0.242,0.313,0.664,0.313,1.267v5.423h1.868v-5.779
		c0.004-0.963-0.199-1.667-0.609-2.111s-1.051-0.664-1.922-0.658c-0.54,0.004-1.06,0.098-1.559,0.28s-1.006,0.429-1.521,0.738
		l-0.102-0.865h-1.563V139.185z"/>
	<path fill-rule="evenodd" clip-rule="evenodd" d="M112.488,128.051c0.009-0.409-0.068-0.69-0.229-0.847
		c-0.162-0.156-0.459-0.23-0.893-0.223c-0.426-0.008-0.721,0.066-0.885,0.223s-0.243,0.438-0.236,0.847
		c-0.007,0.409,0.072,0.69,0.236,0.847s0.459,0.23,0.885,0.223c0.434,0.008,0.73-0.066,0.893-0.223
		C112.419,128.742,112.497,128.46,112.488,128.051z M110.433,139.185h1.885v-8.396h-1.885V139.185z"/>
	<polygon fill-rule="evenodd" clip-rule="evenodd" points="114.232,139.185 120.298,139.185 120.298,137.726 116.441,137.726 
		120.197,131.841 120.197,130.79 114.47,130.79 114.47,132.266 117.97,132.266 114.232,138.116 	"/>
	<path fill-rule="evenodd" clip-rule="evenodd" d="M126.316,135.343v1.785c-0.383,0.258-0.73,0.459-1.041,0.602
		s-0.633,0.215-0.965,0.217c-0.33,0.002-0.596-0.092-0.797-0.283s-0.305-0.494-0.311-0.908c-0.016-0.469,0.16-0.82,0.527-1.057
		s1.02-0.355,1.957-0.355H126.316z M126.316,134.105h-0.73c-1.473,0.006-2.523,0.252-3.156,0.736
		c-0.631,0.484-0.939,1.168-0.924,2.051c0.014,0.831,0.238,1.449,0.674,1.855s1.004,0.609,1.705,0.607
		c0.52-0.008,0.99-0.102,1.41-0.284c0.42-0.182,0.834-0.403,1.242-0.666l0.104,0.78h1.561v-5.914
		c0.016-0.906-0.213-1.576-0.682-2.008c-0.467-0.433-1.26-0.646-2.377-0.644c-0.508,0.002-0.996,0.036-1.469,0.102
		c-0.471,0.065-0.939,0.151-1.404,0.255l0.188,1.393c0.396-0.086,0.787-0.156,1.174-0.209s0.783-0.079,1.189-0.08
		c0.531,0,0.914,0.106,1.15,0.32c0.236,0.215,0.352,0.539,0.346,0.973V134.105z"/>
	<path fill-rule="evenodd" clip-rule="evenodd" d="M129.693,130.79v1.426h1.24v4.983c-0.01,0.742,0.156,1.287,0.496,1.631
		s0.916,0.514,1.73,0.509c0.33-0.001,0.635-0.024,0.912-0.07c0.279-0.046,0.543-0.106,0.787-0.185l-0.17-1.357
		c-0.16,0.051-0.32,0.092-0.48,0.123c-0.16,0.029-0.328,0.045-0.506,0.047c-0.305,0.006-0.527-0.078-0.672-0.254
		c-0.143-0.174-0.213-0.476-0.211-0.903v-4.523h1.869v-1.426h-1.869v-2.669l-1.887,0.255v2.414H129.693z"/>
	<path fill-rule="evenodd" clip-rule="evenodd" d="M138.609,128.051c0.01-0.409-0.066-0.69-0.229-0.847s-0.459-0.23-0.891-0.223
		c-0.426-0.008-0.721,0.066-0.887,0.223c-0.164,0.156-0.242,0.438-0.234,0.847c-0.008,0.409,0.07,0.69,0.234,0.847
		c0.166,0.156,0.461,0.23,0.887,0.223c0.432,0.008,0.729-0.066,0.891-0.223S138.619,128.46,138.609,128.051z M136.554,139.185h1.885
		v-8.396h-1.885V139.185z"/>
	<path fill-rule="evenodd" clip-rule="evenodd" d="M146.287,135.004c0,0.813-0.068,1.436-0.205,1.868
		c-0.139,0.432-0.346,0.727-0.625,0.885c-0.281,0.158-0.633,0.232-1.057,0.223c-0.426,0.01-0.777-0.065-1.057-0.225
		c-0.279-0.158-0.488-0.457-0.627-0.894c-0.137-0.437-0.205-1.067-0.205-1.892c0-0.813,0.068-1.434,0.205-1.863
		s0.344-0.721,0.621-0.877c0.277-0.154,0.625-0.229,1.045-0.219c0.426-0.01,0.779,0.066,1.061,0.225
		c0.283,0.158,0.494,0.455,0.635,0.889C146.216,133.559,146.287,134.185,146.287,135.004z M148.171,134.937
		c0-1.157-0.145-2.055-0.432-2.693c-0.287-0.64-0.709-1.084-1.264-1.334c-0.557-0.25-1.236-0.369-2.043-0.358
		c-0.801-0.009-1.486,0.12-2.053,0.39c-0.566,0.268-1,0.729-1.301,1.385c-0.299,0.656-0.451,1.561-0.453,2.713
		c0.002,1.156,0.145,2.055,0.432,2.693s0.709,1.083,1.264,1.332c0.557,0.25,1.236,0.37,2.043,0.359
		c0.803,0.01,1.486-0.121,2.053-0.389c0.566-0.269,1-0.73,1.301-1.386S148.169,136.089,148.171,134.937z"/>
	<path fill-rule="evenodd" clip-rule="evenodd" d="M150.363,139.185h1.885v-6.171c0.439-0.281,0.844-0.496,1.211-0.644
		c0.367-0.148,0.713-0.223,1.033-0.223c0.434-0.01,0.754,0.106,0.963,0.348c0.211,0.242,0.314,0.664,0.313,1.267v5.423h1.869v-5.779
		c0.004-0.963-0.199-1.667-0.609-2.111s-1.051-0.664-1.922-0.658c-0.541,0.004-1.061,0.098-1.559,0.28
		c-0.5,0.183-1.006,0.429-1.52,0.738l-0.104-0.865h-1.561V139.185z"/>
	<path fill-rule="evenodd" clip-rule="evenodd" d="M162.169,138.217c0.008-0.417-0.068-0.708-0.232-0.87
		c-0.162-0.163-0.465-0.24-0.906-0.234c-0.447-0.006-0.752,0.071-0.912,0.234c-0.16,0.162-0.234,0.453-0.225,0.87
		c-0.01,0.417,0.064,0.708,0.225,0.87c0.16,0.163,0.465,0.24,0.912,0.234c0.441,0.006,0.744-0.071,0.906-0.234
		C162.101,138.925,162.177,138.634,162.169,138.217z"/>
	<path fill-rule="evenodd" clip-rule="evenodd" d="M65.041,114.3c0.404-0.275,0.765-0.485,1.082-0.631
		c0.317-0.146,0.614-0.221,0.891-0.223c0.33-0.008,0.611,0.063,0.845,0.211s0.411,0.426,0.534,0.833s0.186,0.995,0.187,1.763
		c-0.019,1.141-0.22,1.92-0.603,2.336c-0.382,0.416-0.834,0.613-1.354,0.59c-0.277-0.001-0.541-0.043-0.791-0.126
		c-0.251-0.083-0.515-0.206-0.791-0.368V114.3z M63.156,124.089h1.885v-2.091c0-0.303-0.008-0.603-0.023-0.899
		c-0.016-0.296-0.036-0.607-0.062-0.936l0.017-0.018c0.297,0.154,0.605,0.278,0.928,0.369c0.321,0.092,0.664,0.139,1.028,0.141
		c0.995,0.019,1.827-0.316,2.495-1.005c0.667-0.688,1.014-1.843,1.04-3.466c-0.009-1.612-0.271-2.73-0.786-3.354
		c-0.514-0.624-1.227-0.922-2.137-0.894c-0.496,0.006-0.963,0.1-1.398,0.283c-0.438,0.185-0.877,0.424-1.322,0.718l-0.102-0.849
		h-1.563V124.089z"/>
	<path fill-rule="evenodd" clip-rule="evenodd" d="M72.605,120.486h1.885v-6.154c0.364-0.24,0.689-0.431,0.975-0.57
		c0.286-0.139,0.539-0.209,0.76-0.212c0.143,0,0.272,0.013,0.389,0.038c0.115,0.025,0.224,0.064,0.324,0.115l0.238-1.682
		c-0.092-0.059-0.192-0.102-0.302-0.129c-0.108-0.027-0.235-0.041-0.378-0.041c-0.373,0.01-0.741,0.127-1.107,0.349
		c-0.365,0.222-0.738,0.491-1.119,0.806l-0.102-0.916h-1.563V120.486z"/>
	<path fill-rule="evenodd" clip-rule="evenodd" d="M83.582,116.304c0,0.813-0.068,1.436-0.206,1.867
		c-0.138,0.433-0.347,0.728-0.626,0.886c-0.279,0.157-0.631,0.232-1.057,0.224c-0.424,0.01-0.776-0.066-1.056-0.225
		c-0.279-0.16-0.488-0.457-0.626-0.895c-0.137-0.437-0.206-1.066-0.205-1.891c-0.001-0.813,0.067-1.434,0.205-1.863
		c0.137-0.43,0.344-0.722,0.621-0.877s0.625-0.229,1.044-0.219c0.425-0.01,0.778,0.064,1.062,0.224
		c0.281,0.159,0.493,0.455,0.633,0.89C83.511,114.859,83.582,115.486,83.582,116.304z M85.466,116.236
		c-0.002-1.156-0.146-2.054-0.433-2.693c-0.287-0.639-0.708-1.082-1.264-1.332s-1.236-0.369-2.042-0.359
		c-0.803-0.009-1.486,0.121-2.053,0.389c-0.566,0.27-1,0.73-1.301,1.387c-0.3,0.655-0.451,1.559-0.454,2.712
		c0.001,1.157,0.146,2.055,0.433,2.693c0.287,0.64,0.709,1.083,1.264,1.333c0.556,0.25,1.236,0.369,2.043,0.359
		c0.802,0.008,1.486-0.121,2.053-0.389c0.566-0.27,1-0.73,1.3-1.387S85.464,117.389,85.466,116.236z"/>
	<path fill-rule="evenodd" clip-rule="evenodd" d="M89.71,109.351c0.01-0.408-0.067-0.69-0.229-0.847
		c-0.162-0.155-0.459-0.229-0.892-0.224c-0.426-0.006-0.721,0.068-0.886,0.224c-0.164,0.156-0.242,0.438-0.235,0.847
		c-0.007,0.409,0.071,0.691,0.235,0.848c0.165,0.156,0.46,0.23,0.886,0.223c0.433,0.008,0.729-0.066,0.892-0.223
		C89.643,110.042,89.72,109.76,89.71,109.351z M89.541,112.089h-1.885v8.977c0.01,0.563-0.086,0.996-0.289,1.296
		c-0.202,0.3-0.57,0.452-1.104,0.454c-0.171,0-0.348-0.008-0.529-0.025c-0.182-0.017-0.362-0.042-0.542-0.076l-0.152,1.409
		c0.235,0.052,0.469,0.089,0.701,0.114c0.231,0.025,0.474,0.039,0.727,0.039c1.191-0.002,2.008-0.287,2.448-0.854
		c0.441-0.566,0.65-1.404,0.626-2.511V112.089z"/>
	<path fill-rule="evenodd" clip-rule="evenodd" d="M93.629,115.558c0.026-0.884,0.187-1.486,0.48-1.809s0.718-0.474,1.271-0.455
		c0.558-0.021,0.962,0.123,1.214,0.436c0.253,0.313,0.381,0.922,0.385,1.828H93.629z M98.119,118.923
		c-0.393,0.086-0.771,0.156-1.135,0.209c-0.363,0.052-0.75,0.078-1.16,0.08c-0.514,0.01-0.93-0.045-1.25-0.161
		c-0.319-0.116-0.557-0.349-0.709-0.698c-0.153-0.35-0.238-0.867-0.252-1.557h5.015c0.017-0.193,0.03-0.379,0.038-0.556
		c0.009-0.177,0.014-0.354,0.014-0.53c0.002-1.012-0.11-1.799-0.336-2.361c-0.225-0.563-0.575-0.955-1.052-1.178
		c-0.476-0.223-1.091-0.328-1.842-0.32c-0.758-0.009-1.415,0.121-1.97,0.389c-0.557,0.27-0.986,0.73-1.29,1.387
		c-0.304,0.655-0.458,1.559-0.462,2.712c0.002,1.188,0.15,2.095,0.444,2.722c0.294,0.625,0.721,1.051,1.279,1.277
		c0.56,0.225,1.236,0.332,2.032,0.318c0.514-0.002,0.999-0.033,1.453-0.094c0.455-0.061,0.905-0.143,1.352-0.246L98.119,118.923z"/>
	<path fill-rule="evenodd" clip-rule="evenodd" d="M106.007,118.958c-0.285,0.077-0.576,0.14-0.875,0.185
		c-0.298,0.046-0.572,0.069-0.824,0.07c-0.475,0.009-0.861-0.064-1.159-0.222c-0.298-0.156-0.517-0.446-0.657-0.872
		c-0.139-0.424-0.208-1.035-0.207-1.831c0.002-0.808,0.084-1.421,0.244-1.843c0.162-0.421,0.392-0.707,0.69-0.855
		c0.3-0.149,0.656-0.219,1.071-0.21c0.313,0.001,0.613,0.021,0.901,0.06s0.571,0.093,0.851,0.162l0.17-1.393
		c-0.317-0.086-0.652-0.156-1.006-0.209c-0.353-0.052-0.709-0.078-1.068-0.08c-0.752-0.01-1.408,0.117-1.967,0.379
		s-0.992,0.715-1.301,1.361c-0.309,0.645-0.466,1.537-0.471,2.679c0,1.134,0.131,2.017,0.395,2.646
		c0.263,0.629,0.66,1.068,1.193,1.315s1.205,0.366,2.014,0.356c0.362-0.002,0.73-0.032,1.105-0.09
		c0.375-0.057,0.727-0.129,1.055-0.217L106.007,118.958z"/>
	<path fill-rule="evenodd" clip-rule="evenodd" d="M107.129,112.089v1.426h1.241v4.982c-0.01,0.744,0.154,1.287,0.494,1.631
		s0.917,0.514,1.73,0.51c0.33-0.001,0.635-0.023,0.914-0.07c0.279-0.045,0.541-0.106,0.786-0.184l-0.17-1.359
		c-0.16,0.053-0.32,0.094-0.48,0.124s-0.329,0.046-0.506,0.046c-0.305,0.007-0.528-0.078-0.671-0.252
		c-0.144-0.175-0.215-0.477-0.213-0.904v-4.523h1.87v-1.426h-1.87v-2.669l-1.885,0.255v2.414H107.129z"/>
	<path fill-rule="evenodd" clip-rule="evenodd" d="M113.43,120.35c0.38,0.095,0.755,0.169,1.125,0.223s0.755,0.081,1.151,0.083
		c1.273-0.006,2.195-0.229,2.764-0.669c0.57-0.44,0.85-1.067,0.84-1.88c0.008-0.697-0.17-1.221-0.535-1.57
		c-0.365-0.352-0.969-0.684-1.809-0.998c-0.691-0.26-1.156-0.479-1.398-0.656s-0.354-0.383-0.338-0.619
		c0.002-0.329,0.135-0.57,0.398-0.725c0.262-0.152,0.646-0.229,1.15-0.227c0.322,0.002,0.643,0.027,0.959,0.078
		c0.314,0.051,0.631,0.115,0.943,0.193l0.205-1.375c-0.293-0.079-0.613-0.146-0.961-0.201c-0.348-0.057-0.701-0.086-1.063-0.088
		c-1.123,0-1.967,0.207-2.532,0.622s-0.849,1.034-0.85,1.858c-0.009,0.627,0.157,1.112,0.499,1.459
		c0.342,0.346,0.912,0.67,1.709,0.973c0.732,0.281,1.229,0.514,1.488,0.697c0.262,0.184,0.383,0.416,0.367,0.697
		c0.004,0.326-0.137,0.58-0.418,0.762s-0.727,0.273-1.336,0.275c-0.322,0-0.662-0.028-1.023-0.082
		c-0.359-0.055-0.743-0.129-1.15-0.224L113.43,120.35z"/>
	<path fill-rule="evenodd" clip-rule="evenodd" d="M130.748,116.304c0,0.813-0.068,1.436-0.207,1.867
		c-0.137,0.433-0.346,0.728-0.625,0.886c-0.279,0.157-0.631,0.232-1.057,0.224c-0.426,0.01-0.777-0.066-1.057-0.225
		c-0.279-0.16-0.488-0.457-0.625-0.895c-0.139-0.437-0.207-1.066-0.207-1.891c0-0.813,0.068-1.434,0.205-1.863
		c0.139-0.43,0.346-0.722,0.621-0.877c0.277-0.155,0.627-0.229,1.045-0.219c0.426-0.01,0.779,0.064,1.061,0.224
		c0.283,0.159,0.494,0.455,0.635,0.89C130.677,114.859,130.748,115.486,130.748,116.304z M132.632,116.236
		c-0.002-1.156-0.146-2.054-0.434-2.693c-0.287-0.639-0.709-1.082-1.264-1.332s-1.236-0.369-2.043-0.359
		c-0.801-0.009-1.484,0.121-2.051,0.389c-0.568,0.27-1,0.73-1.301,1.387c-0.301,0.655-0.451,1.559-0.455,2.712
		c0.002,1.157,0.146,2.055,0.434,2.693c0.287,0.64,0.707,1.083,1.264,1.333c0.555,0.25,1.236,0.369,2.043,0.359
		c0.801,0.008,1.484-0.121,2.051-0.389c0.568-0.27,1-0.73,1.301-1.387S132.628,117.389,132.632,116.236z"/>
	<path fill-rule="evenodd" clip-rule="evenodd" d="M135.111,120.486h1.885v-6.971h2.262v-1.426h-2.262v-1.275
		c-0.008-0.561,0.1-0.979,0.322-1.255s0.604-0.413,1.139-0.413c0.223,0.001,0.43,0.012,0.625,0.035
		c0.195,0.021,0.379,0.05,0.549,0.084l0.17-1.393c-0.23-0.051-0.475-0.092-0.734-0.123c-0.26-0.029-0.531-0.045-0.813-0.046
		c-1.186-0.003-2.012,0.266-2.477,0.805s-0.686,1.364-0.666,2.476v1.105h-1.309v1.426h1.309V120.486z"/>
	<path fill-rule="evenodd" clip-rule="evenodd" d="M143.837,112.089v1.426h1.24v4.982c-0.01,0.744,0.156,1.287,0.496,1.631
		s0.916,0.514,1.73,0.51c0.33-0.001,0.635-0.023,0.912-0.07c0.279-0.045,0.543-0.106,0.787-0.184l-0.17-1.359
		c-0.16,0.053-0.32,0.094-0.48,0.124s-0.328,0.046-0.506,0.046c-0.305,0.007-0.527-0.078-0.672-0.252
		c-0.143-0.175-0.213-0.477-0.211-0.904v-4.523h1.869v-1.426h-1.869v-2.669l-1.887,0.255v2.414H143.837z"/>
	<path fill-rule="evenodd" clip-rule="evenodd" d="M150.699,120.486h1.885v-6.172c0.441-0.281,0.846-0.496,1.213-0.644
		s0.713-0.222,1.033-0.224c0.434-0.008,0.754,0.107,0.963,0.35c0.209,0.241,0.314,0.663,0.313,1.266v5.424h1.869v-5.78
		c0.004-0.963-0.199-1.667-0.609-2.11c-0.41-0.445-1.051-0.664-1.922-0.658c-0.541,0.006-1.051,0.096-1.527,0.27
		s-0.943,0.395-1.398,0.664l-0.018-0.018c0.025-0.36,0.047-0.691,0.061-0.996c0.016-0.303,0.023-0.605,0.023-0.906v-3.01h-1.885
		V120.486z"/>
	<path fill-rule="evenodd" clip-rule="evenodd" d="M161.937,115.558c0.025-0.884,0.186-1.486,0.48-1.809
		c0.293-0.322,0.717-0.474,1.271-0.455c0.557-0.021,0.961,0.123,1.215,0.436c0.252,0.313,0.381,0.922,0.385,1.828H161.937z
		 M166.425,118.923c-0.393,0.086-0.771,0.156-1.133,0.209c-0.363,0.052-0.752,0.078-1.162,0.08c-0.514,0.01-0.93-0.045-1.25-0.161
		c-0.318-0.116-0.555-0.349-0.709-0.698c-0.152-0.35-0.236-0.867-0.252-1.557h5.016c0.018-0.193,0.029-0.379,0.037-0.556
		c0.01-0.177,0.014-0.354,0.014-0.53c0.002-1.012-0.109-1.799-0.334-2.361c-0.227-0.563-0.576-0.955-1.053-1.178
		s-1.09-0.328-1.842-0.32c-0.758-0.009-1.416,0.121-1.971,0.389c-0.555,0.27-0.984,0.73-1.289,1.387
		c-0.305,0.655-0.459,1.559-0.463,2.712c0.002,1.188,0.15,2.095,0.445,2.722c0.293,0.625,0.721,1.051,1.279,1.277
		c0.559,0.225,1.236,0.332,2.031,0.318c0.516-0.002,1-0.033,1.455-0.094c0.453-0.061,0.904-0.143,1.35-0.246L166.425,118.923z"/>
	<path fill-rule="evenodd" clip-rule="evenodd" d="M22.628,93.39v1.426h1.242v4.983c-0.012,0.744,0.154,1.287,0.494,1.631
		s0.916,0.514,1.73,0.509c0.33-0.001,0.635-0.024,0.913-0.07c0.279-0.045,0.542-0.107,0.786-0.185l-0.17-1.358
		c-0.16,0.052-0.32,0.093-0.48,0.124c-0.16,0.03-0.328,0.046-0.506,0.046c-0.305,0.006-0.527-0.078-0.671-0.253
		s-0.214-0.476-0.212-0.903v-4.524h1.869V93.39h-1.869v-2.669l-1.885,0.255v2.414H22.628z"/>
	<path fill-rule="evenodd" clip-rule="evenodd" d="M29.383,101.786h1.885v-6.171c0.44-0.281,0.845-0.496,1.212-0.644
		s0.713-0.222,1.033-0.223c0.434-0.009,0.754,0.107,0.963,0.349c0.21,0.242,0.314,0.664,0.313,1.267v5.423h1.869v-5.78
		c0.003-0.963-0.199-1.667-0.609-2.111s-1.051-0.664-1.922-0.658c-0.541,0.006-1.051,0.096-1.527,0.27
		c-0.477,0.173-0.943,0.395-1.398,0.664l-0.018-0.017c0.025-0.36,0.047-0.692,0.062-0.996s0.022-0.605,0.023-0.907v-3.009h-1.885
		V101.786z"/>
	<path fill-rule="evenodd" clip-rule="evenodd" d="M43.287,97.943v1.785c-0.385,0.258-0.731,0.458-1.043,0.601
		c-0.311,0.143-0.633,0.215-0.965,0.217c-0.329,0.002-0.594-0.092-0.795-0.283c-0.201-0.191-0.305-0.494-0.311-0.908
		c-0.016-0.468,0.16-0.82,0.527-1.057s1.02-0.355,1.956-0.355H43.287z M43.287,96.705h-0.732c-1.472,0.007-2.523,0.252-3.155,0.737
		s-0.94,1.168-0.924,2.05c0.013,0.832,0.237,1.451,0.673,1.857s1.004,0.608,1.705,0.607c0.52-0.008,0.99-0.103,1.41-0.284
		c0.42-0.182,0.834-0.404,1.244-0.667l0.102,0.781h1.563v-5.915c0.014-0.907-0.214-1.576-0.682-2.008
		c-0.469-0.433-1.262-0.647-2.377-0.644c-0.508,0.002-0.998,0.036-1.47,0.102c-0.472,0.066-0.939,0.151-1.404,0.255l0.187,1.393
		c0.396-0.086,0.789-0.156,1.176-0.208c0.386-0.053,0.782-0.08,1.188-0.081c0.531,0,0.915,0.106,1.15,0.321
		c0.236,0.214,0.352,0.538,0.348,0.972V96.705z"/>
	<path fill-rule="evenodd" clip-rule="evenodd" d="M46.554,93.39v1.426h1.242v4.983c-0.011,0.744,0.154,1.287,0.494,1.631
		s0.916,0.514,1.73,0.509c0.33-0.001,0.635-0.024,0.914-0.07c0.278-0.045,0.541-0.107,0.785-0.185l-0.17-1.358
		c-0.16,0.052-0.32,0.093-0.48,0.124c-0.16,0.03-0.328,0.046-0.506,0.046c-0.304,0.006-0.527-0.078-0.671-0.253
		s-0.214-0.476-0.212-0.903v-4.524h1.869V93.39h-1.869v-2.669l-1.885,0.255v2.414H46.554z"/>
	<path fill-rule="evenodd" clip-rule="evenodd" d="M61.667,97.943v1.785c-0.383,0.258-0.73,0.458-1.042,0.601
		s-0.633,0.215-0.966,0.217c-0.328,0.002-0.594-0.092-0.795-0.283c-0.201-0.191-0.305-0.494-0.311-0.908
		c-0.016-0.468,0.16-0.82,0.527-1.057s1.02-0.355,1.957-0.355H61.667z M61.667,96.705h-0.731c-1.472,0.007-2.524,0.252-3.155,0.737
		c-0.633,0.484-0.939,1.168-0.924,2.05c0.013,0.832,0.236,1.451,0.672,1.857s1.005,0.608,1.706,0.607
		c0.521-0.008,0.989-0.103,1.409-0.284c0.42-0.182,0.835-0.404,1.244-0.667l0.102,0.781h1.563v-5.915
		c0.014-0.907-0.213-1.576-0.682-2.008c-0.469-0.433-1.26-0.647-2.377-0.644c-0.508,0.002-0.998,0.036-1.469,0.102
		c-0.472,0.066-0.939,0.151-1.404,0.255l0.188,1.393c0.396-0.086,0.787-0.156,1.174-0.208c0.387-0.053,0.783-0.08,1.188-0.081
		c0.531,0,0.915,0.106,1.15,0.321c0.235,0.214,0.352,0.538,0.347,0.972V96.705z"/>
	<path fill-rule="evenodd" clip-rule="evenodd" d="M65.973,101.786h1.886v-6.154c0.363-0.241,0.689-0.431,0.975-0.57
		c0.286-0.139,0.539-0.209,0.759-0.212c0.144,0,0.272,0.013,0.389,0.038s0.225,0.064,0.325,0.115l0.238-1.681
		c-0.092-0.059-0.193-0.102-0.302-0.129c-0.109-0.027-0.235-0.041-0.378-0.04c-0.373,0.01-0.742,0.125-1.107,0.348
		c-0.365,0.222-0.739,0.491-1.119,0.806l-0.103-0.917h-1.563V101.786z"/>
	<path fill-rule="evenodd" clip-rule="evenodd" d="M73.083,96.858c0.026-0.883,0.187-1.486,0.48-1.808
		c0.295-0.322,0.719-0.474,1.271-0.455c0.557-0.021,0.962,0.124,1.215,0.436c0.252,0.312,0.381,0.921,0.385,1.827H73.083z
		 M77.572,100.224c-0.393,0.086-0.77,0.156-1.133,0.208c-0.363,0.052-0.75,0.079-1.16,0.081c-0.514,0.009-0.932-0.045-1.25-0.161
		c-0.32-0.117-0.557-0.35-0.71-0.698c-0.153-0.349-0.237-0.868-0.252-1.557h5.015c0.018-0.194,0.029-0.379,0.039-0.556
		c0.008-0.177,0.012-0.354,0.012-0.53c0.002-1.012-0.109-1.798-0.334-2.361c-0.226-0.563-0.576-0.955-1.053-1.178
		c-0.477-0.222-1.09-0.329-1.842-0.32c-0.758-0.009-1.414,0.12-1.971,0.389c-0.555,0.268-0.984,0.73-1.289,1.386
		s-0.458,1.56-0.463,2.712c0.003,1.188,0.151,2.095,0.445,2.721c0.295,0.626,0.721,1.052,1.279,1.278s1.236,0.332,2.032,0.318
		c0.515-0.001,0.999-0.033,1.454-0.093c0.454-0.061,0.904-0.143,1.35-0.246L77.572,100.224z"/>
	<path fill-rule="evenodd" clip-rule="evenodd" d="M86.404,90.651c0.008-0.408-0.068-0.69-0.23-0.847
		c-0.16-0.156-0.458-0.23-0.891-0.223c-0.426-0.008-0.721,0.066-0.886,0.223s-0.243,0.438-0.235,0.847
		c-0.008,0.409,0.07,0.691,0.235,0.847c0.165,0.156,0.46,0.23,0.886,0.223c0.433,0.007,0.73-0.067,0.891-0.223
		C86.335,91.343,86.412,91.061,86.404,90.651z M84.348,101.786h1.886V93.39h-1.886V101.786z"/>
	<path fill-rule="evenodd" clip-rule="evenodd" d="M88.771,101.786h1.885v-6.171c0.44-0.281,0.844-0.496,1.213-0.644
		c0.367-0.147,0.711-0.222,1.033-0.223c0.432-0.009,0.754,0.107,0.963,0.349s0.313,0.664,0.313,1.267v5.423h1.867v-5.78
		c0.004-0.963-0.199-1.667-0.609-2.111s-1.051-0.664-1.922-0.658c-0.539,0.004-1.059,0.098-1.559,0.28
		c-0.498,0.183-1.006,0.429-1.52,0.739l-0.102-0.866h-1.563V101.786z"/>
	<path fill-rule="evenodd" clip-rule="evenodd" d="M103.65,100.258c-0.285,0.077-0.577,0.139-0.875,0.185
		c-0.299,0.046-0.574,0.069-0.825,0.07c-0.474,0.009-0.86-0.065-1.159-0.222c-0.298-0.156-0.518-0.447-0.656-0.872
		c-0.14-0.424-0.209-1.035-0.207-1.831c0.002-0.807,0.083-1.421,0.244-1.843c0.161-0.421,0.391-0.707,0.689-0.855
		c0.299-0.149,0.656-0.22,1.072-0.21c0.313,0,0.613,0.021,0.9,0.06c0.288,0.039,0.571,0.093,0.851,0.161l0.17-1.392
		c-0.317-0.086-0.652-0.156-1.005-0.208c-0.354-0.052-0.71-0.079-1.069-0.081c-0.753-0.009-1.407,0.117-1.966,0.379
		c-0.559,0.262-0.992,0.715-1.301,1.36c-0.31,0.646-0.467,1.539-0.471,2.68c-0.001,1.135,0.131,2.016,0.393,2.646
		c0.264,0.629,0.662,1.067,1.195,1.315c0.533,0.248,1.204,0.366,2.014,0.356c0.361-0.002,0.73-0.032,1.105-0.089
		c0.374-0.057,0.726-0.129,1.053-0.216L103.65,100.258z"/>
	<rect x="105.769" y="89.242" fill-rule="evenodd" clip-rule="evenodd" width="1.885" height="12.544"/>
	<path fill-rule="evenodd" clip-rule="evenodd" d="M110.14,93.39v5.797c-0.003,0.963,0.203,1.667,0.618,2.111
		c0.415,0.444,1.059,0.664,1.931,0.658c0.541-0.004,1.063-0.098,1.564-0.282c0.503-0.184,1.008-0.436,1.514-0.753l0.119,0.866h1.545
		V93.39h-1.885v6.169c-0.434,0.282-0.834,0.498-1.205,0.646s-0.719,0.222-1.04,0.223c-0.433,0.009-0.754-0.107-0.964-0.349
		c-0.209-0.241-0.313-0.664-0.313-1.267V93.39H110.14z"/>
	<path fill-rule="evenodd" clip-rule="evenodd" d="M124.919,99.593c-0.404,0.273-0.766,0.481-1.082,0.622
		c-0.318,0.142-0.615,0.212-0.891,0.213c-0.33,0.008-0.611-0.062-0.846-0.209c-0.232-0.148-0.41-0.424-0.533-0.829
		s-0.186-0.988-0.188-1.751c0.02-1.149,0.221-1.933,0.602-2.351c0.383-0.418,0.834-0.615,1.355-0.591
		c0.275,0.001,0.539,0.045,0.791,0.132c0.25,0.086,0.514,0.207,0.791,0.361V99.593z M125.259,101.786h1.545V89.242h-1.885v2.635
		c0,0.303,0.008,0.602,0.023,0.898s0.035,0.608,0.061,0.937l-0.016,0.017c-0.297-0.154-0.605-0.274-0.928-0.361
		c-0.322-0.086-0.664-0.13-1.029-0.131c-0.996-0.02-1.826,0.313-2.494,0.998c-0.668,0.686-1.014,1.842-1.041,3.471
		c0.01,1.613,0.275,2.732,0.793,3.356s1.227,0.922,2.131,0.894c0.496-0.006,0.961-0.104,1.398-0.293
		c0.436-0.189,0.877-0.431,1.322-0.726L125.259,101.786z"/>
	<path fill-rule="evenodd" clip-rule="evenodd" d="M130.773,96.858c0.027-0.883,0.188-1.486,0.48-1.808
		c0.295-0.322,0.719-0.474,1.271-0.455c0.557-0.021,0.963,0.124,1.215,0.436c0.252,0.312,0.381,0.921,0.385,1.827H130.773z
		 M135.263,100.224c-0.393,0.086-0.771,0.156-1.135,0.208c-0.363,0.052-0.75,0.079-1.16,0.081c-0.514,0.009-0.93-0.045-1.25-0.161
		c-0.32-0.117-0.557-0.35-0.709-0.698c-0.154-0.349-0.238-0.868-0.252-1.557h5.014c0.018-0.194,0.031-0.379,0.039-0.556
		s0.012-0.354,0.012-0.53c0.002-1.012-0.109-1.798-0.334-2.361c-0.225-0.563-0.576-0.955-1.053-1.178
		c-0.477-0.222-1.09-0.329-1.842-0.32c-0.758-0.009-1.414,0.12-1.969,0.389c-0.557,0.268-0.986,0.73-1.291,1.386
		c-0.303,0.656-0.457,1.56-0.461,2.712c0.002,1.188,0.15,2.095,0.443,2.721c0.295,0.626,0.721,1.052,1.279,1.278
		s1.236,0.332,2.033,0.318c0.514-0.001,0.998-0.033,1.453-0.093c0.455-0.061,0.904-0.143,1.35-0.246L135.263,100.224z"/>
	<path fill-rule="evenodd" clip-rule="evenodd" d="M142.826,99.593c-0.404,0.273-0.766,0.481-1.082,0.622
		c-0.318,0.142-0.615,0.212-0.891,0.213c-0.33,0.008-0.611-0.062-0.846-0.209c-0.232-0.148-0.41-0.424-0.533-0.829
		s-0.186-0.988-0.188-1.751c0.02-1.149,0.221-1.933,0.604-2.351c0.381-0.418,0.832-0.615,1.354-0.591
		c0.277,0.001,0.541,0.045,0.791,0.132s0.514,0.207,0.791,0.361V99.593z M143.166,101.786h1.545V89.242h-1.885v2.635
		c0,0.303,0.008,0.602,0.023,0.898s0.035,0.608,0.061,0.937l-0.016,0.017c-0.297-0.154-0.605-0.274-0.928-0.361
		c-0.322-0.086-0.664-0.13-1.029-0.131c-0.994-0.02-1.826,0.313-2.494,0.998c-0.668,0.686-1.014,1.842-1.041,3.471
		c0.012,1.613,0.275,2.732,0.793,3.356s1.229,0.922,2.131,0.894c0.496-0.006,0.963-0.104,1.398-0.293
		c0.438-0.189,0.877-0.431,1.322-0.726L143.166,101.786z"/>
	<path fill-rule="evenodd" clip-rule="evenodd" d="M153.435,90.651c0.008-0.408-0.068-0.69-0.23-0.847
		c-0.16-0.156-0.457-0.23-0.891-0.223c-0.426-0.008-0.721,0.066-0.885,0.223c-0.166,0.156-0.244,0.438-0.236,0.847
		c-0.008,0.409,0.07,0.691,0.236,0.847c0.164,0.156,0.459,0.23,0.885,0.223c0.434,0.007,0.73-0.067,0.891-0.223
		C153.367,91.343,153.443,91.061,153.435,90.651z M151.38,101.786h1.885V93.39h-1.885V101.786z"/>
	<path fill-rule="evenodd" clip-rule="evenodd" d="M155.802,101.786h1.885v-6.171c0.441-0.281,0.844-0.496,1.213-0.644
		c0.367-0.147,0.711-0.222,1.033-0.223c0.432-0.009,0.754,0.107,0.963,0.349s0.314,0.664,0.313,1.267v5.423h1.867v-5.78
		c0.004-0.963-0.199-1.667-0.609-2.111s-1.051-0.664-1.922-0.658c-0.539,0.004-1.059,0.098-1.559,0.28
		c-0.498,0.183-1.006,0.429-1.52,0.739l-0.102-0.866h-1.563V101.786z"/>
	<path fill-rule="evenodd" clip-rule="evenodd" d="M174.876,97.604c0,0.813-0.068,1.436-0.205,1.868
		c-0.139,0.432-0.346,0.727-0.627,0.885c-0.279,0.158-0.631,0.232-1.055,0.223c-0.426,0.009-0.777-0.066-1.057-0.225
		c-0.279-0.159-0.488-0.457-0.627-0.894c-0.137-0.437-0.205-1.067-0.205-1.891c0-0.813,0.068-1.434,0.205-1.863
		s0.344-0.721,0.621-0.876s0.625-0.229,1.045-0.219c0.424-0.009,0.779,0.065,1.061,0.224c0.281,0.158,0.494,0.455,0.635,0.889
		C174.806,96.16,174.876,96.786,174.876,97.604z M176.761,97.537c0-1.157-0.145-2.054-0.432-2.693s-0.709-1.083-1.264-1.333
		c-0.557-0.25-1.236-0.369-2.043-0.358c-0.803-0.009-1.486,0.12-2.053,0.389c-0.566,0.268-1,0.73-1.301,1.386
		c-0.299,0.656-0.451,1.56-0.453,2.712c0.002,1.157,0.145,2.055,0.432,2.693s0.709,1.083,1.264,1.333
		c0.557,0.25,1.236,0.369,2.043,0.358c0.803,0.009,1.486-0.12,2.053-0.389c0.566-0.268,1-0.73,1.301-1.386
		C176.607,99.594,176.759,98.689,176.761,97.537z"/>
	<path fill-rule="evenodd" clip-rule="evenodd" d="M177.74,93.39v1.426h1.24v4.983c-0.01,0.744,0.154,1.287,0.494,1.631
		s0.918,0.514,1.73,0.509c0.33-0.001,0.635-0.024,0.914-0.07s0.541-0.107,0.787-0.185l-0.17-1.358
		c-0.16,0.052-0.32,0.093-0.48,0.124c-0.16,0.03-0.33,0.046-0.506,0.046c-0.305,0.006-0.529-0.078-0.672-0.253
		s-0.215-0.476-0.213-0.903v-4.524h1.871V93.39h-1.871v-2.669l-1.885,0.255v2.414H177.74z"/>
	<path fill-rule="evenodd" clip-rule="evenodd" d="M184.494,101.786h1.885v-6.171c0.439-0.281,0.844-0.496,1.211-0.644
		c0.369-0.147,0.713-0.222,1.035-0.223c0.432-0.009,0.752,0.107,0.963,0.349c0.209,0.242,0.313,0.664,0.313,1.267v5.423h1.867v-5.78
		c0.004-0.963-0.199-1.667-0.609-2.111s-1.051-0.664-1.922-0.658c-0.541,0.006-1.049,0.096-1.527,0.27
		c-0.477,0.173-0.943,0.395-1.398,0.664l-0.018-0.017c0.027-0.36,0.047-0.692,0.063-0.996s0.023-0.605,0.023-0.907v-3.009h-1.885
		V101.786z"/>
	<path fill-rule="evenodd" clip-rule="evenodd" d="M195.623,96.858c0.027-0.883,0.188-1.486,0.48-1.808
		c0.295-0.322,0.719-0.474,1.271-0.455c0.557-0.021,0.963,0.124,1.215,0.436c0.252,0.312,0.381,0.921,0.385,1.827H195.623z
		 M200.111,100.224c-0.393,0.086-0.77,0.156-1.133,0.208c-0.363,0.052-0.75,0.079-1.16,0.081c-0.514,0.009-0.932-0.045-1.25-0.161
		c-0.32-0.117-0.557-0.35-0.709-0.698c-0.154-0.349-0.238-0.868-0.254-1.557h5.016c0.018-0.194,0.029-0.379,0.039-0.556
		c0.008-0.177,0.012-0.354,0.012-0.53c0.002-1.012-0.109-1.798-0.334-2.361c-0.225-0.563-0.576-0.955-1.053-1.178
		c-0.477-0.222-1.09-0.329-1.842-0.32c-0.758-0.009-1.414,0.12-1.971,0.389c-0.555,0.268-0.984,0.73-1.289,1.386
		s-0.457,1.56-0.463,2.712c0.004,1.188,0.152,2.095,0.445,2.721c0.295,0.626,0.721,1.052,1.279,1.278s1.236,0.332,2.033,0.318
		c0.514-0.001,0.998-0.033,1.453-0.093c0.455-0.061,0.904-0.143,1.35-0.246L200.111,100.224z"/>
	<path fill-rule="evenodd" clip-rule="evenodd" d="M202.746,101.786h1.885v-6.154c0.363-0.241,0.689-0.431,0.975-0.57
		c0.285-0.139,0.539-0.209,0.76-0.212c0.143,0,0.271,0.013,0.389,0.038c0.115,0.025,0.223,0.064,0.324,0.115l0.238-1.681
		c-0.092-0.059-0.193-0.102-0.303-0.129c-0.107-0.027-0.234-0.041-0.377-0.04c-0.373,0.01-0.742,0.125-1.107,0.348
		c-0.365,0.222-0.738,0.491-1.119,0.806l-0.102-0.917h-1.563V101.786z"/>
	<polygon fill-rule="evenodd" clip-rule="evenodd" points="27.761,83.086 34.338,83.086 34.338,81.592 29.664,81.592 29.664,77.748 
		33.998,77.748 33.998,76.271 29.664,76.271 29.664,72.767 34.338,72.767 34.338,71.273 27.761,71.273 	"/>
	<rect x="36.496" y="70.542" fill-rule="evenodd" clip-rule="evenodd" width="1.885" height="12.544"/>
	<path fill-rule="evenodd" clip-rule="evenodd" d="M43.081,71.952c0.009-0.409-0.067-0.691-0.229-0.848
		c-0.161-0.156-0.459-0.23-0.892-0.223c-0.425-0.007-0.721,0.067-0.886,0.223c-0.164,0.156-0.242,0.438-0.234,0.848
		c-0.008,0.408,0.07,0.69,0.234,0.847c0.165,0.156,0.461,0.23,0.886,0.223c0.433,0.008,0.73-0.066,0.892-0.223
		C43.013,72.643,43.089,72.36,43.081,71.952z M41.026,83.086h1.885V74.69h-1.885V83.086z"/>
	<path fill-rule="evenodd" clip-rule="evenodd" d="M45.556,83.086h1.885v-6.171c0.439-0.282,0.832-0.497,1.18-0.644
		c0.348-0.148,0.67-0.222,0.964-0.223c0.383-0.009,0.671,0.107,0.865,0.349c0.194,0.241,0.291,0.664,0.292,1.266v5.423h1.885v-5.474
		c0-0.143-0.005-0.266-0.014-0.37c-0.008-0.104-0.021-0.202-0.037-0.293c0.464-0.298,0.875-0.522,1.23-0.673
		c0.355-0.151,0.678-0.228,0.963-0.228c0.385-0.009,0.676,0.107,0.874,0.349c0.199,0.241,0.299,0.664,0.3,1.266v5.423h1.885v-5.78
		c0.002-0.963-0.197-1.666-0.598-2.111c-0.402-0.444-1.018-0.664-1.848-0.658c-0.504,0.001-1.002,0.096-1.495,0.284
		c-0.493,0.188-1.021,0.461-1.584,0.819c-0.153-0.321-0.395-0.583-0.724-0.788c-0.33-0.204-0.797-0.309-1.4-0.316
		c-0.504,0.004-0.996,0.097-1.473,0.28c-0.478,0.183-0.973,0.429-1.486,0.739l-0.102-0.866h-1.563V83.086z"/>
	<path fill-rule="evenodd" clip-rule="evenodd" d="M62.41,71.952c0.009-0.409-0.067-0.691-0.229-0.848
		c-0.162-0.156-0.459-0.23-0.893-0.223c-0.425-0.007-0.721,0.067-0.885,0.223c-0.164,0.156-0.243,0.438-0.235,0.848
		c-0.008,0.408,0.071,0.69,0.235,0.847s0.46,0.23,0.885,0.223c0.434,0.008,0.73-0.066,0.893-0.223
		C62.342,72.643,62.418,72.36,62.41,71.952z M60.355,83.086h1.885V74.69h-1.885V83.086z"/>
	<path fill-rule="evenodd" clip-rule="evenodd" d="M64.886,83.086h1.885v-6.171c0.439-0.282,0.844-0.497,1.211-0.644
		c0.369-0.148,0.713-0.222,1.034-0.223c0.433-0.009,0.754,0.107,0.963,0.349c0.21,0.241,0.313,0.664,0.313,1.266v5.423h1.867v-5.78
		c0.004-0.963-0.199-1.666-0.609-2.111c-0.41-0.444-1.051-0.664-1.922-0.658c-0.539,0.004-1.059,0.097-1.559,0.28
		c-0.499,0.183-1.006,0.429-1.52,0.739l-0.103-0.866h-1.562V83.086z"/>
	<path fill-rule="evenodd" clip-rule="evenodd" d="M78.939,79.244v1.785c-0.383,0.258-0.73,0.458-1.041,0.601
		c-0.313,0.143-0.634,0.215-0.967,0.217c-0.328,0.003-0.594-0.092-0.795-0.283s-0.305-0.494-0.311-0.908
		c-0.016-0.469,0.16-0.821,0.527-1.057c0.367-0.237,1.02-0.355,1.957-0.355H78.939z M78.939,78.005h-0.73
		c-1.473,0.007-2.524,0.252-3.156,0.736c-0.632,0.485-0.939,1.168-0.924,2.051c0.013,0.832,0.237,1.45,0.673,1.856
		s1.004,0.609,1.705,0.607c0.521-0.008,0.99-0.103,1.41-0.284c0.42-0.182,0.835-0.404,1.243-0.667l0.102,0.781h1.563v-5.915
		c0.014-0.906-0.213-1.576-0.682-2.008c-0.468-0.432-1.26-0.646-2.377-0.643c-0.508,0.002-0.998,0.036-1.469,0.102
		c-0.472,0.066-0.939,0.151-1.404,0.255l0.188,1.393c0.396-0.086,0.787-0.156,1.174-0.208c0.387-0.052,0.783-0.079,1.189-0.081
		c0.531,0,0.914,0.107,1.15,0.321c0.234,0.215,0.351,0.539,0.346,0.973V78.005z"/>
	<path fill-rule="evenodd" clip-rule="evenodd" d="M82.316,74.69v1.426h1.24v4.983c-0.01,0.743,0.155,1.287,0.495,1.631
		s0.917,0.514,1.73,0.509c0.33-0.001,0.634-0.024,0.913-0.07c0.279-0.046,0.541-0.107,0.787-0.185l-0.17-1.358
		c-0.16,0.052-0.32,0.093-0.48,0.123s-0.329,0.046-0.506,0.047c-0.305,0.006-0.529-0.078-0.672-0.253s-0.214-0.476-0.213-0.903
		v-4.524h1.871V74.69h-1.871v-2.669l-1.885,0.255v2.414H82.316z"/>
	<path fill-rule="evenodd" clip-rule="evenodd" d="M90.621,78.158c0.025-0.883,0.186-1.486,0.48-1.808
		c0.294-0.322,0.718-0.474,1.271-0.456c0.557-0.021,0.961,0.124,1.214,0.436c0.253,0.313,0.382,0.921,0.386,1.827H90.621z
		 M95.109,81.523c-0.393,0.087-0.771,0.156-1.134,0.208c-0.363,0.053-0.75,0.08-1.16,0.081c-0.514,0.009-0.931-0.045-1.25-0.162
		c-0.319-0.116-0.556-0.349-0.71-0.698c-0.152-0.349-0.236-0.868-0.252-1.557h5.016c0.017-0.193,0.029-0.379,0.038-0.556
		s0.013-0.354,0.013-0.53c0.002-1.011-0.109-1.798-0.335-2.361c-0.226-0.563-0.575-0.955-1.052-1.178
		c-0.477-0.222-1.09-0.329-1.842-0.32c-0.758-0.009-1.415,0.12-1.971,0.389c-0.555,0.268-0.985,0.73-1.289,1.386
		c-0.305,0.655-0.459,1.56-0.463,2.712c0.002,1.188,0.15,2.095,0.445,2.721c0.294,0.626,0.721,1.052,1.279,1.278
		s1.236,0.332,2.031,0.318c0.516-0.001,1-0.033,1.454-0.094c0.454-0.061,0.905-0.143,1.351-0.246L95.109,81.523z"/>
	<path fill-rule="evenodd" clip-rule="evenodd" d="M101.171,74.69v1.426h1.24v4.983c-0.01,0.743,0.154,1.287,0.494,1.631
		s0.917,0.514,1.73,0.509c0.33-0.001,0.635-0.024,0.914-0.07c0.279-0.046,0.541-0.107,0.786-0.185l-0.17-1.358
		c-0.16,0.052-0.32,0.093-0.479,0.123c-0.16,0.03-0.33,0.046-0.506,0.047c-0.305,0.006-0.529-0.078-0.672-0.253
		c-0.144-0.175-0.215-0.476-0.213-0.903v-4.524h1.87V74.69h-1.87v-2.669l-1.885,0.255v2.414H101.171z"/>
	<path fill-rule="evenodd" clip-rule="evenodd" d="M108.033,83.086h1.885v-6.171c0.439-0.282,0.844-0.497,1.212-0.644
		c0.368-0.148,0.712-0.222,1.033-0.223c0.433-0.009,0.754,0.107,0.964,0.349c0.209,0.241,0.313,0.664,0.313,1.266v5.423h1.867v-5.78
		c0.004-0.963-0.199-1.666-0.609-2.111c-0.41-0.444-1.051-0.664-1.922-0.658c-0.541,0.006-1.049,0.096-1.526,0.27
		c-0.478,0.173-0.943,0.395-1.399,0.664l-0.017-0.017c0.026-0.36,0.046-0.692,0.062-0.996s0.023-0.605,0.023-0.907v-3.009h-1.885
		V83.086z"/>
	<path fill-rule="evenodd" clip-rule="evenodd" d="M119.269,78.158c0.027-0.883,0.188-1.486,0.48-1.808
		c0.295-0.322,0.719-0.474,1.271-0.456c0.557-0.021,0.963,0.124,1.215,0.436c0.252,0.313,0.381,0.921,0.385,1.827H119.269z
		 M123.757,81.523c-0.393,0.087-0.77,0.156-1.133,0.208c-0.363,0.053-0.75,0.08-1.16,0.081c-0.514,0.009-0.932-0.045-1.25-0.162
		c-0.32-0.116-0.557-0.349-0.709-0.698c-0.154-0.349-0.238-0.868-0.254-1.557h5.016c0.018-0.193,0.029-0.379,0.039-0.556
		c0.008-0.177,0.012-0.354,0.012-0.53c0.002-1.011-0.109-1.798-0.334-2.361c-0.225-0.563-0.576-0.955-1.053-1.178
		c-0.477-0.222-1.09-0.329-1.842-0.32c-0.758-0.009-1.414,0.12-1.971,0.389c-0.555,0.268-0.984,0.73-1.289,1.386
		c-0.305,0.655-0.457,1.56-0.463,2.712c0.004,1.188,0.152,2.095,0.445,2.721c0.295,0.626,0.721,1.052,1.279,1.278
		s1.236,0.332,2.033,0.318c0.514-0.001,0.998-0.033,1.453-0.094c0.455-0.061,0.904-0.143,1.35-0.246L123.757,81.523z"/>
	<path fill-rule="evenodd" clip-rule="evenodd" d="M136.058,78.905c0,0.813-0.068,1.436-0.205,1.868
		c-0.139,0.432-0.346,0.727-0.625,0.885c-0.281,0.158-0.633,0.232-1.057,0.224c-0.426,0.009-0.777-0.066-1.057-0.225
		c-0.279-0.159-0.488-0.457-0.627-0.894c-0.137-0.437-0.205-1.067-0.205-1.891c0-0.813,0.068-1.434,0.205-1.863
		s0.344-0.722,0.621-0.877s0.625-0.229,1.045-0.219c0.426-0.009,0.779,0.066,1.061,0.224c0.283,0.159,0.494,0.455,0.635,0.89
		C135.988,77.46,136.058,78.086,136.058,78.905z M137.943,78.837c0-1.157-0.145-2.055-0.432-2.693
		c-0.287-0.639-0.709-1.083-1.264-1.333c-0.557-0.25-1.236-0.369-2.043-0.358c-0.801-0.009-1.486,0.12-2.053,0.389
		c-0.566,0.268-1,0.73-1.301,1.386c-0.299,0.655-0.451,1.56-0.453,2.712c0.002,1.157,0.145,2.054,0.432,2.693
		c0.287,0.639,0.709,1.083,1.266,1.333c0.555,0.25,1.234,0.369,2.041,0.358c0.803,0.009,1.486-0.121,2.053-0.389
		c0.566-0.269,1-0.73,1.301-1.386C137.791,80.894,137.941,79.989,137.943,78.837z"/>
	<path fill-rule="evenodd" clip-rule="evenodd" d="M142.019,76.897c0.404-0.273,0.764-0.483,1.082-0.629
		c0.316-0.146,0.613-0.219,0.891-0.221c0.33-0.009,0.611,0.062,0.844,0.209c0.232,0.148,0.412,0.426,0.535,0.833
		c0.123,0.407,0.186,0.995,0.186,1.762c-0.018,1.142-0.219,1.921-0.602,2.337s-0.834,0.613-1.354,0.589
		c-0.277,0-0.541-0.042-0.791-0.125c-0.252-0.083-0.516-0.206-0.791-0.368V76.897z M140.134,83.086h1.561l0.068-0.425
		c0.342,0.181,0.682,0.325,1.021,0.432c0.338,0.106,0.711,0.161,1.121,0.164c0.996,0.019,1.828-0.316,2.494-1.004
		c0.668-0.688,1.016-1.844,1.041-3.466c-0.008-1.613-0.271-2.731-0.785-3.355s-1.227-0.922-2.137-0.894
		c-0.498,0.008-0.955,0.098-1.371,0.271s-0.811,0.383-1.18,0.628l-0.018-0.017c0.025-0.352,0.043-0.676,0.053-0.973
		c0.01-0.296,0.016-0.595,0.016-0.896v-3.009h-1.885V83.086z"/>
	<path fill-rule="evenodd" clip-rule="evenodd" d="M151.638,71.952c0.008-0.409-0.068-0.691-0.23-0.848
		c-0.16-0.156-0.459-0.23-0.891-0.223c-0.426-0.007-0.721,0.067-0.887,0.223c-0.164,0.156-0.242,0.438-0.234,0.848
		c-0.008,0.408,0.07,0.69,0.234,0.847c0.166,0.156,0.461,0.23,0.887,0.223c0.432,0.008,0.73-0.066,0.891-0.223
		C151.57,72.643,151.646,72.36,151.638,71.952z M151.468,74.69h-1.885v8.976c0.01,0.563-0.088,0.996-0.289,1.296
		c-0.203,0.301-0.572,0.452-1.105,0.455c-0.172,0-0.348-0.009-0.529-0.025c-0.182-0.017-0.363-0.043-0.543-0.077l-0.152,1.409
		c0.236,0.051,0.471,0.089,0.701,0.114c0.232,0.026,0.475,0.039,0.727,0.039c1.191-0.002,2.008-0.287,2.449-0.854
		s0.65-1.404,0.627-2.511V74.69z"/>
	<path fill-rule="evenodd" clip-rule="evenodd" d="M155.556,78.158c0.025-0.883,0.186-1.486,0.48-1.808
		c0.293-0.322,0.717-0.474,1.271-0.456c0.557-0.021,0.961,0.124,1.215,0.436c0.252,0.313,0.381,0.921,0.385,1.827H155.556z
		 M160.044,81.523c-0.393,0.087-0.77,0.156-1.135,0.208c-0.361,0.053-0.75,0.08-1.16,0.081c-0.514,0.009-0.93-0.045-1.25-0.162
		c-0.318-0.116-0.555-0.349-0.709-0.698c-0.152-0.349-0.236-0.868-0.252-1.557h5.016c0.018-0.193,0.029-0.379,0.037-0.556
		c0.01-0.177,0.014-0.354,0.014-0.53c0.002-1.011-0.109-1.798-0.334-2.361c-0.227-0.563-0.576-0.955-1.053-1.178
		c-0.477-0.222-1.09-0.329-1.842-0.32c-0.758-0.009-1.416,0.12-1.971,0.389c-0.555,0.268-0.984,0.73-1.289,1.386
		c-0.305,0.655-0.459,1.56-0.463,2.712c0.002,1.188,0.15,2.095,0.445,2.721c0.293,0.626,0.721,1.052,1.279,1.278
		s1.236,0.332,2.031,0.318c0.516-0.001,1-0.033,1.455-0.094c0.453-0.061,0.904-0.143,1.35-0.246L160.044,81.523z"/>
	<path fill-rule="evenodd" clip-rule="evenodd" d="M167.935,81.558c-0.287,0.078-0.578,0.14-0.877,0.185
		c-0.297,0.046-0.572,0.069-0.824,0.07c-0.475,0.008-0.861-0.065-1.158-0.222c-0.299-0.157-0.518-0.447-0.658-0.872
		c-0.139-0.425-0.207-1.036-0.207-1.832c0.002-0.807,0.084-1.421,0.246-1.842c0.16-0.421,0.391-0.707,0.689-0.856
		s0.656-0.219,1.072-0.21c0.313,0.001,0.613,0.021,0.9,0.06c0.287,0.039,0.57,0.093,0.85,0.162l0.17-1.392
		c-0.316-0.086-0.652-0.156-1.006-0.208c-0.352-0.053-0.709-0.079-1.068-0.081c-0.752-0.009-1.408,0.117-1.967,0.378
		c-0.557,0.262-0.99,0.715-1.301,1.361c-0.309,0.645-0.465,1.539-0.471,2.68c0,1.134,0.131,2.016,0.395,2.646
		c0.264,0.629,0.66,1.068,1.193,1.315s1.205,0.366,2.016,0.356c0.361-0.002,0.729-0.032,1.104-0.089
		c0.375-0.057,0.727-0.129,1.055-0.216L167.935,81.558z"/>
	<path fill-rule="evenodd" clip-rule="evenodd" d="M169.056,74.69v1.426h1.24v4.983c-0.01,0.743,0.154,1.287,0.494,1.631
		s0.918,0.514,1.73,0.509c0.33-0.001,0.635-0.024,0.914-0.07c0.279-0.046,0.541-0.107,0.787-0.185l-0.17-1.358
		c-0.16,0.052-0.32,0.093-0.48,0.123s-0.328,0.046-0.506,0.047c-0.305,0.006-0.529-0.078-0.672-0.253s-0.213-0.476-0.213-0.903
		v-4.524h1.871V74.69h-1.871v-2.669l-1.885,0.255v2.414H169.056z"/>
	<path fill-rule="evenodd" clip-rule="evenodd" d="M177.972,71.952c0.008-0.409-0.068-0.691-0.229-0.848
		c-0.162-0.156-0.459-0.23-0.893-0.223c-0.426-0.007-0.721,0.067-0.885,0.223c-0.164,0.156-0.244,0.438-0.236,0.848
		c-0.008,0.408,0.072,0.69,0.236,0.847s0.459,0.23,0.885,0.223c0.434,0.008,0.73-0.066,0.893-0.223
		C177.904,72.643,177.98,72.36,177.972,71.952z M175.917,83.086h1.885V74.69h-1.885V83.086z"/>
	<path fill-rule="evenodd" clip-rule="evenodd" d="M182.011,83.086h2.635l2.668-8.396h-1.818l-1.359,4.317
		c-0.15,0.496-0.281,0.958-0.395,1.385c-0.111,0.428-0.23,0.906-0.354,1.436h-0.035c-0.123-0.519-0.24-0.989-0.354-1.411
		s-0.244-0.892-0.393-1.411l-1.344-4.317h-1.92L182.011,83.086z"/>
	<path fill-rule="evenodd" clip-rule="evenodd" d="M190.203,78.158c0.025-0.883,0.186-1.486,0.48-1.808s0.719-0.474,1.271-0.456
		c0.557-0.021,0.961,0.124,1.215,0.436c0.252,0.313,0.381,0.921,0.385,1.827H190.203z M194.691,81.523
		c-0.393,0.087-0.77,0.156-1.133,0.208c-0.363,0.053-0.75,0.08-1.162,0.081c-0.514,0.009-0.93-0.045-1.25-0.162
		c-0.318-0.116-0.555-0.349-0.709-0.698c-0.152-0.349-0.236-0.868-0.252-1.557h5.016c0.018-0.193,0.029-0.379,0.037-0.556
		c0.01-0.177,0.014-0.354,0.014-0.53c0.002-1.011-0.109-1.798-0.334-2.361c-0.227-0.563-0.576-0.955-1.053-1.178
		c-0.477-0.222-1.09-0.329-1.842-0.32c-0.758-0.009-1.414,0.12-1.971,0.389c-0.555,0.268-0.984,0.73-1.289,1.386
		c-0.305,0.655-0.459,1.56-0.463,2.712c0.002,1.188,0.15,2.095,0.445,2.721c0.295,0.626,0.721,1.052,1.279,1.278
		s1.236,0.332,2.031,0.318c0.516-0.001,1-0.033,1.455-0.094c0.453-0.061,0.904-0.143,1.35-0.246L194.691,81.523z"/>
	<path fill-rule="evenodd" clip-rule="evenodd" d="M196.871,82.95c0.379,0.095,0.754,0.169,1.125,0.223
		c0.371,0.054,0.756,0.082,1.152,0.083c1.273-0.005,2.195-0.229,2.764-0.669c0.57-0.44,0.85-1.067,0.84-1.879
		c0.008-0.697-0.17-1.221-0.535-1.571c-0.365-0.351-0.969-0.683-1.811-0.997c-0.689-0.261-1.154-0.479-1.396-0.657
		c-0.242-0.178-0.354-0.384-0.338-0.619c0.002-0.33,0.135-0.572,0.396-0.725c0.264-0.153,0.648-0.229,1.152-0.228
		c0.322,0.002,0.643,0.028,0.957,0.079c0.316,0.051,0.631,0.115,0.945,0.193l0.203-1.375c-0.291-0.079-0.611-0.146-0.959-0.202
		c-0.348-0.056-0.701-0.084-1.063-0.087c-1.123,0-1.967,0.208-2.533,0.622c-0.564,0.415-0.848,1.034-0.85,1.858
		c-0.008,0.626,0.158,1.113,0.5,1.458s0.91,0.67,1.709,0.974c0.732,0.281,1.229,0.514,1.488,0.697
		c0.262,0.183,0.383,0.416,0.367,0.697c0.002,0.326-0.137,0.58-0.418,0.761c-0.281,0.182-0.727,0.274-1.336,0.276
		c-0.322-0.001-0.664-0.029-1.023-0.083c-0.359-0.055-0.744-0.129-1.15-0.224L196.871,82.95z"/>
</g>
</svg>
