<?xml version="1.0" encoding="utf-8"?>
<!-- Generator: Adobe Illustrator 16.0.0, SVG Export Plug-In . SVG Version: 6.00 Build 0)  -->
<!DOCTYPE svg PUBLIC "-//W3C//DTD SVG 1.1//EN" "http://www.w3.org/Graphics/SVG/1.1/DTD/svg11.dtd">
<svg version="1.1" id="Capa_1" xmlns="http://www.w3.org/2000/svg" xmlns:xlink="http://www.w3.org/1999/xlink" x="0px" y="0px"
	 width="787.584px" height="121px" viewBox="0 0 787.584 121" enable-background="new 0 0 787.584 121" xml:space="preserve">
<g id="Fondo">
</g>
<g id="Guías">
</g>
<g id="Primer_plano">
	<polygon fill="#FDD351" points="-720.624,-121.43 -560.585,-80.493 -907.287,-80.493 	"/>
	<polygon fill="#802251" points="-956.545,350.436 -609.843,350.436 -609.843,392.338 -783.194,350.436 -956.545,392.338 	"/>
	<polygon fill="#F9C600" points="-834.158,-80.493 -560.585,-80.493 -547.272,27.533 -820.845,27.533 	"/>
	<polygon fill="#CBA21E" points="-820.845,27.533 -893.975,27.533 -907.287,-80.493 -834.158,-80.493 	"/>
	<polyline fill="#EC7A2F" points="-820.845,27.533 -547.272,27.533 -592.536,135.256 -866.506,135.256 	"/>
	<polygon fill="#C3662A" points="-866.506,135.256 -939.238,135.256 -893.975,27.533 -820.845,27.533 	"/>
	<polygon fill="#C02550" points="-866.506,135.256 -592.536,135.256 -579.223,242.96 -853.193,242.96 	"/>
	<polyline fill="#9E2B44" points="-853.193,242.96 -925.926,242.96 -939.238,135.256 -866.506,135.256 	"/>
	<polygon fill="#912A5B" points="-853.193,242.96 -579.223,242.96 -609.843,350.436 -883.601,350.436 	"/>
	<polygon fill="#781F4B" points="-883.58,350.436 -956.545,350.436 -925.926,242.96 -853.193,242.96 	"/>
	<g>
		<polygon id="XMLID_102_" fill="#FF6600" points="626.139,9.476 261.771,9.476 295.601,62.902 261.771,113.629 626.139,113.629 
			659.965,62.902 		"/>
		<g id="XMLID_88_">
			<g>
				<g>
					<defs>
						<polygon id="SVGID_1_" points="626.139,9.476 261.771,9.476 295.601,62.902 261.771,113.629 626.139,113.629 659.965,62.902 
													"/>
					</defs>
					<use xlink:href="#SVGID_1_"  overflow="visible" fill="#FF6600"/>
					<clipPath id="SVGID_2_">
						<use xlink:href="#SVGID_1_"  overflow="visible"/>
					</clipPath>
				</g>
			</g>
			<g>
				<g>
					<defs>
						<polygon id="SVGID_3_" points="626.139,9.476 261.771,9.476 295.601,62.902 261.771,113.629 626.139,113.629 659.965,62.902 
													"/>
					</defs>
					<use xlink:href="#SVGID_3_"  overflow="visible" fill="#FF6600"/>
					<clipPath id="SVGID_4_">
						<use xlink:href="#SVGID_3_"  overflow="visible"/>
					</clipPath>
				</g>
			</g>
		</g>
	</g>
	<g>
		<path fill="#FFFFFF" d="M442.323,74.004c-3.44,0-6.127-1.051-8.063-3.154c-1.934-2.104-2.897-4.793-2.897-8.069
			c0-2.475,0.42-4.819,1.26-7.029s2.046-4.087,3.62-5.632c1.28-1.225,2.767-2.183,4.46-2.875c1.692-0.692,3.513-1.039,5.46-1.039
			c3.466,0,6.173,1.065,8.12,3.195c1.84,2.024,2.76,4.7,2.76,8.028c0,2.53-0.406,4.895-1.22,7.092
			c-0.813,2.195-1.994,4.055-3.54,5.57c-1.229,1.227-2.7,2.186-4.42,2.876C446.144,73.658,444.296,74.004,442.323,74.004z
			 M443.043,69.204c2.213,0,4.106-1.304,5.68-3.911c1.44-2.368,2.16-4.936,2.16-7.703c0-1.943-0.373-3.459-1.12-4.55
			c-0.904-1.357-2.347-2.036-4.317-2.036c-2.27,0-4.2,1.291-5.802,3.872c-1.468,2.369-2.198,4.936-2.198,7.703
			c0,2.022,0.46,3.632,1.38,4.83C439.743,68.605,441.149,69.204,443.043,69.204z"/>
		<path fill="#FFFFFF" d="M473.739,54.044h5.743l-2.521,13.2l-1.04,6.359h-5.08l0.36-3.199c-0.987,1.199-2.074,2.1-3.26,2.699
			c-1.188,0.601-2.383,0.899-3.58,0.899c-1.603,0-2.834-0.452-3.7-1.356c-0.867-0.904-1.3-2.274-1.3-4.111
			c0-1.092,0.133-2.289,0.397-3.594l2.04-10.897h5.76l-1.925,10.453c-0.184,1.038-0.272,1.889-0.272,2.554
			c0,0.691,0.146,1.243,0.438,1.656c0.292,0.412,0.798,0.618,1.518,0.618c1.01,0,1.954-0.565,2.832-1.696
			c0.877-1.13,1.502-2.652,1.875-4.568L473.739,54.044z"/>
		<path fill="#FFFFFF" d="M485.768,50.357l5.915-1.643l-0.999,5.33l4.151-0.001l-0.858,4.356l-4.142,0.005l-1.313,6.64
			c-0.056,0.267-0.12,0.687-0.199,1.261c-0.08,0.573-0.119,0.979-0.119,1.219c0,0.535,0.12,0.94,0.359,1.222
			c0.238,0.278,0.667,0.42,1.278,0.42h0.602c0.238,0,0.571-0.024,1-0.08l-0.682,4.483c-0.318,0.133-0.8,0.236-1.438,0.316
			c-0.643,0.079-1.294,0.119-1.96,0.119c-1.683,0-2.947-0.385-3.801-1.154c-0.854-0.769-1.279-1.791-1.279-3.063
			c0-0.979,0.133-2.188,0.398-3.621l1.521-7.76l-2.486-0.001l0.813-4.357l2.519-0.001L485.768,50.357z"/>
		<path fill="#FFFFFF" d="M508.643,68.604l0.04,4.36c-0.691,0.32-1.5,0.574-2.42,0.761s-1.967,0.279-3.141,0.279
			c-2.446,0-4.425-0.718-5.935-2.156c-1.512-1.437-2.267-3.393-2.267-5.869c0-3.512,1.192-6.454,3.58-8.82
			c2.386-2.369,5.433-3.553,9.14-3.553c0.802,0,1.547,0.067,2.24,0.2c0.692,0.134,1.279,0.293,1.76,0.48l-1.438,4.4
			c-0.293-0.133-0.562-0.227-0.8-0.28c-0.508-0.133-1.12-0.2-1.84-0.2c-1.947,0-3.54,0.711-4.78,2.132
			c-1.239,1.422-1.859,3.089-1.859,5.002c0,1.304,0.359,2.3,1.08,2.989c0.72,0.689,1.64,1.036,2.76,1.036
			c0.773,0,1.446-0.063,2.021-0.19C507.355,69.048,507.976,68.857,508.643,68.604z"/>
		<path fill="#FFFFFF" d="M520.242,74.004c-2.533,0-4.562-0.732-6.08-2.195c-1.521-1.463-2.279-3.42-2.279-5.869
			c0-3.459,1.102-6.378,3.3-8.762c2.2-2.382,5.008-3.573,8.42-3.573c2.533,0,4.573,0.786,6.12,2.355
			c1.439,1.464,2.16,3.354,2.16,5.669c0,3.566-1.094,6.521-3.28,8.862C526.416,72.833,523.629,74.004,520.242,74.004z
			 M520.923,69.604c1.466,0,2.692-0.901,3.68-2.709c0.854-1.567,1.28-3.309,1.28-5.223c0-1.01-0.228-1.847-0.681-2.512
			c-0.533-0.797-1.333-1.196-2.399-1.196c-1.521,0-2.772,0.931-3.761,2.791c-0.826,1.568-1.239,3.256-1.239,5.063
			c0,1.168,0.272,2.093,0.819,2.771C519.169,69.266,519.936,69.604,520.923,69.604z"/>
		<path fill="#FFFFFF" d="M539.202,73.604h-5.562l2.439-13.2c0.08-0.506,0.253-1.593,0.521-3.26c0.267-1.667,0.427-2.7,0.479-3.1
			h4.96l-0.359,3.16c0.882-1.2,1.906-2.1,3.08-2.7c1.175-0.6,2.399-0.9,3.682-0.9c1.438,0,2.586,0.4,3.438,1.2
			c0.723,0.667,1.12,1.494,1.2,2.48c0.826-1.2,1.833-2.113,3.021-2.74c1.186-0.626,2.42-0.94,3.698-0.94
			c1.521,0,2.699,0.46,3.54,1.38c0.84,0.92,1.262,2.207,1.262,3.86c0,1.04-0.12,2.16-0.36,3.36l-2.12,11.399h-5.56l1.96-10.681
			c0.08-0.399,0.146-0.8,0.199-1.198c0.054-0.4,0.079-0.802,0.079-1.202c0-0.746-0.152-1.32-0.46-1.72c-0.308-0.4-0.808-0.6-1.5-0.6
			c-0.985,0-1.898,0.594-2.738,1.78c-0.842,1.187-1.447,2.767-1.82,4.742l-1.641,8.879h-5.562l2-10.761
			c0.188-0.934,0.28-1.68,0.28-2.24c0-0.746-0.135-1.333-0.4-1.76c-0.267-0.426-0.746-0.64-1.438-0.64
			c-1.016,0-1.961,0.614-2.842,1.84c-0.88,1.229-1.507,2.813-1.88,4.761L539.202,73.604z"/>
		<path fill="#FFFFFF" d="M582.842,68.324l0.4,4.119c-1.014,0.535-2.188,0.928-3.521,1.181s-2.587,0.38-3.76,0.38
			c-2.747,0-4.847-0.738-6.3-2.215c-1.454-1.477-2.18-3.493-2.18-6.048c0-3.167,1.013-5.935,3.04-8.304
			c2.186-2.555,4.973-3.833,8.357-3.833c2,0,3.634,0.527,4.9,1.58c1.266,1.054,1.897,2.474,1.897,4.26
			c0,2.375-1.134,4.094-3.397,5.16c-2.056,0.961-5.147,1.44-9.28,1.44c0,0.37,0.046,0.712,0.14,1.028
			c0.096,0.316,0.247,0.633,0.461,0.949c0.772,1.002,2.025,1.502,3.762,1.502c1.064,0,2.024-0.098,2.88-0.291
			C581.095,69.04,581.962,68.736,582.842,68.324z M580.282,59.444c0-0.48-0.194-0.873-0.58-1.18c-0.388-0.307-0.9-0.46-1.54-0.46
			c-1.254,0-2.307,0.44-3.16,1.32c-0.72,0.747-1.2,1.654-1.439,2.72c2.319,0,4.021-0.18,5.102-0.539
			C579.742,60.944,580.282,60.324,580.282,59.444z"/>
	</g>
	<g>
		<g>
			<path fill="#FFFFFF" d="M-866.631-43.114h5.286v31.717h-3.964v-28.42l-9.251,7.936l-1.982-2.643L-866.631-43.114z"/>
		</g>
	</g>
	<g>
		<g>
			<path fill="#FFFFFF" d="M-900.313,93.964c0-0.825,0.021-1.647,0.062-2.467c0.041-0.82,0.134-1.604,0.279-2.354
				s0.357-1.455,0.64-2.117c0.282-0.659,0.667-1.24,1.156-1.743c0.488-0.503,1.098-0.921,1.828-1.25
				c0.729-0.33,1.609-0.543,2.643-0.642l21.145-1.98c0.661-0.057,1.239-0.151,1.734-0.289c0.496-0.139,0.905-0.403,1.229-0.795
				c0.323-0.395,0.568-0.969,0.732-1.725c0.165-0.758,0.248-1.797,0.248-3.119c0-1.102-0.083-2.029-0.248-2.787
				c-0.165-0.758-0.44-1.383-0.826-1.879s-0.905-0.875-1.559-1.137c-0.654-0.261-1.469-0.453-2.447-0.578
				c-0.978-0.123-2.134-0.194-3.469-0.217c-1.335-0.021-2.884-0.031-4.646-0.031c-2.423,0-4.463,0.045-6.122,0.136
				c-1.659,0.09-3.029,0.25-4.109,0.483c-1.081,0.234-1.91,0.551-2.488,0.95c-0.578,0.399-1.001,0.919-1.27,1.56
				c-0.268,0.641-0.427,1.408-0.475,2.304s-0.072,1.946-0.072,3.157h-3.965c0-1.98,0.182-3.649,0.547-5.006
				c0.364-1.355,0.901-2.476,1.61-3.354s1.586-1.563,2.633-2.044c1.046-0.48,2.254-0.833,3.624-1.055
				c1.37-0.219,2.897-0.346,4.584-0.381c1.686-0.035,3.521-0.053,5.503-0.053c1.98,0,3.778,0.031,5.394,0.094
				c1.615,0.063,3.059,0.203,4.331,0.422c1.272,0.223,2.375,0.545,3.31,0.973c0.936,0.427,1.708,1.009,2.32,1.745
				c0.611,0.735,1.065,1.647,1.361,2.735c0.296,1.086,0.443,2.401,0.443,3.943c0,1.321-0.096,2.521-0.288,3.602
				c-0.192,1.082-0.535,2.021-1.029,2.817c-0.494,0.798-1.167,1.438-2.019,1.919c-0.851,0.481-1.935,0.784-3.252,0.908
				l-21.145,1.982c-1.005,0.097-1.775,0.281-2.313,0.558c-0.537,0.274-0.929,0.713-1.177,1.312c-0.248,0.602-0.389,1.39-0.423,2.366
				c-0.034,0.978-0.051,2.212-0.051,3.699h31.056v3.304h-35.021L-900.313,93.964L-900.313,93.964z"/>
		</g>
	</g>
	<g>
		<g>
			<path fill="#FFFFFF" d="M-885.056,184.669c0.661,0,1.24-0.055,1.736-0.165c0.496-0.109,0.906-0.326,1.23-0.65
				c0.324-0.321,0.568-0.787,0.734-1.395c0.166-0.605,0.248-1.402,0.248-2.395c0-1.104-0.083-2.031-0.248-2.789
				c-0.165-0.756-0.441-1.383-0.826-1.879c-0.385-0.494-0.905-0.873-1.559-1.135c-0.654-0.264-1.469-0.455-2.447-0.578
				c-0.978-0.125-2.134-0.197-3.469-0.219s-2.884-0.029-4.646-0.029c-2.423,0-4.463,0.029-6.122,0.094
				c-1.659,0.062-3.029,0.178-4.109,0.351c-1.081,0.173-1.91,0.409-2.488,0.712s-1.001,0.699-1.27,1.188
				c-0.268,0.487-0.427,1.085-0.475,1.786s-0.072,1.527-0.072,2.479h-3.965c0-1.665,0.182-3.068,0.547-4.212
				c0.364-1.144,0.901-2.082,1.61-2.817c0.709-0.736,1.586-1.303,2.633-1.693c1.046-0.393,2.254-0.674,3.624-0.846
				s2.897-0.271,4.584-0.301c1.686-0.025,3.521-0.042,5.503-0.042c1.98,0,3.778,0.031,5.394,0.095
				c1.615,0.063,3.059,0.203,4.331,0.424s2.375,0.543,3.31,0.971c0.935,0.426,1.708,1.008,2.32,1.744
				c0.611,0.736,1.065,1.648,1.361,2.736c0.296,1.088,0.444,2.4,0.444,3.941c0,0.991-0.065,1.831-0.195,2.521
				c-0.13,0.688-0.329,1.271-0.596,1.744c-0.267,0.475-0.606,0.866-1.017,1.178c-0.411,0.31-0.904,0.589-1.479,0.837
				c0.575,0.247,1.068,0.563,1.479,0.948c0.411,0.387,0.75,0.856,1.017,1.416c0.267,0.558,0.465,1.211,0.596,1.961
				c0.13,0.75,0.195,1.621,0.195,2.61c0,1.544-0.148,2.856-0.444,3.944c-0.295,1.088-0.75,2-1.361,2.734
				c-0.612,0.736-1.385,1.317-2.32,1.744c-0.935,0.428-2.038,0.752-3.31,0.971c-1.272,0.222-2.716,0.361-4.331,0.425
				c-1.616,0.063-3.414,0.094-5.394,0.094c-1.982,0-3.817-0.015-5.503-0.042c-1.687-0.025-3.214-0.138-4.584-0.33
				c-1.37-0.191-2.578-0.499-3.624-0.919s-1.924-1.021-2.633-1.807s-1.246-1.782-1.61-2.994c-0.365-1.211-0.547-2.705-0.547-4.479
				h3.965c0,1.047,0.027,1.95,0.083,2.715c0.055,0.765,0.213,1.414,0.475,1.951c0.262,0.536,0.682,0.976,1.26,1.313
				c0.578,0.338,1.407,0.604,2.488,0.795c1.081,0.193,2.45,0.322,4.109,0.393c1.659,0.068,3.699,0.104,6.122,0.104
				c1.762,0,3.311-0.011,4.646-0.03s2.491-0.093,3.469-0.217s1.793-0.314,2.447-0.578c0.654-0.263,1.174-0.643,1.559-1.136
				c0.385-0.496,0.661-1.122,0.826-1.879c0.165-0.759,0.248-1.688,0.248-2.788c0-1.156-0.083-2.082-0.248-2.777
				c-0.165-0.693-0.41-1.229-0.734-1.601c-0.324-0.371-0.734-0.612-1.23-0.724c-0.496-0.108-1.075-0.166-1.736-0.166h-14.553v-3.304
				h14.552V184.669z"/>
		</g>
	</g>
	<g>
		<circle fill="#FFFFFF" cx="508.526" cy="180.388" r="5.722"/>
		<circle fill="#FFFFFF" cx="586.401" cy="101.379" r="5.722"/>
		<path d="M591.337,100.491l-1.813-1.814c-0.054-0.032-2.304-1.403-4.196,0.243c-1.705,1.482-1.109,3.563-0.957,4.004l2.269,2.27
			c0.639,0.639,0.986,1.482,0.986,2.386s-0.35,1.748-0.986,2.386l-12.791,12.788c-1.271,1.274-3.498,1.274-4.77,0l-0.033-0.03
			l1.516-1.514c1.3-1.299,1.3-3.4,0-4.7c-1.299-1.299-3.399-1.299-4.697,0l-1.518,1.517l-0.033-0.033
			c-0.636-0.637-0.984-1.483-0.984-2.387c0-0.59,0.164-1.148,0.443-1.648l-6.939-0.033c-0.094,0.553-0.15,1.112-0.15,1.684
			c0,2.679,1.042,5.192,2.936,7.086l0.03,0.031l-1.364,1.369l-0.035-0.035c-3.783-3.781-10.385-3.783-14.17,0.002l-12.791,12.789
			c-3.906,3.906-3.906,10.262,0,14.17l0.037,0.033l-1.377,1.377l-0.035-0.035c-3.785-3.787-10.385-3.787-14.17,0l-1.031,1.03
			l3.619,5.78l2.111-2.111c0.637-0.639,1.481-0.988,2.387-0.988c0.901,0,1.748,0.352,2.385,0.989l0.036,0.036l-1.513,1.512
			c-1.3,1.301-1.3,3.403,0,4.7c0.646,0.647,1.499,0.974,2.35,0.974c0.85,0,1.699-0.323,2.35-0.974l1.518-1.517l0.023,0.027
			c0.632,0.631,0.99,1.5,0.99,2.387c0,0.889-0.358,1.759-0.99,2.389l-12.791,12.789c-1.258,1.256-3.51,1.256-4.77,0l-2.104-2.104
			l-0.028,0.035c0,0-2.531-1.226-4.167,0.75c-1.147,1.385-0.665,3.287-0.435,3.98l2.034,2.033c1.895,1.896,4.407,2.938,7.084,2.938
			c2.678,0,5.193-1.041,7.086-2.938l12.79-12.786c1.896-1.896,2.938-4.411,2.938-7.089c0-2.676-1.041-5.19-2.938-7.086l-0.025-0.027
			l1.372-1.373l0.029,0.03c1.895,1.895,4.406,2.936,7.084,2.936s5.193-1.041,7.085-2.936l12.79-12.788
			c1.895-1.895,2.938-4.409,2.938-7.087c0-2.679-1.045-5.194-2.938-7.087l-0.032-0.028l1.37-1.369l0.031,0.03
			c1.893,1.895,4.408,2.938,7.086,2.938s5.193-1.043,7.084-2.938l12.791-12.788c1.893-1.894,2.935-4.409,2.935-7.085
			C594.271,104.898,593.229,102.383,591.337,100.491z M558.308,138.292l-12.789,12.789c-1.26,1.256-3.512,1.256-4.771,0
			l-0.029-0.031l1.509-1.511c1.301-1.298,1.301-3.403,0-4.699c-1.298-1.299-3.399-1.299-4.696,0l-1.512,1.512l-0.033-0.035
			c-1.315-1.314-1.315-3.457,0-4.771l12.789-12.787c0.637-0.638,1.48-0.987,2.387-0.987c0.9,0,1.748,0.352,2.385,0.985l0.033,0.034
			l-1.518,1.518c-1.299,1.301-1.299,3.401,0,4.699c0.648,0.646,1.5,0.975,2.351,0.975s1.7-0.324,2.351-0.975l1.518-1.517l0.029,0.03
			c0.639,0.638,0.99,1.483,0.99,2.386C559.298,136.809,558.944,137.654,558.308,138.292z"/>
	</g>
	<g>
		<circle fill="#FFFFFF" cx="634.321" cy="59.431" r="5.722"/>
		<circle fill="#FFFFFF" cx="712.196" cy="-19.578" r="5.722"/>
		<path d="M717.132-20.465l-1.813-1.814c-0.054-0.032-2.304-1.404-4.196,0.243c-1.705,1.482-1.109,3.562-0.957,4.004l2.27,2.27
			c0.638,0.637,0.985,1.482,0.985,2.384c0,0.902-0.35,1.748-0.985,2.386L699.642,1.794c-1.271,1.275-3.497,1.275-4.77,0
			l-0.033-0.031l1.518-1.513c1.298-1.299,1.298-3.401,0-4.7c-1.301-1.299-3.401-1.299-4.699,0l-1.518,1.515l-0.031-0.033
			c-0.638-0.637-0.986-1.483-0.986-2.386c0-0.59,0.164-1.149,0.445-1.649l-6.941-0.033c-0.094,0.552-0.15,1.112-0.15,1.683
			c0,2.678,1.042,5.193,2.936,7.086l0.032,0.031l-1.366,1.37l-0.035-0.035c-3.783-3.782-10.385-3.783-14.17,0.001l-12.791,12.789
			c-3.906,3.907-3.906,10.263,0,14.17l0.037,0.034l-1.377,1.377l-0.035-0.036c-3.785-3.787-10.385-3.787-14.17,0l-1.031,1.031
			l3.619,5.78l2.111-2.111c0.637-0.639,1.481-0.988,2.387-0.988c0.902,0,1.748,0.35,2.385,0.989l0.036,0.036l-1.513,1.512
			c-1.299,1.3-1.299,3.403,0,4.7c0.646,0.648,1.499,0.974,2.35,0.974c0.852,0,1.699-0.325,2.352-0.974l1.516-1.517l0.025,0.028
			c0.631,0.63,0.988,1.499,0.988,2.387c0,0.888-0.357,1.758-0.988,2.388l-12.791,12.789c-1.26,1.256-3.512,1.256-4.771,0
			l-2.104-2.104l-0.029,0.036c0,0-2.531-1.225-4.167,0.75c-1.147,1.385-0.665,3.288-0.434,3.981l2.033,2.035
			c1.895,1.895,4.407,2.936,7.084,2.936c2.679,0,5.193-1.041,7.086-2.936l12.79-12.788c1.896-1.895,2.938-4.411,2.938-7.087
			c0-2.676-1.041-5.192-2.938-7.087l-0.024-0.028l1.372-1.373l0.028,0.03c1.895,1.895,4.406,2.936,7.084,2.936
			c2.679,0,5.193-1.041,7.085-2.936l12.79-12.788c1.895-1.893,2.938-4.409,2.938-7.086c0-2.679-1.045-5.195-2.938-7.086l-0.031-0.03
			l1.369-1.369l0.031,0.03c1.894,1.894,4.408,2.937,7.086,2.937s5.193-1.043,7.084-2.937l12.791-12.788
			c1.894-1.892,2.936-4.409,2.936-7.085C720.065-16.057,719.023-18.574,717.132-20.465z M684.104,17.335l-12.788,12.789
			c-1.262,1.256-3.514,1.256-4.771,0l-0.029-0.031l1.511-1.511c1.299-1.298,1.299-3.403,0-4.699c-1.3-1.299-3.401-1.299-4.698,0
			l-1.51,1.511l-0.035-0.034c-1.315-1.316-1.315-3.457,0-4.772L674.567,7.8c0.637-0.638,1.48-0.988,2.387-0.988
			c0.901,0,1.748,0.351,2.385,0.986l0.033,0.034l-1.517,1.517c-1.3,1.3-1.3,3.402,0,4.7c0.647,0.648,1.5,0.974,2.35,0.974
			c0.851,0,1.7-0.325,2.351-0.974l1.518-1.517l0.031,0.031c0.637,0.637,0.988,1.484,0.988,2.385
			C685.093,15.851,684.739,16.698,684.104,17.335z"/>
	</g>
	<g>
		<g>
			<path fill="#FFFFFF" d="M333.774,45.761c2.423,0,4.463,0.148,6.122,0.444c1.658,0.296,3.024,0.743,4.1,1.342
				c1.073,0.599,1.898,1.353,2.478,2.261c0.578,0.909,1.001,1.976,1.271,3.201c0.269,1.225,0.427,2.608,0.476,4.15
				c0.048,1.542,0.072,3.249,0.072,5.12c0,1.873-0.024,3.58-0.072,5.121c-0.049,1.543-0.207,2.926-0.476,4.149
				c-0.27,1.226-0.691,2.292-1.271,3.2c-0.577,0.909-1.403,1.662-2.478,2.264c-1.074,0.598-2.44,1.045-4.1,1.342
				c-1.66,0.295-3.699,0.442-6.122,0.442h-7.95c-2.423,0-4.464-0.147-6.122-0.442c-1.659-0.297-3.025-0.744-4.1-1.342
				c-1.073-0.602-1.902-1.354-2.487-2.264c-0.586-0.908-1.014-1.977-1.28-3.2c-0.269-1.226-0.424-2.606-0.465-4.149
				c-0.041-1.541-0.063-3.248-0.063-5.121c0-1.871,0.021-3.578,0.063-5.12s0.196-2.925,0.465-4.15
				c0.268-1.226,0.694-2.292,1.28-3.201c0.585-0.908,1.414-1.662,2.487-2.261c1.073-0.599,2.439-1.046,4.1-1.342
				c1.658-0.296,3.699-0.444,6.122-0.444H333.774z M333.774,75.495c1.762,0,3.241-0.052,4.438-0.154
				c1.197-0.102,2.188-0.313,2.974-0.63c0.784-0.316,1.391-0.771,1.817-1.363s0.736-1.375,0.929-2.354
				c0.193-0.979,0.308-2.18,0.342-3.604c0.033-1.427,0.052-3.13,0.052-5.111s-0.019-3.687-0.052-5.109
				c-0.034-1.424-0.148-2.626-0.342-3.604c-0.192-0.978-0.503-1.762-0.929-2.354c-0.428-0.592-1.029-1.046-1.808-1.362
				c-0.777-0.316-1.77-0.526-2.974-0.63c-1.205-0.104-2.688-0.155-4.449-0.155h-7.95c-1.763,0-3.245,0.052-4.45,0.155
				c-1.204,0.104-2.198,0.313-2.983,0.63c-0.784,0.316-1.391,0.771-1.816,1.362c-0.428,0.593-0.736,1.377-0.93,2.354
				c-0.192,0.978-0.303,2.179-0.331,3.604c-0.026,1.425-0.041,3.128-0.041,5.109s0.019,3.687,0.053,5.111
				c0.034,1.424,0.146,2.625,0.341,3.604c0.192,0.979,0.499,1.762,0.919,2.354c0.42,0.594,1.022,1.047,1.807,1.363
				c0.785,0.316,1.779,0.525,2.983,0.63c1.205,0.104,2.688,0.154,4.45,0.154H333.774z"/>
			<path fill="#FFFFFF" d="M353.577,74.174c0-0.826,0.021-1.648,0.062-2.468c0.041-0.817,0.136-1.604,0.279-2.354
				s0.357-1.455,0.64-2.115c0.282-0.66,0.668-1.241,1.156-1.744c0.488-0.503,1.099-0.919,1.828-1.249
				c0.729-0.331,1.61-0.544,2.643-0.642l21.146-1.98c0.661-0.057,1.239-0.15,1.734-0.289s0.904-0.403,1.229-0.796
				c0.323-0.392,0.567-0.967,0.732-1.724s0.248-1.797,0.248-3.118c0-1.102-0.083-2.03-0.248-2.788
				c-0.165-0.757-0.44-1.384-0.826-1.879c-0.385-0.496-0.905-0.874-1.56-1.136c-0.653-0.262-1.47-0.454-2.446-0.578
				c-0.978-0.124-2.135-0.196-3.47-0.217s-2.884-0.031-4.646-0.031c-2.423,0-4.463,0.045-6.122,0.135
				c-1.659,0.09-3.028,0.251-4.109,0.485c-1.081,0.233-1.909,0.551-2.487,0.949c-0.578,0.399-1.001,0.919-1.271,1.56
				c-0.269,0.64-0.427,1.407-0.475,2.302c-0.049,0.896-0.072,1.948-0.072,3.159h-3.965c0-1.981,0.182-3.651,0.547-5.007
				c0.364-1.355,0.901-2.475,1.61-3.355s1.587-1.563,2.633-2.045c1.046-0.481,2.254-0.832,3.624-1.053
				c1.37-0.22,2.896-0.348,4.584-0.382c1.687-0.034,3.521-0.052,5.503-0.052c1.979,0,3.778,0.031,5.394,0.093
				c1.615,0.063,3.061,0.203,4.331,0.424c1.272,0.22,2.375,0.544,3.312,0.97c0.935,0.428,1.708,1.009,2.319,1.745
				c0.611,0.736,1.065,1.648,1.36,2.736c0.296,1.088,0.444,2.402,0.444,3.944c0,1.32-0.098,2.521-0.288,3.601
				c-0.192,1.08-0.535,2.02-1.029,2.817c-0.494,0.798-1.167,1.438-2.018,1.919c-0.853,0.481-1.937,0.784-3.253,0.908L361.506,66.9
				c-1.005,0.096-1.774,0.281-2.313,0.558s-0.93,0.713-1.178,1.313c-0.248,0.599-0.39,1.388-0.424,2.363
				c-0.034,0.979-0.051,2.213-0.051,3.699h31.056v3.305h-35.021L353.577,74.174L353.577,74.174z"/>
		</g>
	</g>
	<line fill="none" stroke="#FFFFFF" stroke-miterlimit="10" x1="409.483" y1="23.969" x2="409.483" y2="106.13"/>
</g>
</svg>
