<?xml version="1.0" encoding="utf-8"?>
<!-- Generator: Adobe Illustrator 16.0.0, SVG Export Plug-In . SVG Version: 6.00 Build 0)  -->
<!DOCTYPE svg PUBLIC "-//W3C//DTD SVG 1.1//EN" "http://www.w3.org/Graphics/SVG/1.1/DTD/svg11.dtd">
<svg version="1.1" id="Capa_1" xmlns="http://www.w3.org/2000/svg" xmlns:xlink="http://www.w3.org/1999/xlink" x="0px" y="0px"
	 width="787.584px" height="113.512px" viewBox="0 0 787.584 113.512" enable-background="new 0 0 787.584 113.512"
	 xml:space="preserve">
<g id="Fondo">
</g>
<g id="Guías">
</g>
<g id="Primer_plano">
	<polygon fill="#FDD351" points="-720.624,-364.918 -560.585,-323.981 -907.287,-323.981 	"/>
	<polygon fill="#802251" points="-956.545,106.947 -609.843,106.947 -609.843,148.85 -783.194,106.947 -956.545,148.85 	"/>
	<polygon fill="#F9C600" points="-834.158,-323.981 -560.585,-323.981 -547.272,-215.956 -820.845,-215.956 	"/>
	<polygon fill="#CBA21E" points="-820.845,-215.956 -893.975,-215.956 -907.287,-323.981 -834.158,-323.981 	"/>
	<polyline fill="#EC7A2F" points="-820.845,-215.956 -547.272,-215.956 -592.536,-108.232 -866.506,-108.232 	"/>
	<polygon fill="#C3662A" points="-866.506,-108.232 -939.238,-108.232 -893.975,-215.956 -820.845,-215.956 	"/>
	<polygon fill="#C02550" points="-866.506,-108.232 -592.536,-108.232 -579.223,-0.528 -853.193,-0.528 	"/>
	<polyline fill="#9E2B44" points="-853.193,-0.528 -925.926,-0.528 -939.238,-108.232 -866.506,-108.232 	"/>
	<polygon fill="#912A5B" points="-853.193,-0.528 -579.223,-0.528 -609.843,106.947 -883.601,106.947 	"/>
	<polygon fill="#781F4B" points="-883.58,106.947 -956.545,106.947 -925.926,-0.528 -853.193,-0.528 	"/>
	<polygon id="XMLID_238_" opacity="0.5" fill="#912A5B" enable-background="new    " points="365.297,7.127 0.934,7.127 
		34.762,60.553 0.934,111.28 365.297,111.28 399.123,60.553 	"/>
	<g id="XMLID_106_" opacity="0.5">
		<g>
			<g>
				<g>
					<defs>
						<polygon id="SVGID_1_" points="365.297,7.127 0.934,7.127 34.762,60.553 0.934,111.28 365.297,111.28 399.123,60.553 						
							"/>
					</defs>
					<use xlink:href="#SVGID_1_"  overflow="visible" fill="#0099CC"/>
					<clipPath id="SVGID_2_">
						<use xlink:href="#SVGID_1_"  overflow="visible"/>
					</clipPath>
					<g id="XMLID_235_" clip-path="url(#SVGID_2_)">
						
							<image overflow="visible" enable-background="new    " width="246" height="99" xlink:href="C68F0CD3.png"  transform="matrix(1 0 0 1 -37.916 57.012)">
						</image>
					</g>
				</g>
			</g>
		</g>
		<g>
			<g>
				<g>
					<defs>
						<polygon id="SVGID_3_" points="365.297,7.127 0.934,7.127 34.762,60.553 0.934,111.28 365.297,111.28 399.123,60.553 						
							"/>
					</defs>
					<use xlink:href="#SVGID_3_"  overflow="visible" fill="#0099CC"/>
					<clipPath id="SVGID_4_">
						<use xlink:href="#SVGID_3_"  overflow="visible"/>
					</clipPath>
				</g>
			</g>
		</g>
	</g>
	<g>
		<path fill="#FFFFFF" d="M192.257,64.76h-7.76l-3.2,7h-6.12l13.12-26.96h7.399l3.16,26.96h-6.04L192.257,64.76z M186.177,60.359
			h5.84l-0.52-5.8l-0.4-5.28c-0.054,0.137-0.521,1.24-1.4,3.32c-0.427,1.014-0.706,1.667-0.84,1.96L186.177,60.359z"/>
		<path fill="#FFFFFF" d="M215.337,66.76l0.04,4.36c-0.693,0.316-1.5,0.57-2.42,0.76c-0.92,0.187-1.967,0.28-3.141,0.28
			c-2.446,0-4.425-0.722-5.935-2.156c-1.51-1.438-2.265-3.396-2.265-5.868c0-3.513,1.192-6.454,3.58-8.823
			c2.386-2.368,5.433-3.553,9.14-3.553c0.8,0,1.546,0.066,2.24,0.2c0.692,0.134,1.279,0.294,1.76,0.479l-1.44,4.4
			c-0.293-0.133-0.56-0.229-0.8-0.28c-0.507-0.133-1.12-0.2-1.84-0.2c-1.947,0-3.54,0.712-4.78,2.136
			c-1.239,1.422-1.859,3.09-1.859,5.002c0,1.303,0.359,2.299,1.08,2.986c0.72,0.691,1.64,1.036,2.76,1.036
			c0.773,0,1.446-0.063,2.02-0.188C214.051,67.204,214.67,67.014,215.337,66.76z"/>
		<path fill="#FFFFFF" d="M224.021,48.513l5.915-1.643l-0.999,5.33l4.151-0.002l-0.858,4.354l-4.142,0.005l-1.313,6.644
			c-0.054,0.267-0.12,0.687-0.199,1.26c-0.08,0.573-0.119,0.979-0.119,1.22c0,0.534,0.12,0.94,0.359,1.22
			c0.24,0.28,0.667,0.42,1.28,0.42h0.6c0.24,0,0.573-0.022,1-0.076l-0.68,4.48c-0.32,0.132-0.8,0.237-1.439,0.317
			c-0.641,0.079-1.294,0.119-1.96,0.119c-1.681,0-2.947-0.389-3.801-1.154c-0.854-0.771-1.279-1.791-1.279-3.064
			c0-0.979,0.133-2.188,0.4-3.622l1.52-7.76l-2.486-0.001l0.813-4.354l2.519-0.001L224.021,48.513z"/>
		<path fill="#FFFFFF" d="M238.575,71.76h-5.76l3.72-19.56h5.76L238.575,71.76z M240.175,49.64c-0.88,0-1.6-0.267-2.159-0.8
			c-0.561-0.533-0.841-1.267-0.841-2.2c0-1.013,0.341-1.846,1.021-2.5c0.68-0.653,1.513-0.979,2.5-0.979
			c0.906,0,1.646,0.271,2.22,0.816c0.573,0.547,0.86,1.274,0.86,2.184c0,1.04-0.347,1.88-1.04,2.52
			C242.041,49.319,241.188,49.64,240.175,49.64z"/>
		<path fill="#FFFFFF" d="M244.695,52.2h5.96l0.88,8.56c0.187,1.44,0.32,2.527,0.4,3.26c0.08,0.734,0.12,1.42,0.12,2.063h0.159
			c0.294-0.854,0.566-1.606,0.82-2.264c0.253-0.649,0.7-1.656,1.34-3.02l3.96-8.6h6.44l-10.92,19.56h-5.84L244.695,52.2z"/>
		<path fill="#FFFFFF" d="M269.655,71.76h-5.76l3.72-19.56h5.76L269.655,71.76z M271.255,49.64c-0.88,0-1.6-0.267-2.159-0.8
			c-0.561-0.533-0.841-1.267-0.841-2.2c0-1.013,0.341-1.846,1.021-2.5c0.68-0.653,1.513-0.979,2.5-0.979
			c0.906,0,1.646,0.271,2.22,0.816c0.573,0.547,0.86,1.274,0.86,2.184c0,1.04-0.347,1.88-1.04,2.52
			C273.121,49.319,272.269,49.64,271.255,49.64z"/>
		<path fill="#FFFFFF" d="M279.62,48.513l5.915-1.643l-0.999,5.33l4.151-0.002l-0.858,4.354l-4.142,0.005l-1.313,6.644
			c-0.054,0.267-0.12,0.687-0.199,1.26c-0.08,0.573-0.119,0.979-0.119,1.22c0,0.534,0.12,0.94,0.359,1.22
			c0.24,0.28,0.667,0.42,1.28,0.42h0.6c0.24,0,0.573-0.022,1-0.076l-0.68,4.48c-0.32,0.132-0.8,0.237-1.439,0.317
			c-0.641,0.079-1.294,0.119-1.96,0.119c-1.681,0-2.947-0.389-3.801-1.154c-0.854-0.771-1.279-1.791-1.279-3.064
			c0-0.979,0.133-2.188,0.4-3.622l1.52-7.76l-2.486-0.001l0.813-4.354L278.9,52.2L279.62,48.513z"/>
		<path fill="#FFFFFF" d="M294.175,71.76h-5.76l3.72-19.56h5.76L294.175,71.76z M295.774,49.64c-0.88,0-1.6-0.267-2.159-0.8
			c-0.561-0.533-0.841-1.267-0.841-2.2c0-1.013,0.341-1.846,1.021-2.5c0.68-0.653,1.513-0.979,2.5-0.979
			c0.906,0,1.646,0.271,2.22,0.816c0.573,0.547,0.86,1.274,0.86,2.184c0,1.04-0.347,1.88-1.04,2.52
			C297.641,49.319,296.788,49.64,295.774,49.64z"/>
		<path fill="#FFFFFF" d="M314.975,66.479l0.4,4.12c-1.014,0.534-2.188,0.927-3.521,1.18c-1.331,0.257-2.587,0.384-3.76,0.384
			c-2.747,0-4.847-0.738-6.3-2.219c-1.454-1.478-2.18-3.49-2.18-6.048c0-3.167,1.013-5.936,3.04-8.305
			c2.186-2.555,4.973-3.832,8.359-3.832c2,0,3.636,0.527,4.9,1.58c1.266,1.054,1.899,2.474,1.899,4.26
			c0,2.374-1.136,4.094-3.399,5.16c-2.054,0.96-5.147,1.44-9.28,1.44c0,0.366,0.046,0.712,0.14,1.024
			c0.094,0.316,0.247,0.634,0.461,0.95c0.772,1.001,2.025,1.502,3.76,1.502c1.066,0,2.026-0.096,2.88-0.29
			C313.228,67.196,314.095,66.893,314.975,66.479z M312.415,57.6c0-0.479-0.194-0.873-0.58-1.18c-0.387-0.31-0.9-0.46-1.54-0.46
			c-1.254,0-2.307,0.438-3.16,1.316c-0.72,0.747-1.2,1.654-1.439,2.724c2.319,0,4.02-0.184,5.1-0.54
			C311.875,59.1,312.415,58.479,312.415,57.6z"/>
		<path fill="#FFFFFF" d="M318.374,70.64l1.395-4.04c0.639,0.32,1.439,0.627,2.408,0.92c0.969,0.294,1.865,0.44,2.688,0.44
			c0.77,0,1.374-0.166,1.812-0.5c0.438-0.333,0.657-0.753,0.657-1.26c0-0.48-0.172-0.906-0.517-1.28
			c-0.347-0.373-0.98-0.786-1.908-1.24c-1.246-0.613-2.214-1.307-2.902-2.08c-0.822-0.933-1.23-1.973-1.23-3.12
			c0-2,0.793-3.62,2.379-4.856c1.587-1.24,3.66-1.86,6.22-1.86c1.119,0,2.104,0.094,2.96,0.28c0.853,0.187,1.546,0.427,2.079,0.72
			l-1.359,4.08c-0.561-0.267-1.146-0.48-1.76-0.64c-0.613-0.16-1.333-0.24-2.159-0.24c-0.771,0-1.394,0.152-1.858,0.46
			c-0.468,0.307-0.699,0.727-0.699,1.26c0,0.72,0.8,1.467,2.398,2.24c1.28,0.613,2.268,1.294,2.96,2.04
			c0.935,0.984,1.399,2.094,1.399,3.317c0,2.188-0.819,3.883-2.46,5.079c-1.64,1.2-3.807,1.804-6.5,1.804
			c-1.279,0-2.439-0.137-3.479-0.4C319.857,71.497,319.015,71.12,318.374,70.64z"/>
	</g>
	<g>
		<g>
			<path fill="#FFFFFF" d="M-866.631-286.602h5.286v31.72h-3.964v-28.423l-9.251,7.938l-1.982-2.643L-866.631-286.602z"/>
		</g>
	</g>
	<g>
		<g>
			<path fill="#FFFFFF" d="M-900.313-149.524c0-0.826,0.021-1.646,0.062-2.467s0.134-1.604,0.279-2.354s0.356-1.456,0.64-2.117
				s0.667-1.242,1.156-1.745c0.488-0.502,1.098-0.919,1.828-1.25c0.729-0.33,1.608-0.543,2.643-0.643l21.145-1.979
				c0.661-0.055,1.239-0.151,1.734-0.289c0.496-0.137,0.905-0.403,1.229-0.795c0.323-0.396,0.568-0.967,0.731-1.726
				c0.165-0.758,0.248-1.797,0.248-3.116c0-1.104-0.083-2.031-0.248-2.788c-0.165-0.757-0.439-1.383-0.826-1.879
				s-0.905-0.874-1.559-1.139c-0.654-0.261-1.469-0.451-2.447-0.575s-2.134-0.196-3.469-0.22c-1.335-0.021-2.884-0.028-4.646-0.028
				c-2.423,0-4.463,0.045-6.122,0.134c-1.659,0.09-3.029,0.251-4.109,0.482c-1.081,0.234-1.91,0.554-2.488,0.95
				c-0.578,0.399-1.001,0.919-1.27,1.562c-0.268,0.64-0.427,1.405-0.475,2.303c-0.048,0.895-0.072,1.948-0.072,3.159h-3.965
				c0-1.982,0.182-3.651,0.547-5.007c0.364-1.356,0.901-2.478,1.61-3.355s1.586-1.563,2.633-2.044
				c1.046-0.482,2.254-0.833,3.624-1.053c1.37-0.223,2.897-0.35,4.584-0.382c1.686-0.034,3.521-0.055,5.503-0.055
				c1.98,0,3.778,0.031,5.394,0.096c1.615,0.062,3.059,0.201,4.331,0.423c1.272,0.221,2.375,0.544,3.31,0.971
				c0.937,0.427,1.708,1.009,2.32,1.745c0.611,0.737,1.065,1.646,1.361,2.736c0.296,1.087,0.442,2.399,0.442,3.941
				c0,1.321-0.096,2.521-0.288,3.604c-0.192,1.08-0.535,2.019-1.029,2.814c-0.494,0.798-1.167,1.438-2.02,1.919
				c-0.851,0.481-1.935,0.784-3.252,0.908l-21.145,1.982c-1.005,0.097-1.775,0.279-2.313,0.558
				c-0.537,0.275-0.929,0.713-1.177,1.313c-0.248,0.6-0.389,1.388-0.423,2.363c-0.034,0.979-0.051,2.211-0.051,3.699h31.056v3.304
				h-35.021L-900.313-149.524L-900.313-149.524z"/>
		</g>
	</g>
	<g>
		<g>
			<path fill="#FFFFFF" d="M-885.056-58.819c0.661,0,1.24-0.055,1.736-0.165c0.496-0.107,0.906-0.327,1.23-0.647
				c0.324-0.323,0.568-0.788,0.734-1.396c0.166-0.604,0.248-1.403,0.248-2.395c0-1.104-0.083-2.031-0.248-2.788
				s-0.441-1.387-0.826-1.879c-0.385-0.495-0.905-0.874-1.559-1.139c-0.654-0.262-1.469-0.454-2.447-0.578s-2.134-0.193-3.469-0.217
				c-1.335-0.021-2.884-0.031-4.646-0.031c-2.423,0-4.463,0.031-6.122,0.097c-1.659,0.062-3.029,0.178-4.109,0.351
				c-1.081,0.173-1.91,0.409-2.488,0.712c-0.578,0.306-1.001,0.699-1.27,1.188c-0.268,0.485-0.427,1.084-0.475,1.786
				c-0.048,0.699-0.072,1.525-0.072,2.478h-3.965c0-1.665,0.182-3.068,0.547-4.212c0.364-1.143,0.901-2.082,1.61-2.818
				c0.709-0.733,1.586-1.302,2.633-1.69c1.046-0.396,2.254-0.675,3.624-0.85c1.37-0.172,2.897-0.271,4.584-0.299
				c1.686-0.024,3.521-0.042,5.503-0.042c1.98,0,3.778,0.031,5.394,0.094c1.615,0.063,3.059,0.202,4.331,0.426
				c1.272,0.221,2.375,0.543,3.31,0.971c0.935,0.426,1.708,1.008,2.32,1.744c0.611,0.734,1.065,1.646,1.361,2.734
				c0.296,1.09,0.444,2.401,0.444,3.942c0,0.991-0.065,1.831-0.195,2.521c-0.13,0.688-0.329,1.271-0.596,1.742
				c-0.267,0.477-0.606,0.867-1.017,1.18c-0.411,0.31-0.904,0.589-1.479,0.837c0.575,0.247,1.068,0.563,1.479,0.949
				c0.411,0.386,0.75,0.854,1.017,1.415c0.267,0.558,0.465,1.211,0.596,1.961c0.13,0.751,0.195,1.621,0.195,2.609
				c0,1.542-0.148,2.856-0.444,3.944c-0.295,1.088-0.75,2-1.361,2.735c-0.612,0.734-1.385,1.315-2.32,1.742
				c-0.935,0.43-2.038,0.751-3.31,0.974c-1.272,0.22-2.716,0.358-4.331,0.423c-1.616,0.063-3.414,0.094-5.394,0.094
				c-1.982,0-3.817-0.015-5.503-0.042c-1.687-0.024-3.214-0.138-4.584-0.33c-1.37-0.19-2.578-0.499-3.624-0.919
				s-1.924-1.021-2.633-1.807s-1.246-1.782-1.61-2.994c-0.365-1.211-0.547-2.705-0.547-4.48h3.965c0,1.049,0.027,1.951,0.083,2.718
				c0.055,0.764,0.213,1.414,0.475,1.948c0.262,0.537,0.682,0.978,1.26,1.313c0.578,0.338,1.407,0.603,2.488,0.795
				c1.081,0.193,2.45,0.323,4.109,0.393c1.659,0.068,3.699,0.104,6.122,0.104c1.762,0,3.311-0.01,4.646-0.03
				c1.335-0.02,2.491-0.093,3.469-0.217s1.793-0.316,2.447-0.578c0.654-0.262,1.174-0.641,1.559-1.136
				c0.385-0.496,0.661-1.122,0.826-1.879c0.165-0.758,0.248-1.688,0.248-2.788c0-1.156-0.083-2.082-0.248-2.777
				c-0.165-0.692-0.41-1.229-0.734-1.601c-0.324-0.371-0.734-0.612-1.23-0.726c-0.496-0.106-1.075-0.165-1.736-0.165h-14.553v-3.304
				h14.552V-58.819z"/>
		</g>
	</g>
	<g>
		<g>
			<path fill="#FFFFFF" d="M67.939,44.391c2.423,0,4.463,0.148,6.123,0.444c1.658,0.296,3.024,0.743,4.099,1.342
				c1.073,0.599,1.899,1.354,2.478,2.261c0.578,0.909,1.002,1.979,1.27,3.201c0.27,1.229,0.428,2.608,0.476,4.15
				c0.048,1.542,0.072,3.249,0.072,5.121s-0.024,3.579-0.072,5.121c-0.048,1.542-0.206,2.925-0.476,4.147
				c-0.268,1.229-0.691,2.292-1.27,3.2c-0.578,0.909-1.404,1.662-2.478,2.262c-1.074,0.602-2.44,1.046-4.099,1.342
				c-1.66,0.299-3.7,0.444-6.123,0.444H59.99c-2.424,0-4.464-0.146-6.123-0.444c-1.659-0.296-3.025-0.74-4.099-1.342
				c-1.074-0.6-1.903-1.353-2.488-2.262c-0.585-0.908-1.012-1.977-1.28-3.2c-0.269-1.226-0.423-2.605-0.465-4.147
				c-0.041-1.542-0.062-3.249-0.062-5.121s0.021-3.579,0.062-5.121c0.042-1.542,0.196-2.925,0.465-4.15
				c0.268-1.226,0.695-2.292,1.28-3.201c0.585-0.907,1.414-1.662,2.488-2.261c1.074-0.599,2.439-1.046,4.099-1.342
				c1.659-0.296,3.699-0.444,6.123-0.444H67.939z M67.939,74.125c1.762,0,3.242-0.051,4.439-0.154
				c1.197-0.103,2.189-0.313,2.974-0.63s1.39-0.771,1.817-1.363c0.426-0.592,0.736-1.376,0.93-2.354
				c0.191-0.979,0.306-2.182,0.34-3.604s0.052-3.128,0.052-5.107c0-1.982-0.018-3.688-0.052-5.11s-0.148-2.626-0.34-3.604
				c-0.193-0.979-0.504-1.763-0.93-2.354c-0.428-0.592-1.029-1.046-1.807-1.362c-0.778-0.313-1.77-0.523-2.974-0.63
				c-1.205-0.104-2.688-0.154-4.45-0.154H59.99c-1.763,0-3.246,0.054-4.451,0.154c-1.205,0.104-2.199,0.313-2.983,0.63
				c-0.784,0.317-1.391,0.771-1.817,1.362c-0.427,0.593-0.736,1.377-0.929,2.354c-0.193,0.979-0.303,2.181-0.331,3.604
				c-0.027,1.425-0.041,3.128-0.041,5.11c0,1.979,0.017,3.686,0.052,5.107c0.034,1.425,0.147,2.626,0.34,3.604
				c0.193,0.978,0.499,1.762,0.919,2.354c0.42,0.594,1.022,1.047,1.807,1.363c0.785,0.316,1.779,0.526,2.983,0.63
				c1.204,0.104,2.688,0.154,4.451,0.154H67.939z"/>
			<path fill="#FFFFFF" d="M119.459,70.161v6.604h-3.965v-6.604H87.742v-3.968l26.432-21.145h5.285v21.806h5.287v3.307H119.459z
				 M115.494,66.857V47.802L91.841,66.857H115.494z"/>
		</g>
	</g>
	<g>
		<circle fill="#FFFFFF" cx="374.084" cy="57.637" r="5.722"/>
		<circle fill="#FFFFFF" cx="451.959" cy="-21.372" r="5.722"/>
		<path d="M456.895-22.26l-1.813-1.814c-0.052-0.032-2.302-1.404-4.196,0.243c-1.705,1.479-1.106,3.562-0.957,4.004l2.271,2.27
			c0.637,0.64,0.983,1.482,0.983,2.387c0,0.899-0.35,1.748-0.983,2.386L439.404,0c-1.271,1.272-3.498,1.272-4.771,0L434.6-0.031
			l1.519-1.513c1.298-1.299,1.298-3.401,0-4.7c-1.299-1.299-3.401-1.299-4.699,0l-1.516,1.515l-0.033-0.033
			c-0.636-0.637-0.986-1.48-0.986-2.386c0-0.59,0.164-1.146,0.445-1.646l-6.941-0.033c-0.094,0.552-0.147,1.112-0.147,1.683
			c0,2.681,1.042,5.193,2.934,7.086l0.032,0.031l-1.366,1.37l-0.035-0.035c-3.78-3.782-10.385-3.783-14.17,0.001L396.84,14.094
			c-3.906,3.907-3.906,10.263,0,14.17l0.037,0.034l-1.377,1.377l-0.035-0.036c-3.785-3.787-10.385-3.787-14.17,0l-1.031,1.031
			l3.619,5.78l2.111-2.111c0.637-0.639,1.481-0.988,2.387-0.988c0.902,0,1.748,0.353,2.385,0.989l0.036,0.036l-1.513,1.512
			c-1.299,1.3-1.299,3.403,0,4.7c0.646,0.646,1.499,0.974,2.35,0.974c0.852,0,1.699-0.325,2.352-0.974l1.516-1.52l0.025,0.028
			c0.631,0.63,0.987,1.499,0.987,2.387c0,0.891-0.356,1.761-0.987,2.391L382.74,56.663c-1.26,1.256-3.512,1.256-4.771,0
			l-2.104-2.104l-0.03,0.036c0,0-2.531-1.225-4.167,0.75c-1.147,1.385-0.665,3.288-0.433,3.981l2.032,2.032
			c1.895,1.896,4.407,2.938,7.084,2.938c2.68,0,5.193-1.041,7.087-2.938l12.789-12.785c1.896-1.896,2.938-4.411,2.938-7.09
			c0-2.676-1.041-5.189-2.938-7.087l-0.023-0.025l1.373-1.373l0.027,0.027c1.895,1.896,4.405,2.938,7.085,2.938
			c2.679,0,5.191-1.041,7.085-2.938l12.79-12.785c1.894-1.896,2.938-4.409,2.938-7.089c0-2.679-1.045-5.192-2.938-7.086
			l-0.031-0.027l1.37-1.369l0.028,0.03c1.896,1.894,4.408,2.937,7.086,2.937c2.681,0,5.193-1.043,7.084-2.937l12.791-12.788
			c1.895-1.895,2.937-4.409,2.937-7.085C459.828-17.852,458.786-20.368,456.895-22.26z M423.865,15.541L411.076,28.33
			c-1.26,1.256-3.512,1.256-4.771,0l-0.026-0.031l1.509-1.511c1.299-1.298,1.299-3.403,0-4.699c-1.298-1.299-3.401-1.299-4.698,0
			l-1.51,1.511l-0.035-0.034c-1.315-1.313-1.315-3.457,0-4.771L414.33,6.006c0.637-0.638,1.479-0.988,2.387-0.988
			c0.901,0,1.748,0.354,2.385,0.986l0.033,0.034l-1.517,1.517c-1.298,1.3-1.298,3.402,0,4.7c0.646,0.646,1.5,0.974,2.35,0.974
			c0.854,0,1.7-0.325,2.354-0.974l1.516-1.52l0.031,0.031c0.637,0.64,0.99,1.484,0.99,2.385
			C424.855,14.057,424.502,14.903,423.865,15.541z"/>
	</g>
	<line fill="none" stroke="#FFFFFF" stroke-miterlimit="10" x1="144.499" y1="19.652" x2="144.499" y2="101.813"/>
</g>
</svg>
