<?xml version="1.0" encoding="utf-8"?>
<!-- Generator: Adobe Illustrator 16.0.0, SVG Export Plug-In . SVG Version: 6.00 Build 0)  -->
<!DOCTYPE svg PUBLIC "-//W3C//DTD SVG 1.0//EN" "http://www.w3.org/TR/2001/REC-SVG-20010904/DTD/svg10.dtd">
<svg version="1.0" id="Capa_1" xmlns="http://www.w3.org/2000/svg" xmlns:xlink="http://www.w3.org/1999/xlink" x="0px" y="0px"
	 width="1140px" height="94.672px" viewBox="0 0 1140 94.672" enable-background="new 0 0 1140 94.672" xml:space="preserve">
<g id="Fondo">
</g>
<g id="Guías">
</g>
<g>
	<polygon fill="#0099CC" points="167.384,29.077 314.893,29.077 324.465,19.506 334.036,29.077 522.464,29.077 499.564,62.403 
		522.464,92.956 127.384,92.956 	"/>
	<g>
		<path fill="#A7A9AC" d="M861.92,61.029l23.663-17.408c1.012-0.743,2.269,0.189,2.251,1.67l-0.063,5.211l-0.015,1.294
			c4.733,0.115,40.495,2.271,31.541,41.24c0,0-10.416-27.683-31.79-20.125l-0.029,2.539l-0.063,5.211
			c-0.017,1.48-1.296,2.384-2.289,1.617l-23.246-17.962C860.908,63.563,860.93,61.757,861.92,61.029z"/>
		<path fill="#A7A9AC" d="M863.84,61.304l20.406-15.014c0.871-0.641,1.956,0.164,1.94,1.44l-0.053,4.493l-0.013,1.117
			c4.082,0.1,37.561,0.187,32.625,35.445c0,0-10.76-24.27-32.84-17.236l-0.026,2.189l-0.054,4.494
			c-0.014,1.276-1.117,2.055-1.974,1.393l-20.046-15.488C862.967,63.489,862.986,61.931,863.84,61.304z"/>
		<path fill="#A7A9AC" d="M865.402,61.698c-0.715,0.512-0.717,1.8-0.003,2.342l17.452,13.418c0.729,0.554,1.651-0.08,1.654-1.138
			l0.006-3.716l0.002-1.812c21.852-7.549,33.779,14.269,33.779,14.269c0.121-0.917-5.851-18.896-19.018-23.541
			C886.109,56.876,865.402,61.698,865.402,61.698z"/>
		<path fill="#FFFFFF" d="M864.073,62.044l22.088-16.249c0.943-0.694,2.117,0.177,2.101,1.558l-0.058,4.865l-0.015,1.207
			c4.42,0.108,37.798,2.12,29.441,38.494c0,0-9.723-25.84-29.674-18.784l-0.027,2.369l-0.057,4.864
			c-0.018,1.382-1.211,2.225-2.138,1.509L864.037,65.11C863.129,64.409,863.148,62.724,864.073,62.044z"/>
		<path fill="#009FD9" d="M865.865,62.3l19.048-14.014c0.813-0.598,1.825,0.152,1.812,1.346l-0.05,4.193l-0.013,1.041
			c3.812,0.094,35.061,0.175,30.453,33.086c0,0-10.043-22.653-30.653-16.089l-0.023,2.043l-0.05,4.195
			c-0.014,1.192-1.043,1.917-1.843,1.301l-18.712-14.458C865.051,64.341,865.068,62.886,865.865,62.3z"/>
		<path fill="#00A7DA" d="M867.324,62.667c-0.667,0.479-0.669,1.682-0.003,2.188l16.29,12.523c0.68,0.517,1.541-0.076,1.543-1.061
			l0.006-3.47l0.002-1.69c20.396-7.047,31.529,13.318,31.529,13.318c0.114-0.855-5.46-17.639-17.75-21.973
			C886.651,58.167,867.324,62.667,867.324,62.667z"/>
	</g>
	<polygon fill="#0099CC" points="554.822,29.077 877.707,29.077 854.807,62.403 877.707,92.956 554.822,92.956 531.923,62.403 	"/>
	<g>
		<path fill-rule="evenodd" clip-rule="evenodd" fill="#0099CC" d="M33.491,62.569h-4.728l-1.95,4.264h-3.729l7.993-16.426h4.509
			l1.925,16.426h-3.68L33.491,62.569z M29.787,59.888h3.558l-0.316-3.533l-0.244-3.217c-0.032,0.081-0.316,0.756-0.853,2.022
			c-0.26,0.618-0.431,1.016-0.512,1.194L29.787,59.888z"/>
		<path fill-rule="evenodd" clip-rule="evenodd" fill="#0099CC" d="M47.266,63.788l0.024,2.656
			c-0.422,0.194-0.914,0.349-1.475,0.463c-0.561,0.113-1.198,0.17-1.913,0.17c-1.49,0-2.695-0.438-3.616-1.313
			c-0.92-0.876-1.38-2.068-1.38-3.576c0-2.141,0.727-3.932,2.181-5.375s3.311-2.165,5.568-2.165c0.487,0,0.942,0.04,1.365,0.122
			c0.422,0.081,0.779,0.179,1.072,0.292l-0.877,2.681c-0.179-0.081-0.341-0.138-0.488-0.17c-0.309-0.082-0.682-0.122-1.121-0.122
			c-1.186,0-2.156,0.433-2.912,1.3c-0.755,0.865-1.133,1.881-1.133,3.047c0,0.793,0.219,1.4,0.658,1.821s1,0.632,1.682,0.632
			c0.471,0,0.881-0.039,1.231-0.116C46.481,64.058,46.859,63.942,47.266,63.788z"/>
		<path fill-rule="evenodd" clip-rule="evenodd" fill="#0099CC" d="M52.246,52.671l3.604-1.002l-0.609,3.248l2.529-0.002
			l-0.522,2.654l-2.523,0.004l-0.8,4.045c-0.033,0.162-0.073,0.418-0.122,0.768c-0.048,0.35-0.073,0.598-0.073,0.744
			c0,0.324,0.073,0.572,0.219,0.742c0.146,0.172,0.406,0.256,0.78,0.256h0.365c0.146,0,0.35-0.016,0.609-0.049l-0.414,2.732
			c-0.195,0.08-0.487,0.145-0.877,0.193s-0.788,0.072-1.194,0.072c-1.023,0-1.795-0.234-2.315-0.703
			c-0.52-0.469-0.78-1.091-0.78-1.867c0-0.598,0.082-1.334,0.244-2.206l0.926-4.728l-1.515-0.001l0.495-2.655h1.534L52.246,52.671z"
			/>
		<path fill-rule="evenodd" clip-rule="evenodd" fill="#0099CC" d="M60.855,66.833h-3.509l2.267-11.916h3.509L60.855,66.833z
			 M61.83,53.356c-0.536,0-0.975-0.162-1.315-0.487c-0.342-0.325-0.512-0.771-0.512-1.341c0-0.617,0.207-1.125,0.621-1.522
			s0.922-0.597,1.523-0.597c0.552,0,1.003,0.166,1.353,0.499c0.349,0.333,0.523,0.776,0.523,1.328c0,0.634-0.211,1.146-0.633,1.536
			C62.968,53.161,62.448,53.356,61.83,53.356z"/>
		<path fill-rule="evenodd" clip-rule="evenodd" fill="#0099CC" d="M64.305,54.917h3.631l0.536,5.215
			c0.114,0.877,0.195,1.539,0.244,1.986s0.073,0.865,0.073,1.255h0.098c0.179-0.521,0.345-0.979,0.5-1.377s0.427-1.011,0.816-1.84
			l2.413-5.239h3.923l-6.652,11.916h-3.559L64.305,54.917z"/>
		<path fill-rule="evenodd" clip-rule="evenodd" fill="#0099CC" d="M79.239,66.833H75.73l2.266-11.916h3.509L79.239,66.833z
			 M80.214,53.356c-0.536,0-0.975-0.162-1.316-0.487c-0.341-0.325-0.512-0.771-0.512-1.341c0-0.617,0.207-1.125,0.621-1.522
			c0.415-0.397,0.922-0.597,1.523-0.597c0.552,0,1.003,0.166,1.353,0.499s0.524,0.776,0.524,1.328c0,0.634-0.211,1.146-0.633,1.536
			C81.352,53.161,80.832,53.356,80.214,53.356z"/>
		<path fill-rule="evenodd" clip-rule="evenodd" fill="#0099CC" d="M85.031,52.671l3.604-1.002l-0.609,3.248l2.529-0.002
			l-0.523,2.654l-2.523,0.004l-0.8,4.045c-0.032,0.162-0.073,0.418-0.122,0.768s-0.073,0.598-0.073,0.744
			c0,0.324,0.073,0.572,0.219,0.742c0.146,0.172,0.406,0.256,0.78,0.256h0.366c0.146,0,0.349-0.016,0.609-0.049l-0.415,2.732
			c-0.195,0.08-0.487,0.145-0.877,0.193c-0.39,0.049-0.788,0.072-1.194,0.072c-1.023,0-1.795-0.234-2.315-0.703
			c-0.52-0.469-0.779-1.091-0.779-1.867c0-0.598,0.081-1.334,0.244-2.206l0.926-4.728l-1.515-0.001l0.495-2.655h1.534L85.031,52.671
			z"/>
		<path fill-rule="evenodd" clip-rule="evenodd" fill="#0099CC" d="M93.64,66.833h-3.509l2.267-11.916h3.509L93.64,66.833z
			 M94.615,53.356c-0.536,0-0.975-0.162-1.316-0.487c-0.341-0.325-0.512-0.771-0.512-1.341c0-0.617,0.207-1.125,0.622-1.522
			s0.922-0.597,1.523-0.597c0.553,0,1.003,0.166,1.353,0.499c0.35,0.333,0.524,0.776,0.524,1.328c0,0.634-0.211,1.146-0.634,1.536
			C95.752,53.161,95.232,53.356,94.615,53.356z"/>
		<path fill-rule="evenodd" clip-rule="evenodd" fill="#0099CC" d="M106.033,63.616l0.244,2.511
			c-0.618,0.325-1.333,0.564-2.145,0.719c-0.812,0.154-1.576,0.231-2.291,0.231c-1.673,0-2.953-0.449-3.838-1.35
			c-0.885-0.9-1.328-2.129-1.328-3.686c0-1.93,0.617-3.615,1.853-5.059c1.332-1.557,3.03-2.335,5.093-2.335
			c1.219,0,2.214,0.321,2.985,0.962c0.772,0.643,1.158,1.508,1.158,2.596c0,1.446-0.69,2.494-2.072,3.145
			c-1.251,0.584-3.136,0.877-5.654,0.877c0,0.225,0.028,0.434,0.085,0.627c0.057,0.192,0.15,0.385,0.28,0.578
			c0.472,0.61,1.235,0.916,2.291,0.916c0.65,0,1.235-0.06,1.755-0.178C104.969,64.054,105.497,63.868,106.033,63.616z
			 M104.474,58.206c0-0.292-0.118-0.531-0.354-0.719c-0.236-0.187-0.548-0.279-0.938-0.279c-0.764,0-1.405,0.268-1.925,0.804
			c-0.439,0.454-0.731,1.007-0.878,1.657c1.414,0,2.449-0.109,3.107-0.329S104.474,58.743,104.474,58.206z"/>
		<path fill-rule="evenodd" clip-rule="evenodd" fill="#0099CC" d="M107.838,66.151l0.849-2.461
			c0.388,0.194,0.877,0.381,1.468,0.561c0.59,0.178,1.137,0.268,1.638,0.268c0.469,0,0.837-0.102,1.104-0.305s0.4-0.459,0.4-0.768
			c0-0.293-0.105-0.553-0.315-0.779c-0.21-0.229-0.598-0.48-1.163-0.756c-0.759-0.374-1.348-0.797-1.768-1.268
			c-0.501-0.568-0.751-1.202-0.751-1.9c0-1.219,0.483-2.206,1.45-2.961c0.966-0.756,2.229-1.134,3.789-1.134
			c0.682,0,1.283,0.057,1.803,0.171c0.52,0.113,0.942,0.26,1.267,0.438l-0.829,2.485c-0.341-0.162-0.699-0.292-1.072-0.39
			s-0.812-0.146-1.315-0.146c-0.471,0-0.849,0.093-1.133,0.279c-0.284,0.188-0.426,0.443-0.426,0.768
			c0,0.439,0.487,0.895,1.462,1.365c0.779,0.373,1.381,0.788,1.803,1.242c0.569,0.602,0.853,1.275,0.853,2.023
			c0,1.332-0.5,2.363-1.499,3.095s-2.319,1.097-3.96,1.097c-0.78,0-1.487-0.081-2.12-0.244
			C108.74,66.671,108.229,66.444,107.838,66.151z"/>
	</g>
	<g>
		<path fill-rule="evenodd" clip-rule="evenodd" fill="#8B2D60" d="M928.557,67.751l1.17-2.875c0.486,0.292,1.08,0.54,1.778,0.743
			c0.698,0.202,1.397,0.304,2.097,0.304c0.73,0,1.332-0.154,1.803-0.463c0.536-0.357,0.805-0.844,0.805-1.462
			c0-0.78-0.74-1.552-2.219-2.315c-1.039-0.568-1.827-1.145-2.363-1.73c-0.699-0.779-1.048-1.656-1.048-2.631
			c0-1.609,0.621-2.896,1.864-3.863c1.242-0.967,2.782-1.45,4.618-1.45c0.926,0,1.689,0.073,2.291,0.22
			c0.601,0.146,1.129,0.341,1.584,0.584l-1.097,2.926c-0.309-0.163-0.752-0.326-1.328-0.488c-0.577-0.162-1.158-0.244-1.742-0.244
			c-0.797,0-1.41,0.167-1.84,0.5c-0.432,0.333-0.646,0.744-0.646,1.23c0,0.439,0.219,0.846,0.658,1.219
			c0.324,0.276,0.901,0.643,1.73,1.097c1.072,0.585,1.868,1.194,2.388,1.828c0.585,0.731,0.878,1.567,0.878,2.51
			c0,1.771-0.65,3.152-1.95,4.144c-1.218,0.926-2.794,1.389-4.728,1.389c-1.072,0-2.015-0.113-2.827-0.341
			S928.995,68.076,928.557,67.751z"/>
		<path fill-rule="evenodd" clip-rule="evenodd" fill="#8B2D60" d="M944.148,54.514l3.604-1.001l-0.608,3.248l2.529-0.002
			l-0.522,2.654l-2.523,0.004l-0.801,4.045c-0.032,0.162-0.072,0.418-0.121,0.768s-0.072,0.598-0.072,0.744
			c0,0.324,0.072,0.572,0.219,0.742c0.146,0.171,0.406,0.256,0.779,0.256h0.366c0.146,0,0.349-0.016,0.609-0.049l-0.415,2.732
			c-0.194,0.08-0.486,0.145-0.877,0.193c-0.39,0.049-0.788,0.072-1.194,0.072c-1.023,0-1.795-0.234-2.315-0.703
			c-0.52-0.469-0.779-1.091-0.779-1.867c0-0.598,0.081-1.334,0.244-2.206l0.926-4.728l-1.515-0.001l0.495-2.655h1.534
			L944.148,54.514z"/>
		<path fill-rule="evenodd" clip-rule="evenodd" fill="#8B2D60" d="M960.337,68.677h-3.217l0.171-2.363
			c-0.553,0.918-1.211,1.594-1.975,2.027c-0.666,0.387-1.373,0.58-2.12,0.58c-1.072,0-1.945-0.377-2.62-1.131
			c-0.674-0.754-1.011-1.756-1.011-3.004c0-2.205,0.69-4.086,2.071-5.643c1.576-1.768,3.736-2.651,6.482-2.651
			c0.682,0,1.373,0.053,2.071,0.158s1.308,0.248,1.828,0.427l-1.194,6.238c-0.13,0.683-0.244,1.576-0.342,2.682
			C960.386,67.102,960.337,67.995,960.337,68.677z M957.583,61.989l0.512-2.744c-0.211-0.031-0.37-0.057-0.476-0.072
			s-0.264-0.024-0.475-0.024c-1.072,0-1.994,0.534-2.766,1.603c-0.772,1.068-1.158,2.193-1.158,3.376
			c0,0.583,0.126,1.057,0.378,1.421c0.251,0.364,0.613,0.547,1.085,0.547c0.584,0,1.129-0.316,1.633-0.947
			C956.917,64.402,957.34,63.351,957.583,61.989z"/>
		<path fill-rule="evenodd" clip-rule="evenodd" fill="#8B2D60" d="M965.959,68.677h-3.534l1.341-7.092
			c0.146-0.779,0.275-1.682,0.39-2.705c0.065-0.698,0.138-1.404,0.22-2.119h3.046l-0.22,2.437c0.504-0.845,1.057-1.495,1.658-1.95
			c0.682-0.503,1.421-0.755,2.217-0.755h0.658l-0.682,3.437l-0.537-0.025c-1.039,0-1.885,0.432-2.534,1.293
			c-0.552,0.73-0.95,1.746-1.194,3.045L965.959,68.677z"/>
		<path fill-rule="evenodd" clip-rule="evenodd" fill="#8B2D60" d="M978.882,68.677h-3.499l3.266-17.303h3.51l-1.316,6.896
			c0.536-0.568,1.121-1.007,1.754-1.315c0.635-0.309,1.333-0.463,2.096-0.463c0.943,0,1.678,0.28,2.206,0.841
			s0.792,1.353,0.792,2.376c0,0.617-0.073,1.332-0.219,2.145l-1.292,6.823h-3.509l1.197-6.531c0.047-0.243,0.087-0.482,0.119-0.719
			c0.031-0.235,0.048-0.491,0.048-0.768c0-0.406-0.097-0.73-0.292-0.975c-0.194-0.244-0.502-0.365-0.924-0.365
			c-0.631,0-1.219,0.354-1.762,1.061c-0.542,0.706-0.927,1.652-1.153,2.838L978.882,68.677z"/>
		<path fill-rule="evenodd" clip-rule="evenodd" fill="#8B2D60" d="M998.569,65.46l0.244,2.511
			c-0.618,0.325-1.333,0.564-2.145,0.719c-0.813,0.154-1.576,0.231-2.291,0.231c-1.673,0-2.953-0.449-3.839-1.35
			c-0.885-0.9-1.328-2.129-1.328-3.686c0-1.93,0.617-3.615,1.853-5.059c1.332-1.557,3.03-2.335,5.093-2.335
			c1.219,0,2.215,0.321,2.986,0.962c0.771,0.643,1.157,1.508,1.157,2.596c0,1.446-0.69,2.494-2.071,3.145
			c-1.251,0.584-3.136,0.877-5.654,0.877c0,0.225,0.029,0.434,0.086,0.627c0.057,0.192,0.15,0.385,0.279,0.578
			c0.472,0.609,1.235,0.915,2.291,0.915c0.65,0,1.235-0.059,1.755-0.177C997.506,65.897,998.033,65.712,998.569,65.46z
			 M997.01,60.05c0-0.292-0.117-0.531-0.354-0.719c-0.235-0.187-0.548-0.28-0.938-0.28c-0.764,0-1.406,0.269-1.926,0.804
			c-0.438,0.455-0.73,1.008-0.877,1.658c1.413,0,2.449-0.109,3.107-0.329C996.681,60.964,997.01,60.587,997.01,60.05z"/>
		<path fill-rule="evenodd" clip-rule="evenodd" fill="#8B2D60" d="M1004.299,68.677h-3.534l1.341-7.092
			c0.146-0.779,0.275-1.682,0.39-2.705c0.065-0.698,0.138-1.404,0.22-2.119h3.046l-0.22,2.437c0.504-0.845,1.057-1.495,1.658-1.95
			c0.682-0.503,1.421-0.755,2.217-0.755h0.658l-0.682,3.437l-0.537-0.025c-1.039,0-1.885,0.432-2.534,1.293
			c-0.552,0.73-0.95,1.746-1.194,3.045L1004.299,68.677z"/>
		<path fill-rule="evenodd" clip-rule="evenodd" fill="#8B2D60" d="M1019.26,65.46l0.243,2.511
			c-0.617,0.325-1.332,0.564-2.145,0.719c-0.812,0.154-1.575,0.231-2.29,0.231c-1.674,0-2.953-0.449-3.839-1.35
			s-1.328-2.129-1.328-3.686c0-1.93,0.617-3.615,1.853-5.059c1.332-1.557,3.029-2.335,5.093-2.335c1.219,0,2.214,0.321,2.985,0.962
			c0.771,0.643,1.158,1.508,1.158,2.596c0,1.446-0.691,2.494-2.072,3.145c-1.25,0.584-3.135,0.877-5.653,0.877
			c0,0.225,0.028,0.434,0.085,0.627c0.057,0.192,0.15,0.385,0.28,0.578c0.472,0.609,1.235,0.915,2.291,0.915
			c0.649,0,1.235-0.059,1.755-0.177C1018.195,65.897,1018.724,65.712,1019.26,65.46z M1017.699,60.05
			c0-0.292-0.117-0.531-0.353-0.719c-0.235-0.187-0.549-0.28-0.938-0.28c-0.764,0-1.405,0.269-1.926,0.804
			c-0.438,0.455-0.73,1.008-0.877,1.658c1.414,0,2.449-0.109,3.107-0.329S1017.699,60.587,1017.699,60.05z"/>
	</g>
	<g>
		<rect x="600.111" y="56.714" fill-rule="evenodd" clip-rule="evenodd" fill="#FFFFFF" width="1.395" height="10.109"/>
		<path fill-rule="evenodd" clip-rule="evenodd" fill="#FFFFFF" d="M605.229,66.823h-1.395v-6.195h-1.02v-1.064h1.02v-0.33
			c0-1.035,0.236-1.836,0.709-2.404c0.473-0.566,1.131-0.851,1.977-0.851c0.425,0,0.81,0.069,1.154,0.21l-0.164,1.08
			c-0.25-0.11-0.541-0.165-0.871-0.165c-0.949,0-1.424,0.694-1.424,2.085v0.375h1.784v1.064h-1.771V66.823z"/>
		<path fill-rule="evenodd" clip-rule="evenodd" fill="#FFFFFF" d="M611.486,58.214l1.365-0.405v1.755h1.936v1.064h-1.936v3.78
			c0,0.505,0.082,0.869,0.244,1.091c0.162,0.223,0.421,0.334,0.775,0.334c0.326,0,0.591-0.029,0.795-0.09l0.061,1.051
			c-0.345,0.129-0.76,0.194-1.245,0.194c-1.329,0-1.995-0.83-1.995-2.489v-3.871h-1.14v-1.064h1.14V58.214z"/>
		<path fill-rule="evenodd" clip-rule="evenodd" fill="#FFFFFF" d="M616.182,66.823v-10.68h1.395v4.574h0.03
			c0.245-0.409,0.587-0.732,1.024-0.967c0.437-0.234,0.886-0.353,1.346-0.353c0.75,0,1.375,0.269,1.875,0.806
			c0.5,0.538,0.75,1.324,0.75,2.359v4.26h-1.395v-4.109c0-0.686-0.148-1.217-0.443-1.594c-0.295-0.378-0.723-0.566-1.282-0.566
			c-0.476,0-0.911,0.178-1.309,0.536c-0.397,0.357-0.597,0.818-0.597,1.384v4.35H616.182z"/>
		<path fill-rule="evenodd" clip-rule="evenodd" fill="#FFFFFF" d="M630.695,63.479h-5.265c0.021,0.784,0.263,1.386,0.728,1.804
			s1.067,0.626,1.807,0.626c0.806,0,1.511-0.125,2.115-0.375l0.24,0.976c-0.715,0.32-1.56,0.479-2.535,0.479
			c-1.13,0-2.029-0.335-2.699-1.005s-1.006-1.561-1.006-2.67s0.322-2.04,0.965-2.79c0.642-0.75,1.506-1.125,2.591-1.125
			c0.999,0,1.767,0.333,2.302,1.001s0.803,1.484,0.803,2.449C630.74,63.124,630.726,63.333,630.695,63.479z M625.445,62.474h3.945
			c0-0.625-0.162-1.129-0.484-1.512s-0.781-0.574-1.376-0.574c-0.565,0-1.032,0.191-1.402,0.574S625.53,61.849,625.445,62.474z"/>
		<path fill-rule="evenodd" clip-rule="evenodd" fill="#FFFFFF" d="M635.363,69.794v-7.846c0-0.975-0.02-1.77-0.06-2.385h1.245
			l0.074,1.26h0.03c0.604-0.949,1.505-1.425,2.7-1.425c0.91,0,1.668,0.344,2.272,1.031s0.907,1.569,0.907,2.644
			c0,1.195-0.326,2.146-0.979,2.854c-0.652,0.708-1.467,1.062-2.441,1.062c-0.495,0-0.949-0.101-1.361-0.3
			c-0.412-0.2-0.733-0.484-0.963-0.855h-0.031v3.961H635.363z M636.758,62.653v1.17c0,0.585,0.204,1.076,0.611,1.474
			c0.408,0.397,0.899,0.597,1.475,0.597c0.699,0,1.255-0.249,1.664-0.746c0.41-0.498,0.615-1.169,0.615-2.014
			c0-0.76-0.202-1.388-0.607-1.883c-0.404-0.495-0.942-0.742-1.612-0.742c-0.43,0-0.825,0.123-1.185,0.371
			c-0.36,0.247-0.61,0.55-0.75,0.907C636.828,62.145,636.758,62.434,636.758,62.653z"/>
		<path fill-rule="evenodd" clip-rule="evenodd" fill="#FFFFFF" d="M644.052,66.823v-4.949c0-0.94-0.021-1.711-0.061-2.311h1.23
			l0.09,1.455c0.185-0.51,0.468-0.908,0.847-1.193c0.381-0.284,0.793-0.427,1.238-0.427c0.095,0,0.22,0.01,0.375,0.03v1.32
			c-0.135-0.031-0.295-0.045-0.48-0.045c-0.505,0-0.938,0.197-1.301,0.592s-0.544,0.957-0.544,1.688v3.84H644.052z"/>
		<path fill-rule="evenodd" clip-rule="evenodd" fill="#FFFFFF" d="M654.998,63.479h-5.266c0.021,0.784,0.263,1.386,0.729,1.804
			c0.465,0.418,1.066,0.626,1.807,0.626c0.805,0,1.51-0.125,2.115-0.375l0.24,0.976c-0.715,0.32-1.561,0.479-2.535,0.479
			c-1.131,0-2.03-0.335-2.7-1.005s-1.005-1.561-1.005-2.67s0.321-2.04,0.964-2.79s1.506-1.125,2.591-1.125
			c1,0,1.768,0.333,2.303,1.001s0.803,1.484,0.803,2.449C655.043,63.124,655.027,63.333,654.998,63.479z M649.748,62.474h3.945
			c0-0.625-0.162-1.129-0.484-1.512s-0.781-0.574-1.377-0.574c-0.564,0-1.031,0.191-1.402,0.574
			C650.061,61.345,649.833,61.849,649.748,62.474z"/>
		<path fill-rule="evenodd" clip-rule="evenodd" fill="#FFFFFF" d="M655.627,59.563h1.515l1.545,4.275
			c0.175,0.479,0.36,1.02,0.556,1.619c0.135-0.455,0.342-1.072,0.622-1.852l1.447-4.043h1.485l-2.955,7.26h-1.365L655.627,59.563z"
			/>
		<path fill-rule="evenodd" clip-rule="evenodd" fill="#FFFFFF" d="M665.27,66.823h-1.395v-7.26h1.395V66.823z M665.465,57.358
			c0,0.25-0.082,0.46-0.248,0.63c-0.164,0.17-0.382,0.255-0.652,0.255c-0.26,0-0.472-0.085-0.637-0.255s-0.248-0.38-0.248-0.63
			c0-0.245,0.084-0.451,0.252-0.619c0.167-0.167,0.383-0.251,0.648-0.251c0.255,0,0.467,0.084,0.634,0.251
			C665.381,56.907,665.465,57.113,665.465,57.358z"/>
		<path fill-rule="evenodd" clip-rule="evenodd" fill="#FFFFFF" d="M674.207,63.118c0,0.78-0.163,1.463-0.488,2.048
			c-0.324,0.585-0.779,1.034-1.365,1.351c-0.584,0.314-1.217,0.472-1.896,0.472c-1.061,0-1.936-0.347-2.625-1.038
			c-0.69-0.693-1.035-1.592-1.035-2.697c0-1.174,0.355-2.111,1.068-2.809s1.611-1.046,2.696-1.046c1.08,0,1.958,0.347,2.632,1.038
			C673.869,61.13,674.207,62.023,674.207,63.118z M668.222,63.208c0,0.795,0.212,1.451,0.638,1.969
			c0.425,0.518,0.957,0.777,1.598,0.777c0.654,0,1.201-0.261,1.639-0.781c0.438-0.52,0.656-1.189,0.656-2.01
			c0-0.755-0.201-1.398-0.604-1.932c-0.402-0.531-0.951-0.798-1.646-0.798c-0.705,0-1.262,0.264-1.67,0.791
			C668.426,61.752,668.222,62.413,668.222,63.208z"/>
		<path fill-rule="evenodd" clip-rule="evenodd" fill="#FFFFFF" d="M682.054,59.563v5.25c0,0.824,0.021,1.495,0.06,2.01h-1.229
			l-0.12-1.23c-0.561,0.931-1.391,1.396-2.49,1.396c-0.795,0-1.424-0.272-1.886-0.817c-0.463-0.545-0.694-1.348-0.694-2.408v-4.199
			h1.396v3.96c0,1.54,0.555,2.31,1.665,2.31c0.51,0,0.955-0.182,1.335-0.547s0.569-0.808,0.569-1.328v-4.395H682.054z"/>
		<path fill-rule="evenodd" clip-rule="evenodd" fill="#FFFFFF" d="M683.616,66.479l0.33-1.065c0.59,0.36,1.2,0.541,1.829,0.541
			c0.451,0,0.798-0.096,1.043-0.285c0.245-0.19,0.367-0.445,0.367-0.766c0-0.305-0.102-0.554-0.303-0.746
			c-0.203-0.192-0.557-0.374-1.063-0.544c-1.329-0.455-1.994-1.14-1.994-2.055c0-0.61,0.236-1.122,0.709-1.538
			c0.473-0.414,1.101-0.622,1.886-0.622c0.729,0,1.351,0.149,1.86,0.45l-0.346,1.005c-0.505-0.29-1.024-0.435-1.56-0.435
			c-0.37,0-0.663,0.091-0.878,0.273c-0.215,0.182-0.322,0.416-0.322,0.701c0,0.255,0.092,0.47,0.273,0.645
			c0.184,0.176,0.562,0.365,1.137,0.57c0.7,0.25,1.203,0.547,1.508,0.889c0.305,0.343,0.457,0.771,0.457,1.286
			c0,0.66-0.251,1.192-0.754,1.598c-0.502,0.405-1.186,0.607-2.051,0.607C684.951,66.988,684.241,66.818,683.616,66.479z"/>
		<path fill-rule="evenodd" clip-rule="evenodd" fill="#FFFFFF" d="M698.396,65.503l0.225,1.051
			c-0.614,0.289-1.34,0.435-2.175,0.435c-1.12,0-2.025-0.343-2.715-1.027s-1.035-1.577-1.035-2.678c0-1.146,0.371-2.079,1.113-2.802
			c0.743-0.722,1.717-1.083,2.922-1.083c0.73,0,1.369,0.135,1.92,0.405l-0.301,1.064c-0.459-0.24-0.994-0.359-1.604-0.359
			c-0.795,0-1.431,0.251-1.909,0.754c-0.477,0.502-0.716,1.146-0.716,1.931c0,0.815,0.243,1.464,0.728,1.946
			c0.485,0.482,1.103,0.724,1.853,0.724C697.28,65.863,697.846,65.743,698.396,65.503z"/>
		<path fill-rule="evenodd" clip-rule="evenodd" fill="#FFFFFF" d="M706.832,63.118c0,0.78-0.162,1.463-0.486,2.048
			c-0.326,0.585-0.781,1.034-1.365,1.351c-0.586,0.314-1.218,0.472-1.898,0.472c-1.06,0-1.935-0.347-2.625-1.038
			c-0.689-0.693-1.034-1.592-1.034-2.697c0-1.174,0.356-2.111,1.068-2.809s1.611-1.046,2.696-1.046c1.08,0,1.957,0.347,2.633,1.038
			C706.495,61.13,706.832,62.023,706.832,63.118z M700.848,63.208c0,0.795,0.213,1.451,0.638,1.969s0.957,0.777,1.597,0.777
			c0.655,0,1.201-0.261,1.639-0.781c0.438-0.52,0.656-1.189,0.656-2.01c0-0.755-0.201-1.398-0.604-1.932
			c-0.402-0.531-0.951-0.798-1.646-0.798c-0.705,0-1.261,0.264-1.668,0.791C701.051,61.752,700.848,62.413,700.848,63.208z"/>
		<path fill-rule="evenodd" clip-rule="evenodd" fill="#FFFFFF" d="M708.365,66.823v-5.265c0-0.806-0.021-1.47-0.061-1.995h1.23
			l0.119,1.23c0.23-0.42,0.568-0.758,1.014-1.014c0.444-0.254,0.932-0.382,1.462-0.382c0.76,0,1.392,0.269,1.897,0.806
			c0.505,0.538,0.758,1.324,0.758,2.359v4.26h-1.396v-4.109c0-0.686-0.147-1.217-0.442-1.594c-0.295-0.378-0.723-0.566-1.282-0.566
			c-0.5,0-0.942,0.188-1.327,0.563c-0.386,0.375-0.578,0.832-0.578,1.372v4.335H708.365z"/>
		<path fill-rule="evenodd" clip-rule="evenodd" fill="#FFFFFF" d="M721.949,56.144h1.395v8.775c0,0.81,0.02,1.444,0.061,1.904
			h-1.246l-0.104-1.29c-0.239,0.46-0.585,0.817-1.035,1.073c-0.45,0.254-0.96,0.382-1.53,0.382c-0.92,0-1.688-0.347-2.302-1.038
			c-0.615-0.693-0.923-1.572-0.923-2.637c0-1.155,0.324-2.096,0.972-2.824c0.647-0.727,1.448-1.091,2.403-1.091
			c0.51,0,0.967,0.101,1.369,0.3c0.402,0.2,0.716,0.471,0.941,0.811V56.144z M721.949,63.704v-1.156
			c0-0.614-0.199-1.111-0.597-1.488s-0.874-0.566-1.429-0.566c-0.675,0-1.219,0.253-1.631,0.758
			c-0.413,0.505-0.619,1.162-0.619,1.973c0,0.76,0.195,1.39,0.585,1.89s0.935,0.75,1.635,0.75c0.535,0,1.012-0.196,1.429-0.589
			C721.74,64.882,721.949,64.358,721.949,63.704z"/>
		<path fill-rule="evenodd" clip-rule="evenodd" fill="#FFFFFF" d="M726.835,66.823h-1.396v-7.26h1.396V66.823z M727.029,57.358
			c0,0.25-0.082,0.46-0.247,0.63s-0.382,0.255-0.652,0.255c-0.26,0-0.473-0.085-0.638-0.255c-0.164-0.17-0.247-0.38-0.247-0.63
			c0-0.245,0.083-0.451,0.251-0.619c0.168-0.167,0.384-0.251,0.648-0.251c0.256,0,0.467,0.084,0.635,0.251
			C726.946,56.907,727.029,57.113,727.029,57.358z"/>
		<path fill-rule="evenodd" clip-rule="evenodd" fill="#FFFFFF" d="M729.201,58.214l1.365-0.405v1.755h1.936v1.064h-1.936v3.78
			c0,0.505,0.081,0.869,0.244,1.091c0.162,0.223,0.421,0.334,0.775,0.334c0.325,0,0.59-0.029,0.795-0.09l0.061,1.051
			c-0.346,0.129-0.76,0.194-1.245,0.194c-1.33,0-1.995-0.83-1.995-2.489v-3.871h-1.14v-1.064h1.14V58.214z"/>
		<path fill-rule="evenodd" clip-rule="evenodd" fill="#FFFFFF" d="M735.291,66.823h-1.395v-7.26h1.395V66.823z M735.486,57.358
			c0,0.25-0.082,0.46-0.248,0.63c-0.164,0.17-0.382,0.255-0.652,0.255c-0.26,0-0.473-0.085-0.637-0.255
			c-0.166-0.17-0.248-0.38-0.248-0.63c0-0.245,0.084-0.451,0.251-0.619c0.168-0.167,0.384-0.251,0.649-0.251
			c0.255,0,0.466,0.084,0.633,0.251C735.402,56.907,735.486,57.113,735.486,57.358z"/>
		<path fill-rule="evenodd" clip-rule="evenodd" fill="#FFFFFF" d="M744.228,63.118c0,0.78-0.163,1.463-0.487,2.048
			c-0.325,0.585-0.78,1.034-1.365,1.351c-0.585,0.314-1.218,0.472-1.897,0.472c-1.06,0-1.935-0.347-2.625-1.038
			c-0.69-0.693-1.035-1.592-1.035-2.697c0-1.174,0.356-2.111,1.069-2.809c0.712-0.697,1.611-1.046,2.695-1.046
			c1.08,0,1.958,0.347,2.633,1.038C743.891,61.13,744.228,62.023,744.228,63.118z M738.242,63.208c0,0.795,0.213,1.451,0.638,1.969
			s0.958,0.777,1.598,0.777c0.655,0,1.201-0.261,1.639-0.781c0.438-0.52,0.656-1.189,0.656-2.01c0-0.755-0.201-1.398-0.604-1.932
			c-0.403-0.531-0.952-0.798-1.646-0.798c-0.705,0-1.261,0.264-1.669,0.791C738.446,61.752,738.242,62.413,738.242,63.208z"/>
		<path fill-rule="evenodd" clip-rule="evenodd" fill="#FFFFFF" d="M745.76,66.823v-5.265c0-0.806-0.02-1.47-0.061-1.995h1.23
			l0.12,1.23c0.229-0.42,0.567-0.758,1.013-1.014c0.445-0.254,0.932-0.382,1.463-0.382c0.76,0,1.393,0.269,1.896,0.806
			c0.506,0.538,0.758,1.324,0.758,2.359v4.26h-1.395v-4.109c0-0.686-0.148-1.217-0.443-1.594c-0.295-0.378-0.723-0.566-1.282-0.566
			c-0.5,0-0.942,0.188-1.327,0.563s-0.578,0.832-0.578,1.372v4.335H745.76z"/>
		<path fill-rule="evenodd" clip-rule="evenodd" fill="#FFFFFF" d="M753.704,66.479l0.329-1.065c0.591,0.36,1.201,0.541,1.83,0.541
			c0.451,0,0.798-0.096,1.043-0.285c0.245-0.19,0.367-0.445,0.367-0.766c0-0.305-0.101-0.554-0.303-0.746
			c-0.203-0.192-0.557-0.374-1.063-0.544c-1.329-0.455-1.994-1.14-1.994-2.055c0-0.61,0.236-1.122,0.709-1.538
			c0.473-0.414,1.101-0.622,1.886-0.622c0.729,0,1.351,0.149,1.86,0.45l-0.346,1.005c-0.504-0.29-1.024-0.435-1.56-0.435
			c-0.37,0-0.663,0.091-0.878,0.273c-0.215,0.182-0.322,0.416-0.322,0.701c0,0.255,0.092,0.47,0.273,0.645
			c0.184,0.176,0.562,0.365,1.137,0.57c0.7,0.25,1.203,0.547,1.508,0.889c0.305,0.343,0.457,0.771,0.457,1.286
			c0,0.66-0.251,1.192-0.754,1.598c-0.502,0.405-1.186,0.607-2.051,0.607C755.039,66.988,754.329,66.818,753.704,66.479z"/>
		<path fill-rule="evenodd" clip-rule="evenodd" fill="#FFFFFF" d="M768.648,62.429v2.654c0,0.721,0.04,1.301,0.12,1.74h-1.275
			l-0.165-0.93c-0.545,0.73-1.31,1.095-2.295,1.095c-0.689,0-1.242-0.204-1.657-0.611s-0.622-0.898-0.622-1.474
			c0-0.88,0.382-1.553,1.146-2.018c0.766-0.465,1.883-0.697,3.354-0.697v-0.135c0-0.516-0.142-0.916-0.424-1.204
			c-0.283-0.288-0.701-0.431-1.257-0.431c-0.74,0-1.399,0.185-1.979,0.555l-0.315-0.915c0.7-0.44,1.535-0.66,2.505-0.66
			c0.945,0,1.658,0.26,2.141,0.78C768.407,60.698,768.648,61.448,768.648,62.429z M767.283,64.349v-1.2
			c-1.17,0-1.982,0.14-2.438,0.42s-0.683,0.665-0.683,1.155c0,0.385,0.114,0.686,0.341,0.903c0.229,0.218,0.529,0.327,0.904,0.327
			c0.53,0,0.975-0.164,1.335-0.492C767.104,65.135,767.283,64.763,767.283,64.349z"/>
		<path fill-rule="evenodd" clip-rule="evenodd" fill="#FFFFFF" d="M770.656,66.823v-4.949c0-0.94-0.02-1.711-0.06-2.311h1.229
			l0.09,1.455c0.186-0.51,0.469-0.908,0.848-1.193c0.381-0.284,0.793-0.427,1.238-0.427c0.095,0,0.22,0.01,0.375,0.03v1.32
			c-0.135-0.031-0.295-0.045-0.48-0.045c-0.505,0-0.938,0.197-1.301,0.592c-0.363,0.395-0.544,0.957-0.544,1.688v3.84H770.656z"/>
		<path fill-rule="evenodd" clip-rule="evenodd" fill="#FFFFFF" d="M781.604,63.479h-5.266c0.02,0.784,0.263,1.386,0.728,1.804
			s1.067,0.626,1.808,0.626c0.805,0,1.51-0.125,2.115-0.375l0.24,0.976c-0.715,0.32-1.561,0.479-2.535,0.479
			c-1.131,0-2.03-0.335-2.7-1.005s-1.005-1.561-1.005-2.67s0.32-2.04,0.963-2.79s1.507-1.125,2.592-1.125
			c1,0,1.768,0.333,2.303,1.001s0.803,1.484,0.803,2.449C781.648,63.124,781.633,63.333,781.604,63.479z M776.354,62.474h3.944
			c0-0.625-0.161-1.129-0.483-1.512s-0.781-0.574-1.377-0.574c-0.564,0-1.032,0.191-1.402,0.574
			C776.666,61.345,776.438,61.849,776.354,62.474z"/>
		<path fill-rule="evenodd" clip-rule="evenodd" fill="#FFFFFF" d="M786.271,66.823v-5.265c0-0.806-0.021-1.47-0.061-1.995h1.215
			l0.105,1.186c0.54-0.9,1.33-1.351,2.369-1.351c0.48,0,0.906,0.13,1.279,0.39s0.656,0.62,0.852,1.08
			c0.595-0.98,1.425-1.47,2.49-1.47c0.719,0,1.313,0.272,1.777,0.817s0.697,1.343,0.697,2.393v4.215h-1.365v-4.05
			c0-0.72-0.139-1.272-0.416-1.657s-0.674-0.578-1.189-0.578c-0.444,0-0.841,0.172-1.188,0.514
			c-0.347,0.343-0.521,0.781-0.521,1.316v4.455h-1.365v-4.29c0-0.614-0.138-1.101-0.412-1.458c-0.275-0.357-0.652-0.537-1.133-0.537
			c-0.465,0-0.877,0.195-1.234,0.586c-0.357,0.389-0.535,0.844-0.535,1.364v4.335H786.271z"/>
		<path fill-rule="evenodd" clip-rule="evenodd" fill="#FFFFFF" d="M805.095,63.479h-5.265c0.02,0.784,0.262,1.386,0.727,1.804
			s1.068,0.626,1.809,0.626c0.805,0,1.51-0.125,2.114-0.375l0.24,0.976c-0.716,0.32-1.56,0.479-2.535,0.479
			c-1.13,0-2.03-0.335-2.7-1.005s-1.005-1.561-1.005-2.67s0.321-2.04,0.964-2.79s1.506-1.125,2.592-1.125
			c1,0,1.768,0.333,2.302,1.001c0.535,0.668,0.803,1.484,0.803,2.449C805.14,63.124,805.125,63.333,805.095,63.479z M799.845,62.474
			h3.944c0-0.625-0.16-1.129-0.483-1.512c-0.322-0.383-0.781-0.574-1.376-0.574c-0.564,0-1.033,0.191-1.402,0.574
			C800.157,61.345,799.93,61.849,799.845,62.474z"/>
		<path fill-rule="evenodd" clip-rule="evenodd" fill="#FFFFFF" d="M806.938,58.214l1.365-0.405v1.755h1.935v1.064h-1.935v3.78
			c0,0.505,0.081,0.869,0.243,1.091c0.162,0.223,0.422,0.334,0.776,0.334c0.325,0,0.591-0.029,0.796-0.09l0.06,1.051
			c-0.345,0.129-0.761,0.194-1.245,0.194c-1.33,0-1.995-0.83-1.995-2.489v-3.871h-1.14v-1.064h1.14V58.214z"/>
	</g>
	<g>
		<polygon fill-rule="evenodd" clip-rule="evenodd" fill="#FFFFFF" points="210.414,66.823 210.414,57.884 207.219,57.884 
			207.219,56.714 215.019,56.714 215.019,57.884 211.809,57.884 211.809,66.823 		"/>
		<path fill-rule="evenodd" clip-rule="evenodd" fill="#FFFFFF" d="M215.854,66.823v-10.68h1.395v4.574h0.03
			c0.245-0.409,0.586-0.732,1.024-0.967s0.886-0.353,1.346-0.353c0.75,0,1.375,0.269,1.875,0.806c0.5,0.538,0.75,1.324,0.75,2.359
			v4.26h-1.395v-4.109c0-0.686-0.147-1.217-0.442-1.594c-0.295-0.378-0.723-0.566-1.283-0.566c-0.475,0-0.911,0.178-1.309,0.536
			c-0.397,0.357-0.596,0.818-0.596,1.384v4.35H215.854z"/>
		<path fill-rule="evenodd" clip-rule="evenodd" fill="#FFFFFF" d="M230.368,63.479h-5.265c0.02,0.784,0.263,1.386,0.728,1.804
			s1.067,0.626,1.808,0.626c0.805,0,1.51-0.125,2.115-0.375l0.24,0.976c-0.715,0.32-1.56,0.479-2.535,0.479
			c-1.13,0-2.03-0.335-2.7-1.005c-0.67-0.67-1.005-1.561-1.005-2.67s0.321-2.04,0.964-2.79s1.506-1.125,2.591-1.125
			c1,0,1.768,0.333,2.302,1.001c0.535,0.668,0.802,1.484,0.802,2.449C230.413,63.124,230.398,63.333,230.368,63.479z
			 M225.118,62.474h3.945c0-0.625-0.161-1.129-0.484-1.512s-0.781-0.574-1.376-0.574c-0.565,0-1.033,0.191-1.403,0.574
			S225.204,61.849,225.118,62.474z"/>
		<path fill-rule="evenodd" clip-rule="evenodd" fill="#FFFFFF" d="M231.928,66.823v-5.265c0-0.806-0.021-1.47-0.061-1.995h1.23
			l0.12,1.23c0.23-0.42,0.568-0.758,1.013-1.014c0.445-0.254,0.932-0.382,1.462-0.382c0.76,0,1.393,0.269,1.897,0.806
			c0.505,0.538,0.757,1.324,0.757,2.359v4.26h-1.395v-4.109c0-0.686-0.147-1.217-0.442-1.594c-0.295-0.378-0.723-0.566-1.282-0.566
			c-0.5,0-0.942,0.188-1.328,0.563s-0.578,0.832-0.578,1.372v4.335H231.928z"/>
		<path fill-rule="evenodd" clip-rule="evenodd" fill="#FFFFFF" d="M240.472,68.563l-0.99,0.105c0.41-1.146,0.715-2.36,0.915-3.646
			l1.545-0.149C241.507,66.398,241.017,67.628,240.472,68.563z"/>
		<path fill-rule="evenodd" clip-rule="evenodd" fill="#FFFFFF" d="M245.87,58.214l1.365-0.405v1.755h1.935v1.064h-1.935v3.78
			c0,0.505,0.082,0.869,0.244,1.091c0.162,0.223,0.421,0.334,0.776,0.334c0.325,0,0.59-0.029,0.795-0.09l0.06,1.051
			c-0.345,0.129-0.76,0.194-1.245,0.194c-1.33,0-1.995-0.83-1.995-2.489v-3.871h-1.14v-1.064h1.14V58.214z"/>
		<path fill-rule="evenodd" clip-rule="evenodd" fill="#FFFFFF" d="M250.564,66.823v-10.68h1.395v4.574h0.03
			c0.245-0.409,0.586-0.732,1.023-0.967s0.887-0.353,1.347-0.353c0.75,0,1.375,0.269,1.875,0.806c0.5,0.538,0.75,1.324,0.75,2.359
			v4.26h-1.396v-4.109c0-0.686-0.147-1.217-0.442-1.594c-0.295-0.378-0.722-0.566-1.282-0.566c-0.475,0-0.911,0.178-1.309,0.536
			c-0.397,0.357-0.597,0.818-0.597,1.384v4.35H250.564z"/>
		<path fill-rule="evenodd" clip-rule="evenodd" fill="#FFFFFF" d="M265.078,63.479h-5.265c0.02,0.784,0.262,1.386,0.728,1.804
			c0.465,0.418,1.067,0.626,1.808,0.626c0.805,0,1.51-0.125,2.115-0.375l0.24,0.976c-0.715,0.32-1.56,0.479-2.535,0.479
			c-1.13,0-2.03-0.335-2.7-1.005s-1.005-1.561-1.005-2.67s0.321-2.04,0.963-2.79c0.643-0.75,1.507-1.125,2.592-1.125
			c1,0,1.768,0.333,2.302,1.001s0.802,1.484,0.802,2.449C265.123,63.124,265.108,63.333,265.078,63.479z M259.828,62.474h3.945
			c0-0.625-0.161-1.129-0.484-1.512s-0.781-0.574-1.376-0.574c-0.564,0-1.032,0.191-1.402,0.574S259.913,61.849,259.828,62.474z"/>
		<path fill-rule="evenodd" clip-rule="evenodd" fill="#FFFFFF" d="M275.056,62.429v2.654c0,0.721,0.04,1.301,0.12,1.74h-1.275
			l-0.165-0.93c-0.545,0.73-1.31,1.095-2.295,1.095c-0.69,0-1.243-0.204-1.658-0.611c-0.415-0.407-0.623-0.898-0.623-1.474
			c0-0.88,0.383-1.553,1.147-2.018c0.765-0.465,1.883-0.697,3.353-0.697v-0.135c0-0.516-0.141-0.916-0.424-1.204
			c-0.282-0.288-0.701-0.431-1.256-0.431c-0.74,0-1.4,0.185-1.98,0.555l-0.314-0.915c0.7-0.44,1.535-0.66,2.505-0.66
			c0.945,0,1.659,0.26,2.141,0.78C274.815,60.698,275.056,61.448,275.056,62.429z M273.691,64.349v-1.2
			c-1.17,0-1.982,0.14-2.438,0.42s-0.683,0.665-0.683,1.155c0,0.385,0.114,0.686,0.341,0.903c0.227,0.218,0.529,0.327,0.904,0.327
			c0.53,0,0.975-0.164,1.335-0.492C273.511,65.135,273.691,64.763,273.691,64.349z"/>
		<path fill-rule="evenodd" clip-rule="evenodd" fill="#FFFFFF" d="M282.209,65.503l0.225,1.051
			c-0.615,0.289-1.34,0.435-2.175,0.435c-1.12,0-2.025-0.343-2.715-1.027c-0.69-0.685-1.035-1.577-1.035-2.678
			c0-1.146,0.371-2.079,1.113-2.802c0.743-0.722,1.717-1.083,2.922-1.083c0.729,0,1.37,0.135,1.92,0.405l-0.3,1.064
			c-0.46-0.24-0.995-0.359-1.605-0.359c-0.795,0-1.431,0.251-1.909,0.754c-0.478,0.502-0.716,1.146-0.716,1.931
			c0,0.815,0.243,1.464,0.728,1.946s1.103,0.724,1.853,0.724C281.095,65.863,281.66,65.743,282.209,65.503z"/>
		<path fill-rule="evenodd" clip-rule="evenodd" fill="#FFFFFF" d="M284.347,58.214l1.365-0.405v1.755h1.935v1.064h-1.935v3.78
			c0,0.505,0.081,0.869,0.243,1.091c0.163,0.223,0.422,0.334,0.776,0.334c0.325,0,0.59-0.029,0.795-0.09l0.061,1.051
			c-0.345,0.129-0.76,0.194-1.245,0.194c-1.33,0-1.995-0.83-1.995-2.489v-3.871h-1.14v-1.064h1.14V58.214z"/>
		<path fill-rule="evenodd" clip-rule="evenodd" fill="#FFFFFF" d="M290.437,66.823h-1.395v-7.26h1.395V66.823z M290.631,57.358
			c0,0.25-0.083,0.46-0.248,0.63s-0.382,0.255-0.652,0.255c-0.26,0-0.473-0.085-0.638-0.255s-0.247-0.38-0.247-0.63
			c0-0.245,0.083-0.451,0.251-0.619c0.167-0.167,0.384-0.251,0.648-0.251c0.255,0,0.467,0.084,0.634,0.251
			C290.548,56.907,290.631,57.113,290.631,57.358z"/>
		<path fill-rule="evenodd" clip-rule="evenodd" fill="#FFFFFF" d="M291.588,59.563h1.515l1.545,4.275
			c0.175,0.479,0.36,1.02,0.556,1.619c0.135-0.455,0.342-1.072,0.622-1.852l1.447-4.043h1.485l-2.955,7.26h-1.365L291.588,59.563z"
			/>
		<path fill-rule="evenodd" clip-rule="evenodd" fill="#FFFFFF" d="M301.231,66.823h-1.396v-7.26h1.396V66.823z M301.426,57.358
			c0,0.25-0.083,0.46-0.248,0.63s-0.383,0.255-0.652,0.255c-0.26,0-0.473-0.085-0.638-0.255s-0.248-0.38-0.248-0.63
			c0-0.245,0.084-0.451,0.251-0.619c0.167-0.167,0.384-0.251,0.648-0.251c0.255,0,0.467,0.084,0.634,0.251
			C301.343,56.907,301.426,57.113,301.426,57.358z"/>
		<path fill-rule="evenodd" clip-rule="evenodd" fill="#FFFFFF" d="M303.598,58.214l1.365-0.405v1.755h1.935v1.064h-1.935v3.78
			c0,0.505,0.081,0.869,0.243,1.091c0.163,0.223,0.422,0.334,0.776,0.334c0.325,0,0.59-0.029,0.795-0.09l0.061,1.051
			c-0.345,0.129-0.76,0.194-1.245,0.194c-1.33,0-1.995-0.83-1.995-2.489v-3.871h-1.14v-1.064h1.14V58.214z"/>
		<path fill-rule="evenodd" clip-rule="evenodd" fill="#FFFFFF" d="M309.688,66.823h-1.395v-7.26h1.395V66.823z M309.882,57.358
			c0,0.25-0.083,0.46-0.248,0.63s-0.383,0.255-0.652,0.255c-0.26,0-0.473-0.085-0.638-0.255s-0.247-0.38-0.247-0.63
			c0-0.245,0.083-0.451,0.251-0.619c0.167-0.167,0.384-0.251,0.648-0.251c0.255,0,0.467,0.084,0.634,0.251
			C309.799,56.907,309.882,57.113,309.882,57.358z"/>
		<path fill-rule="evenodd" clip-rule="evenodd" fill="#FFFFFF" d="M317.829,63.479h-5.265c0.021,0.784,0.263,1.386,0.728,1.804
			s1.067,0.626,1.808,0.626c0.805,0,1.51-0.125,2.115-0.375l0.24,0.976c-0.715,0.32-1.56,0.479-2.535,0.479
			c-1.13,0-2.03-0.335-2.7-1.005s-1.005-1.561-1.005-2.67s0.321-2.04,0.964-2.79s1.506-1.125,2.591-1.125
			c1,0,1.768,0.333,2.303,1.001s0.803,1.484,0.803,2.449C317.874,63.124,317.858,63.333,317.829,63.479z M312.579,62.474h3.944
			c0-0.625-0.161-1.129-0.483-1.512s-0.781-0.574-1.376-0.574c-0.565,0-1.032,0.191-1.402,0.574
			C312.892,61.345,312.664,61.849,312.579,62.474z"/>
		<path fill-rule="evenodd" clip-rule="evenodd" fill="#FFFFFF" d="M318.878,66.479l0.33-1.065c0.59,0.36,1.2,0.541,1.83,0.541
			c0.45,0,0.797-0.096,1.042-0.285c0.245-0.19,0.367-0.445,0.367-0.766c0-0.305-0.101-0.554-0.304-0.746
			c-0.202-0.192-0.556-0.374-1.061-0.544c-1.33-0.455-1.995-1.14-1.995-2.055c0-0.61,0.236-1.122,0.708-1.538
			c0.472-0.414,1.101-0.622,1.886-0.622c0.73,0,1.35,0.149,1.86,0.45l-0.345,1.005c-0.505-0.29-1.024-0.435-1.56-0.435
			c-0.37,0-0.663,0.091-0.877,0.273c-0.215,0.182-0.323,0.416-0.323,0.701c0,0.255,0.091,0.47,0.274,0.645
			c0.182,0.176,0.561,0.365,1.136,0.57c0.7,0.25,1.202,0.547,1.507,0.889c0.305,0.343,0.458,0.771,0.458,1.286
			c0,0.66-0.251,1.192-0.754,1.598c-0.502,0.405-1.186,0.607-2.051,0.607C320.213,66.988,319.503,66.818,318.878,66.479z"/>
		<path fill-rule="evenodd" clip-rule="evenodd" fill="#FFFFFF" d="M333.657,65.503l0.225,1.051
			c-0.615,0.289-1.34,0.435-2.175,0.435c-1.12,0-2.025-0.343-2.715-1.027c-0.69-0.685-1.035-1.577-1.035-2.678
			c0-1.146,0.371-2.079,1.114-2.802c0.743-0.722,1.716-1.083,2.921-1.083c0.729,0,1.37,0.135,1.92,0.405l-0.3,1.064
			c-0.46-0.24-0.995-0.359-1.605-0.359c-0.795,0-1.431,0.251-1.908,0.754c-0.478,0.502-0.717,1.146-0.717,1.931
			c0,0.815,0.243,1.464,0.728,1.946c0.485,0.482,1.103,0.724,1.853,0.724C332.542,65.863,333.107,65.743,333.657,65.503z"/>
		<path fill-rule="evenodd" clip-rule="evenodd" fill="#FFFFFF" d="M340.639,62.429v2.654c0,0.721,0.04,1.301,0.12,1.74h-1.275
			l-0.165-0.93c-0.545,0.73-1.31,1.095-2.295,1.095c-0.69,0-1.243-0.204-1.658-0.611s-0.623-0.898-0.623-1.474
			c0-0.88,0.383-1.553,1.147-2.018c0.765-0.465,1.883-0.697,3.353-0.697v-0.135c0-0.516-0.141-0.916-0.424-1.204
			c-0.282-0.288-0.701-0.431-1.256-0.431c-0.74,0-1.4,0.185-1.98,0.555l-0.314-0.915c0.7-0.44,1.535-0.66,2.505-0.66
			c0.945,0,1.658,0.26,2.141,0.78C340.398,60.698,340.639,61.448,340.639,62.429z M339.274,64.349v-1.2
			c-1.17,0-1.982,0.14-2.438,0.42s-0.683,0.665-0.683,1.155c0,0.385,0.114,0.686,0.341,0.903s0.529,0.327,0.904,0.327
			c0.53,0,0.975-0.164,1.335-0.492C339.094,65.135,339.274,64.763,339.274,64.349z"/>
		<path fill-rule="evenodd" clip-rule="evenodd" fill="#FFFFFF" d="M342.647,66.823v-5.265c0-0.806-0.02-1.47-0.06-1.995h1.229
			l0.12,1.23c0.23-0.42,0.567-0.758,1.013-1.014c0.445-0.254,0.933-0.382,1.462-0.382c0.76,0,1.393,0.269,1.897,0.806
			c0.505,0.538,0.757,1.324,0.757,2.359v4.26h-1.395v-4.109c0-0.686-0.147-1.217-0.442-1.594c-0.295-0.378-0.722-0.566-1.283-0.566
			c-0.5,0-0.942,0.188-1.327,0.563s-0.578,0.832-0.578,1.372v4.335H342.647z"/>
		<path fill-rule="evenodd" clip-rule="evenodd" fill="#FFFFFF" d="M354.211,64.919v-8.775h1.425v4.605
			c0.53-0.9,1.385-1.351,2.565-1.351c0.93,0,1.692,0.344,2.288,1.031c0.595,0.688,0.893,1.573,0.893,2.659
			c0,1.185-0.329,2.131-0.986,2.838c-0.658,0.708-1.459,1.062-2.404,1.062c-1.135,0-1.99-0.455-2.565-1.364l-0.06,1.199h-1.215
			C354.191,66.363,354.211,65.729,354.211,64.919z M355.605,62.669v1.185c0,0.54,0.202,1.013,0.604,1.417
			c0.402,0.405,0.901,0.607,1.496,0.607c0.695,0,1.247-0.246,1.654-0.738c0.408-0.492,0.611-1.156,0.611-1.991
			c0-0.774-0.203-1.411-0.607-1.909c-0.405-0.497-0.948-0.746-1.627-0.746c-0.6,0-1.105,0.219-1.515,0.656
			S355.605,62.093,355.605,62.669z"/>
		<path fill-rule="evenodd" clip-rule="evenodd" fill="#FFFFFF" d="M368.958,63.479h-5.265c0.02,0.784,0.262,1.386,0.728,1.804
			c0.465,0.418,1.067,0.626,1.807,0.626c0.805,0,1.51-0.125,2.115-0.375l0.24,0.976c-0.715,0.32-1.56,0.479-2.535,0.479
			c-1.13,0-2.03-0.335-2.7-1.005s-1.005-1.561-1.005-2.67s0.321-2.04,0.964-2.79s1.506-1.125,2.591-1.125
			c1,0,1.768,0.333,2.303,1.001s0.803,1.484,0.803,2.449C369.004,63.124,368.989,63.333,368.958,63.479z M363.709,62.474h3.945
			c0-0.625-0.162-1.129-0.484-1.512c-0.323-0.383-0.781-0.574-1.376-0.574c-0.565,0-1.033,0.191-1.403,0.574
			S363.794,61.849,363.709,62.474z"/>
		<path fill-rule="evenodd" clip-rule="evenodd" fill="#FFFFFF" d="M378.771,65.503l0.225,1.051
			c-0.615,0.289-1.34,0.435-2.175,0.435c-1.12,0-2.025-0.343-2.715-1.027c-0.69-0.685-1.035-1.577-1.035-2.678
			c0-1.146,0.371-2.079,1.114-2.802c0.742-0.722,1.716-1.083,2.921-1.083c0.73,0,1.37,0.135,1.92,0.405l-0.3,1.064
			c-0.46-0.24-0.995-0.359-1.605-0.359c-0.795,0-1.431,0.251-1.909,0.754c-0.478,0.502-0.716,1.146-0.716,1.931
			c0,0.815,0.243,1.464,0.728,1.946s1.103,0.724,1.853,0.724C377.657,65.863,378.222,65.743,378.771,65.503z"/>
		<path fill-rule="evenodd" clip-rule="evenodd" fill="#FFFFFF" d="M385.754,62.429v2.654c0,0.721,0.04,1.301,0.12,1.74h-1.275
			l-0.165-0.93c-0.545,0.73-1.31,1.095-2.295,1.095c-0.69,0-1.242-0.204-1.657-0.611s-0.623-0.898-0.623-1.474
			c0-0.88,0.382-1.553,1.147-2.018s1.882-0.697,3.353-0.697v-0.135c0-0.516-0.141-0.916-0.424-1.204s-0.701-0.431-1.256-0.431
			c-0.74,0-1.4,0.185-1.98,0.555l-0.315-0.915c0.7-0.44,1.535-0.66,2.505-0.66c0.945,0,1.659,0.26,2.141,0.78
			C385.513,60.698,385.754,61.448,385.754,62.429z M384.389,64.349v-1.2c-1.17,0-1.982,0.14-2.438,0.42s-0.682,0.665-0.682,1.155
			c0,0.385,0.114,0.686,0.341,0.903c0.228,0.218,0.529,0.327,0.904,0.327c0.53,0,0.975-0.164,1.335-0.492
			C384.209,65.135,384.389,64.763,384.389,64.349z"/>
		<path fill-rule="evenodd" clip-rule="evenodd" fill="#FFFFFF" d="M387.762,66.823v-4.949c0-0.94-0.02-1.711-0.06-2.311h1.23
			l0.09,1.455c0.185-0.51,0.468-0.908,0.848-1.193c0.38-0.284,0.792-0.427,1.238-0.427c0.095,0,0.22,0.01,0.375,0.03v1.32
			c-0.135-0.031-0.295-0.045-0.48-0.045c-0.505,0-0.938,0.197-1.301,0.592c-0.362,0.395-0.543,0.957-0.543,1.688v3.84H387.762z"/>
		<path fill-rule="evenodd" clip-rule="evenodd" fill="#FFFFFF" d="M392.708,66.823v-4.949c0-0.94-0.02-1.711-0.06-2.311h1.23
			l0.09,1.455c0.185-0.51,0.468-0.908,0.848-1.193c0.38-0.284,0.792-0.427,1.238-0.427c0.095,0,0.22,0.01,0.375,0.03v1.32
			c-0.135-0.031-0.295-0.045-0.48-0.045c-0.505,0-0.938,0.197-1.301,0.592c-0.362,0.395-0.543,0.957-0.543,1.688v3.84H392.708z"/>
		<path fill-rule="evenodd" clip-rule="evenodd" fill="#FFFFFF" d="M399.05,66.823h-1.395v-7.26h1.395V66.823z M399.245,57.358
			c0,0.25-0.083,0.46-0.248,0.63s-0.382,0.255-0.652,0.255c-0.26,0-0.473-0.085-0.638-0.255c-0.165-0.17-0.247-0.38-0.247-0.63
			c0-0.245,0.083-0.451,0.251-0.619c0.167-0.167,0.384-0.251,0.649-0.251c0.255,0,0.466,0.084,0.634,0.251
			C399.161,56.907,399.245,57.113,399.245,57.358z"/>
		<path fill-rule="evenodd" clip-rule="evenodd" fill="#FFFFFF" d="M407.191,63.479h-5.265c0.02,0.784,0.262,1.386,0.728,1.804
			c0.465,0.418,1.067,0.626,1.807,0.626c0.805,0,1.51-0.125,2.115-0.375l0.24,0.976c-0.715,0.32-1.56,0.479-2.535,0.479
			c-1.13,0-2.03-0.335-2.7-1.005s-1.005-1.561-1.005-2.67s0.321-2.04,0.964-2.79s1.506-1.125,2.591-1.125
			c1,0,1.767,0.333,2.302,1.001s0.803,1.484,0.803,2.449C407.236,63.124,407.221,63.333,407.191,63.479z M401.941,62.474h3.945
			c0-0.625-0.161-1.129-0.484-1.512c-0.322-0.383-0.781-0.574-1.376-0.574c-0.565,0-1.033,0.191-1.403,0.574
			C402.254,61.345,402.026,61.849,401.941,62.474z"/>
		<path fill-rule="evenodd" clip-rule="evenodd" fill="#FFFFFF" d="M413.88,56.144h1.395v8.775c0,0.81,0.02,1.444,0.06,1.904h-1.245
			l-0.105-1.29c-0.24,0.46-0.585,0.817-1.035,1.073c-0.45,0.254-0.96,0.382-1.53,0.382c-0.92,0-1.688-0.347-2.302-1.038
			c-0.615-0.693-0.922-1.572-0.922-2.637c0-1.155,0.324-2.096,0.971-2.824c0.647-0.727,1.449-1.091,2.404-1.091
			c0.51,0,0.966,0.101,1.369,0.3c0.402,0.2,0.716,0.471,0.941,0.811V56.144z M413.88,63.704v-1.156c0-0.614-0.199-1.111-0.596-1.488
			s-0.874-0.566-1.429-0.566c-0.675,0-1.219,0.253-1.631,0.758c-0.412,0.505-0.619,1.162-0.619,1.973c0,0.76,0.195,1.39,0.585,1.89
			c0.39,0.5,0.935,0.75,1.635,0.75c0.535,0,1.011-0.196,1.429-0.589S413.88,64.358,413.88,63.704z"/>
		<path fill-rule="evenodd" clip-rule="evenodd" fill="#FFFFFF" d="M427.335,63.118c0,0.78-0.163,1.463-0.488,2.048
			c-0.325,0.585-0.78,1.034-1.365,1.351c-0.585,0.314-1.218,0.472-1.897,0.472c-1.06,0-1.935-0.347-2.625-1.038
			c-0.69-0.693-1.035-1.592-1.035-2.697c0-1.174,0.356-2.111,1.069-2.809s1.611-1.046,2.696-1.046c1.08,0,1.958,0.347,2.632,1.038
			C426.998,61.13,427.335,62.023,427.335,63.118z M421.351,63.208c0,0.795,0.212,1.451,0.637,1.969s0.958,0.777,1.598,0.777
			c0.655,0,1.201-0.261,1.639-0.781c0.438-0.52,0.656-1.189,0.656-2.01c0-0.755-0.201-1.398-0.604-1.932
			c-0.402-0.531-0.951-0.798-1.646-0.798c-0.705,0-1.261,0.264-1.669,0.791C421.554,61.752,421.351,62.413,421.351,63.208z"/>
		<path fill-rule="evenodd" clip-rule="evenodd" fill="#FFFFFF" d="M435.183,59.563v5.25c0,0.824,0.02,1.495,0.06,2.01h-1.23
			l-0.12-1.23c-0.56,0.931-1.39,1.396-2.49,1.396c-0.795,0-1.423-0.272-1.886-0.817c-0.462-0.545-0.693-1.348-0.693-2.408v-4.199
			h1.395v3.96c0,1.54,0.555,2.31,1.665,2.31c0.51,0,0.955-0.182,1.334-0.547c0.38-0.365,0.57-0.808,0.57-1.328v-4.395H435.183z"/>
		<path fill-rule="evenodd" clip-rule="evenodd" fill="#FFFFFF" d="M437.54,58.214l1.365-0.405v1.755h1.935v1.064h-1.935v3.78
			c0,0.505,0.082,0.869,0.244,1.091c0.163,0.223,0.421,0.334,0.776,0.334c0.325,0,0.59-0.029,0.795-0.09l0.06,1.051
			c-0.345,0.129-0.76,0.194-1.245,0.194c-1.33,0-1.995-0.83-1.995-2.489v-3.871h-1.14v-1.064h1.14V58.214z"/>
	</g>
	<g>
		<rect x="226.348" y="5.531" fill-rule="evenodd" clip-rule="evenodd" fill="#231F20" width="1.302" height="9.436"/>
		<polygon fill-rule="evenodd" clip-rule="evenodd" fill="#231F20" points="229.654,14.967 229.654,5.531 234.96,5.531 
			234.96,6.608 230.957,6.608 230.957,9.661 234.652,9.661 234.652,10.739 230.957,10.739 230.957,14.967 		"/>
		<path fill-rule="evenodd" clip-rule="evenodd" fill="#231F20" d="M239.718,6.931l1.274-0.378V8.19h1.806v0.994h-1.806v3.528
			c0,0.472,0.076,0.811,0.228,1.019s0.393,0.312,0.725,0.312c0.303,0,0.551-0.028,0.742-0.084l0.056,0.98
			c-0.322,0.122-0.709,0.182-1.162,0.182c-1.241,0-1.862-0.775-1.862-2.324V9.185h-1.064V8.19h1.064V6.931z"/>
		<path fill-rule="evenodd" clip-rule="evenodd" fill="#231F20" d="M244.1,14.967V4.999h1.302v4.27h0.028
			c0.229-0.383,0.547-0.684,0.956-0.903c0.408-0.22,0.827-0.329,1.256-0.329c0.7,0,1.284,0.251,1.75,0.752
			c0.467,0.501,0.7,1.235,0.7,2.202v3.976h-1.302V11.13c0-0.639-0.138-1.135-0.413-1.487s-0.675-0.528-1.197-0.528
			c-0.443,0-0.851,0.167-1.221,0.5c-0.371,0.333-0.557,0.764-0.557,1.292v4.06H244.1z"/>
		<path fill-rule="evenodd" clip-rule="evenodd" fill="#231F20" d="M257.646,11.845h-4.914c0.019,0.732,0.245,1.293,0.679,1.684
			c0.435,0.389,0.997,0.584,1.688,0.584c0.751,0,1.409-0.117,1.974-0.35l0.224,0.91c-0.667,0.298-1.456,0.448-2.366,0.448
			c-1.055,0-1.895-0.313-2.521-0.938c-0.625-0.625-0.938-1.456-0.938-2.492c0-1.036,0.3-1.904,0.899-2.604
			c0.6-0.7,1.405-1.05,2.418-1.05c0.933,0,1.649,0.312,2.149,0.935c0.499,0.623,0.749,1.385,0.749,2.286
			C257.688,11.513,257.674,11.709,257.646,11.845z M252.746,10.907h3.682c0-0.583-0.15-1.054-0.452-1.411
			c-0.301-0.357-0.729-0.536-1.284-0.536c-0.527,0-0.964,0.179-1.309,0.536S252.826,10.323,252.746,10.907z"/>
		<path fill-rule="evenodd" clip-rule="evenodd" fill="#231F20" d="M266.959,10.865v2.478c0,0.672,0.037,1.213,0.112,1.624h-1.19
			l-0.154-0.868c-0.509,0.681-1.223,1.022-2.142,1.022c-0.644,0-1.159-0.19-1.547-0.57c-0.387-0.38-0.581-0.839-0.581-1.375
			c0-0.822,0.357-1.449,1.071-1.883s1.757-0.651,3.129-0.651v-0.126c0-0.481-0.132-0.855-0.396-1.124
			c-0.264-0.269-0.654-0.402-1.173-0.402c-0.69,0-1.307,0.172-1.848,0.518l-0.294-0.854c0.653-0.411,1.433-0.616,2.338-0.616
			c0.882,0,1.548,0.243,1.999,0.728C266.734,9.25,266.959,9.95,266.959,10.865z M265.685,12.657v-1.12
			c-1.092,0-1.85,0.13-2.275,0.392c-0.425,0.261-0.637,0.621-0.637,1.078c0,0.359,0.106,0.64,0.318,0.843
			c0.212,0.203,0.493,0.305,0.843,0.305c0.495,0,0.91-0.153,1.246-0.458C265.517,13.391,265.685,13.044,265.685,12.657z"/>
		<path fill-rule="evenodd" clip-rule="evenodd" fill="#231F20" d="M273.636,13.734l0.21,0.98c-0.574,0.271-1.251,0.406-2.03,0.406
			c-1.045,0-1.89-0.32-2.534-0.959c-0.644-0.64-0.966-1.473-0.966-2.499c0-1.069,0.347-1.94,1.04-2.615s1.602-1.011,2.727-1.011
			c0.681,0,1.279,0.126,1.792,0.378l-0.28,0.994c-0.43-0.224-0.929-0.336-1.498-0.336c-0.742,0-1.336,0.234-1.782,0.703
			c-0.446,0.469-0.668,1.07-0.668,1.803c0,0.761,0.227,1.366,0.679,1.816s1.029,0.676,1.729,0.676
			C272.595,14.071,273.122,13.958,273.636,13.734z"/>
		<path fill-rule="evenodd" clip-rule="evenodd" fill="#231F20" d="M275.63,6.931l1.274-0.378V8.19h1.806v0.994h-1.806v3.528
			c0,0.472,0.076,0.811,0.228,1.019c0.151,0.208,0.393,0.312,0.725,0.312c0.303,0,0.55-0.028,0.742-0.084l0.056,0.98
			c-0.322,0.122-0.709,0.182-1.162,0.182c-1.241,0-1.862-0.775-1.862-2.324V9.185h-1.063V8.19h1.063V6.931z"/>
		<path fill-rule="evenodd" clip-rule="evenodd" fill="#231F20" d="M281.314,14.967h-1.302V8.19h1.302V14.967z M281.496,6.133
			c0,0.233-0.077,0.429-0.231,0.588c-0.154,0.159-0.356,0.238-0.609,0.238c-0.243,0-0.441-0.079-0.595-0.238
			c-0.153-0.159-0.23-0.355-0.23-0.588c0-0.229,0.078-0.421,0.234-0.578s0.358-0.234,0.605-0.234c0.238,0,0.435,0.078,0.592,0.234
			C281.418,5.711,281.496,5.904,281.496,6.133z"/>
		<path fill-rule="evenodd" clip-rule="evenodd" fill="#231F20" d="M282.389,8.19h1.414l1.442,3.99
			c0.164,0.448,0.336,0.952,0.518,1.512c0.126-0.424,0.319-1.001,0.581-1.729l1.351-3.773h1.386l-2.758,6.776h-1.273L282.389,8.19z"
			/>
		<path fill-rule="evenodd" clip-rule="evenodd" fill="#231F20" d="M291.389,14.967h-1.302V8.19h1.302V14.967z M291.571,6.133
			c0,0.233-0.077,0.429-0.231,0.588c-0.154,0.159-0.356,0.238-0.609,0.238c-0.243,0-0.441-0.079-0.595-0.238
			c-0.153-0.159-0.23-0.355-0.23-0.588c0-0.229,0.078-0.421,0.234-0.578s0.358-0.234,0.605-0.234c0.238,0,0.435,0.078,0.592,0.234
			C291.493,5.711,291.571,5.904,291.571,6.133z"/>
		<path fill-rule="evenodd" clip-rule="evenodd" fill="#231F20" d="M293.598,6.931l1.274-0.378V8.19h1.806v0.994h-1.806v3.528
			c0,0.472,0.076,0.811,0.228,1.019s0.393,0.312,0.725,0.312c0.303,0,0.551-0.028,0.742-0.084l0.056,0.98
			c-0.322,0.122-0.709,0.182-1.162,0.182c-1.242,0-1.862-0.775-1.862-2.324V9.185h-1.064V8.19h1.064V6.931z"/>
		<path fill-rule="evenodd" clip-rule="evenodd" fill="#231F20" d="M299.281,14.967h-1.302V8.19h1.302V14.967z M299.463,6.133
			c0,0.233-0.077,0.429-0.231,0.588s-0.357,0.238-0.609,0.238c-0.243,0-0.441-0.079-0.595-0.238
			c-0.154-0.159-0.231-0.355-0.231-0.588c0-0.229,0.078-0.421,0.235-0.578c0.156-0.156,0.358-0.234,0.605-0.234
			c0.238,0,0.435,0.078,0.591,0.234C299.385,5.711,299.463,5.904,299.463,6.133z"/>
		<path fill-rule="evenodd" clip-rule="evenodd" fill="#231F20" d="M306.88,11.845h-4.914c0.019,0.732,0.245,1.293,0.679,1.684
			c0.434,0.389,0.997,0.584,1.687,0.584c0.751,0,1.409-0.117,1.974-0.35l0.225,0.91c-0.667,0.298-1.456,0.448-2.366,0.448
			c-1.055,0-1.895-0.313-2.52-0.938s-0.938-1.456-0.938-2.492c0-1.036,0.3-1.904,0.899-2.604c0.6-0.7,1.406-1.05,2.419-1.05
			c0.933,0,1.649,0.312,2.148,0.935c0.5,0.623,0.749,1.385,0.749,2.286C306.922,11.513,306.908,11.709,306.88,11.845z
			 M301.98,10.907h3.682c0-0.583-0.15-1.054-0.451-1.411c-0.301-0.357-0.729-0.536-1.285-0.536c-0.527,0-0.963,0.179-1.309,0.536
			C302.271,9.853,302.06,10.323,301.98,10.907z"/>
		<path fill-rule="evenodd" clip-rule="evenodd" fill="#231F20" d="M307.859,14.645l0.308-0.994c0.551,0.336,1.12,0.504,1.708,0.504
			c0.42,0,0.744-0.089,0.973-0.266c0.229-0.177,0.343-0.416,0.343-0.714c0-0.285-0.095-0.517-0.284-0.697s-0.519-0.349-0.991-0.507
			c-1.241-0.425-1.862-1.064-1.862-1.918c0-0.569,0.22-1.048,0.662-1.435c0.441-0.388,1.027-0.581,1.76-0.581
			c0.681,0,1.26,0.14,1.736,0.42l-0.322,0.938c-0.471-0.271-0.957-0.406-1.456-0.406c-0.345,0-0.619,0.085-0.819,0.255
			c-0.201,0.17-0.301,0.389-0.301,0.654c0,0.238,0.085,0.439,0.255,0.602c0.171,0.164,0.524,0.341,1.061,0.532
			c0.653,0.233,1.123,0.51,1.407,0.83c0.285,0.319,0.427,0.72,0.427,1.2c0,0.616-0.234,1.113-0.703,1.491
			c-0.469,0.378-1.107,0.567-1.915,0.567C309.105,15.121,308.442,14.962,307.859,14.645z"/>
		<path fill-rule="evenodd" clip-rule="evenodd" fill="#231F20" d="M321.807,10.865v2.478c0,0.672,0.038,1.213,0.112,1.624h-1.189
			l-0.154-0.868c-0.509,0.681-1.223,1.022-2.142,1.022c-0.644,0-1.16-0.19-1.547-0.57c-0.387-0.38-0.581-0.839-0.581-1.375
			c0-0.822,0.357-1.449,1.071-1.883s1.757-0.651,3.129-0.651v-0.126c0-0.481-0.132-0.855-0.396-1.124
			c-0.264-0.269-0.654-0.402-1.172-0.402c-0.691,0-1.307,0.172-1.849,0.518l-0.293-0.854c0.653-0.411,1.433-0.616,2.338-0.616
			c0.882,0,1.548,0.243,1.999,0.728S321.807,9.95,321.807,10.865z M320.533,12.657v-1.12c-1.092,0-1.851,0.13-2.275,0.392
			c-0.425,0.261-0.637,0.621-0.637,1.078c0,0.359,0.106,0.64,0.318,0.843c0.213,0.203,0.494,0.305,0.844,0.305
			c0.495,0,0.91-0.153,1.246-0.458C320.365,13.391,320.533,13.044,320.533,12.657z"/>
		<path fill-rule="evenodd" clip-rule="evenodd" fill="#231F20" d="M323.682,14.967v-4.62c0-0.877-0.019-1.596-0.056-2.156h1.147
			l0.084,1.358c0.173-0.476,0.437-0.847,0.791-1.113c0.355-0.266,0.74-0.399,1.155-0.399c0.089,0,0.205,0.009,0.35,0.028v1.232
			c-0.126-0.028-0.275-0.042-0.448-0.042c-0.471,0-0.876,0.185-1.214,0.553s-0.508,0.894-0.508,1.575v3.584H323.682z"/>
		<path fill-rule="evenodd" clip-rule="evenodd" fill="#231F20" d="M333.898,11.845h-4.914c0.019,0.732,0.245,1.293,0.679,1.684
			c0.434,0.389,0.997,0.584,1.688,0.584c0.751,0,1.409-0.117,1.974-0.35l0.224,0.91c-0.667,0.298-1.456,0.448-2.365,0.448
			c-1.055,0-1.895-0.313-2.521-0.938c-0.625-0.625-0.938-1.456-0.938-2.492c0-1.036,0.3-1.904,0.899-2.604
			c0.6-0.7,1.405-1.05,2.418-1.05c0.934,0,1.65,0.312,2.149,0.935c0.499,0.623,0.749,1.385,0.749,2.286
			C333.94,11.513,333.926,11.709,333.898,11.845z M328.998,10.907h3.682c0-0.583-0.15-1.054-0.452-1.411
			c-0.301-0.357-0.729-0.536-1.284-0.536c-0.527,0-0.964,0.179-1.309,0.536S329.078,10.323,328.998,10.907z"/>
		<path fill-rule="evenodd" clip-rule="evenodd" fill="#231F20" d="M343.057,13.734l0.21,0.98c-0.574,0.271-1.25,0.406-2.03,0.406
			c-1.046,0-1.89-0.32-2.534-0.959c-0.644-0.64-0.966-1.473-0.966-2.499c0-1.069,0.346-1.94,1.039-2.615
			c0.693-0.674,1.602-1.011,2.727-1.011c0.682,0,1.279,0.126,1.792,0.378l-0.28,0.994c-0.429-0.224-0.929-0.336-1.498-0.336
			c-0.742,0-1.336,0.234-1.782,0.703c-0.445,0.469-0.668,1.07-0.668,1.803c0,0.761,0.226,1.366,0.679,1.816s1.029,0.676,1.729,0.676
			C342.017,14.071,342.544,13.958,343.057,13.734z"/>
		<path fill-rule="evenodd" clip-rule="evenodd" fill="#231F20" d="M349.574,10.865v2.478c0,0.672,0.037,1.213,0.112,1.624h-1.19
			l-0.154-0.868c-0.509,0.681-1.223,1.022-2.142,1.022c-0.644,0-1.16-0.19-1.547-0.57c-0.387-0.38-0.581-0.839-0.581-1.375
			c0-0.822,0.357-1.449,1.071-1.883s1.757-0.651,3.129-0.651v-0.126c0-0.481-0.132-0.855-0.396-1.124
			c-0.264-0.269-0.654-0.402-1.172-0.402c-0.69,0-1.307,0.172-1.848,0.518l-0.294-0.854c0.653-0.411,1.433-0.616,2.338-0.616
			c0.882,0,1.548,0.243,1.999,0.728C349.349,9.25,349.574,9.95,349.574,10.865z M348.3,12.657v-1.12
			c-1.092,0-1.851,0.13-2.275,0.392c-0.425,0.261-0.637,0.621-0.637,1.078c0,0.359,0.106,0.64,0.318,0.843
			c0.212,0.203,0.494,0.305,0.844,0.305c0.495,0,0.91-0.153,1.246-0.458C348.132,13.391,348.3,13.044,348.3,12.657z"/>
		<path fill-rule="evenodd" clip-rule="evenodd" fill="#231F20" d="M351.448,14.967v-4.62c0-0.877-0.019-1.596-0.056-2.156h1.148
			l0.084,1.358c0.173-0.476,0.437-0.847,0.791-1.113c0.355-0.266,0.74-0.399,1.155-0.399c0.088,0,0.205,0.009,0.35,0.028v1.232
			c-0.126-0.028-0.275-0.042-0.448-0.042c-0.471,0-0.876,0.185-1.214,0.553s-0.508,0.894-0.508,1.575v3.584H351.448z"/>
		<path fill-rule="evenodd" clip-rule="evenodd" fill="#231F20" d="M356.064,14.967v-4.62c0-0.877-0.019-1.596-0.056-2.156h1.148
			l0.084,1.358c0.173-0.476,0.437-0.847,0.791-1.113s0.74-0.399,1.155-0.399c0.089,0,0.206,0.009,0.35,0.028v1.232
			c-0.126-0.028-0.275-0.042-0.448-0.042c-0.472,0-0.876,0.185-1.215,0.553c-0.338,0.369-0.507,0.894-0.507,1.575v3.584H356.064z"/>
		<path fill-rule="evenodd" clip-rule="evenodd" fill="#231F20" d="M361.983,14.967h-1.302V8.19h1.302V14.967z M362.165,6.133
			c0,0.233-0.077,0.429-0.231,0.588c-0.154,0.159-0.357,0.238-0.609,0.238c-0.243,0-0.441-0.079-0.595-0.238
			c-0.154-0.159-0.231-0.355-0.231-0.588c0-0.229,0.078-0.421,0.234-0.578s0.358-0.234,0.605-0.234c0.238,0,0.435,0.078,0.591,0.234
			S362.165,5.904,362.165,6.133z"/>
		<path fill-rule="evenodd" clip-rule="evenodd" fill="#231F20" d="M369.582,11.845h-4.914c0.019,0.732,0.245,1.293,0.679,1.684
			c0.434,0.389,0.997,0.584,1.687,0.584c0.751,0,1.41-0.117,1.974-0.35l0.224,0.91c-0.667,0.298-1.456,0.448-2.366,0.448
			c-1.054,0-1.895-0.313-2.52-0.938c-0.625-0.625-0.938-1.456-0.938-2.492c0-1.036,0.3-1.904,0.899-2.604
			c0.6-0.7,1.406-1.05,2.418-1.05c0.933,0,1.649,0.312,2.149,0.935c0.499,0.623,0.749,1.385,0.749,2.286
			C369.624,11.513,369.61,11.709,369.582,11.845z M364.682,10.907h3.682c0-0.583-0.15-1.054-0.451-1.411
			c-0.301-0.357-0.729-0.536-1.285-0.536c-0.527,0-0.964,0.179-1.309,0.536S364.761,10.323,364.682,10.907z"/>
		<path fill-rule="evenodd" clip-rule="evenodd" fill="#231F20" d="M375.825,4.999h1.302v8.19c0,0.756,0.019,1.349,0.056,1.778
			h-1.162l-0.098-1.204c-0.224,0.429-0.546,0.763-0.966,1.001c-0.42,0.238-0.896,0.357-1.428,0.357c-0.858,0-1.575-0.323-2.149-0.97
			c-0.574-0.646-0.861-1.466-0.861-2.46c0-1.078,0.302-1.957,0.906-2.635c0.604-0.679,1.352-1.019,2.244-1.019
			c0.476,0,0.902,0.093,1.277,0.28c0.376,0.187,0.668,0.439,0.878,0.756V4.999z M375.825,12.055v-1.078
			c0-0.574-0.186-1.037-0.557-1.39c-0.371-0.352-0.815-0.528-1.333-0.528c-0.63,0-1.138,0.236-1.522,0.707
			c-0.385,0.471-0.578,1.085-0.578,1.841c0,0.709,0.182,1.297,0.546,1.764c0.364,0.467,0.873,0.7,1.526,0.7
			c0.5,0,0.944-0.184,1.333-0.55S375.825,12.666,375.825,12.055z"/>
		<path fill-rule="evenodd" clip-rule="evenodd" fill="#231F20" d="M388.383,11.509c0,0.728-0.151,1.365-0.455,1.911
			c-0.304,0.546-0.728,0.966-1.274,1.26c-0.546,0.294-1.137,0.441-1.771,0.441c-0.99,0-1.806-0.323-2.45-0.97
			c-0.644-0.646-0.966-1.485-0.966-2.516c0-1.097,0.333-1.971,0.998-2.622c0.665-0.651,1.503-0.977,2.516-0.977
			c1.008,0,1.827,0.323,2.457,0.969C388.068,9.652,388.383,10.487,388.383,11.509z M382.797,11.593c0,0.742,0.199,1.354,0.595,1.837
			s0.894,0.725,1.491,0.725c0.611,0,1.121-0.243,1.529-0.728s0.612-1.111,0.612-1.876c0-0.705-0.188-1.306-0.563-1.803
			c-0.375-0.497-0.888-0.746-1.536-0.746c-0.658,0-1.177,0.246-1.558,0.739C382.987,10.233,382.797,10.851,382.797,11.593z"/>
		<path fill-rule="evenodd" clip-rule="evenodd" fill="#231F20" d="M395.707,8.19v4.9c0,0.77,0.019,1.395,0.056,1.876h-1.148
			l-0.112-1.148c-0.522,0.868-1.297,1.302-2.324,1.302c-0.742,0-1.329-0.254-1.76-0.763c-0.432-0.508-0.648-1.257-0.648-2.247V8.19
			h1.302v3.696c0,1.437,0.518,2.156,1.554,2.156c0.476,0,0.892-0.17,1.246-0.511c0.354-0.341,0.532-0.754,0.532-1.239V8.19H395.707z
			"/>
		<path fill-rule="evenodd" clip-rule="evenodd" fill="#231F20" d="M397.907,6.931l1.274-0.378V8.19h1.806v0.994h-1.806v3.528
			c0,0.472,0.076,0.811,0.228,1.019s0.393,0.312,0.725,0.312c0.303,0,0.551-0.028,0.742-0.084l0.056,0.98
			c-0.322,0.122-0.709,0.182-1.162,0.182c-1.242,0-1.862-0.775-1.862-2.324V9.185h-1.064V8.19h1.064V6.931z"/>
		<path fill-rule="evenodd" clip-rule="evenodd" fill="#231F20" d="M404.445,14.21c0,0.261-0.083,0.479-0.249,0.651
			c-0.166,0.172-0.376,0.259-0.633,0.259c-0.252,0-0.459-0.087-0.623-0.263c-0.163-0.175-0.245-0.391-0.245-0.647
			c0-0.266,0.083-0.486,0.249-0.661c0.166-0.175,0.377-0.263,0.634-0.263c0.256,0,0.465,0.085,0.626,0.255
			C404.364,13.712,404.445,13.935,404.445,14.21z M409.093,14.21c0,0.261-0.083,0.479-0.249,0.651
			c-0.166,0.172-0.376,0.259-0.633,0.259c-0.252,0-0.459-0.087-0.623-0.263c-0.163-0.175-0.245-0.391-0.245-0.647
			c0-0.266,0.083-0.486,0.249-0.661c0.166-0.175,0.377-0.263,0.634-0.263c0.256,0,0.465,0.085,0.626,0.255
			C409.012,13.712,409.093,13.935,409.093,14.21z M413.741,14.21c0,0.261-0.083,0.479-0.249,0.651
			c-0.166,0.172-0.377,0.259-0.633,0.259c-0.252,0-0.459-0.087-0.623-0.263c-0.163-0.175-0.245-0.391-0.245-0.647
			c0-0.266,0.083-0.486,0.249-0.661c0.166-0.175,0.377-0.263,0.634-0.263c0.256,0,0.465,0.085,0.626,0.255
			C413.66,13.712,413.741,13.935,413.741,14.21z"/>
	</g>
	<g>
		<polygon fill-rule="evenodd" clip-rule="evenodd" fill="#231F20" points="422.24,11.663 419.741,14.163 415.574,14.163 
			418.074,11.663 415.574,9.163 419.741,9.163 		"/>
		<polygon fill-rule="evenodd" clip-rule="evenodd" fill="#231F20" points="866.824,-34.4 866.824,-31.9 860.574,-34.4 
			866.824,-36.9 		"/>
		
			<polyline fill-rule="evenodd" clip-rule="evenodd" fill="none" stroke="#231F20" stroke-miterlimit="3.8637" stroke-dasharray="1,1" points="
			421.407,11.663 908.797,11.663 908.797,-34.4 866.407,-34.4 		"/>
	</g>
</g>
</svg>
