<?xml version="1.0" encoding="utf-8"?>
<!-- Generator: Adobe Illustrator 16.0.0, SVG Export Plug-In . SVG Version: 6.00 Build 0)  -->
<!DOCTYPE svg PUBLIC "-//W3C//DTD SVG 1.0//EN" "http://www.w3.org/TR/2001/REC-SVG-20010904/DTD/svg10.dtd">
<svg version="1.0" id="Capa_1" xmlns="http://www.w3.org/2000/svg" xmlns:xlink="http://www.w3.org/1999/xlink" x="0px" y="0px"
	 width="194px" height="445px" viewBox="0 0 194 445" enable-background="new 0 0 194 445" xml:space="preserve">
<ellipse opacity="0.25" fill="#333333" cx="114.482" cy="434.322" rx="60.654" ry="7.41"/>
<path fill="#FFFFFF" stroke="#878787" stroke-width="0.3837" stroke-miterlimit="10" d="M188.139,415.338H67.217
	c-33.277,0-60.254-26.973-60.254-60.247V5.633h120.928c33.274,0,60.248,26.976,60.248,60.25V415.338z"/>
<path fill="#F5A80F" d="M6.962,5.633v181.733c80.565-20.295,141.515-89.894,148.897-174.844c-8.36-4.391-17.873-6.89-27.971-6.89
	L6.962,5.633L6.962,5.633z"/>
<g>
	<path fill="#FFFFFF" d="M36.359,81.395c-7.869,0-13.261-7.374-13.385-20.696c0-13.57,5.887-20.944,14.066-20.944
		c8.428,0,13.323,7.56,13.323,20.387c0,13.694-5.144,21.254-13.942,21.254L36.359,81.395L36.359,81.395z M36.669,77.181
		c5.516,0,8.18-6.506,8.18-16.792c0-9.915-2.479-16.421-8.18-16.421c-4.957,0-8.179,6.32-8.179,16.421
		c-0.124,10.472,3.098,16.792,8.117,16.792H36.669z"/>
	<path fill="#FFFFFF" d="M67.156,45.517h-0.124l-7.002,3.78l-1.054-4.152l8.799-4.709h4.647v40.277h-5.267L67.156,45.517
		L67.156,45.517z"/>
</g>
<g>
	<path d="M23.096,200.447c1.113-0.168,2.436-0.294,3.885-0.294c2.624,0,4.492,0.609,5.731,1.764c1.26,1.155,1.995,2.792,1.995,5.081
		c0,2.31-0.715,4.199-2.037,5.501c-1.322,1.323-3.506,2.037-6.257,2.037c-1.302,0-2.394-0.063-3.317-0.168V200.447z M24.922,212.961
		c0.463,0.084,1.135,0.105,1.848,0.105c3.906,0,6.026-2.184,6.026-6.005c0.021-3.338-1.868-5.459-5.731-5.459
		c-0.945,0-1.659,0.084-2.143,0.189V212.961z"/>
	<path d="M38.131,209.665c0.042,2.499,1.638,3.527,3.485,3.527c1.323,0,2.12-0.231,2.813-0.525l0.314,1.323
		c-0.65,0.294-1.764,0.63-3.38,0.63c-3.128,0-4.997-2.058-4.997-5.123s1.806-5.48,4.766-5.48c3.318,0,4.199,2.918,4.199,4.787
		c0,0.378-0.041,0.672-0.063,0.861H38.131z M43.548,208.342c0.021-1.176-0.483-3.002-2.562-3.002c-1.869,0-2.688,1.722-2.834,3.002
		H43.548z"/>
	<path d="M48.336,204.248l1.995,5.711c0.336,0.924,0.608,1.764,0.819,2.604h0.063c0.23-0.84,0.525-1.68,0.861-2.604l1.973-5.711
		h1.932L51.99,214.41h-1.764l-3.863-10.162H48.336z"/>
	<path d="M58.542,209.665c0.042,2.499,1.638,3.527,3.485,3.527c1.322,0,2.121-0.231,2.813-0.525l0.315,1.323
		c-0.651,0.294-1.764,0.63-3.381,0.63c-3.129,0-4.997-2.058-4.997-5.123s1.806-5.48,4.767-5.48c3.316,0,4.199,2.918,4.199,4.787
		c0,0.378-0.043,0.672-0.063,0.861H58.542z M63.959,208.342c0.021-1.176-0.482-3.002-2.562-3.002c-1.868,0-2.688,1.722-2.835,3.002
		H63.959z"/>
	<path d="M68.033,199.502h1.848v14.907h-1.848V199.502z"/>
	<path d="M82.186,209.245c0,3.758-2.604,5.396-5.06,5.396c-2.751,0-4.871-2.016-4.871-5.228c0-3.401,2.226-5.396,5.039-5.396
		C80.213,204.017,82.186,206.137,82.186,209.245z M74.123,209.35c0,2.226,1.281,3.905,3.087,3.905c1.764,0,3.087-1.659,3.087-3.947
		c0-1.722-0.861-3.905-3.045-3.905S74.123,207.418,74.123,209.35z"/>
	<path d="M84.52,207.565c0-1.302-0.043-2.352-0.084-3.317h1.658l0.084,1.743h0.042c0.756-1.239,1.952-1.974,3.611-1.974
		c2.456,0,4.304,2.079,4.304,5.165c0,3.653-2.225,5.459-4.619,5.459c-1.344,0-2.52-0.588-3.128-1.596h-0.042v5.522H84.52V207.565z
		 M86.346,210.273c0,0.273,0.042,0.525,0.084,0.756c0.336,1.281,1.449,2.163,2.771,2.163c1.953,0,3.086-1.596,3.086-3.926
		c0-2.037-1.07-3.779-3.023-3.779c-1.26,0-2.436,0.903-2.792,2.289c-0.063,0.231-0.126,0.504-0.126,0.756V210.273z"/>
	<path d="M96.467,206.998c0-1.05-0.021-1.911-0.084-2.75H98l0.084,1.638h0.063c0.567-0.966,1.513-1.869,3.191-1.869
		c1.387,0,2.436,0.84,2.877,2.037h0.042c0.315-0.567,0.714-1.008,1.134-1.323c0.609-0.462,1.281-0.714,2.246-0.714
		c1.344,0,3.34,0.882,3.34,4.409v5.984h-1.807v-5.753c0-1.953-0.714-3.128-2.205-3.128c-1.049,0-1.867,0.777-2.184,1.68
		c-0.084,0.252-0.146,0.588-0.146,0.924v6.278h-1.806v-6.089c0-1.617-0.714-2.792-2.12-2.792c-1.154,0-1.995,0.924-2.289,1.848
		c-0.105,0.273-0.146,0.588-0.146,0.903v6.131h-1.807V206.998z"/>
	<path d="M115.01,209.665c0.042,2.499,1.639,3.527,3.485,3.527c1.323,0,2.12-0.231,2.813-0.525l0.313,1.323
		c-0.649,0.294-1.765,0.63-3.38,0.63c-3.128,0-4.997-2.058-4.997-5.123s1.806-5.48,4.767-5.48c3.317,0,4.198,2.918,4.198,4.787
		c0,0.378-0.041,0.672-0.063,0.861H115.01z M120.427,208.342c0.021-1.176-0.483-3.002-2.562-3.002c-1.869,0-2.688,1.722-2.834,3.002
		H120.427z"/>
	<path d="M124.502,206.998c0-1.05-0.021-1.911-0.084-2.75h1.637l0.105,1.68h0.042c0.504-0.966,1.68-1.911,3.358-1.911
		c1.407,0,3.592,0.84,3.592,4.325v6.068h-1.848v-5.858c0-1.638-0.609-3.002-2.353-3.002c-1.22,0-2.163,0.861-2.479,1.89
		c-0.084,0.231-0.125,0.546-0.125,0.861v6.11H124.5v-7.413H124.502z"/>
	<path d="M138.299,201.329v2.918h2.645v1.407h-2.645v5.48c0,1.26,0.355,1.974,1.385,1.974c0.483,0,0.84-0.063,1.071-0.126
		l0.084,1.386c-0.356,0.147-0.924,0.252-1.638,0.252c-0.861,0-1.555-0.273-1.994-0.777c-0.525-0.546-0.715-1.449-0.715-2.646v-5.543
		h-1.574v-1.407h1.574v-2.436L138.299,201.329z"/>
	<path d="M156.672,209.245c0,3.758-2.604,5.396-5.061,5.396c-2.75,0-4.87-2.016-4.87-5.228c0-3.401,2.226-5.396,5.038-5.396
		C154.699,204.017,156.672,206.137,156.672,209.245z M148.609,209.35c0,2.226,1.281,3.905,3.086,3.905
		c1.765,0,3.088-1.659,3.088-3.947c0-1.722-0.861-3.905-3.045-3.905S148.609,207.418,148.609,209.35z"/>
	<path d="M159.193,214.41v-8.755h-1.428v-1.407h1.428v-0.483c0-1.428,0.315-2.729,1.177-3.548c0.692-0.672,1.616-0.945,2.478-0.945
		c0.65,0,1.219,0.147,1.574,0.294l-0.252,1.428c-0.271-0.126-0.65-0.231-1.176-0.231c-1.574,0-1.973,1.386-1.973,2.939v0.546h2.455
		v1.407h-2.455v8.755H159.193L159.193,214.41z"/>
	<path d="M26.203,239.609l-4.619-14.151h1.974l2.204,6.971c0.609,1.911,1.135,3.632,1.512,5.291h0.043
		c0.398-1.638,0.986-3.423,1.616-5.271l2.394-6.991h1.953l-5.061,14.151H26.203z"/>
	<path d="M35.087,234.864c0.042,2.499,1.638,3.526,3.485,3.526c1.322,0,2.121-0.23,2.813-0.523l0.315,1.322
		c-0.651,0.293-1.764,0.629-3.381,0.629c-3.129,0-4.997-2.058-4.997-5.123c0-3.064,1.806-5.479,4.767-5.479
		c3.316,0,4.199,2.918,4.199,4.787c0,0.377-0.043,0.672-0.063,0.86H35.087z M40.504,233.541c0.021-1.176-0.482-3.002-2.562-3.002
		c-1.868,0-2.688,1.722-2.835,3.002H40.504z"/>
	<path d="M44.578,232.617c0-1.196-0.021-2.225-0.084-3.17h1.617l0.063,1.994h0.084c0.463-1.364,1.575-2.226,2.814-2.226
		c0.209,0,0.356,0.021,0.524,0.063v1.742c-0.188-0.041-0.378-0.063-0.63-0.063c-1.302,0-2.226,0.985-2.478,2.373
		c-0.042,0.252-0.084,0.545-0.084,0.86v5.416h-1.827L44.578,232.617L44.578,232.617z"/>
	<path d="M54.174,226.527v2.92h2.646v1.406h-2.646v5.479c0,1.26,0.357,1.974,1.387,1.974c0.482,0,0.84-0.063,1.07-0.125l0.084,1.385
		c-0.357,0.147-0.924,0.252-1.638,0.252c-0.86,0-1.554-0.271-1.995-0.775c-0.524-0.547-0.713-1.449-0.713-2.646v-5.543h-1.575
		v-1.405h1.575v-2.437L54.174,226.527z"/>
	<path d="M60.957,226.592c0.021,0.631-0.44,1.135-1.176,1.135c-0.65,0-1.112-0.504-1.112-1.135c0-0.65,0.483-1.154,1.155-1.154
		C60.517,225.438,60.957,225.939,60.957,226.592z M58.9,239.609v-10.162h1.848v10.162H58.9z"/>
	<path d="M71.058,239.23c-0.483,0.252-1.554,0.588-2.919,0.588c-3.064,0-5.06-2.078-5.06-5.187c0-3.128,2.142-5.396,5.459-5.396
		c1.092,0,2.058,0.271,2.562,0.523l-0.42,1.428c-0.441-0.252-1.134-0.481-2.142-0.481c-2.331,0-3.591,1.722-3.591,3.842
		c0,2.353,1.512,3.802,3.527,3.802c1.051,0,1.743-0.273,2.268-0.505L71.058,239.23z"/>
	<path d="M78.85,239.609l-0.147-1.281H78.64c-0.566,0.799-1.658,1.512-3.107,1.512c-2.057,0-3.107-1.447-3.107-2.918
		c0-2.457,2.184-3.801,6.11-3.779v-0.209c0-0.841-0.231-2.353-2.31-2.353c-0.945,0-1.932,0.294-2.646,0.756l-0.42-1.218
		c0.84-0.547,2.058-0.902,3.339-0.902c3.107,0,3.863,2.12,3.863,4.156v3.801c0,0.883,0.041,1.742,0.168,2.436H78.85L78.85,239.609z
		 M78.576,234.424c-2.016-0.043-4.305,0.314-4.305,2.288c0,1.196,0.799,1.765,1.743,1.765c1.323,0,2.163-0.841,2.456-1.701
		c0.063-0.188,0.105-0.398,0.105-0.588L78.576,234.424L78.576,234.424z"/>
	<path d="M83.344,224.702h1.848v14.907h-1.848V224.702z"/>
	<path d="M92.815,225.458h1.827v12.618h6.047v1.533h-7.875V225.458z"/>
	<path d="M111.568,234.443c0,3.76-2.604,5.396-5.062,5.396c-2.75,0-4.87-2.016-4.87-5.229c0-3.4,2.225-5.396,5.038-5.396
		C109.594,229.217,111.568,231.337,111.568,234.443z M103.506,234.549c0,2.227,1.28,3.906,3.086,3.906
		c1.764,0,3.086-1.659,3.086-3.947c0-1.723-0.859-3.906-3.044-3.906C104.45,230.602,103.506,232.617,103.506,234.549z"/>
	<path d="M122.656,229.447c-0.043,0.734-0.084,1.554-0.084,2.793v5.898c0,2.331-0.463,3.76-1.449,4.641
		c-0.986,0.924-2.414,1.219-3.695,1.219c-1.217,0-2.561-0.295-3.38-0.84l0.462-1.407c0.672,0.42,1.723,0.798,2.981,0.798
		c1.89,0,3.274-0.986,3.274-3.549v-1.133h-0.041c-0.566,0.943-1.658,1.699-3.233,1.699c-2.521,0-4.325-2.142-4.325-4.955
		c0-3.442,2.246-5.396,4.577-5.396c1.764,0,2.729,0.925,3.171,1.765h0.041l0.084-1.533H122.656z M120.746,233.457
		c0-0.314-0.021-0.588-0.105-0.84c-0.336-1.07-1.238-1.952-2.582-1.952c-1.764,0-3.022,1.491-3.022,3.843
		c0,1.994,1.008,3.652,3.002,3.652c1.134,0,2.162-0.713,2.562-1.889c0.104-0.315,0.147-0.672,0.147-0.987L120.746,233.457
		L120.746,233.457z"/>
	<path d="M127.572,226.592c0.021,0.631-0.441,1.135-1.176,1.135c-0.651,0-1.113-0.504-1.113-1.135c0-0.65,0.482-1.154,1.154-1.154
		C127.131,225.438,127.572,225.939,127.572,226.592z M125.514,239.609v-10.162h1.848v10.162H125.514z"/>
	<path d="M137.672,239.23c-0.482,0.252-1.554,0.588-2.918,0.588c-3.066,0-5.061-2.078-5.061-5.187c0-3.128,2.142-5.396,5.459-5.396
		c1.092,0,2.058,0.271,2.562,0.523l-0.42,1.428c-0.44-0.252-1.134-0.481-2.142-0.481c-2.33,0-3.59,1.722-3.59,3.842
		c0,2.353,1.512,3.802,3.526,3.802c1.05,0,1.742-0.273,2.269-0.505L137.672,239.23z"/>
</g>
</svg>
