<?xml version="1.0" encoding="utf-8"?>
<!-- Generator: Adobe Illustrator 16.0.0, SVG Export Plug-In . SVG Version: 6.00 Build 0)  -->
<!DOCTYPE svg PUBLIC "-//W3C//DTD SVG 1.0//EN" "http://www.w3.org/TR/2001/REC-SVG-20010904/DTD/svg10.dtd">
<svg version="1.0" id="Capa_1" xmlns="http://www.w3.org/2000/svg" xmlns:xlink="http://www.w3.org/1999/xlink" x="0px" y="0px"
	 width="194px" height="445px" viewBox="0 0 194 445" enable-background="new 0 0 194 445" xml:space="preserve">
<ellipse opacity="0.25" fill="#333333" cx="113.932" cy="434.322" rx="60.653" ry="7.41"/>
<path fill="#FFFFFF" stroke="#878787" stroke-width="0.3837" stroke-miterlimit="10" d="M187.588,415.338H66.666
	c-33.277,0-60.254-26.973-60.254-60.247V5.633H127.34c33.273,0,60.248,26.976,60.248,60.25V415.338z"/>
<path fill="#60C3D6" d="M6.411,5.633v181.733c80.566-20.295,141.514-89.894,148.899-174.844c-8.361-4.391-17.873-6.89-27.974-6.89
	L6.411,5.633L6.411,5.633z"/>
<g>
	<path fill="#FFFFFF" d="M35.809,81.395c-7.869,0-13.261-7.374-13.385-20.697c0-13.57,5.887-20.944,14.066-20.944
		c8.428,0,13.323,7.56,13.323,20.387c0,13.694-5.144,21.254-13.942,21.254H35.809z M36.118,77.181c5.516,0,8.18-6.506,8.18-16.792
		c0-9.915-2.479-16.421-8.18-16.421c-4.957,0-8.179,6.32-8.179,16.421c-0.124,10.472,3.098,16.792,8.117,16.792H36.118z"/>
	<path fill="#FFFFFF" d="M56.071,74.516c1.549,0.93,5.081,2.479,8.923,2.479c6.94,0,9.171-4.4,9.109-7.808
		c-0.062-5.639-5.144-8.055-10.41-8.055h-3.037v-4.09h3.037c3.966,0,8.984-2.045,8.984-6.816c0-3.222-2.045-6.073-7.063-6.073
		c-3.223,0-6.321,1.425-8.056,2.665l-1.487-3.966c2.169-1.549,6.259-3.098,10.596-3.098c7.932,0,11.526,4.709,11.526,9.604
		c0,4.214-2.541,7.746-7.437,9.543v0.124c4.958,0.929,8.985,4.647,8.985,10.286c0,6.445-5.081,12.083-14.686,12.083
		c-4.523,0-8.489-1.425-10.473-2.727L56.071,74.516z"/>
</g>
<g>
	<path d="M23.096,200.258h7.621v1.533h-5.795v4.703h5.354v1.512h-5.354v6.404h-1.826V200.258z"/>
	<path d="M41.805,209.245c0,3.758-2.604,5.396-5.06,5.396c-2.751,0-4.871-2.016-4.871-5.228c0-3.401,2.226-5.396,5.039-5.396
		C39.832,204.017,41.805,206.137,41.805,209.245z M33.742,209.35c0,2.226,1.281,3.905,3.087,3.905c1.764,0,3.087-1.659,3.087-3.947
		c0-1.722-0.861-3.905-3.045-3.905S33.742,207.418,33.742,209.35z"/>
	<path d="M44.139,207.418c0-1.197-0.021-2.226-0.084-3.17h1.616l0.063,1.995h0.084c0.461-1.365,1.574-2.226,2.813-2.226
		c0.211,0,0.357,0.021,0.525,0.063v1.743c-0.189-0.042-0.378-0.063-0.63-0.063c-1.302,0-2.226,0.987-2.478,2.373
		c-0.042,0.252-0.084,0.546-0.084,0.861v5.417h-1.826L44.139,207.418L44.139,207.418z"/>
	<path d="M51.09,206.998c0-1.05-0.021-1.911-0.084-2.75h1.616l0.084,1.638h0.063c0.566-0.966,1.512-1.869,3.191-1.869
		c1.385,0,2.436,0.84,2.876,2.037h0.042c0.314-0.567,0.714-1.008,1.134-1.323c0.608-0.462,1.28-0.714,2.247-0.714
		c1.344,0,3.338,0.882,3.338,4.409v5.984h-1.806v-5.753c0-1.953-0.714-3.128-2.204-3.128c-1.051,0-1.869,0.777-2.184,1.68
		c-0.084,0.252-0.147,0.588-0.147,0.924v6.278H57.45v-6.089c0-1.617-0.714-2.792-2.121-2.792c-1.154,0-1.994,0.924-2.288,1.848
		c-0.104,0.273-0.147,0.588-0.147,0.903v6.131H51.09V206.998z"/>
	<path d="M77.106,211.638c0,1.05,0.021,1.974,0.084,2.771h-1.638l-0.105-1.659h-0.041c-0.483,0.819-1.555,1.89-3.359,1.89
		c-1.596,0-3.507-0.882-3.507-4.451v-5.942h1.848v5.627c0,1.932,0.588,3.233,2.268,3.233c1.239,0,2.1-0.861,2.436-1.68
		c0.104-0.273,0.168-0.609,0.168-0.945v-6.236h1.848v7.392H77.106z"/>
	<path d="M80.174,199.502h1.848v14.907h-1.848V199.502z"/>
	<path d="M90.758,214.41l-0.147-1.281h-0.063c-0.566,0.798-1.658,1.512-3.107,1.512c-2.057,0-3.107-1.449-3.107-2.918
		c0-2.457,2.184-3.8,6.11-3.779v-0.21c0-0.84-0.231-2.352-2.31-2.352c-0.945,0-1.932,0.294-2.646,0.756l-0.42-1.218
		c0.84-0.546,2.058-0.903,3.339-0.903c3.107,0,3.863,2.121,3.863,4.157v3.8c0,0.882,0.041,1.743,0.168,2.436H90.758L90.758,214.41z
		 M90.484,209.224c-2.016-0.042-4.305,0.315-4.305,2.289c0,1.197,0.799,1.764,1.743,1.764c1.323,0,2.163-0.84,2.456-1.701
		c0.063-0.189,0.105-0.399,0.105-0.588L90.484,209.224L90.484,209.224z"/>
	<path d="M97.395,201.329v2.918h2.645v1.407h-2.645v5.48c0,1.26,0.356,1.974,1.384,1.974c0.484,0,0.841-0.063,1.072-0.126
		l0.084,1.386c-0.356,0.147-0.924,0.252-1.639,0.252c-0.861,0-1.554-0.273-1.994-0.777c-0.525-0.546-0.715-1.449-0.715-2.646v-5.543
		h-1.574v-1.407h1.574v-2.436L97.395,201.329z"/>
	<path d="M104.178,201.392c0.021,0.63-0.441,1.134-1.176,1.134c-0.65,0-1.113-0.504-1.113-1.134c0-0.651,0.482-1.155,1.154-1.155
		C103.736,200.237,104.178,200.741,104.178,201.392z M102.119,214.41v-10.162h1.848v10.162H102.119z"/>
	<path d="M116.23,209.245c0,3.758-2.604,5.396-5.062,5.396c-2.75,0-4.871-2.016-4.871-5.228c0-3.401,2.226-5.396,5.039-5.396
		C114.256,204.017,116.23,206.137,116.23,209.245z M108.168,209.35c0,2.226,1.28,3.905,3.086,3.905c1.764,0,3.086-1.659,3.086-3.947
		c0-1.722-0.859-3.905-3.044-3.905S108.168,207.418,108.168,209.35z"/>
	<path d="M118.563,206.998c0-1.05-0.021-1.911-0.084-2.75h1.64l0.104,1.68h0.041c0.504-0.966,1.68-1.911,3.359-1.911
		c1.406,0,3.59,0.84,3.59,4.325v6.068h-1.848v-5.858c0-1.638-0.608-3.002-2.352-3.002c-1.218,0-2.162,0.861-2.478,1.89
		c-0.084,0.231-0.127,0.546-0.127,0.861v6.11h-1.849v-7.413H118.563z"/>
	<path d="M143.867,209.245c0,3.758-2.604,5.396-5.061,5.396c-2.75,0-4.871-2.016-4.871-5.228c0-3.401,2.226-5.396,5.039-5.396
		C141.893,204.017,143.867,206.137,143.867,209.245z M135.805,209.35c0,2.226,1.28,3.905,3.086,3.905
		c1.764,0,3.086-1.659,3.086-3.947c0-1.722-0.859-3.905-3.043-3.905C136.749,205.403,135.805,207.418,135.805,209.35z"/>
	<path d="M146.389,214.41v-8.755h-1.428v-1.407h1.428v-0.483c0-1.428,0.314-2.729,1.176-3.548c0.693-0.672,1.617-0.945,2.479-0.945
		c0.65,0,1.219,0.147,1.575,0.294l-0.252,1.428c-0.273-0.126-0.651-0.231-1.177-0.231c-1.574,0-1.975,1.386-1.975,2.939v0.546h2.457
		v1.407h-2.457v8.755H146.389L146.389,214.41z"/>
	<path d="M25.405,239.609l-3.591-14.151h1.932l1.68,7.159c0.42,1.764,0.799,3.527,1.051,4.893h0.041
		c0.231-1.406,0.672-3.086,1.155-4.912l1.89-7.14h1.91l1.723,7.181c0.398,1.68,0.776,3.359,0.986,4.851h0.042
		c0.294-1.554,0.692-3.128,1.134-4.892l1.869-7.14h1.868l-4.011,14.151h-1.91l-1.785-7.369c-0.44-1.807-0.734-3.191-0.924-4.619
		h-0.041c-0.252,1.406-0.567,2.792-1.092,4.619l-2.016,7.369H25.405z"/>
	<path d="M49.303,234.443c0,3.76-2.604,5.396-5.061,5.396c-2.75,0-4.871-2.016-4.871-5.229c0-3.4,2.226-5.396,5.039-5.396
		C47.328,229.217,49.303,231.337,49.303,234.443z M41.24,234.549c0,2.227,1.28,3.906,3.086,3.906c1.764,0,3.086-1.659,3.086-3.947
		c0-1.723-0.86-3.906-3.044-3.906C42.184,230.602,41.24,232.617,41.24,234.549z"/>
	<path d="M51.635,232.617c0-1.196-0.021-2.225-0.084-3.17h1.617l0.063,1.994h0.084c0.463-1.364,1.575-2.226,2.814-2.226
		c0.209,0,0.356,0.021,0.524,0.063v1.742c-0.188-0.041-0.378-0.063-0.63-0.063c-1.302,0-2.226,0.985-2.478,2.373
		c-0.042,0.252-0.084,0.545-0.084,0.86v5.416h-1.827L51.635,232.617L51.635,232.617z"/>
	<path d="M60.413,234.107h0.042c0.252-0.355,0.609-0.797,0.902-1.154l2.982-3.506h2.225l-3.926,4.178l4.473,5.984h-2.247
		l-3.507-4.871l-0.944,1.05v3.821h-1.827v-14.907h1.827V234.107z"/>
	<path d="M72.95,225.626c0.882-0.147,2.036-0.272,3.507-0.272c1.805,0,3.128,0.42,3.968,1.176c0.776,0.672,1.239,1.701,1.239,2.961
		c0,1.279-0.379,2.287-1.092,3.023c-0.967,1.027-2.541,1.553-4.326,1.553c-0.545,0-1.049-0.021-1.469-0.125v5.668H72.95V225.626z
		 M74.777,232.449c0.398,0.105,0.902,0.146,1.512,0.146c2.204,0,3.548-1.07,3.548-3.022c0-1.868-1.323-2.771-3.339-2.771
		c-0.797,0-1.406,0.063-1.721,0.146V232.449z"/>
	<path d="M83.953,224.702h1.848v14.907h-1.848V224.702z"/>
	<path d="M94.537,239.609l-0.147-1.281h-0.063c-0.566,0.799-1.658,1.512-3.107,1.512c-2.057,0-3.107-1.447-3.107-2.918
		c0-2.457,2.184-3.801,6.11-3.779v-0.209c0-0.841-0.231-2.353-2.31-2.353c-0.945,0-1.932,0.294-2.646,0.756l-0.42-1.218
		c0.84-0.547,2.058-0.902,3.339-0.902c3.107,0,3.863,2.12,3.863,4.156v3.801c0,0.883,0.041,1.742,0.168,2.436H94.537L94.537,239.609
		z M94.264,234.424c-2.016-0.043-4.305,0.314-4.305,2.288c0,1.196,0.799,1.765,1.743,1.765c1.323,0,2.163-0.841,2.456-1.701
		c0.063-0.188,0.105-0.398,0.105-0.588L94.264,234.424L94.264,234.424z"/>
	<path d="M99.031,232.197c0-1.049-0.021-1.91-0.084-2.75h1.639l0.104,1.68h0.043c0.504-0.966,1.68-1.91,3.358-1.91
		c1.406,0,3.591,0.84,3.591,4.324v6.068h-1.849v-5.857c0-1.639-0.608-3.003-2.353-3.003c-1.217,0-2.162,0.86-2.477,1.89
		c-0.084,0.23-0.127,0.547-0.127,0.861v6.109h-1.848v-7.412H99.031z"/>
	<path d="M120.766,239.609l-0.146-1.281h-0.063c-0.566,0.799-1.658,1.512-3.106,1.512c-2.06,0-3.107-1.447-3.107-2.918
		c0-2.457,2.185-3.801,6.109-3.779v-0.209c0-0.841-0.229-2.353-2.31-2.353c-0.945,0-1.933,0.294-2.646,0.756l-0.42-1.218
		c0.84-0.547,2.058-0.902,3.338-0.902c3.107,0,3.863,2.12,3.863,4.156v3.801c0,0.883,0.043,1.742,0.168,2.436H120.766
		L120.766,239.609z M120.493,234.424c-2.017-0.043-4.304,0.314-4.304,2.288c0,1.196,0.797,1.765,1.742,1.765
		c1.321,0,2.161-0.841,2.457-1.701c0.063-0.188,0.104-0.398,0.104-0.588L120.493,234.424L120.493,234.424z"/>
	<path d="M125.262,232.197c0-1.049-0.021-1.91-0.084-2.75h1.637l0.105,1.68h0.042c0.504-0.966,1.681-1.91,3.358-1.91
		c1.408,0,3.592,0.84,3.592,4.324v6.068h-1.848v-5.857c0-1.639-0.609-3.003-2.353-3.003c-1.219,0-2.163,0.86-2.479,1.89
		c-0.084,0.23-0.125,0.547-0.125,0.861v6.109h-1.848v-7.412H125.262z"/>
	<path d="M145.693,224.702v12.282c0,0.902,0.021,1.932,0.084,2.625h-1.659l-0.084-1.765h-0.042
		c-0.566,1.134-1.807,1.994-3.465,1.994c-2.457,0-4.346-2.078-4.346-5.164c-0.021-3.381,2.077-5.459,4.557-5.459
		c1.553,0,2.604,0.734,3.063,1.554h0.044v-6.067H145.693L145.693,224.702z M143.846,233.584c0-0.23-0.021-0.547-0.084-0.777
		c-0.273-1.176-1.281-2.142-2.666-2.142c-1.912,0-3.045,1.68-3.045,3.927c0,2.057,1.008,3.758,3.002,3.758
		c1.238,0,2.373-0.817,2.709-2.205c0.063-0.252,0.084-0.504,0.084-0.797V233.584L143.846,233.584z"/>
	<path d="M23.096,250.848c0.798-0.168,2.058-0.295,3.338-0.295c1.827,0,3.003,0.315,3.885,1.029
		c0.734,0.546,1.176,1.386,1.176,2.498c0,1.365-0.902,2.563-2.394,3.107v0.043c1.344,0.336,2.919,1.447,2.919,3.547
		c0,1.219-0.483,2.143-1.197,2.836c-0.986,0.902-2.582,1.322-4.893,1.322c-1.26,0-2.225-0.084-2.834-0.168V250.848z M24.922,256.643
		h1.659c1.932,0,3.065-1.008,3.065-2.373c0-1.658-1.26-2.31-3.107-2.31c-0.84,0-1.322,0.063-1.617,0.126V256.643z M24.922,263.424
		c0.357,0.063,0.883,0.084,1.533,0.084c1.89,0,3.633-0.693,3.633-2.75c0-1.932-1.659-2.73-3.654-2.73h-1.512V263.424z"/>
	<path d="M42.918,262.038c0,1.05,0.021,1.974,0.084,2.771h-1.638l-0.104-1.658h-0.043c-0.482,0.818-1.553,1.891-3.359,1.891
		c-1.596,0-3.506-0.883-3.506-4.451v-5.941H36.2v5.627c0,1.932,0.588,3.232,2.268,3.232c1.238,0,2.1-0.861,2.436-1.68
		c0.105-0.273,0.168-0.609,0.168-0.945v-6.234h1.848v7.39H42.918z"/>
	<path d="M54.762,249.902v12.283c0,0.901,0.021,1.932,0.084,2.623h-1.658l-0.084-1.764h-0.042c-0.567,1.134-1.806,1.995-3.464,1.995
		c-2.457,0-4.347-2.079-4.347-5.166c-0.021-3.38,2.079-5.459,4.556-5.459c1.555,0,2.604,0.735,3.066,1.555h0.041v-6.067H54.762z
		 M52.914,258.783c0-0.23-0.021-0.545-0.084-0.776c-0.272-1.176-1.28-2.142-2.666-2.142c-1.91,0-3.045,1.68-3.045,3.926
		c0,2.059,1.008,3.759,3.003,3.759c1.239,0,2.372-0.819,2.708-2.204c0.063-0.252,0.084-0.504,0.084-0.799V258.783z"/>
	<path d="M66.585,254.646c-0.042,0.735-0.084,1.555-0.084,2.793v5.899c0,2.33-0.462,3.759-1.448,4.642
		c-0.987,0.924-2.415,1.217-3.695,1.217c-1.219,0-2.563-0.293-3.381-0.84l0.462-1.406c0.672,0.42,1.722,0.798,2.981,0.798
		c1.89,0,3.275-0.987,3.275-3.548v-1.135h-0.042c-0.567,0.944-1.659,1.701-3.233,1.701c-2.52,0-4.325-2.143-4.325-4.955
		c0-3.443,2.247-5.396,4.577-5.396c1.764,0,2.729,0.924,3.17,1.764h0.043l0.084-1.531h1.616V254.646z M64.674,258.658
		c0-0.315-0.021-0.588-0.104-0.84c-0.336-1.071-1.239-1.953-2.583-1.953c-1.764,0-3.023,1.49-3.023,3.842
		c0,1.995,1.008,3.654,3.003,3.654c1.134,0,2.163-0.715,2.562-1.892c0.105-0.313,0.146-0.672,0.146-0.985L64.674,258.658
		L64.674,258.658z"/>
	<path d="M70.598,260.064c0.042,2.498,1.638,3.526,3.485,3.526c1.323,0,2.12-0.229,2.813-0.524l0.314,1.322
		c-0.65,0.295-1.764,0.631-3.38,0.631c-3.128,0-4.997-2.059-4.997-5.123c0-3.065,1.806-5.48,4.766-5.48
		c3.318,0,4.199,2.919,4.199,4.787c0,0.379-0.041,0.672-0.063,0.861H70.598L70.598,260.064z M76.015,258.742
		c0.021-1.176-0.483-3.003-2.562-3.003c-1.869,0-2.688,1.722-2.834,3.003H76.015z"/>
	<path d="M82.314,251.729v2.92h2.646v1.406h-2.646v5.479c0,1.26,0.357,1.974,1.387,1.974c0.482,0,0.84-0.063,1.07-0.126l0.084,1.386
		c-0.357,0.146-0.924,0.252-1.638,0.252c-0.86,0-1.554-0.272-1.995-0.776c-0.524-0.545-0.713-1.448-0.713-2.646v-5.543h-1.575
		v-1.406h1.575v-2.437L82.314,251.729z"/>
</g>
</svg>
