<?xml version="1.0" encoding="utf-8"?>
<!-- Generator: Adobe Illustrator 16.0.0, SVG Export Plug-In . SVG Version: 6.00 Build 0)  -->
<!DOCTYPE svg PUBLIC "-//W3C//DTD SVG 1.1//EN" "http://www.w3.org/Graphics/SVG/1.1/DTD/svg11.dtd">
<svg version="1.1" id="Capa_1" xmlns="http://www.w3.org/2000/svg" xmlns:xlink="http://www.w3.org/1999/xlink" x="0px" y="0px"
	 width="244px" height="250px" viewBox="0 0 244 250" enable-background="new 0 0 244 250" xml:space="preserve">
<g id="Fondo">
</g>
<g id="Capa-1">
	<path fill="#912A5B" d="M225.318,29.988v62.02l-214.591-0.01v-62.01C10.728,18.949,18.975,10,29.147,10h177.751
		C217.072,10,225.318,18.949,225.318,29.988z"/>
	<path fill="#D9BCC9" d="M10.728,224.773V92.048l214.59-0.009v132.734c0,11.039-8.246,19.988-18.418,19.988H29.147
		C18.975,244.764,10.728,235.813,10.728,224.773z"/>
</g>
<g id="Guías">
</g>
<g id="Primer_plano">
</g>
<g>
	<g>
		<path fill-rule="evenodd" clip-rule="evenodd" fill="#FFFFFF" d="M84.7,73.599h-3.217l0.171-2.364
			c-0.553,0.917-1.211,1.593-1.974,2.028c-0.667,0.387-1.373,0.58-2.121,0.58c-1.072,0-1.945-0.377-2.62-1.131
			s-1.011-1.755-1.011-3.004c0-2.205,0.69-4.086,2.071-5.643c1.576-1.767,3.737-2.651,6.482-2.651c0.683,0,1.373,0.053,2.072,0.158
			c0.698,0.106,1.308,0.248,1.828,0.427l-1.194,6.239c-0.13,0.682-0.244,1.576-0.341,2.681C84.749,72.023,84.7,72.917,84.7,73.599z
			 M81.946,66.911l0.512-2.744c-0.211-0.032-0.37-0.057-0.475-0.073s-0.264-0.024-0.475-0.024c-1.072,0-1.995,0.534-2.766,1.603
			c-0.772,1.068-1.158,2.193-1.158,3.375c0,0.583,0.126,1.057,0.378,1.421s0.613,0.546,1.084,0.546c0.585,0,1.129-0.316,1.633-0.947
			C81.28,69.324,81.703,68.271,81.946,66.911z"/>
		<path fill-rule="evenodd" clip-rule="evenodd" fill="#FFFFFF" d="M87.69,61.682h3.631l0.536,5.215
			c0.114,0.877,0.195,1.54,0.244,1.986s0.073,0.865,0.073,1.255h0.097c0.179-0.52,0.345-0.979,0.5-1.377
			c0.154-0.398,0.426-1.011,0.816-1.84L96,61.682h3.923l-6.653,11.917h-3.558L87.69,61.682z"/>
		<path fill-rule="evenodd" clip-rule="evenodd" fill="#FFFFFF" d="M108.596,70.382l0.244,2.51
			c-0.618,0.325-1.333,0.564-2.145,0.719c-0.813,0.154-1.576,0.231-2.291,0.231c-1.673,0-2.953-0.45-3.838-1.35
			s-1.328-2.128-1.328-3.685c0-1.93,0.617-3.616,1.852-5.059c1.332-1.557,3.03-2.335,5.093-2.335c1.219,0,2.214,0.321,2.986,0.962
			c0.771,0.642,1.157,1.507,1.157,2.596c0,1.446-0.69,2.494-2.071,3.144c-1.251,0.585-3.136,0.877-5.654,0.877
			c0,0.225,0.028,0.434,0.085,0.626c0.057,0.193,0.15,0.385,0.28,0.579c0.471,0.61,1.235,0.915,2.291,0.915
			c0.65,0,1.235-0.059,1.754-0.177C107.532,70.818,108.06,70.633,108.596,70.382z M107.036,64.972c0-0.292-0.118-0.532-0.354-0.719
			c-0.235-0.187-0.548-0.281-0.938-0.281c-0.764,0-1.405,0.269-1.925,0.805c-0.438,0.455-0.731,1.007-0.877,1.657
			c1.414,0,2.449-0.109,3.107-0.329C106.707,65.885,107.036,65.508,107.036,64.972z"/>
		<path fill-rule="evenodd" clip-rule="evenodd" fill="#FFFFFF" d="M114.325,73.599h-3.534l1.341-7.092
			c0.146-0.78,0.276-1.682,0.39-2.705c0.065-0.699,0.138-1.405,0.219-2.12h3.046l-0.219,2.437c0.503-0.845,1.056-1.495,1.657-1.95
			c0.683-0.503,1.422-0.755,2.219-0.755h0.657l-0.683,3.436l-0.535-0.024c-1.041,0-1.885,0.431-2.535,1.292
			c-0.552,0.731-0.951,1.747-1.194,3.046L114.325,73.599z"/>
		<path fill-rule="evenodd" clip-rule="evenodd" fill="#FFFFFF" d="M130.455,73.599h-3.217l0.172-2.364
			c-0.553,0.917-1.211,1.593-1.975,2.028c-0.666,0.387-1.373,0.58-2.12,0.58c-1.072,0-1.946-0.377-2.62-1.131
			s-1.012-1.755-1.012-3.004c0-2.205,0.691-4.086,2.072-5.643c1.576-1.767,3.736-2.651,6.482-2.651c0.682,0,1.373,0.053,2.071,0.158
			c0.698,0.106,1.308,0.248,1.827,0.427l-1.193,6.239c-0.131,0.682-0.244,1.576-0.342,2.681S130.455,72.917,130.455,73.599z
			 M127.702,66.911l0.512-2.744c-0.212-0.032-0.37-0.057-0.476-0.073s-0.264-0.024-0.475-0.024c-1.072,0-1.994,0.534-2.767,1.603
			c-0.771,1.068-1.157,2.193-1.157,3.375c0,0.583,0.125,1.057,0.377,1.421s0.613,0.546,1.085,0.546c0.585,0,1.13-0.316,1.633-0.947
			C127.035,69.324,127.458,68.271,127.702,66.911z"/>
		<path fill-rule="evenodd" clip-rule="evenodd" fill="#FFFFFF" d="M132.544,77.937l0.804-2.681c0.293,0.179,0.76,0.333,1.402,0.463
			c0.641,0.13,1.214,0.195,1.717,0.195c0.927,0,1.674-0.228,2.242-0.683c0.635-0.503,1.072-1.332,1.316-2.486l0.195-0.999
			c-0.959,1.17-2.112,1.755-3.461,1.755c-1.153,0-2.08-0.406-2.777-1.219c-0.699-0.813-1.049-1.82-1.049-3.022
			c0-2.112,0.683-3.916,2.047-5.41c1.495-1.625,3.478-2.437,5.947-2.437c1.656,0,3.127,0.276,4.41,0.829l-1.803,9.821
			c-0.228,1.235-0.512,2.25-0.854,3.046c-0.422,0.942-0.975,1.689-1.656,2.242c-0.602,0.471-1.305,0.812-2.109,1.023
			c-0.804,0.211-1.637,0.317-2.497,0.317c-0.813,0-1.556-0.065-2.229-0.195C133.515,78.367,132.967,78.181,132.544,77.937z
			 M140.928,67.506l0.609-3.193c-0.326-0.146-0.748-0.219-1.268-0.219c-1.023,0-1.885,0.475-2.584,1.426
			c-0.698,0.95-1.047,2.019-1.047,3.205c0,0.634,0.133,1.137,0.401,1.511c0.269,0.374,0.671,0.561,1.206,0.561
			c0.602,0,1.15-0.297,1.646-0.89C140.387,69.313,140.732,68.514,140.928,67.506z"/>
		<path fill-rule="evenodd" clip-rule="evenodd" fill="#FFFFFF" d="M155.598,70.382l0.244,2.51
			c-0.617,0.325-1.332,0.564-2.145,0.719s-1.576,0.231-2.291,0.231c-1.674,0-2.953-0.45-3.838-1.35
			c-0.886-0.9-1.328-2.128-1.328-3.685c0-1.93,0.617-3.616,1.852-5.059c1.332-1.557,3.03-2.335,5.094-2.335
			c1.219,0,2.213,0.321,2.984,0.962c0.772,0.642,1.158,1.507,1.158,2.596c0,1.446-0.69,2.494-2.071,3.144
			c-1.251,0.585-3.136,0.877-5.654,0.877c0,0.225,0.028,0.434,0.085,0.626c0.058,0.193,0.15,0.385,0.281,0.579
			c0.471,0.61,1.234,0.915,2.291,0.915c0.649,0,1.234-0.059,1.754-0.177C154.533,70.818,155.062,70.633,155.598,70.382z
			 M154.038,64.972c0-0.292-0.118-0.532-0.354-0.719c-0.235-0.187-0.548-0.281-0.938-0.281c-0.764,0-1.404,0.269-1.925,0.805
			c-0.438,0.455-0.731,1.007-0.878,1.657c1.414,0,2.449-0.109,3.107-0.329C153.709,65.885,154.038,65.508,154.038,64.972z"/>
	</g>
	<g>
		<path fill-rule="evenodd" clip-rule="evenodd" fill="#FFFFFF" d="M75.389,44.489l3.095-16.109c1.137-0.276,2.6-0.414,4.387-0.414
			c0.861,0,1.657,0.069,2.388,0.207s1.377,0.382,1.938,0.731c0.561,0.35,1.003,0.784,1.328,1.304
			c0.325,0.52,0.487,1.154,0.487,1.901c0,1.17-0.357,2.161-1.072,2.974c-0.65,0.731-1.535,1.283-2.656,1.657v0.097
			c0.455,0.195,0.804,0.548,1.048,1.06s0.41,1.194,0.5,2.047s0.187,1.747,0.292,2.681s0.224,1.556,0.354,1.864H83.87
			c-0.146-0.422-0.309-1.714-0.487-3.875c0-0.959-0.187-1.633-0.561-2.023c-0.374-0.39-0.926-0.585-1.657-0.585h-1.072l-1.219,6.482
			H75.389z M81.482,30.842l-0.877,4.533h1.462c0.975,0,1.767-0.256,2.376-0.768c0.609-0.512,0.914-1.174,0.914-1.986
			c0-0.618-0.236-1.089-0.707-1.414c-0.471-0.325-1.072-0.487-1.803-0.487C82.262,30.72,81.807,30.761,81.482,30.842z"/>
		<path fill-rule="evenodd" clip-rule="evenodd" fill="#FFFFFF" d="M100.023,44.489h-3.217l0.17-2.364
			c-0.552,0.917-1.21,1.593-1.974,2.028c-0.666,0.387-1.373,0.58-2.12,0.58c-1.072,0-1.946-0.377-2.62-1.131
			s-1.011-1.755-1.011-3.004c0-2.205,0.69-4.086,2.071-5.643c1.576-1.767,3.737-2.651,6.482-2.651c0.683,0,1.373,0.053,2.072,0.158
			s1.308,0.248,1.828,0.427l-1.194,6.239c-0.13,0.682-0.244,1.576-0.341,2.681C100.072,42.914,100.023,43.807,100.023,44.489z
			 M97.27,37.802l0.512-2.744c-0.211-0.032-0.37-0.057-0.476-0.073s-0.264-0.024-0.475-0.024c-1.072,0-1.994,0.534-2.766,1.603
			c-0.771,1.069-1.157,2.194-1.157,3.376c0,0.583,0.125,1.057,0.377,1.421s0.613,0.546,1.084,0.546c0.585,0,1.129-0.316,1.633-0.947
			C96.603,40.214,97.025,39.162,97.27,37.802z"/>
		<path fill-rule="evenodd" clip-rule="evenodd" fill="#FFFFFF" d="M105.258,30.326l3.604-1.001l-0.609,3.248l2.529-0.001
			l-0.523,2.654l-2.523,0.003l-0.801,4.045c-0.032,0.163-0.073,0.418-0.121,0.768c-0.049,0.349-0.073,0.597-0.073,0.743
			c0,0.325,0.073,0.573,0.219,0.743c0.146,0.17,0.406,0.256,0.78,0.256h0.366c0.146,0,0.349-0.016,0.609-0.049l-0.415,2.732
			c-0.195,0.081-0.487,0.145-0.877,0.193c-0.39,0.048-0.788,0.072-1.194,0.072c-1.024,0-1.795-0.234-2.315-0.703
			s-0.78-1.091-0.78-1.867c0-0.598,0.082-1.333,0.244-2.206l0.926-4.728l-1.515,0l0.495-2.655l1.534,0L105.258,30.326z"/>
		<path fill-rule="evenodd" clip-rule="evenodd" fill="#FFFFFF" d="M113.867,44.489h-3.509l2.266-11.917h3.51L113.867,44.489z
			 M114.842,31.012c-0.536,0-0.975-0.162-1.316-0.487c-0.341-0.325-0.512-0.771-0.512-1.34c0-0.617,0.207-1.125,0.622-1.523
			c0.414-0.398,0.922-0.597,1.523-0.597c0.552,0,1.003,0.167,1.353,0.5c0.349,0.333,0.523,0.776,0.523,1.328
			c0,0.634-0.211,1.146-0.633,1.535C115.979,30.817,115.459,31.012,114.842,31.012z"/>
		<path fill-rule="evenodd" clip-rule="evenodd" fill="#FFFFFF" d="M121.995,44.733c-1.544,0-2.778-0.446-3.704-1.337
			c-0.926-0.892-1.389-2.084-1.389-3.576c0-2.108,0.67-3.887,2.01-5.339c1.341-1.451,3.051-2.177,5.131-2.177
			c1.543,0,2.785,0.479,3.729,1.435c0.877,0.892,1.315,2.043,1.315,3.454c0,2.173-0.666,3.973-1.999,5.4
			C125.756,44.02,124.059,44.733,121.995,44.733z M122.41,42.052c0.893,0,1.641-0.55,2.241-1.651c0.521-0.955,0.78-2.016,0.78-3.182
			c0-0.615-0.139-1.125-0.414-1.53c-0.325-0.486-0.813-0.729-1.463-0.729c-0.926,0-1.689,0.567-2.291,1.7
			c-0.503,0.956-0.755,1.983-0.755,3.084c0,0.712,0.167,1.275,0.499,1.688C121.342,41.846,121.809,42.052,122.41,42.052z"/>
		<path fill-rule="evenodd" clip-rule="evenodd" fill="#FFFFFF" d="M139.54,44.733c-1.544,0-2.778-0.446-3.704-1.337
			c-0.926-0.892-1.389-2.084-1.389-3.576c0-2.108,0.67-3.887,2.01-5.339c1.341-1.451,3.051-2.177,5.131-2.177
			c1.543,0,2.785,0.479,3.729,1.435c0.877,0.892,1.315,2.043,1.315,3.454c0,2.173-0.666,3.973-1.998,5.4
			C143.301,44.02,141.604,44.733,139.54,44.733z M139.955,42.052c0.893,0,1.641-0.55,2.242-1.651
			c0.52-0.955,0.779-2.016,0.779-3.182c0-0.615-0.139-1.125-0.414-1.53c-0.325-0.486-0.813-0.729-1.463-0.729
			c-0.926,0-1.689,0.567-2.291,1.7c-0.503,0.956-0.755,1.983-0.755,3.084c0,0.712,0.167,1.275,0.499,1.688
			C138.887,41.846,139.354,42.052,139.955,42.052z"/>
		<path fill-rule="evenodd" clip-rule="evenodd" fill="#FFFFFF" d="M150.949,44.489h-3.534l1.341-7.092
			c0.146-0.78,0.275-1.682,0.39-2.705c0.065-0.699,0.138-1.405,0.22-2.12h3.046l-0.22,2.437c0.504-0.845,1.057-1.495,1.658-1.95
			c0.682-0.503,1.421-0.755,2.217-0.755h0.658l-0.682,3.436l-0.537-0.024c-1.039,0-1.885,0.431-2.534,1.292
			c-0.552,0.731-0.95,1.747-1.194,3.046L150.949,44.489z"/>
	</g>
</g>
<g>
	<g>
		<path fill-rule="evenodd" clip-rule="evenodd" fill="#00565E" d="M62.926,200.747l1.38-0.404l-0.345,1.754h1.771l-0.21,1.035
			h-1.755c-0.44,2.301-0.683,3.578-0.728,3.833s-0.067,0.493-0.067,0.712c0,0.48,0.235,0.721,0.705,0.721
			c0.255,0,0.455-0.02,0.6-0.061l-0.075,1.051c-0.22,0.09-0.555,0.135-1.005,0.135c-0.505,0-0.894-0.131-1.167-0.391
			c-0.272-0.26-0.409-0.609-0.409-1.049c0-0.355,0.04-0.743,0.12-1.163l0.72-3.788h-1.035l0.195-1.035h1.05L62.926,200.747z"/>
		<path fill-rule="evenodd" clip-rule="evenodd" fill="#00565E" d="M67.005,209.357h-1.32l2.04-10.681h1.32l-0.915,4.711h0.03
			c0.7-0.971,1.59-1.455,2.67-1.455c0.54,0,0.988,0.172,1.343,0.518c0.355,0.345,0.532,0.837,0.532,1.477
			c0,0.42-0.037,0.826-0.112,1.215l-0.803,4.216h-1.335l0.563-2.91c0.17-0.885,0.267-1.421,0.289-1.608s0.034-0.387,0.034-0.597
			c0-0.38-0.099-0.677-0.296-0.893c-0.197-0.215-0.483-0.322-0.858-0.322c-0.51,0-1.021,0.265-1.534,0.795
			c-0.512,0.53-0.841,1.19-0.986,1.979L67.005,209.357z"/>
		<path fill-rule="evenodd" clip-rule="evenodd" fill="#00565E" d="M79.056,207.947l0.18,0.99c-0.73,0.39-1.565,0.585-2.505,0.585
			c-0.91,0-1.615-0.268-2.115-0.803c-0.5-0.535-0.75-1.258-0.75-2.168c0-1.18,0.397-2.244,1.192-3.194s1.752-1.425,2.873-1.425
			c0.68,0,1.222,0.176,1.627,0.528c0.405,0.353,0.607,0.812,0.607,1.376c0,0.476-0.129,0.871-0.386,1.186
			c-0.258,0.314-0.618,0.561-1.08,0.734c-0.462,0.176-0.953,0.289-1.47,0.342c-0.518,0.053-1.199,0.078-2.044,0.078
			c-0.015,0.09-0.022,0.198-0.022,0.323c0,0.64,0.167,1.126,0.502,1.458c0.335,0.333,0.785,0.5,1.35,0.5
			C77.755,208.458,78.436,208.287,79.056,207.947z M75.335,205.173c1.15,0.015,2.03-0.073,2.64-0.264
			c0.61-0.189,0.915-0.537,0.915-1.042c0-0.284-0.104-0.509-0.312-0.671s-0.483-0.244-0.829-0.244c-0.53,0-1.019,0.209-1.466,0.627
			C75.837,203.996,75.521,204.527,75.335,205.173z"/>
		<path fill-rule="evenodd" clip-rule="evenodd" fill="#00565E" d="M89.942,198.677h1.32l-1.605,8.371
			c-0.15,0.77-0.25,1.539-0.3,2.31h-1.23l0.21-1.455h-0.03c-0.73,1.08-1.635,1.62-2.715,1.62c-0.685,0-1.231-0.249-1.639-0.746
			c-0.408-0.498-0.611-1.148-0.611-1.954c0-0.854,0.207-1.663,0.619-2.427c0.413-0.762,0.975-1.363,1.688-1.803
			c0.713-0.44,1.484-0.66,2.314-0.66c0.515,0,0.955,0.08,1.32,0.24L89.942,198.677z M88.607,205.697l0.465-2.415
			c-0.32-0.199-0.725-0.3-1.215-0.3c-0.855,0-1.591,0.364-2.209,1.091c-0.617,0.729-0.926,1.584-0.926,2.568
			c0,0.566,0.12,1.007,0.359,1.324c0.24,0.318,0.59,0.477,1.05,0.477c0.51,0,1.012-0.263,1.507-0.787
			C88.135,207.13,88.457,206.478,88.607,205.697z"/>
		<path fill-rule="evenodd" clip-rule="evenodd" fill="#00565E" d="M96.534,207.947l0.18,0.99c-0.73,0.39-1.565,0.585-2.505,0.585
			c-0.91,0-1.615-0.268-2.115-0.803s-0.75-1.258-0.75-2.168c0-1.18,0.397-2.244,1.192-3.194s1.752-1.425,2.873-1.425
			c0.68,0,1.223,0.176,1.627,0.528c0.405,0.353,0.607,0.812,0.607,1.376c0,0.476-0.128,0.871-0.386,1.186
			c-0.257,0.314-0.617,0.561-1.08,0.734c-0.463,0.176-0.953,0.289-1.47,0.342s-1.199,0.078-2.044,0.078
			c-0.015,0.09-0.022,0.198-0.022,0.323c0,0.64,0.167,1.126,0.502,1.458c0.335,0.333,0.785,0.5,1.35,0.5
			C95.234,208.458,95.914,208.287,96.534,207.947z M92.814,205.173c1.15,0.015,2.03-0.073,2.64-0.264
			c0.61-0.189,0.915-0.537,0.915-1.042c0-0.284-0.104-0.509-0.311-0.671s-0.484-0.244-0.829-0.244c-0.53,0-1.019,0.209-1.466,0.627
			C93.315,203.996,92.999,204.527,92.814,205.173z"/>
		<path fill-rule="evenodd" clip-rule="evenodd" fill="#00565E" d="M99.503,209.357h-1.335l0.975-5.175
			c0.16-0.84,0.275-1.535,0.345-2.086h1.2l-0.195,1.455h0.03c0.705-1.08,1.625-1.619,2.76-1.619c0.565,0,1.024,0.178,1.376,0.532
			s0.528,0.868,0.528,1.538c0,0.299-0.042,0.674-0.127,1.125l-0.788,4.229h-1.32l0.555-2.925c0.165-0.885,0.259-1.419,0.281-1.602
			s0.034-0.354,0.034-0.514c0-0.859-0.39-1.29-1.17-1.29c-0.5,0-1.006,0.269-1.519,0.806c-0.512,0.538-0.846,1.229-1.001,2.074
			L99.503,209.357z"/>
		<path fill-rule="evenodd" clip-rule="evenodd" fill="#00565E" d="M113.503,205.022c0,1.21-0.397,2.262-1.192,3.157
			s-1.778,1.343-2.948,1.343c-0.9,0-1.623-0.285-2.167-0.855s-0.817-1.295-0.817-2.175c0-1.25,0.395-2.322,1.185-3.218
			c0.79-0.895,1.775-1.342,2.955-1.342c0.92,0,1.647,0.289,2.182,0.869C113.235,203.382,113.503,204.122,113.503,205.022z
			 M107.728,206.447c0,0.604,0.163,1.097,0.487,1.474c0.325,0.378,0.752,0.566,1.283,0.566c0.705,0,1.318-0.354,1.841-1.061
			c0.522-0.708,0.784-1.51,0.784-2.404c0-0.57-0.154-1.055-0.461-1.455s-0.739-0.6-1.294-0.6c-0.735,0-1.358,0.354-1.871,1.061
			C107.984,204.736,107.728,205.542,107.728,206.447z"/>
		<path fill-rule="evenodd" clip-rule="evenodd" fill="#00565E" d="M115.564,209.357h-1.29l0.96-5.175
			c0.105-0.545,0.22-1.24,0.345-2.086h1.155l-0.195,1.381h0.045c0.705-1.03,1.58-1.545,2.625-1.545c0.516,0,0.928,0.144,1.238,0.432
			c0.31,0.287,0.482,0.688,0.518,1.203c0.685-1.09,1.6-1.635,2.744-1.635c0.525,0,0.961,0.172,1.309,0.518
			c0.348,0.345,0.521,0.827,0.521,1.447c0,0.39-0.045,0.824-0.135,1.305l-0.78,4.155h-1.29l0.548-2.948
			c0.165-0.875,0.26-1.406,0.285-1.594c0.024-0.188,0.037-0.354,0.037-0.498c0-0.859-0.375-1.29-1.125-1.29
			c-0.47,0-0.935,0.247-1.396,0.743c-0.459,0.494-0.774,1.197-0.944,2.107l-0.66,3.479h-1.29l0.623-3.21
			c0.154-0.811,0.24-1.286,0.255-1.429s0.022-0.281,0.022-0.417c0-0.85-0.375-1.274-1.125-1.274c-0.465,0-0.937,0.271-1.414,0.81
			c-0.478,0.541-0.786,1.19-0.926,1.95L115.564,209.357z"/>
		<path fill-rule="evenodd" clip-rule="evenodd" fill="#00565E" d="M127.924,209.357h-1.32l1.381-7.261h1.319L127.924,209.357z
			 M129.904,199.862c0,0.245-0.086,0.459-0.256,0.641c-0.17,0.184-0.39,0.274-0.66,0.274c-0.234,0-0.426-0.079-0.573-0.236
			s-0.222-0.358-0.222-0.604c0-0.261,0.088-0.478,0.263-0.653c0.175-0.174,0.388-0.262,0.638-0.262c0.24,0,0.436,0.078,0.585,0.236
			C129.828,199.416,129.904,199.617,129.904,199.862z"/>
		<path fill-rule="evenodd" clip-rule="evenodd" fill="#00565E" d="M131.314,209.357h-1.334l0.975-5.175
			c0.16-0.84,0.275-1.535,0.345-2.086h1.2l-0.195,1.455h0.03c0.705-1.08,1.625-1.619,2.761-1.619c0.564,0,1.023,0.178,1.375,0.532
			c0.354,0.354,0.529,0.868,0.529,1.538c0,0.299-0.043,0.674-0.127,1.125l-0.788,4.229h-1.319l0.555-2.925
			c0.164-0.885,0.258-1.419,0.281-1.602c0.021-0.183,0.033-0.354,0.033-0.514c0-0.859-0.39-1.29-1.17-1.29
			c-0.5,0-1.006,0.269-1.519,0.806c-0.513,0.538-0.847,1.229-1.001,2.074L131.314,209.357z"/>
		<path fill-rule="evenodd" clip-rule="evenodd" fill="#00565E" d="M144.34,209.357h-1.244c0-0.345,0.055-0.979,0.164-1.905h-0.029
			c-0.726,1.381-1.695,2.07-2.91,2.07c-0.645,0-1.169-0.229-1.571-0.687c-0.403-0.458-0.604-1.044-0.604-1.759
			c0-1.385,0.484-2.588,1.451-3.611c0.969-1.021,2.205-1.533,3.709-1.533c0.746,0,1.431,0.095,2.056,0.285
			c-0.5,2.604-0.782,4.098-0.845,4.477c-0.063,0.381-0.107,0.764-0.135,1.152C144.354,208.233,144.34,208.737,144.34,209.357z
			 M143.471,205.173l0.39-2.086c-0.21-0.07-0.505-0.104-0.886-0.104c-0.92,0-1.725,0.39-2.414,1.17
			c-0.69,0.78-1.035,1.681-1.035,2.7c0,0.494,0.108,0.884,0.326,1.166c0.217,0.283,0.533,0.424,0.949,0.424
			c0.549,0,1.087-0.307,1.611-0.919C142.938,206.911,143.29,206.128,143.471,205.173z"/>
		<path fill-rule="evenodd" clip-rule="evenodd" fill="#00565E" d="M147.973,200.747l1.381-0.404l-0.346,1.754h1.771l-0.21,1.035
			h-1.756c-0.439,2.301-0.682,3.578-0.727,3.833s-0.068,0.493-0.068,0.712c0,0.48,0.235,0.721,0.705,0.721
			c0.256,0,0.455-0.02,0.601-0.061l-0.075,1.051c-0.22,0.09-0.555,0.135-1.005,0.135c-0.505,0-0.894-0.131-1.166-0.391
			s-0.409-0.609-0.409-1.049c0-0.355,0.04-0.743,0.12-1.163l0.72-3.788h-1.035l0.195-1.035h1.051L147.973,200.747z"/>
		<path fill-rule="evenodd" clip-rule="evenodd" fill="#00565E" d="M157.947,205.022c0,1.21-0.397,2.262-1.192,3.157
			s-1.777,1.343-2.947,1.343c-0.9,0-1.622-0.285-2.168-0.855c-0.545-0.57-0.817-1.295-0.817-2.175c0-1.25,0.395-2.322,1.186-3.218
			c0.789-0.895,1.774-1.342,2.955-1.342c0.92,0,1.646,0.289,2.182,0.869S157.947,204.122,157.947,205.022z M152.172,206.447
			c0,0.604,0.163,1.097,0.488,1.474c0.324,0.378,0.752,0.566,1.282,0.566c0.705,0,1.319-0.354,1.841-1.061
			c0.523-0.708,0.784-1.51,0.784-2.404c0-0.57-0.153-1.055-0.462-1.455c-0.307-0.4-0.738-0.6-1.293-0.6
			c-0.735,0-1.359,0.354-1.871,1.061C152.429,204.736,152.172,205.542,152.172,206.447z"/>
		<path fill-rule="evenodd" clip-rule="evenodd" fill="#00565E" d="M160.039,209.357h-1.32l0.87-4.649
			c0.16-0.836,0.285-1.705,0.375-2.611h1.17c-0.075,0.656-0.146,1.19-0.21,1.605h0.045c0.58-1.18,1.34-1.77,2.28-1.77
			c0.104,0,0.229,0.01,0.375,0.029l-0.255,1.305c-0.051-0.02-0.17-0.029-0.36-0.029c-0.535,0-1.023,0.281-1.466,0.844
			c-0.443,0.563-0.749,1.291-0.919,2.186L160.039,209.357z"/>
		<polygon fill-rule="evenodd" clip-rule="evenodd" fill="#00565E" points="164.698,199.067 167.398,199.067 165.118,211.037 
			162.418,211.037 162.584,210.197 164.219,210.197 166.184,199.907 164.533,199.907 		"/>
		<path fill-rule="evenodd" clip-rule="evenodd" fill="#00565E" d="M169.416,208.487c0,0.295-0.094,0.541-0.281,0.738
			c-0.188,0.198-0.429,0.297-0.724,0.297c-0.255,0-0.464-0.088-0.626-0.263s-0.244-0.393-0.244-0.652c0-0.3,0.094-0.55,0.281-0.75
			s0.424-0.3,0.709-0.3c0.26,0,0.473,0.088,0.638,0.262C169.334,207.995,169.416,208.218,169.416,208.487z"/>
	</g>
	<g>
		<path fill-rule="evenodd" clip-rule="evenodd" fill="#00565E" d="M37.984,194.357h-1.335l0.975-5.175
			c0.16-0.84,0.275-1.535,0.345-2.086h1.2l-0.195,1.455h0.03c0.705-1.08,1.625-1.619,2.76-1.619c0.565,0,1.024,0.178,1.376,0.532
			c0.352,0.354,0.528,0.868,0.528,1.538c0,0.299-0.042,0.674-0.127,1.125l-0.788,4.229h-1.32l0.555-2.925
			c0.165-0.885,0.259-1.419,0.281-1.602s0.034-0.354,0.034-0.514c0-0.859-0.39-1.29-1.17-1.29c-0.5,0-1.006,0.269-1.519,0.806
			c-0.512,0.538-0.846,1.229-1.001,2.074L37.984,194.357z"/>
		<path fill-rule="evenodd" clip-rule="evenodd" fill="#00565E" d="M50.754,187.097h1.32l-0.99,5.176
			c-0.13,0.686-0.24,1.38-0.33,2.085h-1.185l0.195-1.38l-0.03-0.016c-0.355,0.5-0.764,0.885-1.227,1.155
			c-0.462,0.271-0.934,0.405-1.414,0.405c-0.63,0-1.118-0.183-1.462-0.548c-0.345-0.364-0.518-0.902-0.518-1.612
			c0-0.365,0.053-0.814,0.158-1.35l0.757-3.916h1.32l-0.75,3.886c-0.045,0.255-0.079,0.472-0.101,0.649
			c-0.022,0.177-0.034,0.34-0.034,0.49c0,0.86,0.395,1.29,1.185,1.29c0.495,0,0.981-0.253,1.458-0.761
			c0.478-0.508,0.792-1.145,0.941-1.909L50.754,187.097z"/>
		<path fill-rule="evenodd" clip-rule="evenodd" fill="#00565E" d="M54.046,194.357h-1.29l0.96-5.175
			c0.105-0.545,0.22-1.24,0.345-2.086h1.155l-0.195,1.381h0.045c0.705-1.03,1.58-1.545,2.625-1.545c0.515,0,0.927,0.144,1.237,0.432
			c0.31,0.287,0.482,0.688,0.518,1.203c0.685-1.09,1.6-1.635,2.745-1.635c0.525,0,0.961,0.172,1.309,0.518
			c0.347,0.345,0.521,0.827,0.521,1.447c0,0.39-0.045,0.824-0.135,1.305l-0.78,4.155h-1.29l0.548-2.948
			c0.165-0.875,0.26-1.406,0.285-1.594c0.025-0.188,0.037-0.354,0.037-0.498c0-0.859-0.375-1.29-1.125-1.29
			c-0.47,0-0.935,0.247-1.395,0.743c-0.46,0.494-0.775,1.197-0.945,2.107l-0.66,3.479h-1.29l0.623-3.21
			c0.155-0.811,0.24-1.286,0.255-1.429c0.015-0.143,0.022-0.281,0.022-0.417c0-0.85-0.375-1.274-1.125-1.274
			c-0.465,0-0.937,0.271-1.414,0.81c-0.477,0.541-0.786,1.19-0.926,1.95L54.046,194.357z"/>
		<path fill-rule="evenodd" clip-rule="evenodd" fill="#00565E" d="M70.335,192.947l0.18,0.99c-0.73,0.39-1.565,0.585-2.505,0.585
			c-0.91,0-1.615-0.268-2.115-0.803s-0.75-1.258-0.75-2.168c0-1.18,0.397-2.244,1.192-3.194s1.752-1.425,2.872-1.425
			c0.68,0,1.223,0.176,1.628,0.528c0.405,0.353,0.607,0.812,0.607,1.376c0,0.476-0.129,0.871-0.386,1.186
			c-0.258,0.314-0.618,0.561-1.08,0.734c-0.462,0.176-0.953,0.289-1.47,0.342c-0.517,0.053-1.199,0.078-2.043,0.078
			c-0.015,0.09-0.022,0.198-0.022,0.323c0,0.64,0.167,1.126,0.502,1.458c0.335,0.333,0.785,0.5,1.35,0.5
			C69.035,193.458,69.715,193.287,70.335,192.947z M66.615,190.173c1.15,0.015,2.03-0.073,2.64-0.264
			c0.61-0.189,0.915-0.537,0.915-1.042c0-0.284-0.104-0.509-0.311-0.671s-0.484-0.244-0.829-0.244c-0.53,0-1.019,0.209-1.466,0.627
			C67.117,188.996,66.8,189.527,66.615,190.173z"/>
		<path fill-rule="evenodd" clip-rule="evenodd" fill="#00565E" d="M73.289,194.357h-1.32l0.87-4.649
			c0.16-0.836,0.285-1.705,0.375-2.611h1.17c-0.075,0.656-0.145,1.19-0.21,1.605h0.045c0.58-1.18,1.34-1.77,2.28-1.77
			c0.105,0,0.23,0.01,0.375,0.029l-0.255,1.305c-0.05-0.02-0.17-0.029-0.36-0.029c-0.535,0-1.024,0.281-1.466,0.844
			s-0.749,1.291-0.919,2.186L73.289,194.357z"/>
		<path fill-rule="evenodd" clip-rule="evenodd" fill="#00565E" d="M82.809,194.357h-1.245c0-0.345,0.055-0.979,0.165-1.905h-0.03
			c-0.725,1.381-1.695,2.07-2.91,2.07c-0.645,0-1.168-0.229-1.571-0.687c-0.402-0.458-0.604-1.044-0.604-1.759
			c0-1.385,0.484-2.588,1.451-3.611c0.967-1.021,2.204-1.533,3.708-1.533c0.745,0,1.43,0.095,2.055,0.285
			c-0.5,2.604-0.781,4.098-0.844,4.477c-0.063,0.381-0.107,0.764-0.135,1.152C82.822,193.233,82.809,193.737,82.809,194.357z
			 M81.938,190.173l0.39-2.086c-0.21-0.07-0.505-0.104-0.885-0.104c-0.92,0-1.725,0.39-2.415,1.17s-1.035,1.681-1.035,2.7
			c0,0.494,0.109,0.884,0.326,1.166c0.218,0.283,0.534,0.424,0.949,0.424c0.55,0,1.088-0.307,1.613-0.919
			S81.759,191.128,81.938,190.173z"/>
		<path fill-rule="evenodd" clip-rule="evenodd" fill="#00565E" d="M86.442,185.747l1.38-0.404l-0.345,1.754h1.77l-0.21,1.035
			h-1.755c-0.44,2.301-0.683,3.578-0.728,3.833s-0.067,0.493-0.067,0.712c0,0.48,0.235,0.721,0.705,0.721
			c0.255,0,0.455-0.02,0.6-0.061l-0.075,1.051c-0.22,0.09-0.555,0.135-1.005,0.135c-0.505,0-0.894-0.131-1.167-0.391
			c-0.272-0.26-0.409-0.609-0.409-1.049c0-0.355,0.04-0.743,0.12-1.163l0.72-3.788h-1.035l0.195-1.035h1.05L86.442,185.747z"/>
		<path fill-rule="evenodd" clip-rule="evenodd" fill="#00565E" d="M96.416,190.022c0,1.21-0.397,2.262-1.192,3.157
			s-1.777,1.343-2.948,1.343c-0.9,0-1.623-0.285-2.167-0.855s-0.817-1.295-0.817-2.175c0-1.25,0.395-2.322,1.185-3.218
			c0.79-0.895,1.775-1.342,2.955-1.342c0.92,0,1.647,0.289,2.182,0.869S96.416,189.122,96.416,190.022z M90.641,191.447
			c0,0.604,0.163,1.097,0.487,1.474c0.325,0.378,0.752,0.566,1.283,0.566c0.705,0,1.318-0.354,1.841-1.061
			c0.522-0.708,0.784-1.51,0.784-2.404c0-0.57-0.154-1.055-0.461-1.455s-0.739-0.6-1.293-0.6c-0.735,0-1.359,0.354-1.872,1.061
			C90.897,189.736,90.641,190.542,90.641,191.447z"/>
		<path fill-rule="evenodd" clip-rule="evenodd" fill="#00565E" d="M98.507,194.357h-1.32l0.87-4.649
			c0.16-0.836,0.285-1.705,0.375-2.611h1.17c-0.075,0.656-0.145,1.19-0.21,1.605h0.045c0.58-1.18,1.34-1.77,2.28-1.77
			c0.105,0,0.23,0.01,0.375,0.029l-0.255,1.305c-0.05-0.02-0.17-0.029-0.36-0.029c-0.535,0-1.024,0.281-1.466,0.844
			s-0.749,1.291-0.919,2.186L98.507,194.357z"/>
		<path fill-rule="evenodd" clip-rule="evenodd" fill="#00565E" d="M106.06,194.357h-1.32l1.17-6.226h-0.96l0.195-1.035h0.975
			c0.185-1.274,0.548-2.19,1.087-2.748c0.54-0.558,1.192-0.836,1.958-0.836c0.425,0,0.77,0.064,1.035,0.195l-0.27,1.064
			c-0.19-0.1-0.44-0.15-0.75-0.15c-0.43,0-0.791,0.18-1.083,0.54s-0.512,1.005-0.657,1.935h1.62l-0.195,1.035h-1.62L106.06,194.357z
			"/>
		<path fill-rule="evenodd" clip-rule="evenodd" fill="#00565E" d="M116.001,190.022c0,1.21-0.397,2.262-1.192,3.157
			s-1.777,1.343-2.947,1.343c-0.9,0-1.623-0.285-2.168-0.855c-0.545-0.57-0.817-1.295-0.817-2.175c0-1.25,0.395-2.322,1.185-3.218
			c0.79-0.895,1.775-1.342,2.955-1.342c0.92,0,1.647,0.289,2.182,0.869C115.733,188.382,116.001,189.122,116.001,190.022z
			 M110.226,191.447c0,0.604,0.163,1.097,0.487,1.474c0.325,0.378,0.752,0.566,1.283,0.566c0.705,0,1.319-0.354,1.841-1.061
			c0.522-0.708,0.784-1.51,0.784-2.404c0-0.57-0.154-1.055-0.461-1.455c-0.307-0.4-0.739-0.6-1.293-0.6
			c-0.735,0-1.359,0.354-1.872,1.061C110.482,189.736,110.226,190.542,110.226,191.447z"/>
		<path fill-rule="evenodd" clip-rule="evenodd" fill="#00565E" d="M118.093,194.357h-1.32l0.87-4.649
			c0.16-0.836,0.285-1.705,0.375-2.611h1.17c-0.074,0.656-0.145,1.19-0.21,1.605h0.045c0.58-1.18,1.34-1.77,2.28-1.77
			c0.104,0,0.229,0.01,0.375,0.029l-0.256,1.305c-0.049-0.02-0.17-0.029-0.359-0.029c-0.535,0-1.023,0.281-1.467,0.844
			c-0.441,0.563-0.748,1.291-0.918,2.186L118.093,194.357z"/>
		<path fill-rule="evenodd" clip-rule="evenodd" fill="#00565E" d="M129.41,192.947l0.18,0.99c-0.73,0.39-1.564,0.585-2.505,0.585
			c-0.91,0-1.615-0.268-2.115-0.803s-0.75-1.258-0.75-2.168c0-1.18,0.397-2.244,1.192-3.194s1.753-1.425,2.873-1.425
			c0.68,0,1.223,0.176,1.627,0.528c0.405,0.353,0.607,0.812,0.607,1.376c0,0.476-0.129,0.871-0.387,1.186
			c-0.257,0.314-0.617,0.561-1.079,0.734c-0.463,0.176-0.952,0.289-1.47,0.342s-1.199,0.078-2.044,0.078
			c-0.015,0.09-0.022,0.198-0.022,0.323c0,0.64,0.168,1.126,0.502,1.458c0.336,0.333,0.785,0.5,1.35,0.5
			C128.109,193.458,128.79,193.287,129.41,192.947z M125.689,190.173c1.15,0.015,2.03-0.073,2.641-0.264
			c0.609-0.189,0.914-0.537,0.914-1.042c0-0.284-0.104-0.509-0.311-0.671s-0.484-0.244-0.828-0.244c-0.531,0-1.02,0.209-1.467,0.627
			C126.191,188.996,125.875,189.527,125.689,190.173z"/>
		<path fill-rule="evenodd" clip-rule="evenodd" fill="#00565E" d="M137.283,194.357h-1.244c0-0.345,0.055-0.979,0.164-1.905h-0.029
			c-0.725,1.381-1.695,2.07-2.91,2.07c-0.645,0-1.168-0.229-1.571-0.687c-0.402-0.458-0.604-1.044-0.604-1.759
			c0-1.385,0.483-2.588,1.451-3.611c0.968-1.021,2.204-1.533,3.709-1.533c0.745,0,1.43,0.095,2.055,0.285
			c-0.5,2.604-0.781,4.098-0.844,4.477c-0.063,0.381-0.107,0.764-0.135,1.152C137.297,193.233,137.283,193.737,137.283,194.357z
			 M136.414,190.173l0.39-2.086c-0.21-0.07-0.505-0.104-0.885-0.104c-0.92,0-1.726,0.39-2.415,1.17s-1.035,1.681-1.035,2.7
			c0,0.494,0.109,0.884,0.326,1.166c0.218,0.283,0.533,0.424,0.949,0.424c0.55,0,1.087-0.307,1.612-0.919
			C135.881,191.911,136.234,191.128,136.414,190.173z"/>
		<path fill-rule="evenodd" clip-rule="evenodd" fill="#00565E" d="M144.066,193.022l0.12,1.035c-0.645,0.31-1.385,0.465-2.22,0.465
			c-0.895,0-1.602-0.263-2.119-0.787c-0.518-0.525-0.775-1.213-0.775-2.063c0-1.291,0.439-2.402,1.32-3.338
			c0.879-0.936,1.959-1.402,3.239-1.402c0.614,0,1.149,0.115,1.604,0.345l-0.375,1.035c-0.379-0.19-0.814-0.285-1.305-0.285
			c-0.88,0-1.617,0.351-2.213,1.054c-0.594,0.703-0.892,1.512-0.892,2.426c0,0.605,0.163,1.079,0.491,1.422
			c0.327,0.342,0.783,0.514,1.369,0.514C142.887,193.442,143.472,193.302,144.066,193.022z"/>
		<path fill-rule="evenodd" clip-rule="evenodd" fill="#00565E" d="M146.733,194.357h-1.32l2.04-10.681h1.32l-0.915,4.711h0.03
			c0.699-0.971,1.59-1.455,2.67-1.455c0.539,0,0.987,0.172,1.342,0.518c0.355,0.345,0.533,0.837,0.533,1.477
			c0,0.42-0.038,0.826-0.113,1.215l-0.803,4.216h-1.334l0.563-2.91c0.17-0.885,0.266-1.421,0.288-1.608s0.034-0.387,0.034-0.597
			c0-0.38-0.1-0.677-0.297-0.893c-0.197-0.215-0.483-0.322-0.858-0.322c-0.51,0-1.021,0.265-1.534,0.795
			c-0.512,0.53-0.841,1.19-0.986,1.979L146.733,194.357z"/>
		<path fill-rule="evenodd" clip-rule="evenodd" fill="#00565E" d="M162.126,187.097h1.32l-0.99,5.176
			c-0.13,0.686-0.239,1.38-0.33,2.085h-1.185l0.195-1.38l-0.03-0.016c-0.355,0.5-0.765,0.885-1.227,1.155s-0.934,0.405-1.413,0.405
			c-0.631,0-1.118-0.183-1.463-0.548c-0.346-0.364-0.518-0.902-0.518-1.612c0-0.365,0.053-0.814,0.157-1.35l0.758-3.916h1.319
			l-0.75,3.886c-0.045,0.255-0.078,0.472-0.101,0.649c-0.022,0.177-0.034,0.34-0.034,0.49c0,0.86,0.396,1.29,1.186,1.29
			c0.494,0,0.98-0.253,1.459-0.761c0.477-0.508,0.791-1.145,0.941-1.909L162.126,187.097z"/>
		<path fill-rule="evenodd" clip-rule="evenodd" fill="#00565E" d="M165.463,194.357h-1.335l0.975-5.175
			c0.16-0.84,0.275-1.535,0.345-2.086h1.2l-0.194,1.455h0.029c0.705-1.08,1.625-1.619,2.76-1.619c0.565,0,1.024,0.178,1.377,0.532
			c0.352,0.354,0.528,0.868,0.528,1.538c0,0.299-0.042,0.674-0.128,1.125l-0.787,4.229h-1.32l0.556-2.925
			c0.165-0.885,0.259-1.419,0.281-1.602s0.034-0.354,0.034-0.514c0-0.859-0.391-1.29-1.17-1.29c-0.5,0-1.007,0.269-1.52,0.806
			c-0.512,0.538-0.846,1.229-1.001,2.074L165.463,194.357z"/>
		<path fill-rule="evenodd" clip-rule="evenodd" fill="#00565E" d="M173.568,194.357h-1.32l1.38-7.261h1.319L173.568,194.357z
			 M175.548,184.862c0,0.245-0.085,0.459-0.255,0.641c-0.17,0.184-0.391,0.274-0.66,0.274c-0.234,0-0.426-0.079-0.574-0.236
			c-0.146-0.157-0.221-0.358-0.221-0.604c0-0.261,0.088-0.478,0.262-0.653c0.176-0.174,0.389-0.262,0.639-0.262
			c0.239,0,0.435,0.078,0.584,0.236C175.473,184.416,175.548,184.617,175.548,184.862z"/>
		<path fill-rule="evenodd" clip-rule="evenodd" fill="#00565E" d="M177.544,185.747l1.38-0.404l-0.345,1.754h1.771l-0.211,1.035
			h-1.755c-0.44,2.301-0.683,3.578-0.728,3.833s-0.067,0.493-0.067,0.712c0,0.48,0.235,0.721,0.705,0.721
			c0.255,0,0.455-0.02,0.601-0.061l-0.076,1.051c-0.219,0.09-0.555,0.135-1.004,0.135c-0.506,0-0.895-0.131-1.166-0.391
			c-0.273-0.26-0.409-0.609-0.409-1.049c0-0.355,0.04-0.743,0.12-1.163l0.72-3.788h-1.035l0.195-1.035h1.05L177.544,185.747z"/>
		<path fill-rule="evenodd" clip-rule="evenodd" fill="#00565E" d="M190.126,190.022c0,1.21-0.397,2.262-1.192,3.157
			s-1.777,1.343-2.947,1.343c-0.9,0-1.623-0.285-2.168-0.855s-0.817-1.295-0.817-2.175c0-1.25,0.396-2.322,1.185-3.218
			c0.791-0.895,1.775-1.342,2.955-1.342c0.92,0,1.648,0.289,2.183,0.869C189.858,188.382,190.126,189.122,190.126,190.022z
			 M184.352,191.447c0,0.604,0.162,1.097,0.486,1.474c0.326,0.378,0.753,0.566,1.283,0.566c0.705,0,1.318-0.354,1.841-1.061
			c0.522-0.708,0.784-1.51,0.784-2.404c0-0.57-0.154-1.055-0.461-1.455c-0.309-0.4-0.739-0.6-1.294-0.6
			c-0.735,0-1.358,0.354-1.872,1.061C184.607,189.736,184.352,190.542,184.352,191.447z"/>
		<path fill-rule="evenodd" clip-rule="evenodd" fill="#00565E" d="M192.383,194.357h-1.32l1.17-6.226h-0.96l0.194-1.035h0.976
			c0.185-1.274,0.548-2.19,1.087-2.748c0.541-0.558,1.193-0.836,1.958-0.836c0.425,0,0.771,0.064,1.035,0.195l-0.271,1.064
			c-0.189-0.1-0.439-0.15-0.75-0.15c-0.43,0-0.791,0.18-1.083,0.54c-0.293,0.36-0.512,1.005-0.656,1.935h1.62l-0.195,1.035h-1.62
			L192.383,194.357z"/>
	</g>
	<g>
		<path fill-rule="evenodd" clip-rule="evenodd" fill="#00565E" d="M62.879,179.357h-1.245c0-0.345,0.055-0.979,0.165-1.905h-0.03
			c-0.725,1.381-1.695,2.07-2.91,2.07c-0.645,0-1.169-0.229-1.571-0.687c-0.403-0.458-0.604-1.044-0.604-1.759
			c0-1.385,0.484-2.588,1.451-3.611c0.968-1.021,2.204-1.533,3.709-1.533c0.745,0,1.43,0.095,2.055,0.285
			c-0.5,2.604-0.781,4.098-0.844,4.477c-0.063,0.381-0.107,0.764-0.135,1.152C62.894,178.233,62.879,178.737,62.879,179.357z
			 M62.01,175.173l0.39-2.086c-0.21-0.069-0.505-0.104-0.885-0.104c-0.92,0-1.725,0.39-2.415,1.17s-1.035,1.681-1.035,2.7
			c0,0.494,0.109,0.884,0.326,1.166c0.218,0.283,0.534,0.424,0.949,0.424c0.55,0,1.087-0.307,1.612-0.919
			S61.83,176.128,62.01,175.173z"/>
		<path fill-rule="evenodd" clip-rule="evenodd" fill="#00565E" d="M64.908,172.097h1.35c0.585,3.596,0.895,5.551,0.93,5.865h0.03
			c0.375-0.85,0.63-1.402,0.765-1.657l2.25-4.208h1.47l-4.14,7.261h-1.305L64.908,172.097z"/>
		<path fill-rule="evenodd" clip-rule="evenodd" fill="#00565E" d="M76.58,177.947l0.18,0.99c-0.73,0.39-1.565,0.585-2.505,0.585
			c-0.91,0-1.615-0.268-2.115-0.803s-0.75-1.258-0.75-2.168c0-1.18,0.397-2.244,1.192-3.194c0.795-0.95,1.752-1.425,2.873-1.425
			c0.68,0,1.223,0.176,1.627,0.528c0.405,0.353,0.608,0.812,0.608,1.376c0,0.476-0.129,0.871-0.387,1.186
			c-0.257,0.314-0.617,0.561-1.08,0.734c-0.462,0.176-0.952,0.289-1.47,0.342s-1.199,0.078-2.044,0.078
			c-0.015,0.091-0.022,0.198-0.022,0.323c0,0.64,0.167,1.126,0.503,1.458c0.335,0.333,0.785,0.5,1.35,0.5
			C75.28,178.458,75.96,178.287,76.58,177.947z M72.86,175.173c1.15,0.015,2.03-0.073,2.64-0.264
			c0.61-0.189,0.915-0.537,0.915-1.042c0-0.284-0.104-0.509-0.311-0.671s-0.484-0.244-0.829-0.244c-0.53,0-1.019,0.209-1.466,0.627
			C73.361,173.996,73.045,174.527,72.86,175.173z"/>
		<path fill-rule="evenodd" clip-rule="evenodd" fill="#00565E" d="M79.534,179.357h-1.32l0.87-4.649
			c0.16-0.836,0.285-1.705,0.375-2.611h1.17c-0.075,0.656-0.145,1.19-0.21,1.605h0.045c0.58-1.18,1.34-1.77,2.28-1.77
			c0.105,0,0.23,0.01,0.375,0.029l-0.255,1.306c-0.05-0.021-0.17-0.03-0.36-0.03c-0.535,0-1.024,0.281-1.466,0.844
			c-0.443,0.563-0.749,1.291-0.919,2.187L79.534,179.357z"/>
		<path fill-rule="evenodd" clip-rule="evenodd" fill="#00565E" d="M89.054,179.357h-1.245c0-0.345,0.055-0.979,0.165-1.905h-0.03
			c-0.725,1.381-1.695,2.07-2.91,2.07c-0.645,0-1.168-0.229-1.571-0.687c-0.402-0.458-0.604-1.044-0.604-1.759
			c0-1.385,0.483-2.588,1.451-3.611c0.967-1.021,2.204-1.533,3.708-1.533c0.745,0,1.43,0.095,2.055,0.285
			c-0.5,2.604-0.781,4.098-0.844,4.477c-0.063,0.381-0.107,0.764-0.135,1.152C89.067,178.233,89.054,178.737,89.054,179.357z
			 M88.184,175.173l0.39-2.086c-0.21-0.069-0.505-0.104-0.885-0.104c-0.92,0-1.725,0.39-2.415,1.17
			c-0.69,0.78-1.035,1.681-1.035,2.7c0,0.494,0.109,0.884,0.326,1.166c0.217,0.283,0.534,0.424,0.949,0.424
			c0.55,0,1.087-0.307,1.612-0.919C87.651,176.911,88.004,176.128,88.184,175.173z"/>
		<path fill-rule="evenodd" clip-rule="evenodd" fill="#00565E" d="M90.497,181.968l0.36-1.021c0.53,0.319,1.2,0.479,2.01,0.479
			c0.385,0,0.734-0.061,1.046-0.184c0.313-0.122,0.592-0.327,0.84-0.615c0.248-0.287,0.428-0.6,0.54-0.938
			c0.112-0.337,0.269-0.963,0.469-1.878h-0.03c-0.645,1.021-1.505,1.53-2.58,1.53c-0.7,0-1.263-0.248-1.688-0.743
			c-0.425-0.495-0.638-1.103-0.638-1.822c0-0.854,0.207-1.66,0.619-2.415c0.413-0.755,0.981-1.349,1.707-1.781
			s1.53-0.648,2.415-0.648c0.845,0,1.66,0.175,2.445,0.525l-1.11,5.969c-0.295,1.561-0.772,2.631-1.433,3.211
			s-1.558,0.869-2.692,0.869C91.807,182.507,91.047,182.327,90.497,181.968z M96.122,175.532l0.435-2.295
			c-0.345-0.17-0.755-0.255-1.23-0.255c-0.865,0-1.599,0.362-2.201,1.087c-0.603,0.726-0.904,1.563-0.904,2.514
			c0,0.534,0.123,0.955,0.368,1.264c0.245,0.307,0.603,0.461,1.072,0.461c0.53,0,1.038-0.277,1.522-0.833
			C95.669,176.92,95.981,176.272,96.122,175.532z"/>
		<path fill-rule="evenodd" clip-rule="evenodd" fill="#00565E" d="M104.003,177.947l0.18,0.99c-0.73,0.39-1.565,0.585-2.505,0.585
			c-0.91,0-1.615-0.268-2.115-0.803s-0.75-1.258-0.75-2.168c0-1.18,0.397-2.244,1.192-3.194s1.752-1.425,2.872-1.425
			c0.68,0,1.223,0.176,1.628,0.528c0.405,0.353,0.607,0.812,0.607,1.376c0,0.476-0.129,0.871-0.386,1.186s-0.618,0.561-1.08,0.734
			c-0.462,0.176-0.953,0.289-1.47,0.342c-0.517,0.053-1.198,0.078-2.043,0.078c-0.015,0.091-0.022,0.198-0.022,0.323
			c0,0.64,0.167,1.126,0.502,1.458c0.335,0.333,0.785,0.5,1.35,0.5C102.703,178.458,103.383,178.287,104.003,177.947z
			 M100.283,175.173c1.15,0.015,2.03-0.073,2.64-0.264c0.61-0.189,0.915-0.537,0.915-1.042c0-0.284-0.104-0.509-0.312-0.671
			s-0.484-0.244-0.829-0.244c-0.53,0-1.019,0.209-1.466,0.627C100.785,173.996,100.468,174.527,100.283,175.173z"/>
		<path fill-rule="evenodd" clip-rule="evenodd" fill="#00565E" d="M114.23,172.097h1.32l-0.99,5.176
			c-0.13,0.686-0.24,1.38-0.33,2.085h-1.185l0.195-1.38l-0.03-0.016c-0.355,0.5-0.764,0.885-1.226,1.155s-0.934,0.405-1.414,0.405
			c-0.63,0-1.118-0.183-1.463-0.548c-0.345-0.364-0.518-0.902-0.518-1.612c0-0.365,0.053-0.814,0.158-1.35l0.757-3.916h1.32
			l-0.75,3.886c-0.045,0.255-0.079,0.472-0.102,0.649c-0.022,0.177-0.034,0.34-0.034,0.49c0,0.86,0.395,1.29,1.185,1.29
			c0.495,0,0.981-0.253,1.459-0.761s0.791-1.145,0.941-1.909L114.23,172.097z"/>
		<path fill-rule="evenodd" clip-rule="evenodd" fill="#00565E" d="M117.566,179.357h-1.335l0.976-5.175
			c0.16-0.84,0.274-1.535,0.345-2.086h1.2l-0.195,1.455h0.029c0.705-1.08,1.625-1.619,2.761-1.619c0.565,0,1.023,0.178,1.376,0.532
			s0.529,0.868,0.529,1.538c0,0.299-0.043,0.674-0.128,1.125l-0.788,4.229h-1.319l0.555-2.925c0.165-0.885,0.259-1.419,0.281-1.602
			s0.034-0.354,0.034-0.514c0-0.859-0.391-1.29-1.17-1.29c-0.5,0-1.006,0.269-1.52,0.806c-0.512,0.538-0.846,1.229-1.001,2.074
			L117.566,179.357z"/>
		<path fill-rule="evenodd" clip-rule="evenodd" fill="#00565E" d="M125.672,179.357h-1.32l1.38-7.261h1.32L125.672,179.357z
			 M127.652,169.862c0,0.245-0.086,0.459-0.256,0.641c-0.17,0.184-0.39,0.274-0.66,0.274c-0.234,0-0.426-0.079-0.573-0.236
			s-0.222-0.358-0.222-0.604c0-0.261,0.088-0.478,0.263-0.653c0.175-0.174,0.388-0.262,0.638-0.262c0.24,0,0.436,0.078,0.585,0.236
			C127.576,169.416,127.652,169.617,127.652,169.862z"/>
		<path fill-rule="evenodd" clip-rule="evenodd" fill="#00565E" d="M129.648,170.747l1.379-0.404l-0.345,1.754h1.771l-0.211,1.035
			h-1.754c-0.44,2.301-0.684,3.578-0.729,3.833s-0.066,0.493-0.066,0.712c0,0.48,0.234,0.721,0.705,0.721
			c0.254,0,0.454-0.02,0.6-0.061l-0.075,1.051c-0.22,0.09-0.556,0.135-1.005,0.135c-0.505,0-0.895-0.13-1.166-0.391
			c-0.273-0.26-0.409-0.609-0.409-1.049c0-0.355,0.04-0.743,0.12-1.163l0.72-3.788h-1.034l0.194-1.035h1.05L129.648,170.747z"/>
		<path fill-rule="evenodd" clip-rule="evenodd" fill="#00565E" d="M132.107,179.013l0.375-0.976c0.555,0.31,1.1,0.466,1.635,0.466
			c0.404,0,0.736-0.11,0.994-0.33c0.257-0.221,0.386-0.49,0.386-0.811c0-0.275-0.076-0.509-0.229-0.701
			c-0.153-0.192-0.421-0.394-0.807-0.604c-0.92-0.485-1.38-1.105-1.38-1.86c0-0.649,0.258-1.19,0.772-1.62s1.167-0.645,1.958-0.645
			c0.654,0,1.18,0.125,1.574,0.375l-0.375,0.99c-0.404-0.23-0.84-0.346-1.305-0.346c-0.375,0-0.684,0.1-0.926,0.301
			c-0.243,0.199-0.364,0.449-0.364,0.75c0,0.25,0.081,0.465,0.243,0.645c0.163,0.18,0.427,0.365,0.792,0.555
			c0.94,0.495,1.409,1.131,1.409,1.905c0,0.726-0.268,1.309-0.806,1.751c-0.537,0.443-1.224,0.664-2.059,0.664
			C133.232,179.522,132.602,179.353,132.107,179.013z"/>
		<path fill-rule="evenodd" clip-rule="evenodd" fill="#00565E" d="M147.844,175.022c0,1.21-0.396,2.262-1.191,3.157
			s-1.777,1.343-2.947,1.343c-0.9,0-1.623-0.285-2.168-0.855s-0.817-1.295-0.817-2.175c0-1.25,0.395-2.322,1.185-3.218
			c0.79-0.895,1.775-1.342,2.955-1.342c0.92,0,1.647,0.289,2.183,0.869S147.844,174.122,147.844,175.022z M142.069,176.447
			c0,0.604,0.163,1.097,0.487,1.474c0.325,0.378,0.753,0.566,1.283,0.566c0.705,0,1.318-0.354,1.841-1.061
			c0.522-0.708,0.784-1.51,0.784-2.404c0-0.57-0.154-1.055-0.462-1.455s-0.738-0.6-1.294-0.6c-0.734,0-1.358,0.354-1.871,1.061
			C142.326,174.736,142.069,175.542,142.069,176.447z"/>
		<path fill-rule="evenodd" clip-rule="evenodd" fill="#00565E" d="M150.102,179.357h-1.32l1.17-6.226h-0.96l0.194-1.035h0.976
			c0.185-1.274,0.548-2.19,1.087-2.748c0.541-0.558,1.193-0.836,1.958-0.836c0.425,0,0.771,0.064,1.034,0.195l-0.27,1.064
			c-0.189-0.1-0.439-0.15-0.75-0.15c-0.43,0-0.791,0.18-1.084,0.54c-0.292,0.36-0.511,1.005-0.656,1.935h1.621l-0.195,1.035h-1.62
			L150.102,179.357z"/>
		<path fill-rule="evenodd" clip-rule="evenodd" fill="#00565E" d="M157.355,170.747l1.38-0.404l-0.345,1.754h1.77l-0.21,1.035
			h-1.755c-0.44,2.301-0.683,3.578-0.728,3.833s-0.067,0.493-0.067,0.712c0,0.48,0.234,0.721,0.705,0.721
			c0.255,0,0.455-0.02,0.6-0.061l-0.075,1.051c-0.22,0.09-0.555,0.135-1.005,0.135c-0.505,0-0.894-0.13-1.166-0.391
			c-0.272-0.26-0.408-0.609-0.408-1.049c0-0.355,0.039-0.743,0.119-1.163l0.721-3.788h-1.035l0.195-1.035h1.049L157.355,170.747z"/>
		<path fill-rule="evenodd" clip-rule="evenodd" fill="#00565E" d="M161.434,179.357h-1.319l2.04-10.681h1.32l-0.916,4.711h0.031
			c0.699-0.971,1.59-1.455,2.67-1.455c0.539,0,0.986,0.172,1.342,0.518c0.355,0.345,0.533,0.837,0.533,1.477
			c0,0.42-0.038,0.826-0.113,1.216l-0.803,4.215h-1.334l0.563-2.91c0.17-0.885,0.266-1.421,0.288-1.608s0.034-0.387,0.034-0.597
			c0-0.38-0.1-0.677-0.297-0.893c-0.197-0.215-0.483-0.322-0.858-0.322c-0.51,0-1.021,0.265-1.534,0.795
			c-0.512,0.53-0.841,1.19-0.986,1.979L161.434,179.357z"/>
		<path fill-rule="evenodd" clip-rule="evenodd" fill="#00565E" d="M173.484,177.947l0.18,0.99c-0.729,0.39-1.564,0.585-2.504,0.585
			c-0.91,0-1.615-0.268-2.115-0.803s-0.75-1.258-0.75-2.168c0-1.18,0.396-2.244,1.192-3.194c0.795-0.95,1.752-1.425,2.872-1.425
			c0.68,0,1.223,0.176,1.627,0.528c0.406,0.353,0.607,0.812,0.607,1.376c0,0.476-0.128,0.871-0.386,1.186
			c-0.257,0.314-0.617,0.561-1.08,0.734c-0.462,0.176-0.952,0.289-1.47,0.342s-1.199,0.078-2.044,0.078
			c-0.015,0.091-0.022,0.198-0.022,0.323c0,0.64,0.168,1.126,0.503,1.458c0.335,0.333,0.784,0.5,1.35,0.5
			C172.185,178.458,172.864,178.287,173.484,177.947z M169.765,175.173c1.149,0.015,2.03-0.073,2.64-0.264
			c0.61-0.189,0.915-0.537,0.915-1.042c0-0.284-0.104-0.509-0.312-0.671c-0.207-0.162-0.483-0.244-0.828-0.244
			c-0.53,0-1.02,0.209-1.467,0.627C170.266,173.996,169.949,174.527,169.765,175.173z"/>
	</g>
	<g>
		<polygon fill-rule="evenodd" clip-rule="evenodd" fill="#00565E" points="30.804,166.037 28.104,166.037 30.383,154.067 
			33.083,154.067 32.918,154.907 31.284,154.907 29.318,165.197 30.954,165.197 		"/>
		<path fill-rule="evenodd" clip-rule="evenodd" fill="#00565E" d="M36.196,153.992h1.095c-2.09,2.425-3.135,5.101-3.135,8.025
			c0,1.43,0.28,2.8,0.84,4.11h-1.005c-0.65-1.256-0.975-2.636-0.975-4.141c0-1.47,0.276-2.894,0.829-4.271
			C34.397,156.339,35.182,155.097,36.196,153.992z"/>
		<path fill-rule="evenodd" clip-rule="evenodd" fill="#00565E" d="M37.915,164.357h-1.26l1.92-10.11h1.485l2.385,5.641
			c0.385,0.91,0.7,1.859,0.945,2.85l0.03-0.016c0.035-0.814,0.175-1.869,0.42-3.164l1.005-5.311h1.26l-1.92,10.11h-1.335
			l-2.385-5.655c-0.425-1.01-0.755-1.99-0.99-2.939l-0.045,0.015c-0.075,0.72-0.255,1.84-0.54,3.36L37.915,164.357z"/>
		<path fill-rule="evenodd" clip-rule="evenodd" fill="#00565E" d="M52.251,157.097h1.32l-0.99,5.176
			c-0.13,0.686-0.24,1.38-0.33,2.085h-1.185l0.195-1.38l-0.03-0.016c-0.355,0.5-0.764,0.885-1.226,1.155s-0.934,0.405-1.414,0.405
			c-0.63,0-1.118-0.183-1.462-0.548c-0.345-0.364-0.518-0.902-0.518-1.612c0-0.365,0.052-0.814,0.157-1.35l0.758-3.916h1.32
			l-0.75,3.886c-0.045,0.255-0.079,0.472-0.101,0.649c-0.022,0.177-0.034,0.34-0.034,0.49c0,0.86,0.396,1.29,1.185,1.29
			c0.495,0,0.981-0.253,1.459-0.761s0.791-1.145,0.941-1.909L52.251,157.097z"/>
		<path fill-rule="evenodd" clip-rule="evenodd" fill="#00565E" d="M55.542,164.357h-1.29l0.96-5.175
			c0.105-0.545,0.22-1.24,0.345-2.086h1.155l-0.195,1.381h0.045c0.705-1.03,1.58-1.545,2.625-1.545c0.515,0,0.928,0.144,1.238,0.432
			c0.31,0.287,0.482,0.688,0.517,1.203c0.685-1.09,1.6-1.635,2.745-1.635c0.525,0,0.961,0.172,1.309,0.518
			c0.348,0.345,0.521,0.827,0.521,1.447c0,0.39-0.045,0.824-0.135,1.305l-0.78,4.155h-1.29l0.547-2.948
			c0.165-0.875,0.26-1.406,0.285-1.594s0.038-0.354,0.038-0.498c0-0.859-0.375-1.29-1.125-1.29c-0.47,0-0.935,0.247-1.395,0.743
			c-0.46,0.494-0.775,1.197-0.945,2.107l-0.66,3.479h-1.29l0.623-3.21c0.155-0.811,0.24-1.286,0.255-1.429s0.022-0.281,0.022-0.417
			c0-0.85-0.375-1.274-1.125-1.274c-0.465,0-0.936,0.271-1.414,0.81c-0.478,0.541-0.786,1.19-0.926,1.95L55.542,164.357z"/>
		<path fill-rule="evenodd" clip-rule="evenodd" fill="#00565E" d="M71.832,162.947l0.18,0.99c-0.73,0.39-1.565,0.585-2.505,0.585
			c-0.91,0-1.615-0.268-2.115-0.803s-0.75-1.258-0.75-2.168c0-1.18,0.397-2.244,1.192-3.194s1.752-1.425,2.873-1.425
			c0.68,0,1.223,0.176,1.627,0.528s0.607,0.812,0.607,1.376c0,0.476-0.128,0.871-0.386,1.186c-0.257,0.314-0.617,0.561-1.08,0.734
			c-0.462,0.176-0.952,0.289-1.47,0.342s-1.199,0.078-2.044,0.078c-0.015,0.091-0.022,0.198-0.022,0.323
			c0,0.64,0.167,1.126,0.502,1.458c0.335,0.333,0.785,0.5,1.35,0.5C70.532,163.458,71.212,163.287,71.832,162.947z M68.112,160.173
			c1.15,0.015,2.03-0.073,2.64-0.264c0.61-0.189,0.915-0.537,0.915-1.042c0-0.284-0.104-0.509-0.311-0.671s-0.484-0.244-0.829-0.244
			c-0.53,0-1.019,0.209-1.466,0.627C68.613,158.996,68.297,159.527,68.112,160.173z"/>
		<path fill-rule="evenodd" clip-rule="evenodd" fill="#00565E" d="M74.786,164.357h-1.32l0.87-4.649
			c0.16-0.836,0.285-1.705,0.375-2.611h1.17c-0.075,0.656-0.145,1.19-0.21,1.605h0.045c0.58-1.18,1.34-1.77,2.28-1.77
			c0.105,0,0.23,0.01,0.375,0.029l-0.255,1.306c-0.05-0.021-0.17-0.03-0.36-0.03c-0.535,0-1.023,0.281-1.466,0.844
			c-0.443,0.563-0.749,1.291-0.919,2.187L74.786,164.357z"/>
		<path fill-rule="evenodd" clip-rule="evenodd" fill="#00565E" d="M84.306,164.357h-1.245c0-0.345,0.055-0.979,0.165-1.905h-0.03
			c-0.725,1.381-1.695,2.07-2.91,2.07c-0.645,0-1.169-0.229-1.571-0.687s-0.604-1.044-0.604-1.759c0-1.385,0.484-2.588,1.452-3.611
			c0.967-1.021,2.204-1.533,3.708-1.533c0.745,0,1.43,0.095,2.055,0.285c-0.5,2.604-0.781,4.098-0.844,4.477
			c-0.063,0.381-0.108,0.764-0.135,1.152C84.319,163.233,84.306,163.737,84.306,164.357z M83.436,160.173l0.39-2.086
			c-0.21-0.069-0.505-0.104-0.885-0.104c-0.92,0-1.725,0.39-2.415,1.17c-0.69,0.78-1.035,1.681-1.035,2.7
			c0,0.494,0.109,0.884,0.326,1.166c0.217,0.283,0.534,0.424,0.949,0.424c0.55,0,1.087-0.307,1.612-0.919
			C82.903,161.911,83.256,161.128,83.436,160.173z"/>
		<path fill-rule="evenodd" clip-rule="evenodd" fill="#00565E" d="M87.938,155.747l1.38-0.404l-0.345,1.754h1.77l-0.21,1.035
			h-1.755c-0.44,2.301-0.683,3.578-0.728,3.833s-0.067,0.493-0.067,0.712c0,0.48,0.235,0.721,0.705,0.721
			c0.255,0,0.455-0.02,0.6-0.061l-0.075,1.051c-0.22,0.09-0.555,0.135-1.005,0.135c-0.505,0-0.894-0.13-1.166-0.391
			c-0.272-0.26-0.409-0.609-0.409-1.049c0-0.355,0.04-0.743,0.12-1.163l0.72-3.788h-1.035l0.195-1.035h1.05L87.938,155.747z"/>
		<path fill-rule="evenodd" clip-rule="evenodd" fill="#00565E" d="M97.913,160.022c0,1.21-0.397,2.262-1.192,3.157
			s-1.777,1.343-2.947,1.343c-0.9,0-1.623-0.285-2.167-0.855s-0.817-1.295-0.817-2.175c0-1.25,0.395-2.322,1.185-3.218
			c0.79-0.895,1.775-1.342,2.955-1.342c0.92,0,1.647,0.289,2.183,0.869S97.913,159.122,97.913,160.022z M92.138,161.447
			c0,0.604,0.163,1.097,0.488,1.474c0.325,0.378,0.752,0.566,1.282,0.566c0.705,0,1.319-0.354,1.841-1.061
			c0.522-0.708,0.784-1.51,0.784-2.404c0-0.57-0.154-1.055-0.461-1.455c-0.308-0.4-0.739-0.6-1.294-0.6
			c-0.735,0-1.359,0.354-1.871,1.061C92.394,159.736,92.138,160.542,92.138,161.447z"/>
		<path fill-rule="evenodd" clip-rule="evenodd" fill="#00565E" d="M100.004,164.357h-1.32l0.87-4.649
			c0.16-0.836,0.285-1.705,0.375-2.611h1.17c-0.075,0.656-0.145,1.19-0.21,1.605h0.045c0.58-1.18,1.34-1.77,2.28-1.77
			c0.105,0,0.23,0.01,0.375,0.029l-0.255,1.306c-0.05-0.021-0.17-0.03-0.36-0.03c-0.535,0-1.023,0.281-1.466,0.844
			c-0.442,0.563-0.749,1.291-0.918,2.187L100.004,164.357z"/>
		<polygon fill-rule="evenodd" clip-rule="evenodd" fill="#00565E" points="103.269,164.942 102.219,164.942 108.264,154.067 
			109.344,154.067 		"/>
		<path fill-rule="evenodd" clip-rule="evenodd" fill="#00565E" d="M108.337,164.298l1.875-9.916c0.855-0.14,1.73-0.209,2.625-0.209
			c1.57,0,2.783,0.364,3.638,1.095c0.855,0.729,1.282,1.739,1.282,3.03c0,1.694-0.556,3.141-1.668,4.338
			c-1.113,1.197-2.836,1.797-5.171,1.797C110.026,164.433,109.167,164.388,108.337,164.298z M111.367,155.357l-1.5,7.905
			c0.295,0.05,0.75,0.074,1.365,0.074c1.665,0,2.931-0.469,3.799-1.406s1.301-2.133,1.301-3.588c0-2.061-1.17-3.09-3.51-3.09
			C112.217,155.253,111.731,155.287,111.367,155.357z"/>
		<path fill-rule="evenodd" clip-rule="evenodd" fill="#00565E" d="M123.574,162.947l0.18,0.99c-0.73,0.39-1.564,0.585-2.505,0.585
			c-0.91,0-1.615-0.268-2.115-0.803s-0.75-1.258-0.75-2.168c0-1.18,0.397-2.244,1.192-3.194s1.753-1.425,2.873-1.425
			c0.68,0,1.223,0.176,1.627,0.528c0.405,0.353,0.607,0.812,0.607,1.376c0,0.476-0.129,0.871-0.386,1.186
			c-0.258,0.314-0.618,0.561-1.08,0.734c-0.463,0.176-0.952,0.289-1.47,0.342s-1.199,0.078-2.044,0.078
			c-0.015,0.091-0.022,0.198-0.022,0.323c0,0.64,0.167,1.126,0.502,1.458c0.336,0.333,0.785,0.5,1.35,0.5
			C122.273,163.458,122.954,163.287,123.574,162.947z M119.854,160.173c1.15,0.015,2.03-0.073,2.641-0.264
			c0.609-0.189,0.914-0.537,0.914-1.042c0-0.284-0.104-0.509-0.311-0.671s-0.484-0.244-0.828-0.244c-0.531,0-1.02,0.209-1.467,0.627
			C120.355,158.996,120.039,159.527,119.854,160.173z"/>
		<path fill-rule="evenodd" clip-rule="evenodd" fill="#00565E" d="M126.543,164.357h-1.335l0.975-5.175
			c0.16-0.84,0.275-1.535,0.345-2.086h1.201l-0.195,1.455h0.029c0.705-1.08,1.625-1.619,2.76-1.619c0.565,0,1.024,0.178,1.377,0.532
			s0.528,0.868,0.528,1.538c0,0.299-0.042,0.674-0.128,1.125l-0.787,4.229h-1.32l0.556-2.925c0.165-0.885,0.259-1.419,0.281-1.602
			s0.034-0.354,0.034-0.514c0-0.859-0.391-1.29-1.17-1.29c-0.5,0-1.007,0.269-1.52,0.806c-0.512,0.538-0.846,1.229-1.001,2.074
			L126.543,164.357z"/>
		<path fill-rule="evenodd" clip-rule="evenodd" fill="#00565E" d="M140.543,160.022c0,1.21-0.397,2.262-1.192,3.157
			s-1.777,1.343-2.948,1.343c-0.899,0-1.622-0.285-2.167-0.855s-0.817-1.295-0.817-2.175c0-1.25,0.395-2.322,1.186-3.218
			c0.789-0.895,1.774-1.342,2.955-1.342c0.92,0,1.646,0.289,2.182,0.869S140.543,159.122,140.543,160.022z M134.768,161.447
			c0,0.604,0.163,1.097,0.488,1.474c0.324,0.378,0.752,0.566,1.282,0.566c0.705,0,1.318-0.354,1.841-1.061
			c0.523-0.708,0.784-1.51,0.784-2.404c0-0.57-0.153-1.055-0.462-1.455c-0.307-0.4-0.738-0.6-1.293-0.6
			c-0.735,0-1.359,0.354-1.871,1.061C135.024,159.736,134.768,160.542,134.768,161.447z"/>
		<path fill-rule="evenodd" clip-rule="evenodd" fill="#00565E" d="M142.604,164.357h-1.29l0.96-5.175
			c0.104-0.545,0.22-1.24,0.345-2.086h1.155l-0.194,1.381h0.045c0.705-1.03,1.58-1.545,2.625-1.545c0.515,0,0.927,0.144,1.236,0.432
			c0.311,0.287,0.482,0.688,0.518,1.203c0.686-1.09,1.601-1.635,2.746-1.635c0.524,0,0.961,0.172,1.309,0.518
			c0.348,0.345,0.521,0.827,0.521,1.447c0,0.39-0.046,0.824-0.136,1.305l-0.78,4.155h-1.289l0.547-2.948
			c0.165-0.875,0.26-1.406,0.285-1.594s0.037-0.354,0.037-0.498c0-0.859-0.375-1.29-1.125-1.29c-0.47,0-0.935,0.247-1.395,0.743
			c-0.46,0.494-0.775,1.197-0.945,2.107l-0.66,3.479h-1.289l0.622-3.21c0.155-0.811,0.239-1.286,0.255-1.429
			s0.022-0.281,0.022-0.417c0-0.85-0.375-1.274-1.125-1.274c-0.465,0-0.937,0.271-1.414,0.81c-0.478,0.541-0.786,1.19-0.926,1.95
			L142.604,164.357z"/>
		<path fill-rule="evenodd" clip-rule="evenodd" fill="#00565E" d="M154.964,164.357h-1.319l1.379-7.261h1.32L154.964,164.357z
			 M156.943,154.862c0,0.245-0.084,0.459-0.254,0.641c-0.17,0.184-0.391,0.274-0.66,0.274c-0.235,0-0.427-0.079-0.574-0.236
			s-0.221-0.358-0.221-0.604c0-0.261,0.087-0.478,0.262-0.653c0.176-0.174,0.388-0.262,0.638-0.262c0.24,0,0.435,0.078,0.585,0.236
			C156.869,154.416,156.943,154.617,156.943,154.862z"/>
		<path fill-rule="evenodd" clip-rule="evenodd" fill="#00565E" d="M158.355,164.357h-1.336l0.976-5.175
			c0.16-0.84,0.274-1.535,0.345-2.086h1.2l-0.194,1.455h0.029c0.705-1.08,1.625-1.619,2.76-1.619c0.565,0,1.023,0.178,1.377,0.532
			c0.352,0.354,0.528,0.868,0.528,1.538c0,0.299-0.042,0.674-0.128,1.125l-0.787,4.229h-1.32l0.556-2.925
			c0.165-0.885,0.259-1.419,0.28-1.602c0.023-0.183,0.034-0.354,0.034-0.514c0-0.859-0.39-1.29-1.17-1.29
			c-0.5,0-1.006,0.269-1.519,0.806c-0.513,0.538-0.846,1.229-1.001,2.074L158.355,164.357z"/>
		<path fill-rule="evenodd" clip-rule="evenodd" fill="#00565E" d="M171.381,164.357h-1.246c0-0.345,0.056-0.979,0.166-1.905h-0.031
			c-0.725,1.381-1.694,2.07-2.909,2.07c-0.646,0-1.169-0.229-1.571-0.687s-0.604-1.044-0.604-1.759c0-1.385,0.483-2.588,1.451-3.611
			c0.967-1.021,2.203-1.533,3.709-1.533c0.744,0,1.43,0.095,2.055,0.285c-0.5,2.604-0.781,4.098-0.844,4.477
			c-0.063,0.381-0.107,0.764-0.135,1.152C171.395,163.233,171.381,163.737,171.381,164.357z M170.51,160.173l0.391-2.086
			c-0.21-0.069-0.506-0.104-0.885-0.104c-0.92,0-1.726,0.39-2.416,1.17c-0.689,0.78-1.034,1.681-1.034,2.7
			c0,0.494,0.108,0.884,0.326,1.166c0.218,0.283,0.534,0.424,0.948,0.424c0.551,0,1.088-0.307,1.613-0.919
			C169.978,161.911,170.33,161.128,170.51,160.173z"/>
		<path fill-rule="evenodd" clip-rule="evenodd" fill="#00565E" d="M175.014,155.747l1.38-0.404l-0.345,1.754h1.77l-0.21,1.035
			h-1.755c-0.44,2.301-0.683,3.578-0.728,3.833s-0.067,0.493-0.067,0.712c0,0.48,0.234,0.721,0.705,0.721
			c0.255,0,0.455-0.02,0.6-0.061l-0.075,1.051c-0.22,0.09-0.555,0.135-1.005,0.135c-0.505,0-0.894-0.13-1.166-0.391
			c-0.272-0.26-0.408-0.609-0.408-1.049c0-0.355,0.039-0.743,0.119-1.163l0.721-3.788h-1.035l0.195-1.035h1.049L175.014,155.747z"/>
		<path fill-rule="evenodd" clip-rule="evenodd" fill="#00565E" d="M184.987,160.022c0,1.21-0.397,2.262-1.192,3.157
			s-1.777,1.343-2.947,1.343c-0.9,0-1.623-0.285-2.168-0.855s-0.817-1.295-0.817-2.175c0-1.25,0.396-2.322,1.185-3.218
			c0.791-0.895,1.775-1.342,2.955-1.342c0.92,0,1.648,0.289,2.184,0.869C184.72,158.382,184.987,159.122,184.987,160.022z
			 M179.213,161.447c0,0.604,0.162,1.097,0.487,1.474c0.325,0.378,0.753,0.566,1.282,0.566c0.705,0,1.318-0.354,1.842-1.061
			c0.521-0.708,0.783-1.51,0.783-2.404c0-0.57-0.154-1.055-0.461-1.455c-0.308-0.4-0.739-0.6-1.294-0.6
			c-0.735,0-1.358,0.354-1.871,1.061C179.469,159.736,179.213,160.542,179.213,161.447z"/>
		<path fill-rule="evenodd" clip-rule="evenodd" fill="#00565E" d="M187.079,164.357h-1.32l0.87-4.649
			c0.16-0.836,0.285-1.705,0.375-2.611h1.17c-0.074,0.656-0.145,1.19-0.21,1.605h0.045c0.58-1.18,1.34-1.77,2.28-1.77
			c0.105,0,0.23,0.01,0.375,0.029l-0.256,1.306c-0.049-0.021-0.17-0.03-0.359-0.03c-0.535,0-1.023,0.281-1.467,0.844
			c-0.441,0.563-0.748,1.291-0.918,2.187L187.079,164.357z"/>
		<path fill-rule="evenodd" clip-rule="evenodd" fill="#00565E" d="M190.553,166.128h-1.109c2.09-2.48,3.135-5.166,3.135-8.056
			c0-1.425-0.279-2.785-0.84-4.08h1.02c0.641,1.255,0.961,2.625,0.961,4.11C193.719,161.067,192.664,163.742,190.553,166.128z"/>
		<path fill-rule="evenodd" clip-rule="evenodd" fill="#00565E" d="M202.592,159.287h-7.485v-0.93h7.485V159.287z M202.592,162.287
			h-7.485v-0.93h7.485V162.287z"/>
	</g>
	<g>
		<path fill-rule="evenodd" clip-rule="evenodd" fill="#00565E" d="M72.342,149.357v-5.265c0-0.806-0.02-1.471-0.06-1.996h1.215
			l0.105,1.186c0.54-0.9,1.33-1.35,2.37-1.35c0.48,0,0.906,0.13,1.278,0.39c0.373,0.261,0.656,0.62,0.852,1.08
			c0.595-0.979,1.425-1.47,2.49-1.47c0.72,0,1.313,0.272,1.778,0.817c0.465,0.545,0.697,1.343,0.697,2.393v4.215h-1.365v-4.05
			c0-0.721-0.139-1.273-0.416-1.658s-0.674-0.577-1.188-0.577c-0.445,0-0.841,0.171-1.189,0.514s-0.521,0.781-0.521,1.316v4.455
			h-1.365v-4.29c0-0.615-0.138-1.102-0.413-1.459s-0.652-0.536-1.132-0.536c-0.465,0-0.876,0.195-1.234,0.585
			c-0.357,0.391-0.536,0.846-0.536,1.365v4.335H72.342z"/>
		<path fill-rule="evenodd" clip-rule="evenodd" fill="#00565E" d="M91.165,146.013H85.9c0.02,0.785,0.262,1.386,0.728,1.803
			c0.465,0.418,1.067,0.627,1.807,0.627c0.805,0,1.51-0.125,2.115-0.375l0.24,0.975c-0.715,0.32-1.56,0.48-2.535,0.48
			c-1.13,0-2.03-0.335-2.7-1.005c-0.67-0.671-1.005-1.56-1.005-2.671c0-1.109,0.321-2.039,0.963-2.789
			c0.643-0.75,1.506-1.125,2.591-1.125c1,0,1.768,0.334,2.303,1.001c0.535,0.667,0.802,1.483,0.802,2.448
			C91.21,145.657,91.195,145.867,91.165,146.013z M85.915,145.007h3.945c0-0.625-0.162-1.129-0.484-1.511
			c-0.323-0.382-0.781-0.573-1.376-0.573c-0.565,0-1.032,0.191-1.402,0.573S86,144.382,85.915,145.007z"/>
		<path fill-rule="evenodd" clip-rule="evenodd" fill="#00565E" d="M98.034,144.962v2.655c0,0.72,0.04,1.3,0.12,1.74h-1.275
			l-0.165-0.931c-0.545,0.73-1.31,1.096-2.295,1.096c-0.69,0-1.242-0.203-1.657-0.611s-0.623-0.898-0.623-1.474
			c0-0.88,0.382-1.553,1.147-2.018s1.882-0.698,3.353-0.698v-0.135c0-0.515-0.141-0.916-0.424-1.203s-0.701-0.432-1.256-0.432
			c-0.74,0-1.4,0.186-1.98,0.555l-0.315-0.914c0.7-0.44,1.535-0.66,2.505-0.66c0.945,0,1.659,0.26,2.142,0.779
			C97.793,143.232,98.034,143.982,98.034,144.962z M96.669,146.882v-1.199c-1.17,0-1.982,0.14-2.438,0.42
			c-0.455,0.279-0.683,0.665-0.683,1.154c0,0.386,0.114,0.688,0.341,0.904s0.529,0.326,0.904,0.326c0.53,0,0.975-0.164,1.335-0.491
			C96.489,147.669,96.669,147.298,96.669,146.882z"/>
		<path fill-rule="evenodd" clip-rule="evenodd" fill="#00565E" d="M99.532,149.013l0.33-1.065c0.59,0.36,1.2,0.54,1.83,0.54
			c0.45,0,0.797-0.095,1.042-0.285c0.245-0.189,0.368-0.445,0.368-0.765c0-0.306-0.102-0.554-0.304-0.747
			c-0.203-0.191-0.557-0.373-1.062-0.543c-1.33-0.455-1.995-1.141-1.995-2.055c0-0.61,0.236-1.123,0.708-1.538
			s1.102-0.622,1.886-0.622c0.73,0,1.35,0.15,1.86,0.449l-0.345,1.006c-0.505-0.291-1.025-0.436-1.56-0.436
			c-0.37,0-0.663,0.092-0.877,0.273c-0.215,0.184-0.323,0.417-0.323,0.701c0,0.256,0.091,0.471,0.274,0.646s0.561,0.365,1.136,0.57
			c0.7,0.25,1.203,0.546,1.507,0.889c0.305,0.343,0.458,0.771,0.458,1.286c0,0.66-0.251,1.192-0.753,1.598
			c-0.503,0.404-1.187,0.607-2.051,0.607C100.868,149.522,100.157,149.353,99.532,149.013z"/>
		<path fill-rule="evenodd" clip-rule="evenodd" fill="#00565E" d="M112.373,142.097v5.25c0,0.826,0.02,1.496,0.06,2.011h-1.23
			l-0.12-1.229c-0.56,0.93-1.39,1.395-2.49,1.395c-0.795,0-1.424-0.272-1.886-0.817c-0.462-0.546-0.694-1.348-0.694-2.407v-4.201
			h1.395v3.961c0,1.539,0.555,2.31,1.665,2.31c0.51,0,0.955-0.183,1.335-0.548c0.38-0.364,0.57-0.807,0.57-1.327v-4.396H112.373z"/>
		<path fill-rule="evenodd" clip-rule="evenodd" fill="#00565E" d="M114.445,149.357v-4.95c0-0.939-0.02-1.71-0.06-2.311h1.23
			l0.09,1.455c0.185-0.51,0.468-0.906,0.848-1.191s0.793-0.428,1.237-0.428c0.095,0,0.22,0.01,0.375,0.029v1.32
			c-0.136-0.029-0.295-0.045-0.479-0.045c-0.506,0-0.939,0.197-1.302,0.593c-0.362,0.395-0.544,0.957-0.544,1.688v3.84H114.445z"/>
		<path fill-rule="evenodd" clip-rule="evenodd" fill="#00565E" d="M125.391,146.013h-5.264c0.02,0.785,0.262,1.386,0.727,1.803
			c0.465,0.418,1.068,0.627,1.808,0.627c0.806,0,1.511-0.125,2.115-0.375l0.239,0.975c-0.715,0.32-1.56,0.48-2.534,0.48
			c-1.13,0-2.03-0.335-2.7-1.005c-0.67-0.671-1.005-1.56-1.005-2.671c0-1.109,0.321-2.039,0.964-2.789s1.506-1.125,2.592-1.125
			c0.999,0,1.767,0.334,2.302,1.001s0.803,1.483,0.803,2.448C125.437,145.657,125.422,145.867,125.391,146.013z M120.142,145.007
			h3.944c0-0.625-0.16-1.129-0.483-1.511c-0.322-0.382-0.781-0.573-1.376-0.573c-0.565,0-1.033,0.191-1.402,0.573
			C120.454,143.878,120.227,144.382,120.142,145.007z"/>
		<path fill-rule="evenodd" clip-rule="evenodd" fill="#00565E" d="M126.95,149.357v-5.265c0-0.806-0.021-1.471-0.06-1.996h1.215
			l0.105,1.186c0.539-0.9,1.329-1.35,2.369-1.35c0.48,0,0.906,0.13,1.279,0.39c0.372,0.261,0.656,0.62,0.851,1.08
			c0.595-0.979,1.425-1.47,2.49-1.47c0.72,0,1.313,0.272,1.777,0.817s0.698,1.343,0.698,2.393v4.215h-1.365v-4.05
			c0-0.721-0.139-1.273-0.416-1.658c-0.278-0.385-0.674-0.577-1.189-0.577c-0.445,0-0.842,0.171-1.188,0.514
			c-0.348,0.343-0.521,0.781-0.521,1.316v4.455h-1.364v-4.29c0-0.615-0.139-1.102-0.413-1.459s-0.652-0.536-1.132-0.536
			c-0.466,0-0.877,0.195-1.234,0.585c-0.357,0.391-0.536,0.846-0.536,1.365v4.335H126.95z"/>
		<path fill-rule="evenodd" clip-rule="evenodd" fill="#00565E" d="M145.773,146.013h-5.265c0.021,0.785,0.263,1.386,0.728,1.803
			c0.465,0.418,1.067,0.627,1.808,0.627c0.805,0,1.51-0.125,2.114-0.375l0.24,0.975c-0.715,0.32-1.56,0.48-2.535,0.48
			c-1.129,0-2.029-0.335-2.699-1.005c-0.67-0.671-1.006-1.56-1.006-2.671c0-1.109,0.322-2.039,0.965-2.789s1.506-1.125,2.591-1.125
			c1,0,1.768,0.334,2.302,1.001c0.535,0.667,0.803,1.483,0.803,2.448C145.818,145.657,145.804,145.867,145.773,146.013z
			 M140.523,145.007h3.945c0-0.625-0.161-1.129-0.483-1.511c-0.323-0.382-0.781-0.573-1.376-0.573c-0.565,0-1.033,0.191-1.402,0.573
			C140.836,143.878,140.609,144.382,140.523,145.007z"/>
		<path fill-rule="evenodd" clip-rule="evenodd" fill="#00565E" d="M147.333,149.357v-5.265c0-0.806-0.021-1.471-0.06-1.996h1.229
			l0.12,1.23c0.229-0.42,0.567-0.758,1.012-1.012c0.445-0.256,0.934-0.383,1.463-0.383c0.76,0,1.393,0.269,1.897,0.807
			c0.505,0.537,0.758,1.323,0.758,2.357v4.261h-1.396v-4.11c0-0.685-0.147-1.216-0.442-1.594c-0.295-0.377-0.722-0.566-1.282-0.566
			c-0.5,0-0.942,0.188-1.328,0.563c-0.385,0.375-0.577,0.833-0.577,1.373v4.335H147.333z"/>
		<path fill-rule="evenodd" clip-rule="evenodd" fill="#00565E" d="M156.072,140.747l1.365-0.404v1.754h1.934v1.065h-1.934v3.78
			c0,0.505,0.08,0.869,0.243,1.092s0.421,0.333,0.776,0.333c0.324,0,0.59-0.03,0.795-0.09l0.06,1.05
			c-0.345,0.131-0.76,0.195-1.245,0.195c-1.33,0-1.994-0.83-1.994-2.49v-3.87h-1.141v-1.065h1.141V140.747z"/>
	</g>
	<g>
		<path fill-rule="evenodd" clip-rule="evenodd" fill="#00565E" d="M47.828,127.098h1.425c0.95,3.52,1.46,5.51,1.53,5.97h0.03
			c0.055-0.391,0.675-2.38,1.86-5.97h1.185c1.075,3.364,1.675,5.354,1.8,5.97h0.03c0.14-0.75,0.315-1.484,0.525-2.205l1.095-3.765
			h1.38l-2.4,7.26h-1.29c-0.825-2.54-1.29-3.983-1.395-4.331s-0.225-0.838-0.36-1.474h-0.03c-0.165,0.756-0.382,1.524-0.652,2.31
			l-1.208,3.495h-1.29L47.828,127.098z"/>
		<path fill-rule="evenodd" clip-rule="evenodd" fill="#00565E" d="M61.271,134.357h-1.395v-7.26h1.395V134.357z M61.467,124.893
			c0,0.25-0.083,0.46-0.248,0.63c-0.165,0.17-0.383,0.255-0.653,0.255c-0.26,0-0.472-0.085-0.637-0.255
			c-0.165-0.17-0.248-0.38-0.248-0.63c0-0.245,0.084-0.452,0.251-0.619c0.168-0.167,0.384-0.251,0.649-0.251
			c0.255,0,0.466,0.084,0.634,0.251S61.467,124.648,61.467,124.893z"/>
		<path fill-rule="evenodd" clip-rule="evenodd" fill="#00565E" d="M63.638,125.748l1.365-0.405v1.754h1.935v1.065h-1.935v3.779
			c0,0.505,0.082,0.869,0.244,1.092c0.163,0.223,0.421,0.333,0.776,0.333c0.325,0,0.59-0.03,0.795-0.09l0.06,1.05
			c-0.345,0.131-0.76,0.195-1.245,0.195c-1.33,0-1.995-0.83-1.995-2.49v-3.869h-1.14v-1.065h1.14V125.748z"/>
		<path fill-rule="evenodd" clip-rule="evenodd" fill="#00565E" d="M68.333,134.357v-10.68h1.395v4.577h0.03
			c0.245-0.41,0.586-0.732,1.023-0.969c0.438-0.234,0.886-0.352,1.347-0.352c0.75,0,1.375,0.269,1.875,0.807
			c0.5,0.537,0.75,1.323,0.75,2.356v4.261h-1.396v-4.11c0-0.685-0.147-1.215-0.442-1.593c-0.295-0.377-0.722-0.566-1.282-0.566
			c-0.475,0-0.911,0.18-1.309,0.537s-0.597,0.818-0.597,1.382v4.351H68.333z"/>
		<path fill-rule="evenodd" clip-rule="evenodd" fill="#00565E" d="M85.026,123.677h1.395v8.775c0,0.811,0.02,1.445,0.06,1.905
			h-1.245l-0.105-1.29c-0.24,0.46-0.585,0.817-1.035,1.072c-0.45,0.256-0.96,0.383-1.53,0.383c-0.92,0-1.688-0.346-2.303-1.039
			c-0.615-0.692-0.922-1.571-0.922-2.637c0-1.154,0.324-2.095,0.971-2.822s1.449-1.091,2.404-1.091c0.51,0,0.966,0.1,1.369,0.3
			c0.403,0.2,0.716,0.47,0.941,0.81V123.677z M85.026,131.237v-1.154c0-0.614-0.199-1.11-0.596-1.488s-0.874-0.566-1.429-0.566
			c-0.675,0-1.219,0.253-1.631,0.757c-0.413,0.506-0.619,1.162-0.619,1.972c0,0.761,0.195,1.391,0.585,1.891s0.935,0.75,1.635,0.75
			c0.535,0,1.011-0.196,1.429-0.589S85.026,131.893,85.026,131.237z"/>
		<path fill-rule="evenodd" clip-rule="evenodd" fill="#00565E" d="M89.912,134.357h-1.395v-7.26h1.395V134.357z M90.107,124.893
			c0,0.25-0.083,0.46-0.248,0.63c-0.165,0.17-0.382,0.255-0.652,0.255c-0.26,0-0.473-0.085-0.638-0.255
			c-0.165-0.17-0.247-0.38-0.247-0.63c0-0.245,0.083-0.452,0.251-0.619s0.384-0.251,0.649-0.251c0.255,0,0.466,0.084,0.634,0.251
			S90.107,124.648,90.107,124.893z"/>
		<path fill-rule="evenodd" clip-rule="evenodd" fill="#00565E" d="M93.508,134.357h-1.395v-6.194h-1.02v-1.065h1.02v-0.329
			c0-1.035,0.236-1.837,0.709-2.404c0.473-0.568,1.131-0.852,1.976-0.852c0.425,0,0.81,0.07,1.155,0.209l-0.165,1.08
			c-0.25-0.109-0.54-0.164-0.87-0.164c-0.95,0-1.425,0.695-1.425,2.084v0.375h1.785v1.065h-1.77V134.357z"/>
		<path fill-rule="evenodd" clip-rule="evenodd" fill="#00565E" d="M97.887,134.357h-1.395v-6.194h-1.02v-1.065h1.02v-0.329
			c0-1.035,0.236-1.837,0.709-2.404c0.472-0.568,1.131-0.852,1.976-0.852c0.425,0,0.81,0.07,1.155,0.209l-0.165,1.08
			c-0.25-0.109-0.54-0.164-0.87-0.164c-0.95,0-1.425,0.695-1.425,2.084v0.375h1.785v1.065h-1.77V134.357z"/>
		<path fill-rule="evenodd" clip-rule="evenodd" fill="#00565E" d="M106.63,131.013h-5.265c0.02,0.785,0.263,1.386,0.728,1.803
			c0.465,0.418,1.067,0.627,1.808,0.627c0.805,0,1.51-0.125,2.115-0.375l0.24,0.975c-0.715,0.32-1.56,0.48-2.535,0.48
			c-1.13,0-2.03-0.335-2.7-1.005c-0.67-0.671-1.005-1.56-1.005-2.671c0-1.109,0.321-2.038,0.963-2.788
			c0.643-0.75,1.506-1.125,2.591-1.125c1,0,1.768,0.334,2.303,1.001c0.535,0.667,0.802,1.483,0.802,2.447
			C106.675,130.657,106.66,130.867,106.63,131.013z M101.38,130.007h3.945c0-0.624-0.161-1.128-0.483-1.51
			c-0.323-0.382-0.781-0.573-1.376-0.573c-0.565,0-1.033,0.191-1.402,0.573C101.693,128.879,101.465,129.383,101.38,130.007z"/>
		<path fill-rule="evenodd" clip-rule="evenodd" fill="#00565E" d="M108.189,134.357v-4.949c0-0.939-0.02-1.71-0.06-2.311h1.23
			l0.09,1.455c0.185-0.51,0.468-0.906,0.848-1.191s0.792-0.428,1.237-0.428c0.095,0,0.22,0.01,0.375,0.029v1.32
			c-0.135-0.029-0.295-0.045-0.48-0.045c-0.505,0-0.939,0.197-1.301,0.593c-0.362,0.395-0.543,0.956-0.543,1.687v3.84H108.189z"/>
		<path fill-rule="evenodd" clip-rule="evenodd" fill="#00565E" d="M119.136,131.013h-5.265c0.02,0.785,0.262,1.386,0.728,1.803
			c0.465,0.418,1.067,0.627,1.808,0.627c0.805,0,1.51-0.125,2.115-0.375l0.24,0.975c-0.716,0.32-1.56,0.48-2.535,0.48
			c-1.13,0-2.03-0.335-2.7-1.005c-0.67-0.671-1.005-1.56-1.005-2.671c0-1.109,0.321-2.038,0.964-2.788s1.506-1.125,2.591-1.125
			c1,0,1.768,0.334,2.302,1.001c0.535,0.667,0.803,1.483,0.803,2.447C119.181,130.657,119.166,130.867,119.136,131.013z
			 M113.886,130.007h3.944c0-0.624-0.16-1.128-0.483-1.51c-0.322-0.382-0.781-0.573-1.376-0.573c-0.565,0-1.033,0.191-1.402,0.573
			C114.198,128.879,113.971,129.383,113.886,130.007z"/>
		<path fill-rule="evenodd" clip-rule="evenodd" fill="#00565E" d="M120.694,134.357v-5.264c0-0.806-0.021-1.471-0.06-1.996h1.229
			l0.12,1.23c0.23-0.42,0.567-0.758,1.013-1.012c0.444-0.256,0.933-0.383,1.462-0.383c0.761,0,1.393,0.269,1.898,0.807
			c0.504,0.537,0.757,1.323,0.757,2.356v4.261h-1.395v-4.11c0-0.685-0.147-1.215-0.442-1.593c-0.295-0.377-0.723-0.566-1.283-0.566
			c-0.5,0-0.942,0.188-1.327,0.563s-0.577,0.833-0.577,1.372v4.335H120.694z"/>
		<path fill-rule="evenodd" clip-rule="evenodd" fill="#00565E" d="M129.434,125.748l1.365-0.405v1.754h1.935v1.065h-1.935v3.779
			c0,0.505,0.081,0.869,0.244,1.092c0.162,0.223,0.42,0.333,0.775,0.333c0.325,0,0.59-0.03,0.795-0.09l0.061,1.05
			c-0.346,0.131-0.76,0.195-1.245,0.195c-1.33,0-1.995-0.83-1.995-2.49v-3.869h-1.141v-1.065h1.141V125.748z"/>
		<path fill-rule="evenodd" clip-rule="evenodd" fill="#00565E" d="M143.553,127.098v5.249c0,0.826,0.02,1.496,0.06,2.011h-1.229
			l-0.121-1.229c-0.56,0.93-1.39,1.395-2.489,1.395c-0.795,0-1.424-0.272-1.886-0.817c-0.463-0.546-0.694-1.348-0.694-2.407v-4.2
			h1.396v3.96c0,1.539,0.555,2.31,1.664,2.31c0.51,0,0.955-0.183,1.336-0.548c0.379-0.364,0.569-0.807,0.569-1.327v-4.395H143.553z"
			/>
		<path fill-rule="evenodd" clip-rule="evenodd" fill="#00565E" d="M145.625,134.357v-5.264c0-0.806-0.021-1.471-0.061-1.996h1.23
			l0.119,1.23c0.23-0.42,0.568-0.758,1.014-1.012c0.444-0.256,0.932-0.383,1.462-0.383c0.76,0,1.393,0.269,1.897,0.807
			c0.505,0.537,0.758,1.323,0.758,2.356v4.261h-1.396v-4.11c0-0.685-0.147-1.215-0.442-1.593c-0.295-0.377-0.723-0.566-1.282-0.566
			c-0.5,0-0.942,0.188-1.327,0.563c-0.386,0.375-0.578,0.833-0.578,1.372v4.335H145.625z"/>
		<path fill-rule="evenodd" clip-rule="evenodd" fill="#00565E" d="M155.474,134.357h-1.396v-7.26h1.396V134.357z M155.669,124.893
			c0,0.25-0.083,0.46-0.247,0.63c-0.166,0.17-0.383,0.255-0.653,0.255c-0.26,0-0.472-0.085-0.638-0.255
			c-0.164-0.17-0.247-0.38-0.247-0.63c0-0.245,0.083-0.452,0.251-0.619s0.384-0.251,0.648-0.251c0.256,0,0.467,0.084,0.635,0.251
			C155.585,124.441,155.669,124.648,155.669,124.893z"/>
		<path fill-rule="evenodd" clip-rule="evenodd" fill="#00565E" d="M157.84,125.748l1.365-0.405v1.754h1.936v1.065h-1.936v3.779
			c0,0.505,0.081,0.869,0.244,1.092c0.162,0.223,0.421,0.333,0.775,0.333c0.326,0,0.59-0.03,0.795-0.09l0.061,1.05
			c-0.345,0.131-0.76,0.195-1.245,0.195c-1.33,0-1.995-0.83-1.995-2.49v-3.869h-1.14v-1.065h1.14V125.748z"/>
		<path fill-rule="evenodd" clip-rule="evenodd" fill="#00565E" d="M162.025,134.013l0.33-1.065c0.59,0.36,1.199,0.54,1.829,0.54
			c0.45,0,0.798-0.095,1.043-0.285c0.245-0.189,0.367-0.445,0.367-0.765c0-0.306-0.101-0.554-0.304-0.747
			c-0.203-0.191-0.557-0.373-1.061-0.543c-1.33-0.455-1.996-1.141-1.996-2.054c0-0.61,0.236-1.123,0.709-1.538
			s1.102-0.622,1.887-0.622c0.729,0,1.35,0.15,1.859,0.449l-0.345,1.006c-0.505-0.291-1.024-0.436-1.56-0.436
			c-0.37,0-0.663,0.092-0.878,0.273c-0.215,0.184-0.322,0.417-0.322,0.701c0,0.256,0.091,0.471,0.273,0.645
			c0.183,0.175,0.562,0.365,1.136,0.57c0.701,0.25,1.203,0.546,1.508,0.889s0.458,0.771,0.458,1.286c0,0.66-0.251,1.192-0.754,1.598
			c-0.503,0.404-1.187,0.607-2.052,0.607C163.359,134.522,162.65,134.353,162.025,134.013z"/>
		<path fill-rule="evenodd" clip-rule="evenodd" fill="#00565E" d="M178.514,130.652c0,0.78-0.162,1.462-0.486,2.048
			c-0.326,0.584-0.781,1.035-1.365,1.35c-0.586,0.314-1.218,0.473-1.898,0.473c-1.06,0-1.935-0.346-2.625-1.039
			c-0.689-0.692-1.034-1.591-1.034-2.696c0-1.175,0.356-2.109,1.068-2.808c0.713-0.697,1.611-1.046,2.696-1.046
			c1.08,0,1.957,0.346,2.633,1.039C178.177,128.664,178.514,129.558,178.514,130.652z M172.529,130.742
			c0,0.795,0.213,1.452,0.637,1.969c0.426,0.518,0.958,0.776,1.598,0.776c0.655,0,1.201-0.26,1.639-0.779
			c0.438-0.521,0.656-1.19,0.656-2.011c0-0.755-0.201-1.397-0.604-1.93c-0.402-0.533-0.951-0.799-1.646-0.799
			c-0.705,0-1.261,0.264-1.668,0.791C172.732,129.287,172.529,129.947,172.529,130.742z"/>
		<path fill-rule="evenodd" clip-rule="evenodd" fill="#00565E" d="M181.562,134.357h-1.396v-6.194h-1.02v-1.065h1.02v-0.329
			c0-1.035,0.236-1.837,0.709-2.404c0.473-0.568,1.131-0.852,1.977-0.852c0.425,0,0.811,0.07,1.154,0.209l-0.164,1.08
			c-0.25-0.109-0.54-0.164-0.87-0.164c-0.95,0-1.425,0.695-1.425,2.084v0.375h1.785v1.065h-1.771V134.357z"/>
	</g>
	<g>
		<path fill-rule="evenodd" clip-rule="evenodd" fill="#00565E" d="M27.427,119.358v-9.975c0.79-0.15,1.67-0.225,2.64-0.225
			c1.34,0,2.315,0.25,2.925,0.75c0.61,0.5,0.915,1.175,0.915,2.025c0,0.6-0.171,1.126-0.514,1.579
			c-0.342,0.453-0.816,0.781-1.421,0.986c0.73,0.285,1.225,0.97,1.485,2.055c0.41,1.655,0.68,2.59,0.81,2.805h-1.44
			c-0.14-0.235-0.365-1.035-0.675-2.4c-0.16-0.71-0.397-1.213-0.712-1.508s-0.762-0.442-1.342-0.442h-1.275v4.35H27.427z
			 M28.822,110.343v3.615h1.395c0.7,0,1.257-0.17,1.672-0.51s0.623-0.795,0.623-1.365c0-0.605-0.201-1.066-0.604-1.384
			c-0.402-0.317-0.981-0.477-1.736-0.477C29.586,110.223,29.137,110.263,28.822,110.343z"/>
		<path fill-rule="evenodd" clip-rule="evenodd" fill="#00565E" d="M41.043,114.963v2.655c0,0.72,0.04,1.3,0.12,1.74h-1.275
			l-0.165-0.93c-0.545,0.73-1.31,1.095-2.295,1.095c-0.69,0-1.243-0.204-1.657-0.611c-0.415-0.408-0.623-0.899-0.623-1.474
			c0-0.88,0.382-1.553,1.147-2.018c0.765-0.465,1.882-0.698,3.353-0.698v-0.135c0-0.515-0.142-0.917-0.424-1.204
			c-0.283-0.288-0.701-0.432-1.256-0.432c-0.74,0-1.4,0.185-1.98,0.555l-0.315-0.915c0.7-0.44,1.535-0.66,2.505-0.66
			c0.945,0,1.659,0.26,2.141,0.78S41.043,113.983,41.043,114.963z M39.678,116.883v-1.2c-1.17,0-1.982,0.14-2.438,0.42
			c-0.455,0.28-0.683,0.665-0.683,1.155c0,0.385,0.114,0.687,0.341,0.904s0.529,0.326,0.904,0.326c0.53,0,0.975-0.164,1.335-0.491
			S39.678,117.298,39.678,116.883z"/>
		<path fill-rule="evenodd" clip-rule="evenodd" fill="#00565E" d="M43.336,110.748l1.365-0.405v1.755h1.935v1.065h-1.935v3.78
			c0,0.505,0.081,0.869,0.244,1.091s0.421,0.333,0.776,0.333c0.325,0,0.59-0.03,0.795-0.09l0.06,1.05
			c-0.345,0.13-0.76,0.195-1.245,0.195c-1.33,0-1.995-0.83-1.995-2.49v-3.87h-1.14v-1.065h1.14V110.748z"/>
		<path fill-rule="evenodd" clip-rule="evenodd" fill="#00565E" d="M49.426,119.358h-1.395v-7.26h1.395V119.358z M49.621,109.893
			c0,0.25-0.083,0.46-0.247,0.63c-0.165,0.17-0.383,0.255-0.653,0.255c-0.26,0-0.472-0.085-0.637-0.255s-0.248-0.38-0.248-0.63
			c0-0.245,0.083-0.452,0.251-0.619s0.384-0.251,0.649-0.251c0.255,0,0.466,0.083,0.634,0.251S49.621,109.648,49.621,109.893z"/>
		<path fill-rule="evenodd" clip-rule="evenodd" fill="#00565E" d="M58.363,115.653c0,0.78-0.163,1.462-0.488,2.047
			c-0.325,0.585-0.78,1.035-1.365,1.35s-1.218,0.473-1.897,0.473c-1.06,0-1.935-0.346-2.625-1.039
			c-0.69-0.692-1.035-1.591-1.035-2.696c0-1.175,0.356-2.111,1.069-2.809c0.712-0.697,1.611-1.046,2.696-1.046
			c1.08,0,1.958,0.347,2.632,1.039C58.025,113.664,58.363,114.558,58.363,115.653z M52.378,115.743c0,0.795,0.212,1.452,0.637,1.969
			c0.425,0.518,0.958,0.776,1.598,0.776c0.655,0,1.201-0.26,1.639-0.78s0.656-1.19,0.656-2.01c0-0.755-0.201-1.398-0.604-1.931
			c-0.403-0.533-0.952-0.799-1.646-0.799c-0.705,0-1.261,0.264-1.668,0.792C52.582,114.287,52.378,114.948,52.378,115.743z"/>
		<path fill-rule="evenodd" clip-rule="evenodd" fill="#00565E" d="M63.004,117.453v-8.775h1.425v4.605
			c0.53-0.9,1.385-1.35,2.565-1.35c0.93,0,1.692,0.344,2.287,1.032c0.595,0.688,0.893,1.573,0.893,2.659
			c0,1.185-0.329,2.131-0.986,2.838c-0.657,0.708-1.458,1.062-2.403,1.062c-1.135,0-1.99-0.455-2.565-1.365l-0.06,1.2h-1.215
			C62.984,118.898,63.004,118.263,63.004,117.453z M64.399,115.203v1.185c0,0.54,0.201,1.013,0.604,1.417
			c0.402,0.405,0.901,0.607,1.496,0.607c0.695,0,1.246-0.246,1.654-0.738c0.408-0.493,0.611-1.156,0.611-1.992
			c0-0.775-0.203-1.411-0.608-1.909c-0.405-0.497-0.947-0.746-1.627-0.746c-0.6,0-1.105,0.219-1.515,0.656
			C64.604,114.122,64.399,114.628,64.399,115.203z"/>
		<path fill-rule="evenodd" clip-rule="evenodd" fill="#00565E" d="M77.752,116.013h-5.265c0.02,0.785,0.262,1.386,0.728,1.804
			c0.465,0.417,1.067,0.626,1.807,0.626c0.805,0,1.51-0.125,2.115-0.375l0.24,0.975c-0.715,0.32-1.56,0.48-2.535,0.48
			c-1.13,0-2.03-0.335-2.7-1.005c-0.67-0.67-1.005-1.56-1.005-2.67c0-1.11,0.321-2.04,0.963-2.79
			c0.643-0.75,1.506-1.125,2.591-1.125c1,0,1.768,0.334,2.303,1.001c0.535,0.667,0.802,1.484,0.802,2.449
			C77.797,115.658,77.782,115.868,77.752,116.013z M72.502,115.008h3.945c0-0.625-0.162-1.129-0.484-1.511
			c-0.323-0.382-0.781-0.574-1.376-0.574c-0.565,0-1.032,0.191-1.402,0.574S72.587,114.383,72.502,115.008z"/>
		<path fill-rule="evenodd" clip-rule="evenodd" fill="#00565E" d="M79.596,110.748l1.365-0.405v1.755h1.935v1.065h-1.935v3.78
			c0,0.505,0.081,0.869,0.244,1.091s0.421,0.333,0.776,0.333c0.325,0,0.59-0.03,0.795-0.09l0.06,1.05
			c-0.345,0.13-0.76,0.195-1.245,0.195c-1.33,0-1.995-0.83-1.995-2.49v-3.87h-1.14v-1.065h1.14V110.748z"/>
		<path fill-rule="evenodd" clip-rule="evenodd" fill="#00565E" d="M83.436,112.098h1.425c0.95,3.52,1.459,5.51,1.53,5.97h0.03
			c0.055-0.39,0.675-2.38,1.86-5.97h1.185c1.075,3.365,1.675,5.355,1.8,5.97h0.03c0.14-0.75,0.315-1.485,0.525-2.205l1.095-3.765
			h1.38l-2.4,7.26h-1.29c-0.825-2.54-1.29-3.984-1.395-4.331c-0.105-0.348-0.225-0.839-0.36-1.474h-0.03
			c-0.165,0.755-0.382,1.525-0.652,2.31l-1.208,3.495h-1.29L83.436,112.098z"/>
		<path fill-rule="evenodd" clip-rule="evenodd" fill="#00565E" d="M101.424,116.013h-5.265c0.02,0.785,0.263,1.386,0.728,1.804
			s1.067,0.626,1.808,0.626c0.805,0,1.51-0.125,2.115-0.375l0.24,0.975c-0.715,0.32-1.56,0.48-2.535,0.48
			c-1.13,0-2.03-0.335-2.7-1.005c-0.67-0.67-1.005-1.56-1.005-2.67c0-1.11,0.321-2.04,0.964-2.79s1.506-1.125,2.591-1.125
			c1,0,1.768,0.334,2.302,1.001c0.535,0.667,0.803,1.484,0.803,2.449C101.469,115.658,101.454,115.868,101.424,116.013z
			 M96.174,115.008h3.945c0-0.625-0.161-1.129-0.484-1.511c-0.322-0.382-0.781-0.574-1.376-0.574c-0.565,0-1.033,0.191-1.403,0.574
			C96.487,113.879,96.259,114.383,96.174,115.008z"/>
		<path fill-rule="evenodd" clip-rule="evenodd" fill="#00565E" d="M109.043,116.013h-5.265c0.02,0.785,0.262,1.386,0.728,1.804
			c0.465,0.417,1.067,0.626,1.807,0.626c0.805,0,1.51-0.125,2.115-0.375l0.24,0.975c-0.715,0.32-1.56,0.48-2.535,0.48
			c-1.13,0-2.03-0.335-2.7-1.005c-0.67-0.67-1.005-1.56-1.005-2.67c0-1.11,0.321-2.04,0.964-2.79
			c0.642-0.75,1.506-1.125,2.591-1.125c1,0,1.768,0.334,2.303,1.001c0.535,0.667,0.802,1.484,0.802,2.449
			C109.088,115.658,109.073,115.868,109.043,116.013z M103.793,115.008h3.945c0-0.625-0.162-1.129-0.484-1.511
			c-0.323-0.382-0.781-0.574-1.376-0.574c-0.565,0-1.032,0.191-1.402,0.574S103.878,114.383,103.793,115.008z"/>
		<path fill-rule="evenodd" clip-rule="evenodd" fill="#00565E" d="M110.602,119.358v-5.265c0-0.805-0.02-1.47-0.06-1.995h1.23
			l0.12,1.23c0.23-0.42,0.567-0.757,1.012-1.012c0.445-0.255,0.933-0.383,1.463-0.383c0.76,0,1.392,0.269,1.897,0.807
			c0.505,0.538,0.757,1.324,0.757,2.358v4.26h-1.395v-4.11c0-0.685-0.147-1.216-0.442-1.594s-0.723-0.566-1.283-0.566
			c-0.5,0-0.942,0.188-1.328,0.563c-0.385,0.375-0.577,0.833-0.577,1.373v4.335H110.602z"/>
		<path fill-rule="evenodd" clip-rule="evenodd" fill="#00565E" d="M122.45,110.748l1.365-0.405v1.755h1.935v1.065h-1.935v3.78
			c0,0.505,0.081,0.869,0.243,1.091s0.422,0.333,0.776,0.333c0.325,0,0.591-0.03,0.795-0.09l0.06,1.05
			c-0.344,0.13-0.76,0.195-1.244,0.195c-1.33,0-1.995-0.83-1.995-2.49v-3.87h-1.14v-1.065h1.14V110.748z"/>
		<path fill-rule="evenodd" clip-rule="evenodd" fill="#00565E" d="M126.29,112.098h1.425c0.95,3.52,1.46,5.51,1.53,5.97h0.03
			c0.055-0.39,0.674-2.38,1.859-5.97h1.186c1.074,3.365,1.674,5.355,1.799,5.97h0.031c0.14-0.75,0.314-1.485,0.524-2.205
			l1.095-3.765h1.38l-2.399,7.26h-1.29c-0.825-2.54-1.29-3.984-1.396-4.331c-0.104-0.348-0.225-0.839-0.359-1.474h-0.03
			c-0.165,0.755-0.382,1.525-0.652,2.31l-1.208,3.495h-1.289L126.29,112.098z"/>
		<path fill-rule="evenodd" clip-rule="evenodd" fill="#00565E" d="M145.073,115.653c0,0.78-0.162,1.462-0.487,2.047
			s-0.78,1.035-1.365,1.35s-1.217,0.473-1.897,0.473c-1.06,0-1.935-0.346-2.625-1.039c-0.69-0.692-1.034-1.591-1.034-2.696
			c0-1.175,0.355-2.111,1.068-2.809c0.713-0.697,1.611-1.046,2.695-1.046c1.08,0,1.958,0.347,2.633,1.039
			C144.736,113.664,145.073,114.558,145.073,115.653z M139.088,115.743c0,0.795,0.213,1.452,0.639,1.969
			c0.424,0.518,0.957,0.776,1.597,0.776c0.655,0,1.201-0.26,1.639-0.78s0.656-1.19,0.656-2.01c0-0.755-0.201-1.398-0.604-1.931
			s-0.951-0.799-1.646-0.799c-0.704,0-1.261,0.264-1.669,0.792C139.292,114.287,139.088,114.948,139.088,115.743z"/>
		<path fill-rule="evenodd" clip-rule="evenodd" fill="#00565E" d="M148.785,112.098h1.515l1.545,4.275
			c0.175,0.48,0.36,1.02,0.555,1.62c0.136-0.455,0.343-1.072,0.622-1.853l1.448-4.042h1.485l-2.955,7.26h-1.365L148.785,112.098z"/>
		<path fill-rule="evenodd" clip-rule="evenodd" fill="#00565E" d="M162.163,114.963v2.655c0,0.72,0.04,1.3,0.12,1.74h-1.275
			l-0.164-0.93c-0.545,0.73-1.311,1.095-2.295,1.095c-0.69,0-1.243-0.204-1.658-0.611s-0.622-0.899-0.622-1.474
			c0-0.88,0.382-1.553,1.147-2.018c0.765-0.465,1.883-0.698,3.352-0.698v-0.135c0-0.515-0.141-0.917-0.423-1.204
			c-0.282-0.288-0.702-0.432-1.257-0.432c-0.74,0-1.4,0.185-1.979,0.555l-0.315-0.915c0.7-0.44,1.535-0.66,2.506-0.66
			c0.944,0,1.658,0.26,2.141,0.78S162.163,113.983,162.163,114.963z M160.799,116.883v-1.2c-1.171,0-1.983,0.14-2.438,0.42
			c-0.455,0.28-0.684,0.665-0.684,1.155c0,0.385,0.114,0.687,0.342,0.904s0.529,0.326,0.904,0.326c0.529,0,0.975-0.164,1.334-0.491
			C160.618,117.669,160.799,117.298,160.799,116.883z"/>
		<path fill-rule="evenodd" clip-rule="evenodd" fill="#00565E" d="M164.172,119.358v-4.95c0-0.94-0.021-1.71-0.061-2.31h1.23
			l0.09,1.455c0.186-0.51,0.467-0.907,0.848-1.192c0.38-0.285,0.793-0.428,1.237-0.428c0.095,0,0.22,0.01,0.375,0.03v1.32
			c-0.135-0.03-0.295-0.045-0.479-0.045c-0.506,0-0.939,0.198-1.302,0.593c-0.362,0.395-0.544,0.957-0.544,1.688v3.84H164.172z"/>
		<path fill-rule="evenodd" clip-rule="evenodd" fill="#00565E" d="M170.513,119.358h-1.396v-7.26h1.396V119.358z M170.708,109.893
			c0,0.25-0.083,0.46-0.247,0.63c-0.166,0.17-0.383,0.255-0.653,0.255c-0.26,0-0.472-0.085-0.638-0.255
			c-0.164-0.17-0.247-0.38-0.247-0.63c0-0.245,0.084-0.452,0.251-0.619c0.168-0.167,0.384-0.251,0.648-0.251
			c0.256,0,0.467,0.083,0.635,0.251C170.624,109.441,170.708,109.648,170.708,109.893z"/>
		<path fill-rule="evenodd" clip-rule="evenodd" fill="#00565E" d="M177.904,114.963v2.655c0,0.72,0.04,1.3,0.12,1.74h-1.275
			l-0.165-0.93c-0.545,0.73-1.31,1.095-2.295,1.095c-0.689,0-1.242-0.204-1.657-0.611s-0.622-0.899-0.622-1.474
			c0-0.88,0.382-1.553,1.146-2.018c0.766-0.465,1.883-0.698,3.354-0.698v-0.135c0-0.515-0.142-0.917-0.424-1.204
			c-0.283-0.288-0.701-0.432-1.257-0.432c-0.739,0-1.399,0.185-1.979,0.555l-0.315-0.915c0.7-0.44,1.535-0.66,2.505-0.66
			c0.945,0,1.659,0.26,2.142,0.78S177.904,113.983,177.904,114.963z M176.539,116.883v-1.2c-1.17,0-1.982,0.14-2.438,0.42
			c-0.455,0.28-0.682,0.665-0.682,1.155c0,0.385,0.113,0.687,0.341,0.904s0.528,0.326,0.903,0.326c0.53,0,0.975-0.164,1.335-0.491
			S176.539,117.298,176.539,116.883z"/>
		<path fill-rule="evenodd" clip-rule="evenodd" fill="#00565E" d="M179.912,117.453v-8.775h1.426v4.605
			c0.529-0.9,1.385-1.35,2.564-1.35c0.93,0,1.693,0.344,2.287,1.032c0.596,0.688,0.893,1.573,0.893,2.659
			c0,1.185-0.328,2.131-0.986,2.838c-0.656,0.708-1.458,1.062-2.402,1.062c-1.136,0-1.99-0.455-2.565-1.365l-0.06,1.2h-1.216
			C179.893,118.898,179.912,118.263,179.912,117.453z M181.308,115.203v1.185c0,0.54,0.201,1.013,0.604,1.417
			c0.403,0.405,0.901,0.607,1.497,0.607c0.694,0,1.246-0.246,1.653-0.738c0.407-0.493,0.611-1.156,0.611-1.992
			c0-0.775-0.202-1.411-0.608-1.909c-0.404-0.497-0.947-0.746-1.627-0.746c-0.6,0-1.105,0.219-1.515,0.656
			C181.513,114.122,181.308,114.628,181.308,115.203z"/>
		<rect x="188.601" y="108.678" fill-rule="evenodd" clip-rule="evenodd" fill="#00565E" width="1.396" height="10.68"/>
		<path fill-rule="evenodd" clip-rule="evenodd" fill="#00565E" d="M198.137,116.013h-5.265c0.021,0.785,0.263,1.386,0.728,1.804
			s1.067,0.626,1.808,0.626c0.805,0,1.51-0.125,2.114-0.375l0.24,0.975c-0.715,0.32-1.56,0.48-2.535,0.48
			c-1.129,0-2.029-0.335-2.699-1.005c-0.67-0.67-1.006-1.56-1.006-2.67c0-1.11,0.322-2.04,0.965-2.79s1.506-1.125,2.591-1.125
			c1,0,1.768,0.334,2.302,1.001c0.535,0.667,0.803,1.484,0.803,2.449C198.182,115.658,198.167,115.868,198.137,116.013z
			 M192.887,115.008h3.945c0-0.625-0.161-1.129-0.484-1.511c-0.322-0.382-0.781-0.574-1.375-0.574c-0.565,0-1.033,0.191-1.403,0.574
			S192.973,114.383,192.887,115.008z"/>
		<path fill-rule="evenodd" clip-rule="evenodd" fill="#00565E" d="M199.186,119.013l0.33-1.065c0.59,0.36,1.2,0.54,1.83,0.54
			c0.45,0,0.798-0.095,1.043-0.285c0.244-0.19,0.367-0.445,0.367-0.765c0-0.305-0.102-0.554-0.304-0.747
			c-0.202-0.192-0.556-0.374-1.062-0.543c-1.33-0.455-1.994-1.14-1.994-2.055c0-0.61,0.236-1.123,0.709-1.538
			c0.472-0.415,1.101-0.623,1.886-0.623c0.729,0,1.35,0.15,1.86,0.45l-0.346,1.005c-0.505-0.29-1.025-0.435-1.56-0.435
			c-0.37,0-0.663,0.091-0.878,0.274s-0.322,0.417-0.322,0.701c0,0.255,0.091,0.47,0.273,0.645c0.183,0.175,0.562,0.365,1.137,0.57
			c0.699,0.25,1.202,0.546,1.508,0.889c0.305,0.342,0.457,0.771,0.457,1.286c0,0.66-0.252,1.192-0.754,1.598
			c-0.502,0.405-1.186,0.607-2.051,0.607C200.521,119.523,199.811,119.353,199.186,119.013z"/>
	</g>
</g>
</svg>
