<?xml version="1.0" encoding="utf-8"?>
<!-- Generator: Adobe Illustrator 16.0.0, SVG Export Plug-In . SVG Version: 6.00 Build 0)  -->
<!DOCTYPE svg PUBLIC "-//W3C//DTD SVG 1.0//EN" "http://www.w3.org/TR/2001/REC-SVG-20010904/DTD/svg10.dtd">
<svg version="1.0" id="Capa_1" xmlns="http://www.w3.org/2000/svg" xmlns:xlink="http://www.w3.org/1999/xlink" x="0px" y="0px"
	 width="83px" height="240.5px" viewBox="0 0 83 240.5" enable-background="new 0 0 83 240.5" xml:space="preserve">
<text transform="matrix(1 0 0 1 7.6079 159.4429)" fill="#990066" font-family="'TimesNewRomanPSMT'" font-size="133.083">3</text>
<g>
	<path fill="#999999" d="M19.754,23.016h4.159l2.018,8.146c0.213,0.904,0.382,1.765,0.505,2.582s0.242,1.588,0.357,2.311h0.098
		c0.115-0.723,0.234-1.494,0.357-2.311s0.292-1.678,0.504-2.582l2.08-8.146h4.073v21.05h-2.978v-6.963
		c0-1.068,0.01-2.095,0.031-3.081s0.047-1.892,0.08-2.718c0.033-0.826,0.069-1.555,0.11-2.188s0.078-1.134,0.111-1.503h-0.234
		l-3.175,13.742h-2.018l-3.2-13.742h-0.234c0.033,0.369,0.07,0.871,0.111,1.503s0.078,1.362,0.111,2.188
		c0.033,0.826,0.059,1.732,0.08,2.718s0.031,2.013,0.031,3.081v6.963h-2.978V23.016z"/>
	<path fill="#999999" d="M37.499,23.016h7.79v2.514h-4.603v6.298h3.557v2.514h-3.557v7.21h4.726v2.514h-7.913V23.016z"/>
	<path fill="#999999" d="M49.657,25.53h-3.384v-2.514h9.943v2.514h-3.372v18.536h-3.187V25.53z"/>
	<path fill="#999999" d="M60.684,23.016h3.667l3.889,21.05h-3.225l-0.579-3.771h-3.839l-0.554,3.771h-3.236L60.684,23.016z
		 M64.067,37.892l-1.477-10.488h-0.135l-1.489,10.488H64.067z"/>
</g>
</svg>
