<?xml version="1.0" encoding="utf-8"?>
<!-- Generator: Adobe Illustrator 16.0.0, SVG Export Plug-In . SVG Version: 6.00 Build 0)  -->
<!DOCTYPE svg PUBLIC "-//W3C//DTD SVG 1.1//EN" "http://www.w3.org/Graphics/SVG/1.1/DTD/svg11.dtd">
<svg version="1.1" id="Capa_1" xmlns="http://www.w3.org/2000/svg" xmlns:xlink="http://www.w3.org/1999/xlink" x="0px" y="0px"
	 width="157.127px" height="455.074px" viewBox="0 0 157.127 455.074" enable-background="new 0 0 157.127 455.074"
	 xml:space="preserve">
<rect y="141.037" fill="#FFB4D0" width="157.127" height="314.037"/>
<g id="Fondo">
</g>
<g id="Guías">
</g>
<path fill="#006600" d="M3.749,6.986c0-1.657,1.343-3,3-3h145.484c1.658,0,3,1.343,3,3v66.552c0,1.657-1.342,3-3,3h-5.162
	L120.45,93.16l-6.621-16.621H6.749c-1.657,0-3-1.343-3-3V6.986z"/>
<g>
	<path fill="#F9C600" stroke="#F70000" stroke-miterlimit="10" d="M3.649,149.767c0-1.657,1.343-3,3-3h145.608c1.657,0,3,1.343,3,3
		v67.212c0,1.657-1.343,3-3,3H6.649c-1.657,0-3-1.343-3-3V149.767L3.649,149.767z"/>
	<path fill="#F9C600" stroke="#F70000" stroke-miterlimit="10" d="M79.453,183.374"/>
</g>
<g>
	<path fill="#EC7A2F" stroke="#F70000" stroke-miterlimit="10" d="M3.649,226.576c0-1.657,1.343-3,3-3h145.608c1.657,0,3,1.343,3,3
		v67.213c0,1.656-1.343,3-3,3H6.649c-1.657,0-3-1.344-3-3V226.576L3.649,226.576z"/>
	<path fill="#EC7A2F" stroke="#F70000" stroke-miterlimit="10" d="M79.453,260.182"/>
</g>
<g>
	<path fill="#C02550" stroke="#F70000" stroke-miterlimit="10" d="M3.649,303.385c0-1.656,1.343-3,3-3h145.608c1.657,0,3,1.344,3,3
		v67.213c0,1.657-1.343,3-3,3H6.649c-1.657,0-3-1.343-3-3V303.385L3.649,303.385z"/>
	<path fill="#C02550" stroke="#F70000" stroke-miterlimit="10" d="M79.453,336.991"/>
</g>
<g>
	<path fill="#912A5B" stroke="#F70000" stroke-miterlimit="10" d="M3.649,380.193c0-1.656,1.343-3,3-3h145.608c1.657,0,3,1.344,3,3
		v67.213c0,1.657-1.343,3-3,3H6.649c-1.657,0-3-1.343-3-3V380.193L3.649,380.193z"/>
	<path fill="#912A5B" stroke="#F70000" stroke-miterlimit="10" d="M79.453,413.8"/>
</g>
<g>
	<rect x="37.652" y="18.954" fill="#FFFFFF" width="2.089" height="11.456"/>
	<path fill="#FFFFFF" d="M42.172,30.409h2.105v-4.862c0-0.121,0.005-0.241,0.017-0.359c0.012-0.118,0.035-0.226,0.068-0.321
		c0.113-0.326,0.309-0.608,0.587-0.848c0.279-0.239,0.627-0.364,1.046-0.376c0.564,0.013,0.971,0.212,1.218,0.599
		c0.248,0.387,0.369,0.884,0.364,1.492v4.675h2.089v-4.913c-0.01-0.868-0.157-1.562-0.441-2.083
		c-0.285-0.521-0.649-0.897-1.094-1.128c-0.445-0.23-0.913-0.343-1.404-0.339c-0.69,0.019-1.257,0.176-1.701,0.471
		c-0.443,0.295-0.755,0.613-0.935,0.955H44.04l-0.102-1.239h-1.834c0.025,0.355,0.043,0.737,0.053,1.143
		c0.01,0.407,0.015,0.847,0.015,1.321V30.409z"/>
	<path fill="#FFFFFF" d="M57.452,18.341v4.691h-0.034c-0.189-0.313-0.482-0.57-0.878-0.772c-0.396-0.203-0.88-0.307-1.453-0.314
		c-0.672,0.003-1.288,0.18-1.848,0.53c-0.56,0.35-1.008,0.854-1.346,1.512c-0.337,0.658-0.507,1.45-0.511,2.377
		c0.024,1.292,0.367,2.317,1.028,3.073c0.661,0.756,1.497,1.143,2.507,1.159c0.61-0.005,1.15-0.139,1.62-0.403
		c0.47-0.264,0.831-0.627,1.084-1.091h0.034l0.085,1.307h1.868c-0.018-0.289-0.033-0.641-0.047-1.056
		c-0.013-0.415-0.021-0.839-0.021-1.273v-9.739L57.452,18.341L57.452,18.341z M57.452,26.822c0.002,0.222-0.02,0.427-0.068,0.614
		c-0.111,0.456-0.331,0.815-0.659,1.078c-0.328,0.263-0.709,0.396-1.144,0.402c-0.667-0.015-1.179-0.262-1.535-0.742
		s-0.537-1.105-0.54-1.877c0.003-0.791,0.184-1.441,0.542-1.949c0.358-0.509,0.875-0.771,1.55-0.789
		c0.48,0.011,0.876,0.155,1.188,0.434c0.312,0.278,0.517,0.627,0.614,1.046c0.017,0.086,0.03,0.177,0.038,0.272
		c0.009,0.095,0.013,0.186,0.013,0.272L57.452,26.822L57.452,26.822z"/>
	<path fill="#FFFFFF" d="M63.875,30.409v-8.277h-2.106v8.277H63.875z M62.821,18.682c-0.354,0.007-0.636,0.116-0.847,0.327
		s-0.319,0.481-0.325,0.811c0.004,0.322,0.11,0.587,0.316,0.796s0.486,0.317,0.838,0.325c0.369-0.007,0.659-0.116,0.869-0.325
		c0.209-0.209,0.316-0.475,0.32-0.796c-0.012-0.33-0.12-0.6-0.325-0.811C63.464,18.797,63.181,18.688,62.821,18.682z"/>
	<path fill="#FFFFFF" d="M71.904,28.609c-0.202,0.088-0.436,0.163-0.703,0.225c-0.268,0.063-0.583,0.095-0.946,0.098
		c-0.73-0.005-1.331-0.238-1.802-0.697c-0.471-0.46-0.714-1.118-0.731-1.973c-0.001-0.774,0.219-1.411,0.661-1.911
		c0.442-0.5,1.066-0.758,1.872-0.776c0.372,0.004,0.687,0.039,0.943,0.104c0.257,0.065,0.47,0.138,0.638,0.219l0.374-1.563
		c-0.245-0.113-0.546-0.206-0.903-0.278c-0.357-0.073-0.73-0.11-1.12-0.113c-0.972,0.009-1.801,0.207-2.486,0.594
		c-0.685,0.387-1.209,0.913-1.571,1.576c-0.362,0.663-0.545,1.413-0.548,2.249c0.016,1.299,0.404,2.323,1.164,3.071
		c0.759,0.748,1.793,1.129,3.101,1.144c0.524-0.005,0.989-0.05,1.396-0.136c0.407-0.085,0.724-0.182,0.95-0.289L71.904,28.609z"/>
	<path fill="#FFFFFF" d="M80.28,30.409c-0.043-0.259-0.072-0.561-0.092-0.905c-0.02-0.344-0.027-0.706-0.026-1.083V25.43
		c0.007-0.61-0.093-1.179-0.296-1.705c-0.204-0.526-0.557-0.952-1.056-1.277c-0.499-0.326-1.187-0.493-2.064-0.503
		c-0.66,0.007-1.246,0.082-1.758,0.225c-0.512,0.143-0.923,0.311-1.234,0.505l0.408,1.36c0.287-0.182,0.626-0.329,1.017-0.44
		c0.392-0.112,0.794-0.169,1.209-0.172c0.71,0.026,1.174,0.199,1.391,0.519c0.217,0.32,0.314,0.629,0.293,0.928v0.136
		c-1.544-0.008-2.746,0.25-3.605,0.772c-0.859,0.522-1.295,1.308-1.308,2.354c0.004,0.654,0.229,1.222,0.675,1.705
		c0.446,0.482,1.087,0.736,1.924,0.76c0.539-0.005,1.018-0.109,1.436-0.31c0.418-0.201,0.756-0.465,1.014-0.793h0.051l0.136,0.916
		L80.28,30.409L80.28,30.409z M78.123,27.503c0,0.069-0.004,0.143-0.015,0.223c-0.01,0.08-0.028,0.158-0.053,0.236
		c-0.098,0.308-0.29,0.573-0.574,0.793c-0.285,0.221-0.638,0.336-1.059,0.347c-0.34,0.001-0.622-0.095-0.844-0.29
		c-0.223-0.194-0.338-0.495-0.347-0.901c0.028-0.618,0.325-1.037,0.891-1.259c0.566-0.222,1.233-0.318,2.001-0.289V27.503z"/>
	<path fill="#FFFFFF" d="M87.921,18.341v4.691h-0.033c-0.188-0.313-0.482-0.57-0.879-0.772c-0.396-0.203-0.88-0.307-1.451-0.314
		c-0.673,0.003-1.289,0.18-1.85,0.53s-1.008,0.854-1.346,1.512c-0.336,0.658-0.506,1.45-0.51,2.377
		c0.022,1.292,0.365,2.317,1.026,3.073s1.497,1.143,2.509,1.159c0.608-0.005,1.148-0.139,1.618-0.403
		c0.472-0.264,0.831-0.627,1.084-1.091h0.034l0.085,1.307h1.868c-0.02-0.289-0.033-0.641-0.046-1.056
		c-0.015-0.415-0.021-0.839-0.021-1.273v-9.739L87.921,18.341L87.921,18.341z M87.921,26.822c0.003,0.222-0.02,0.427-0.068,0.614
		c-0.109,0.456-0.33,0.815-0.658,1.078c-0.327,0.263-0.709,0.396-1.145,0.402c-0.667-0.015-1.178-0.262-1.535-0.742
		c-0.354-0.48-0.537-1.105-0.541-1.877c0.004-0.791,0.186-1.441,0.543-1.949c0.357-0.509,0.875-0.771,1.549-0.789
		c0.48,0.011,0.877,0.155,1.188,0.434c0.313,0.278,0.517,0.627,0.615,1.046c0.017,0.086,0.03,0.177,0.038,0.272
		s0.013,0.186,0.013,0.272L87.921,26.822L87.921,26.822z"/>
	<path fill="#FFFFFF" d="M95.994,21.945c-1.272,0.013-2.3,0.403-3.079,1.172c-0.781,0.769-1.182,1.839-1.204,3.212
		c0.026,1.339,0.424,2.381,1.192,3.128c0.771,0.747,1.755,1.126,2.955,1.138c0.716,0.002,1.396-0.153,2.039-0.465
		c0.643-0.312,1.168-0.793,1.576-1.443c0.407-0.65,0.618-1.481,0.633-2.494c-0.018-1.278-0.396-2.301-1.131-3.068
		C98.237,22.359,97.244,21.965,95.994,21.945z M95.942,23.473c0.476,0.01,0.861,0.154,1.156,0.432
		c0.295,0.277,0.512,0.626,0.647,1.047s0.205,0.852,0.203,1.293c-0.011,0.848-0.199,1.529-0.566,2.045
		c-0.366,0.516-0.853,0.781-1.458,0.795c-0.644-0.017-1.146-0.285-1.507-0.804c-0.36-0.519-0.544-1.188-0.551-2.002
		c-0.001-0.468,0.067-0.915,0.209-1.34c0.141-0.425,0.362-0.773,0.67-1.045C95.054,23.623,95.452,23.482,95.942,23.473z"/>
	<path fill="#FFFFFF" d="M101.813,30.409h2.088v-4.283c0-0.12,0.009-0.234,0.021-0.343c0.015-0.109,0.029-0.21,0.048-0.304
		c0.098-0.475,0.307-0.855,0.629-1.141s0.735-0.433,1.24-0.44c0.126,0,0.239,0.008,0.34,0.021c0.098,0.014,0.188,0.029,0.272,0.047
		v-1.97c-0.082-0.017-0.16-0.03-0.233-0.039c-0.072-0.008-0.158-0.013-0.259-0.013c-0.456,0-0.894,0.148-1.31,0.444
		c-0.418,0.295-0.733,0.736-0.951,1.322h-0.068l-0.066-1.579h-1.817c0.024,0.369,0.042,0.766,0.053,1.194
		c0.011,0.428,0.017,0.919,0.015,1.475V30.409L101.813,30.409z"/>
	<path fill="#FFFFFF" d="M114.741,26.856c0.018-0.094,0.033-0.216,0.047-0.365c0.013-0.149,0.021-0.322,0.021-0.518
		c0.006-0.623-0.104-1.24-0.328-1.853c-0.226-0.613-0.601-1.125-1.123-1.535s-1.229-0.624-2.118-0.64
		c-0.886,0.013-1.628,0.228-2.228,0.645c-0.603,0.417-1.055,0.962-1.359,1.634c-0.305,0.672-0.457,1.397-0.459,2.174
		c0.011,1.283,0.386,2.297,1.125,3.041c0.742,0.745,1.789,1.125,3.142,1.14c0.597-0.003,1.138-0.052,1.624-0.146
		c0.486-0.094,0.908-0.215,1.266-0.363l-0.306-1.444c-0.31,0.12-0.649,0.212-1.019,0.277c-0.371,0.064-0.795,0.097-1.275,0.098
		c-0.684,0.004-1.268-0.166-1.754-0.511c-0.486-0.344-0.751-0.889-0.797-1.633L114.741,26.856L114.741,26.856z M109.199,25.396
		c0.026-0.293,0.108-0.594,0.249-0.903c0.139-0.309,0.346-0.571,0.619-0.786c0.271-0.214,0.625-0.327,1.054-0.336
		c0.46,0.011,0.817,0.129,1.069,0.355s0.426,0.494,0.521,0.805c0.095,0.311,0.138,0.599,0.128,0.865H109.199z"/>
	<path fill="#FFFFFF" d="M115.976,30.002c0.312,0.173,0.68,0.312,1.11,0.416c0.431,0.105,0.897,0.158,1.404,0.161
		c1.1-0.014,1.935-0.257,2.505-0.73s0.857-1.09,0.859-1.852c-0.006-0.607-0.188-1.115-0.549-1.522
		c-0.361-0.408-0.914-0.745-1.66-1.012c-0.521-0.179-0.896-0.353-1.119-0.521c-0.223-0.168-0.332-0.38-0.327-0.636
		c0.001-0.259,0.101-0.468,0.298-0.625c0.197-0.157,0.484-0.238,0.859-0.242c0.371,0.007,0.709,0.061,1.017,0.161
		s0.551,0.206,0.733,0.315l0.408-1.478c-0.242-0.132-0.553-0.246-0.931-0.341c-0.378-0.096-0.798-0.146-1.263-0.151
		c-0.971,0.017-1.731,0.268-2.283,0.751c-0.553,0.483-0.833,1.1-0.844,1.848c-0.014,0.489,0.162,0.943,0.525,1.36
		c0.365,0.417,0.948,0.769,1.75,1.054c0.504,0.172,0.858,0.347,1.064,0.527c0.205,0.18,0.305,0.407,0.298,0.68
		c0.002,0.276-0.104,0.498-0.319,0.663c-0.215,0.166-0.551,0.251-1.008,0.255c-0.386-0.007-0.773-0.07-1.164-0.189
		c-0.39-0.119-0.71-0.254-0.959-0.406L115.976,30.002z"/>
</g>
<g>
	<g>
		<rect x="52.292" y="179.809" fill="#FFFFFF" width="2.089" height="11.456"/>
		<path fill="#FFFFFF" d="M66.688,191.265h2.04l-0.663-11.456h-2.72l-1.581,4.588c-0.222,0.677-0.429,1.355-0.621,2.036
			s-0.365,1.334-0.519,1.959h-0.051c-0.145-0.64-0.306-1.294-0.482-1.963c-0.176-0.669-0.367-1.341-0.571-2.015l-1.496-4.605h-2.753
			l-0.765,11.456h1.955l0.255-4.607c0.042-0.794,0.081-1.616,0.115-2.465s0.063-1.654,0.089-2.414h0.034
			c0.155,0.719,0.33,1.457,0.527,2.214c0.197,0.757,0.407,1.504,0.629,2.24l1.53,4.896h1.615l1.666-4.964
			c0.256-0.728,0.5-1.465,0.731-2.212c0.23-0.747,0.44-1.472,0.628-2.174h0.051c-0.006,0.785,0.006,1.595,0.036,2.431
			c0.03,0.836,0.063,1.629,0.1,2.38L66.688,191.265z"/>
		<path fill="#FFFFFF" d="M70.875,191.265h2.072v-4.318c0.137,0.025,0.292,0.042,0.465,0.053c0.173,0.01,0.358,0.015,0.555,0.015
			c0.747,0.001,1.431-0.099,2.054-0.299c0.623-0.201,1.145-0.508,1.568-0.923c0.323-0.308,0.568-0.682,0.734-1.122
			c0.166-0.44,0.25-0.934,0.25-1.48c-0.004-0.54-0.106-1.025-0.306-1.458c-0.2-0.433-0.471-0.792-0.815-1.075
			c-0.365-0.306-0.829-0.538-1.391-0.696c-0.563-0.158-1.227-0.237-1.992-0.238c-0.704,0.001-1.319,0.024-1.846,0.068
			c-0.527,0.044-0.977,0.101-1.348,0.17V191.265z M72.946,181.422c0.111-0.026,0.268-0.05,0.47-0.07
			c0.203-0.021,0.448-0.031,0.738-0.032c0.729,0.002,1.299,0.168,1.708,0.5c0.409,0.331,0.616,0.816,0.623,1.456
			c-0.007,0.676-0.231,1.195-0.672,1.559c-0.441,0.364-1.056,0.547-1.846,0.551c-0.213,0-0.404-0.005-0.574-0.017
			c-0.17-0.012-0.319-0.035-0.446-0.068L72.946,181.422L72.946,181.422z"/>
		<path fill="#FFFFFF" d="M85.297,188.018l1.037,3.247h2.243l-3.723-11.456h-2.668l-3.67,11.456h2.158l0.986-3.247H85.297z
			 M82,186.439l0.884-2.822c0.102-0.346,0.196-0.706,0.285-1.079c0.088-0.373,0.176-0.728,0.26-1.065h0.033
			c0.084,0.336,0.174,0.688,0.27,1.059c0.097,0.37,0.199,0.731,0.31,1.084l0.899,2.823H82z"/>
		<path fill="#FFFFFF" d="M97.722,189.278c-0.281,0.129-0.621,0.232-1.025,0.309c-0.401,0.076-0.819,0.115-1.254,0.117
			c-1.267-0.015-2.248-0.389-2.939-1.122c-0.693-0.733-1.045-1.737-1.054-3.01c0.021-1.38,0.397-2.428,1.133-3.141
			c0.731-0.714,1.692-1.072,2.879-1.076c0.478,0.003,0.899,0.047,1.274,0.132c0.373,0.085,0.697,0.188,0.97,0.31l0.459-1.665
			c-0.218-0.118-0.563-0.23-1.037-0.337c-0.478-0.107-1.06-0.165-1.751-0.172c-1.18,0.005-2.227,0.248-3.145,0.73
			c-0.916,0.482-1.64,1.173-2.166,2.075c-0.527,0.901-0.797,1.983-0.809,3.247c0.016,1.765,0.536,3.161,1.559,4.188
			c1.023,1.027,2.453,1.551,4.289,1.574c0.694-0.005,1.297-0.059,1.812-0.159c0.513-0.101,0.896-0.218,1.146-0.35L97.722,189.278z"
			/>
		<polygon fill="#FFFFFF" points="102.297,191.265 104.386,191.265 104.386,181.558 107.685,181.558 107.685,179.809 
			99.034,179.809 99.034,181.558 102.297,181.558 		"/>
	</g>
	<g>
		<rect x="16.831" y="162.809" fill="#FFFFFF" width="2.089" height="11.456"/>
		<path fill="#FFFFFF" d="M23.253,174.265v-4.096c0.001-0.937-0.005-1.801-0.019-2.593c-0.014-0.792-0.041-1.554-0.083-2.287
			l0.051-0.017c0.286,0.652,0.607,1.316,0.965,1.993c0.357,0.677,0.722,1.333,1.092,1.968l2.993,5.032h2.157v-11.456h-1.936v3.993
			c0,0.87,0.014,1.691,0.042,2.464c0.029,0.773,0.077,1.54,0.145,2.297h-0.034c-0.264-0.623-0.56-1.259-0.888-1.908
			c-0.328-0.649-0.684-1.293-1.067-1.934l-2.959-4.913h-2.378v11.456L23.253,174.265L23.253,174.265z"/>
		<path fill="#FFFFFF" d="M32.816,174.231c0.338,0.043,0.74,0.08,1.206,0.108c0.466,0.029,1.004,0.043,1.614,0.044
			c1.12,0,2.12-0.131,3.002-0.393c0.881-0.261,1.609-0.651,2.185-1.169c0.55-0.494,0.983-1.122,1.299-1.883s0.478-1.653,0.484-2.674
			c-0.005-0.975-0.165-1.81-0.478-2.504c-0.313-0.694-0.748-1.265-1.306-1.713c-0.522-0.441-1.165-0.772-1.93-0.993
			c-0.765-0.221-1.68-0.331-2.747-0.331c-0.625,0-1.22,0.021-1.787,0.062s-1.081,0.1-1.543,0.176L32.816,174.231L32.816,174.231z
			 M34.905,164.473c0.145-0.035,0.336-0.063,0.574-0.085s0.523-0.034,0.854-0.034c1.316,0.007,2.323,0.354,3.021,1.04
			c0.698,0.685,1.045,1.665,1.044,2.939c-0.011,1.456-0.394,2.553-1.148,3.291c-0.755,0.737-1.818,1.103-3.189,1.097
			c-0.216,0.001-0.426-0.001-0.629-0.006c-0.203-0.005-0.379-0.02-0.527-0.045V164.473z"/>
		<rect x="44.42" y="162.809" fill="#FFFFFF" width="2.089" height="11.456"/>
		<path fill="#FFFFFF" d="M56.792,172.278c-0.28,0.129-0.622,0.232-1.024,0.309c-0.403,0.076-0.821,0.115-1.254,0.117
			c-1.267-0.015-2.248-0.389-2.941-1.122c-0.693-0.733-1.045-1.737-1.054-3.01c0.022-1.38,0.399-2.428,1.133-3.141
			c0.733-0.714,1.693-1.072,2.879-1.076c0.476,0.003,0.901,0.047,1.275,0.132c0.374,0.085,0.697,0.188,0.969,0.31l0.459-1.665
			c-0.216-0.118-0.562-0.23-1.037-0.337c-0.475-0.107-1.059-0.165-1.751-0.172c-1.178,0.005-2.226,0.248-3.143,0.73
			s-1.64,1.173-2.167,2.075c-0.528,0.901-0.797,1.983-0.808,3.247c0.016,1.765,0.536,3.161,1.559,4.188
			c1.023,1.027,2.452,1.552,4.287,1.574c0.695-0.005,1.298-0.059,1.811-0.159c0.512-0.101,0.895-0.218,1.147-0.35L56.792,172.278z"
			/>
		<path fill="#FFFFFF" d="M64.938,171.018l1.037,3.247h2.244l-3.722-11.456h-2.668l-3.671,11.456h2.159l0.986-3.247H64.938z
			 M61.64,169.439l0.884-2.822c0.102-0.346,0.196-0.706,0.285-1.079s0.175-0.728,0.259-1.065h0.034
			c0.084,0.336,0.174,0.688,0.27,1.059c0.096,0.37,0.198,0.731,0.308,1.084l0.901,2.823H61.64z"/>
		<path fill="#FFFFFF" d="M69.798,174.231c0.338,0.043,0.74,0.08,1.206,0.108c0.465,0.029,1.003,0.043,1.614,0.044
			c1.119,0,2.12-0.131,3.001-0.393c0.881-0.261,1.61-0.651,2.185-1.169c0.55-0.494,0.982-1.122,1.298-1.883s0.479-1.653,0.483-2.674
			c-0.005-0.975-0.165-1.81-0.479-2.504c-0.313-0.694-0.748-1.265-1.303-1.713c-0.522-0.441-1.166-0.772-1.93-0.993
			c-0.764-0.221-1.68-0.331-2.747-0.331c-0.625,0-1.22,0.021-1.787,0.062c-0.566,0.041-1.081,0.1-1.543,0.176L69.798,174.231
			L69.798,174.231z M71.887,164.473c0.145-0.035,0.336-0.063,0.574-0.085c0.238-0.022,0.523-0.034,0.855-0.034
			c1.316,0.007,2.323,0.354,3.021,1.04c0.698,0.685,1.045,1.665,1.044,2.939c-0.011,1.456-0.394,2.553-1.148,3.291
			c-0.755,0.737-1.818,1.103-3.189,1.097c-0.216,0.001-0.426-0.001-0.629-0.006c-0.204-0.005-0.379-0.02-0.527-0.045L71.887,164.473
			L71.887,164.473z"/>
		<path fill="#FFFFFF" d="M86.246,162.622c-1.084,0.009-2.033,0.267-2.847,0.773s-1.446,1.209-1.9,2.106
			c-0.454,0.898-0.686,1.938-0.691,3.12c0.004,1.132,0.221,2.135,0.647,3.008c0.427,0.874,1.032,1.56,1.819,2.059
			c0.785,0.5,1.72,0.754,2.802,0.764c1.063-0.003,2.007-0.24,2.829-0.71c0.822-0.47,1.47-1.154,1.939-2.051
			c0.471-0.897,0.711-1.988,0.721-3.272c-0.004-1.099-0.215-2.084-0.635-2.954c-0.421-0.87-1.024-1.558-1.816-2.065
			C88.321,162.893,87.366,162.633,86.246,162.622z M86.194,164.303c0.699,0.012,1.281,0.215,1.75,0.609
			c0.47,0.394,0.822,0.908,1.059,1.542c0.236,0.634,0.355,1.317,0.355,2.048c-0.006,1.227-0.279,2.238-0.823,3.033
			c-0.543,0.795-1.323,1.207-2.341,1.235c-0.67-0.008-1.242-0.197-1.715-0.567c-0.475-0.369-0.836-0.868-1.086-1.496
			s-0.375-1.335-0.377-2.12c0-0.797,0.121-1.517,0.361-2.161c0.241-0.644,0.6-1.157,1.07-1.538
			C84.92,164.507,85.502,164.312,86.194,164.303z"/>
		<path fill="#FFFFFF" d="M93.371,174.265h2.071v-4.709h1.056c0.586,0.005,1.038,0.156,1.354,0.455
			c0.314,0.299,0.551,0.815,0.703,1.551c0.164,0.716,0.311,1.303,0.439,1.759c0.131,0.457,0.238,0.771,0.324,0.944h2.156
			c-0.119-0.237-0.254-0.647-0.406-1.229c-0.149-0.582-0.314-1.237-0.493-1.968c-0.144-0.556-0.343-1.024-0.603-1.404
			c-0.259-0.379-0.59-0.648-0.996-0.805v-0.051c0.556-0.198,1.035-0.541,1.438-1.028c0.403-0.487,0.614-1.103,0.635-1.845
			c-0.001-0.487-0.087-0.925-0.257-1.314c-0.169-0.389-0.412-0.716-0.729-0.981c-0.379-0.321-0.856-0.554-1.437-0.701
			c-0.579-0.146-1.278-0.218-2.101-0.216c-0.61,0.001-1.19,0.024-1.739,0.068s-1.022,0.101-1.42,0.17v11.304H93.371z
			 M95.442,164.405c0.103-0.027,0.261-0.05,0.475-0.07s0.486-0.031,0.818-0.032c0.688-0.002,1.234,0.146,1.634,0.446
			s0.604,0.763,0.612,1.391c-0.008,0.577-0.215,1.034-0.619,1.372c-0.405,0.337-0.965,0.509-1.678,0.517h-1.242V164.405
			L95.442,164.405z"/>
		<polygon fill="#FFFFFF" points="109.435,167.484 105.116,167.484 105.116,164.524 109.688,164.524 109.688,162.809 
			103.026,162.809 103.026,174.265 109.944,174.265 109.944,172.55 105.116,172.55 105.116,169.182 109.435,169.182 		"/>
		<path fill="#FFFFFF" d="M111.28,173.722c0.328,0.193,0.771,0.359,1.33,0.497c0.558,0.138,1.146,0.21,1.763,0.216
			c1.476-0.028,2.571-0.371,3.285-1.027c0.714-0.656,1.069-1.458,1.065-2.405c0.002-0.817-0.242-1.496-0.732-2.039
			c-0.489-0.542-1.23-0.997-2.225-1.362c-0.762-0.284-1.317-0.563-1.67-0.835c-0.354-0.273-0.527-0.624-0.523-1.052
			c-0.004-0.348,0.148-0.66,0.455-0.938c0.307-0.277,0.789-0.424,1.449-0.44c0.539,0.009,1.002,0.072,1.389,0.189
			c0.387,0.117,0.684,0.235,0.89,0.355l0.511-1.682c-0.297-0.158-0.676-0.292-1.135-0.403c-0.459-0.111-0.999-0.169-1.619-0.174
			c-1.255,0.021-2.24,0.336-2.953,0.947c-0.715,0.611-1.078,1.394-1.092,2.35c0.012,0.818,0.291,1.495,0.84,2.03
			c0.547,0.535,1.299,0.97,2.252,1.303c0.727,0.256,1.25,0.531,1.569,0.825c0.321,0.294,0.479,0.654,0.472,1.08
			c-0.002,0.474-0.184,0.852-0.541,1.133c-0.357,0.281-0.875,0.425-1.551,0.432c-0.542-0.006-1.052-0.079-1.531-0.219
			c-0.479-0.14-0.893-0.311-1.237-0.512L111.28,173.722z"/>
		<path fill="#FFFFFF" d="M124.125,174.231c0.338,0.043,0.74,0.08,1.206,0.108c0.466,0.029,1.004,0.043,1.613,0.044
			c1.121,0,2.121-0.131,3.002-0.393c0.881-0.261,1.609-0.651,2.185-1.169c0.55-0.494,0.983-1.122,1.3-1.883
			c0.315-0.762,0.479-1.653,0.483-2.674c-0.005-0.975-0.165-1.81-0.478-2.504c-0.313-0.694-0.75-1.265-1.308-1.713
			c-0.521-0.441-1.166-0.772-1.93-0.993c-0.767-0.221-1.681-0.331-2.747-0.331c-0.625,0-1.221,0.021-1.787,0.062
			c-0.564,0.041-1.081,0.1-1.543,0.176v11.27H124.125z M126.213,164.473c0.146-0.035,0.336-0.063,0.574-0.085
			c0.237-0.022,0.522-0.034,0.854-0.034c1.314,0.007,2.321,0.354,3.021,1.04c0.698,0.685,1.046,1.665,1.044,2.939
			c-0.012,1.456-0.393,2.553-1.148,3.291c-0.754,0.737-1.815,1.103-3.188,1.097c-0.217,0.001-0.426-0.001-0.629-0.006
			c-0.204-0.005-0.379-0.02-0.527-0.045L126.213,164.473L126.213,164.473z"/>
		<polygon fill="#FFFFFF" points="142.135,167.484 137.817,167.484 137.817,164.524 142.39,164.524 142.39,162.809 135.729,162.809 
			135.729,174.265 142.646,174.265 142.646,172.55 137.817,172.55 137.817,169.182 142.135,169.182 		"/>
	</g>
</g>
<g>
	<g>
		<path fill="#FFFFFF" d="M47.376,258.534c-1.084,0.009-2.033,0.267-2.846,0.772c-0.813,0.504-1.447,1.209-1.901,2.105
			s-0.685,1.938-0.692,3.12c0.005,1.132,0.221,2.135,0.648,3.008c0.427,0.874,1.033,1.562,1.819,2.06
			c0.786,0.5,1.72,0.754,2.802,0.764c1.063-0.004,2.006-0.239,2.829-0.709c0.822-0.471,1.469-1.154,1.94-2.053
			c0.471-0.897,0.711-1.988,0.72-3.271c-0.003-1.1-0.215-2.084-0.635-2.954c-0.419-0.869-1.025-1.558-1.817-2.063
			C49.452,258.805,48.496,258.546,47.376,258.534z M47.325,260.215c0.697,0.012,1.281,0.217,1.75,0.609
			c0.469,0.393,0.822,0.908,1.058,1.543c0.236,0.634,0.355,1.316,0.355,2.048c-0.005,1.228-0.279,2.237-0.822,3.033
			c-0.543,0.795-1.323,1.206-2.34,1.235c-0.671-0.011-1.243-0.199-1.716-0.567c-0.474-0.369-0.835-0.868-1.085-1.496
			s-0.376-1.335-0.378-2.12c0-0.797,0.122-1.518,0.363-2.161c0.241-0.644,0.598-1.157,1.07-1.538
			C46.05,260.419,46.633,260.225,47.325,260.215z"/>
		<path fill="#FFFFFF" d="M54.484,258.723v6.563c0.016,1.789,0.413,3.085,1.189,3.893c0.776,0.807,1.836,1.201,3.179,1.188
			c1.396,0.008,2.502-0.399,3.319-1.224s1.235-2.117,1.253-3.875v-6.545h-2.089v6.68c-0.006,1.119-0.219,1.945-0.64,2.482
			c-0.42,0.536-1.012,0.803-1.775,0.799c-0.715,0.004-1.283-0.263-1.703-0.799c-0.42-0.537-0.635-1.363-0.645-2.482v-6.68H54.484z"
			/>
		<polygon fill="#FFFFFF" points="68.014,270.177 70.103,270.177 70.103,260.471 73.4,260.471 73.4,258.723 64.75,258.723 
			64.75,260.471 68.014,260.471 		"/>
		<path fill="#FFFFFF" d="M82.226,268.189c-0.281,0.129-0.621,0.23-1.023,0.309c-0.403,0.078-0.821,0.115-1.253,0.117
			c-1.268-0.016-2.248-0.389-2.941-1.122c-0.693-0.733-1.044-1.737-1.054-3.011c0.021-1.381,0.399-2.428,1.133-3.143
			c0.733-0.714,1.693-1.07,2.879-1.074c0.477,0.004,0.901,0.047,1.275,0.131c0.374,0.086,0.695,0.188,0.969,0.312l0.459-1.665
			c-0.216-0.117-0.563-0.229-1.037-0.337c-0.477-0.106-1.061-0.164-1.751-0.172c-1.178,0.005-2.226,0.247-3.143,0.729
			c-0.917,0.48-1.639,1.174-2.167,2.073c-0.528,0.899-0.797,1.981-0.808,3.246c0.016,1.767,0.536,3.162,1.559,4.188
			c1.023,1.026,2.452,1.553,4.289,1.572c0.695-0.005,1.297-0.058,1.811-0.156c0.512-0.104,0.895-0.22,1.146-0.353L82.226,268.189z"
			/>
		<path fill="#FFFFFF" d="M88.823,258.534c-1.084,0.009-2.033,0.267-2.846,0.772c-0.813,0.508-1.447,1.209-1.9,2.105
			c-0.454,0.896-0.686,1.938-0.692,3.12c0.005,1.132,0.222,2.135,0.648,3.008c0.427,0.874,1.032,1.562,1.819,2.06
			c0.785,0.5,1.719,0.754,2.801,0.764c1.063-0.004,2.008-0.239,2.83-0.709c0.822-0.471,1.469-1.154,1.938-2.053
			c0.472-0.897,0.711-1.988,0.722-3.271c-0.004-1.1-0.215-2.084-0.636-2.954c-0.419-0.869-1.024-1.558-1.815-2.063
			C90.899,258.807,89.944,258.546,88.823,258.534z M88.772,260.215c0.697,0.012,1.281,0.217,1.75,0.609
			c0.469,0.392,0.822,0.908,1.058,1.543c0.237,0.634,0.354,1.316,0.354,2.048c-0.004,1.228-0.279,2.237-0.822,3.033
			c-0.543,0.795-1.323,1.206-2.34,1.235c-0.672-0.011-1.244-0.199-1.717-0.567c-0.474-0.369-0.834-0.868-1.084-1.496
			s-0.377-1.335-0.38-2.12c0.003-0.797,0.122-1.518,0.363-2.161s0.599-1.157,1.069-1.538
			C87.498,260.419,88.08,260.225,88.772,260.215z"/>
		<path fill="#FFFFFF" d="M105.841,270.177h2.04l-0.663-11.454h-2.719l-1.581,4.588c-0.222,0.676-0.428,1.354-0.62,2.035
			c-0.191,0.68-0.365,1.334-0.52,1.959h-0.051c-0.146-0.641-0.307-1.295-0.481-1.964c-0.177-0.669-0.367-1.341-0.572-2.015
			l-1.495-4.604h-2.754l-0.765,11.453h1.955l0.255-4.605c0.042-0.793,0.081-1.614,0.115-2.465c0.033-0.851,0.063-1.653,0.089-2.414
			h0.034c0.154,0.72,0.33,1.457,0.525,2.215c0.197,0.758,0.407,1.504,0.631,2.238l1.528,4.896h1.615l1.666-4.964
			c0.257-0.729,0.5-1.467,0.729-2.212c0.231-0.747,0.44-1.474,0.629-2.175h0.051c-0.006,0.785,0.008,1.596,0.037,2.432
			s0.063,1.629,0.101,2.38L105.841,270.177z"/>
		<polygon fill="#FFFFFF" points="116.435,263.396 112.116,263.396 112.116,260.436 116.688,260.436 116.688,258.723 
			110.026,258.723 110.026,270.177 116.944,270.177 116.944,268.463 112.116,268.463 112.116,265.094 116.435,265.094 		"/>
	</g>
	<g>
		<rect x="16.831" y="241.723" fill="#FFFFFF" width="2.089" height="11.454"/>
		<path fill="#FFFFFF" d="M23.253,253.177v-4.096c0.001-0.938-0.005-1.801-0.019-2.593c-0.014-0.793-0.041-1.555-0.083-2.287
			l0.051-0.018c0.286,0.65,0.607,1.314,0.965,1.991c0.357,0.679,0.722,1.333,1.092,1.97l2.993,5.03h2.157v-11.454h-1.936v3.991
			c0,0.87,0.014,1.69,0.042,2.465c0.028,0.774,0.077,1.539,0.145,2.3h-0.034c-0.264-0.623-0.56-1.262-0.888-1.908
			c-0.328-0.649-0.684-1.295-1.067-1.936l-2.959-4.912h-2.378v11.454L23.253,253.177L23.253,253.177z"/>
		<path fill="#FFFFFF" d="M32.816,253.145c0.338,0.043,0.74,0.078,1.206,0.106s1.004,0.044,1.614,0.045
			c1.12,0,2.12-0.131,3.002-0.394c0.881-0.26,1.609-0.65,2.185-1.168c0.55-0.494,0.983-1.121,1.299-1.883
			c0.316-0.765,0.478-1.653,0.484-2.677c-0.005-0.975-0.165-1.809-0.478-2.504c-0.313-0.692-0.748-1.265-1.306-1.713
			c-0.522-0.44-1.165-0.771-1.93-0.992c-0.765-0.221-1.68-0.332-2.747-0.332c-0.625,0.001-1.22,0.021-1.787,0.063
			s-1.081,0.1-1.543,0.177L32.816,253.145L32.816,253.145z M34.905,243.385c0.145-0.033,0.336-0.063,0.574-0.084
			s0.523-0.033,0.854-0.033c1.316,0.006,2.323,0.354,3.021,1.039c0.698,0.686,1.045,1.664,1.044,2.938
			c-0.011,1.456-0.394,2.553-1.148,3.29c-0.755,0.736-1.818,1.104-3.189,1.098c-0.216,0.001-0.426-0.002-0.629-0.007
			c-0.203-0.005-0.379-0.021-0.527-0.045V243.385z"/>
		<rect x="44.42" y="241.723" fill="#FFFFFF" width="2.089" height="11.454"/>
		<path fill="#FFFFFF" d="M56.792,251.189c-0.28,0.129-0.622,0.23-1.024,0.309c-0.403,0.077-0.821,0.115-1.254,0.117
			c-1.267-0.016-2.248-0.389-2.941-1.122c-0.693-0.733-1.045-1.737-1.054-3.011c0.022-1.381,0.399-2.428,1.133-3.143
			c0.734-0.714,1.693-1.07,2.879-1.074c0.476,0.004,0.901,0.047,1.275,0.131c0.374,0.086,0.697,0.188,0.969,0.312l0.459-1.665
			c-0.216-0.117-0.562-0.229-1.037-0.337c-0.475-0.106-1.059-0.164-1.751-0.172c-1.178,0.005-2.226,0.248-3.143,0.729
			c-0.917,0.48-1.64,1.174-2.167,2.073c-0.528,0.899-0.797,1.983-0.808,3.246c0.016,1.767,0.536,3.162,1.559,4.188
			c1.023,1.026,2.452,1.553,4.287,1.574c0.695-0.007,1.298-0.06,1.811-0.158c0.512-0.104,0.895-0.22,1.147-0.353L56.792,251.189z"/>
		<path fill="#FFFFFF" d="M64.938,249.932l1.037,3.245h2.244l-3.722-11.454h-2.668l-3.671,11.454h2.159l0.986-3.245H64.938z
			 M61.64,248.352l0.884-2.822c0.102-0.346,0.196-0.703,0.285-1.077c0.089-0.373,0.175-0.729,0.259-1.065h0.034
			c0.084,0.338,0.174,0.689,0.27,1.061c0.096,0.369,0.198,0.73,0.308,1.084l0.901,2.824H61.64V248.352z"/>
		<path fill="#FFFFFF" d="M69.798,253.145c0.338,0.043,0.74,0.078,1.206,0.106c0.465,0.028,1.003,0.044,1.614,0.045
			c1.119,0,2.12-0.131,3.001-0.394c0.881-0.26,1.61-0.65,2.185-1.168c0.55-0.494,0.982-1.121,1.298-1.883
			c0.315-0.765,0.479-1.653,0.483-2.677c-0.005-0.975-0.165-1.809-0.479-2.504c-0.313-0.692-0.748-1.265-1.303-1.713
			c-0.522-0.44-1.166-0.771-1.93-0.992c-0.764-0.221-1.68-0.332-2.747-0.332c-0.625,0.001-1.22,0.021-1.787,0.063
			c-0.566,0.041-1.081,0.1-1.543,0.177L69.798,253.145L69.798,253.145z M71.887,243.385c0.145-0.033,0.336-0.063,0.574-0.084
			c0.238-0.021,0.523-0.033,0.855-0.033c1.316,0.006,2.323,0.354,3.021,1.039c0.698,0.686,1.045,1.664,1.044,2.938
			c-0.011,1.456-0.394,2.553-1.148,3.29c-0.755,0.736-1.818,1.104-3.189,1.098c-0.216,0.001-0.426-0.002-0.629-0.007
			c-0.204-0.005-0.379-0.021-0.527-0.045L71.887,243.385L71.887,243.385z"/>
		<path fill="#FFFFFF" d="M86.246,241.534c-1.084,0.009-2.033,0.267-2.847,0.772s-1.446,1.209-1.9,2.105s-0.686,1.938-0.691,3.12
			c0.004,1.132,0.221,2.135,0.647,3.008c0.427,0.874,1.032,1.562,1.819,2.06c0.785,0.5,1.72,0.754,2.802,0.765
			c1.063-0.005,2.007-0.24,2.829-0.71c0.822-0.471,1.47-1.154,1.939-2.053c0.471-0.896,0.711-1.988,0.721-3.271
			c-0.004-1.1-0.215-2.084-0.635-2.954c-0.421-0.869-1.024-1.558-1.816-2.063C88.321,241.805,87.366,241.546,86.246,241.534z
			 M86.194,243.215c0.699,0.012,1.281,0.217,1.75,0.609c0.47,0.394,0.822,0.908,1.059,1.543c0.236,0.634,0.355,1.316,0.355,2.048
			c-0.006,1.228-0.279,2.237-0.823,3.033c-0.543,0.795-1.323,1.206-2.341,1.235c-0.67-0.011-1.242-0.199-1.715-0.567
			c-0.475-0.369-0.836-0.868-1.086-1.496s-0.375-1.335-0.377-2.12c0-0.797,0.121-1.518,0.361-2.161
			c0.241-0.644,0.6-1.157,1.07-1.538C84.92,243.419,85.502,243.225,86.194,243.215z"/>
		<path fill="#FFFFFF" d="M93.371,253.177h2.071v-4.709h1.056c0.586,0.005,1.038,0.157,1.354,0.455
			c0.314,0.3,0.551,0.815,0.703,1.552c0.164,0.717,0.311,1.303,0.439,1.76c0.131,0.457,0.238,0.771,0.324,0.942h2.156
			c-0.119-0.237-0.254-0.646-0.406-1.228c-0.149-0.582-0.314-1.238-0.493-1.969c-0.144-0.558-0.343-1.024-0.603-1.404
			c-0.259-0.379-0.59-0.646-0.996-0.805v-0.051c0.556-0.199,1.035-0.541,1.438-1.027c0.403-0.487,0.614-1.104,0.635-1.846
			c-0.001-0.486-0.087-0.927-0.257-1.313c-0.17-0.388-0.412-0.716-0.729-0.981c-0.379-0.32-0.856-0.554-1.437-0.699
			c-0.579-0.146-1.278-0.219-2.101-0.217c-0.61,0.002-1.19,0.023-1.739,0.067s-1.022,0.101-1.42,0.17v11.303H93.371z
			 M95.442,243.316c0.103-0.025,0.261-0.049,0.475-0.069s0.486-0.03,0.818-0.032c0.688-0.002,1.234,0.146,1.634,0.447
			c0.399,0.299,0.604,0.763,0.612,1.39c-0.008,0.578-0.215,1.034-0.619,1.372c-0.405,0.337-0.965,0.51-1.678,0.518h-1.242V243.316
			L95.442,243.316z"/>
		<polygon fill="#FFFFFF" points="109.435,246.396 105.116,246.396 105.116,243.436 109.688,243.436 109.688,241.723 
			103.026,241.723 103.026,253.177 109.944,253.177 109.944,251.463 105.116,251.463 105.116,248.094 109.435,248.094 		"/>
		<path fill="#FFFFFF" d="M111.28,252.634c0.328,0.193,0.771,0.359,1.33,0.497c0.558,0.139,1.146,0.21,1.763,0.217
			c1.476-0.029,2.571-0.371,3.285-1.027c0.714-0.655,1.069-1.459,1.065-2.403c0.002-0.815-0.242-1.496-0.732-2.039
			c-0.489-0.542-1.23-0.996-2.225-1.36c-0.762-0.283-1.317-0.563-1.67-0.836c-0.354-0.272-0.527-0.623-0.523-1.054
			c-0.004-0.349,0.148-0.659,0.455-0.938c0.307-0.275,0.789-0.424,1.449-0.438c0.539,0.009,1.002,0.072,1.389,0.188
			c0.387,0.117,0.684,0.234,0.89,0.354l0.511-1.683c-0.297-0.156-0.676-0.293-1.135-0.401c-0.459-0.11-0.999-0.17-1.619-0.175
			c-1.255,0.021-2.24,0.336-2.953,0.945c-0.715,0.61-1.078,1.396-1.092,2.351c0.012,0.817,0.291,1.495,0.84,2.028
			c0.547,0.535,1.299,0.972,2.252,1.305c0.727,0.256,1.25,0.529,1.569,0.825c0.321,0.294,0.479,0.653,0.472,1.079
			c-0.002,0.475-0.184,0.853-0.541,1.134c-0.357,0.278-0.875,0.425-1.551,0.432c-0.542-0.007-1.052-0.079-1.531-0.22
			c-0.479-0.141-0.893-0.313-1.237-0.514L111.28,252.634z"/>
		<path fill="#FFFFFF" d="M124.125,253.145c0.338,0.043,0.74,0.078,1.206,0.106s1.004,0.044,1.613,0.045
			c1.121,0,2.121-0.131,3.002-0.394c0.881-0.26,1.609-0.65,2.185-1.168c0.55-0.494,0.983-1.121,1.3-1.883
			c0.315-0.765,0.479-1.653,0.483-2.677c-0.005-0.975-0.165-1.809-0.478-2.504c-0.313-0.692-0.75-1.265-1.308-1.713
			c-0.521-0.44-1.166-0.771-1.93-0.992c-0.767-0.221-1.681-0.332-2.747-0.332c-0.625,0.001-1.221,0.021-1.787,0.063
			c-0.564,0.041-1.081,0.1-1.543,0.177v11.271H124.125z M126.213,243.385c0.146-0.033,0.336-0.063,0.574-0.084
			c0.237-0.021,0.522-0.033,0.854-0.033c1.314,0.006,2.321,0.354,3.021,1.039c0.698,0.686,1.046,1.664,1.044,2.938
			c-0.012,1.456-0.393,2.553-1.148,3.29c-0.754,0.736-1.815,1.104-3.188,1.098c-0.217,0.001-0.426-0.002-0.629-0.007
			c-0.204-0.005-0.379-0.021-0.527-0.045L126.213,243.385L126.213,243.385z"/>
		<polygon fill="#FFFFFF" points="142.135,246.396 137.817,246.396 137.817,243.436 142.39,243.436 142.39,241.723 135.729,241.723 
			135.729,253.177 142.646,253.177 142.646,251.463 137.817,251.463 137.817,248.094 142.135,248.094 		"/>
	</g>
</g>
<g>
	<g>
		<path fill="#FFFFFF" d="M54.528,337.445c-1.084,0.01-2.033,0.268-2.846,0.772s-1.447,1.21-1.901,2.106
			c-0.454,0.896-0.685,1.938-0.692,3.119c0.005,1.133,0.221,2.136,0.648,3.009c0.427,0.873,1.033,1.562,1.819,2.059
			c0.786,0.499,1.72,0.755,2.802,0.765c1.063-0.004,2.007-0.239,2.829-0.709c0.823-0.472,1.47-1.154,1.94-2.053
			c0.471-0.896,0.711-1.988,0.721-3.271c-0.004-1.1-0.215-2.084-0.635-2.953c-0.42-0.87-1.025-1.559-1.817-2.064
			C56.604,337.717,55.648,337.457,54.528,337.445z M54.477,339.127c0.698,0.012,1.281,0.216,1.75,0.609
			c0.469,0.395,0.821,0.908,1.058,1.543c0.236,0.634,0.355,1.316,0.355,2.048c-0.005,1.228-0.279,2.237-0.823,3.032
			c-0.543,0.796-1.323,1.207-2.34,1.236c-0.671-0.011-1.243-0.199-1.716-0.568c-0.473-0.368-0.835-0.867-1.085-1.495
			s-0.376-1.335-0.379-2.12c0.001-0.797,0.122-1.518,0.364-2.161c0.241-0.646,0.598-1.157,1.07-1.538
			C53.203,339.331,53.785,339.136,54.477,339.127z"/>
		<path fill="#FFFFFF" d="M61.636,337.634v6.562c0.016,1.789,0.413,3.088,1.189,3.895c0.777,0.807,1.836,1.201,3.179,1.188
			c1.396,0.009,2.502-0.398,3.319-1.225c0.817-0.822,1.234-2.115,1.253-3.875v-6.544h-2.089v6.681
			c-0.006,1.119-0.219,1.945-0.64,2.482c-0.42,0.535-1.012,0.803-1.775,0.799c-0.715,0.004-1.283-0.264-1.703-0.799
			c-0.42-0.537-0.634-1.363-0.644-2.482v-6.681H61.636z"/>
		<polygon fill="#FFFFFF" points="75.166,349.089 77.255,349.089 77.255,339.383 80.554,339.383 80.554,337.634 71.902,337.634 
			71.902,339.383 75.166,339.383 		"/>
		<path fill="#FFFFFF" d="M81.899,349.089h2.072v-4.317c0.137,0.025,0.291,0.043,0.465,0.055c0.174,0.011,0.357,0.016,0.556,0.015
			c0.745,0.001,1.431-0.099,2.054-0.299c0.623-0.201,1.145-0.509,1.568-0.923c0.322-0.309,0.568-0.684,0.734-1.122
			s0.25-0.935,0.25-1.479c-0.004-0.537-0.106-1.024-0.308-1.457c-0.2-0.435-0.472-0.791-0.813-1.076
			c-0.365-0.307-0.83-0.537-1.393-0.694s-1.229-0.237-1.99-0.238c-0.705,0.003-1.32,0.024-1.848,0.068s-0.979,0.101-1.35,0.17
			v11.299H81.899z M83.972,339.246c0.11-0.025,0.269-0.051,0.469-0.069c0.203-0.021,0.449-0.03,0.738-0.032
			c0.73,0.002,1.299,0.168,1.709,0.5c0.408,0.332,0.615,0.815,0.622,1.457c-0.007,0.676-0.231,1.194-0.672,1.56
			c-0.44,0.362-1.056,0.546-1.846,0.551c-0.212,0-0.404-0.005-0.574-0.019c-0.17-0.012-0.319-0.033-0.446-0.066V339.246
			L83.972,339.246z"/>
		<path fill="#FFFFFF" d="M91.376,337.634v6.562c0.016,1.789,0.413,3.088,1.189,3.895c0.775,0.807,1.836,1.201,3.179,1.188
			c1.396,0.009,2.502-0.398,3.319-1.225c0.815-0.822,1.232-2.115,1.252-3.875v-6.544h-2.09v6.681
			c-0.006,1.119-0.22,1.945-0.641,2.482c-0.421,0.535-1.012,0.803-1.773,0.799c-0.715,0.004-1.283-0.264-1.703-0.799
			c-0.42-0.537-0.635-1.363-0.646-2.482v-6.681H91.376z"/>
		<polygon fill="#FFFFFF" points="104.905,349.089 106.994,349.089 106.994,339.383 110.292,339.383 110.292,337.634 
			101.642,337.634 101.642,339.383 104.905,339.383 		"/>
	</g>
	<g>
		<rect x="16.831" y="320.634" fill="#FFFFFF" width="2.089" height="11.455"/>
		<path fill="#FFFFFF" d="M23.253,332.089v-4.096c0.001-0.938-0.005-1.802-0.019-2.593c-0.014-0.793-0.041-1.555-0.083-2.287
			l0.051-0.018c0.286,0.65,0.607,1.314,0.965,1.991c0.357,0.679,0.722,1.333,1.092,1.97l2.993,5.03h2.157v-11.455h-1.936v3.992
			c0,0.87,0.014,1.69,0.042,2.465c0.028,0.774,0.077,1.539,0.145,2.3h-0.034c-0.264-0.625-0.56-1.262-0.888-1.908
			c-0.328-0.649-0.684-1.295-1.067-1.936l-2.959-4.913h-2.378v11.455L23.253,332.089L23.253,332.089z"/>
		<path fill="#FFFFFF" d="M32.816,332.057c0.338,0.043,0.74,0.078,1.206,0.107c0.466,0.027,1.004,0.043,1.614,0.044
			c1.12,0,2.12-0.131,3.002-0.394c0.881-0.26,1.609-0.65,2.185-1.168c0.55-0.494,0.983-1.121,1.299-1.883
			c0.316-0.765,0.478-1.654,0.484-2.677c-0.005-0.976-0.165-1.81-0.478-2.504c-0.313-0.692-0.748-1.267-1.306-1.713
			c-0.522-0.44-1.165-0.771-1.93-0.992c-0.765-0.221-1.68-0.332-2.747-0.332c-0.625,0.001-1.22,0.021-1.787,0.063
			c-0.567,0.041-1.081,0.101-1.543,0.177L32.816,332.057L32.816,332.057z M34.905,322.297c0.145-0.033,0.336-0.063,0.574-0.084
			s0.523-0.033,0.854-0.035c1.316,0.008,2.323,0.354,3.021,1.04c0.698,0.687,1.045,1.665,1.044,2.939
			c-0.011,1.456-0.394,2.553-1.148,3.29c-0.755,0.736-1.818,1.104-3.189,1.097c-0.216,0.002-0.426-0.001-0.629-0.006
			c-0.203-0.005-0.379-0.021-0.527-0.045V322.297z"/>
		<rect x="44.42" y="320.634" fill="#FFFFFF" width="2.089" height="11.455"/>
		<path fill="#FFFFFF" d="M56.792,330.102c-0.28,0.131-0.622,0.233-1.024,0.311c-0.403,0.074-0.821,0.113-1.254,0.115
			c-1.267-0.014-2.248-0.389-2.941-1.12c-0.693-0.733-1.045-1.737-1.054-3.011c0.022-1.381,0.399-2.429,1.133-3.143
			c0.734-0.714,1.693-1.072,2.879-1.076c0.476,0.004,0.901,0.049,1.275,0.133s0.697,0.188,0.969,0.312l0.459-1.665
			c-0.216-0.117-0.562-0.229-1.037-0.337c-0.475-0.108-1.059-0.164-1.751-0.173c-1.178,0.006-2.226,0.248-3.143,0.729
			s-1.64,1.173-2.167,2.074c-0.528,0.899-0.797,1.983-0.808,3.246c0.016,1.767,0.536,3.162,1.559,4.188
			c1.023,1.025,2.452,1.551,4.287,1.572c0.695-0.006,1.298-0.059,1.811-0.158c0.512-0.103,0.895-0.219,1.147-0.352L56.792,330.102z"
			/>
		<path fill="#FFFFFF" d="M64.938,328.843l1.037,3.246h2.244l-3.722-11.455h-2.668l-3.671,11.455h2.159l0.986-3.246H64.938z
			 M61.64,327.264l0.884-2.822c0.102-0.346,0.196-0.705,0.285-1.077c0.089-0.373,0.175-0.729,0.259-1.065h0.034
			c0.084,0.338,0.174,0.688,0.27,1.061c0.096,0.369,0.198,0.73,0.308,1.084l0.901,2.824H61.64V327.264z"/>
		<path fill="#FFFFFF" d="M69.798,332.057c0.338,0.043,0.74,0.078,1.206,0.107c0.465,0.027,1.003,0.043,1.614,0.044
			c1.119,0,2.12-0.131,3.001-0.394c0.881-0.26,1.61-0.65,2.185-1.168c0.55-0.494,0.982-1.121,1.298-1.883
			c0.315-0.765,0.479-1.654,0.483-2.677c-0.005-0.976-0.165-1.81-0.479-2.504c-0.313-0.692-0.748-1.267-1.303-1.713
			c-0.522-0.44-1.166-0.771-1.93-0.992c-0.764-0.221-1.68-0.332-2.747-0.332c-0.625,0.001-1.22,0.021-1.787,0.063
			c-0.566,0.041-1.081,0.101-1.543,0.177L69.798,332.057L69.798,332.057z M71.887,322.297c0.145-0.033,0.336-0.063,0.574-0.084
			c0.238-0.021,0.523-0.033,0.855-0.035c1.316,0.008,2.323,0.354,3.021,1.04c0.698,0.687,1.045,1.665,1.044,2.939
			c-0.011,1.456-0.394,2.553-1.148,3.29c-0.755,0.736-1.818,1.104-3.189,1.097c-0.216,0.002-0.426-0.001-0.629-0.006
			c-0.204-0.005-0.379-0.021-0.527-0.045L71.887,322.297L71.887,322.297z"/>
		<path fill="#FFFFFF" d="M86.246,320.445c-1.084,0.01-2.033,0.268-2.847,0.772c-0.813,0.507-1.446,1.21-1.9,2.106
			s-0.686,1.938-0.691,3.119c0.004,1.133,0.221,2.136,0.647,3.009c0.426,0.873,1.032,1.562,1.819,2.059
			c0.785,0.499,1.72,0.755,2.802,0.765c1.063-0.004,2.007-0.239,2.829-0.709c0.822-0.472,1.47-1.154,1.939-2.053
			c0.471-0.896,0.711-1.988,0.721-3.271c-0.004-1.1-0.215-2.084-0.635-2.953c-0.421-0.87-1.024-1.559-1.816-2.064
			C88.321,320.717,87.366,320.457,86.246,320.445z M86.194,322.127c0.699,0.012,1.281,0.216,1.75,0.609
			c0.47,0.395,0.822,0.908,1.059,1.543c0.236,0.634,0.355,1.316,0.355,2.048c-0.006,1.228-0.279,2.237-0.823,3.032
			c-0.543,0.796-1.323,1.207-2.341,1.236c-0.67-0.011-1.242-0.199-1.715-0.568c-0.475-0.368-0.836-0.867-1.086-1.495
			s-0.375-1.335-0.377-2.12c0-0.797,0.121-1.518,0.361-2.161c0.241-0.646,0.6-1.157,1.07-1.538
			C84.92,322.331,85.502,322.136,86.194,322.127z"/>
		<path fill="#FFFFFF" d="M93.371,332.089h2.071v-4.708h1.056c0.586,0.004,1.038,0.156,1.354,0.454
			c0.314,0.299,0.551,0.815,0.703,1.551c0.164,0.718,0.311,1.304,0.439,1.761c0.131,0.457,0.238,0.771,0.324,0.942h2.156
			c-0.119-0.237-0.254-0.646-0.406-1.229c-0.149-0.58-0.314-1.235-0.493-1.967c-0.144-0.557-0.343-1.023-0.603-1.404
			c-0.259-0.379-0.59-0.646-0.996-0.805v-0.051c0.556-0.199,1.035-0.541,1.438-1.027s0.614-1.104,0.635-1.847
			c-0.001-0.485-0.087-0.925-0.257-1.313c-0.17-0.387-0.412-0.715-0.729-0.979c-0.379-0.319-0.856-0.554-1.437-0.698
			c-0.579-0.146-1.278-0.22-2.101-0.219c-0.61,0.002-1.19,0.023-1.739,0.068c-0.549,0.044-1.022,0.101-1.42,0.17v11.302H93.371z
			 M95.442,322.229c0.103-0.025,0.261-0.049,0.475-0.068s0.486-0.03,0.818-0.032c0.688-0.002,1.234,0.146,1.634,0.446
			c0.399,0.3,0.604,0.764,0.612,1.391c-0.008,0.578-0.215,1.034-0.619,1.372c-0.405,0.337-0.965,0.511-1.678,0.519h-1.242V322.229
			L95.442,322.229z"/>
		<polygon fill="#FFFFFF" points="109.435,325.309 105.116,325.309 105.116,322.348 109.688,322.348 109.688,320.634 
			103.026,320.634 103.026,332.089 109.944,332.089 109.944,330.375 105.116,330.375 105.116,327.006 109.435,327.006 		"/>
		<path fill="#FFFFFF" d="M111.28,331.546c0.328,0.192,0.771,0.358,1.33,0.497c0.558,0.139,1.146,0.21,1.763,0.217
			c1.476-0.029,2.571-0.371,3.285-1.027c0.714-0.655,1.069-1.459,1.065-2.403c0.002-0.815-0.242-1.496-0.732-2.038
			c-0.489-0.543-1.23-0.997-2.225-1.363c-0.762-0.281-1.317-0.562-1.67-0.835c-0.354-0.272-0.527-0.624-0.523-1.052
			c-0.004-0.35,0.148-0.66,0.455-0.938s0.789-0.424,1.449-0.439c0.539,0.009,1.002,0.072,1.389,0.189
			c0.387,0.115,0.684,0.233,0.89,0.354l0.511-1.682c-0.297-0.158-0.676-0.293-1.135-0.402c-0.459-0.111-0.999-0.17-1.619-0.176
			c-1.255,0.021-2.24,0.337-2.953,0.947c-0.715,0.609-1.078,1.395-1.092,2.351c0.012,0.817,0.291,1.493,0.84,2.028
			c0.547,0.535,1.299,0.971,2.252,1.304c0.727,0.256,1.25,0.53,1.569,0.825c0.321,0.293,0.479,0.654,0.472,1.08
			c-0.002,0.474-0.184,0.852-0.541,1.133c-0.357,0.279-0.875,0.425-1.551,0.431c-0.542-0.006-1.052-0.079-1.531-0.219
			c-0.479-0.14-0.893-0.312-1.237-0.513L111.28,331.546z"/>
		<path fill="#FFFFFF" d="M124.125,332.057c0.338,0.043,0.74,0.078,1.206,0.107c0.466,0.027,1.004,0.043,1.613,0.044
			c1.121,0,2.121-0.131,3.002-0.394c0.881-0.26,1.609-0.65,2.185-1.168c0.55-0.494,0.983-1.121,1.3-1.883
			c0.315-0.765,0.479-1.654,0.483-2.677c-0.005-0.976-0.165-1.81-0.478-2.504c-0.313-0.692-0.75-1.267-1.308-1.713
			c-0.521-0.44-1.166-0.771-1.93-0.992c-0.767-0.221-1.681-0.332-2.747-0.332c-0.625,0.001-1.221,0.021-1.787,0.063
			c-0.564,0.041-1.081,0.101-1.543,0.177v11.271H124.125L124.125,332.057z M126.213,322.297c0.146-0.033,0.336-0.063,0.574-0.084
			c0.237-0.021,0.522-0.033,0.854-0.035c1.314,0.008,2.321,0.354,3.021,1.04c0.698,0.687,1.046,1.665,1.044,2.939
			c-0.012,1.456-0.393,2.553-1.148,3.29c-0.754,0.736-1.815,1.104-3.188,1.097c-0.217,0.002-0.426-0.001-0.629-0.006
			c-0.204-0.005-0.379-0.021-0.527-0.045L126.213,322.297L126.213,322.297z"/>
		<polygon fill="#FFFFFF" points="142.135,325.309 137.817,325.309 137.817,322.348 142.39,322.348 142.39,320.634 135.729,320.634 
			135.729,332.089 142.646,332.089 142.646,330.375 137.817,330.375 137.817,327.006 142.135,327.006 		"/>
	</g>
</g>
<g>
	<g>
		<path fill="#1D1D1B" d="M54.825,121.259h1.799l-0.584-10.108h-2.4l-1.395,4.048c-0.196,0.597-0.378,1.196-0.547,1.796
			c-0.169,0.601-0.322,1.177-0.458,1.729h-0.045c-0.128-0.564-0.27-1.142-0.426-1.732c-0.156-0.59-0.324-1.183-0.504-1.777
			l-1.32-4.063h-2.429l-0.675,10.108h1.725l0.225-4.065c0.038-0.701,0.071-1.426,0.102-2.175c0.03-0.75,0.056-1.459,0.079-2.13h0.03
			c0.136,0.634,0.292,1.285,0.465,1.954c0.174,0.668,0.359,1.327,0.555,1.976l1.35,4.32h1.425l1.47-4.38
			c0.227-0.642,0.441-1.293,0.645-1.952c0.204-0.659,0.389-1.299,0.555-1.918h0.045c-0.005,0.692,0.005,1.407,0.032,2.145
			c0.026,0.738,0.056,1.438,0.088,2.1L54.825,121.259z"/>
		<path fill="#1D1D1B" d="M61.818,113.791c-1.123,0.011-2.028,0.356-2.717,1.034c-0.688,0.679-1.042,1.624-1.062,2.835
			c0.023,1.181,0.374,2.101,1.053,2.76c0.679,0.659,1.548,0.994,2.606,1.004c0.632,0.002,1.232-0.135,1.799-0.41
			s1.031-0.7,1.392-1.273c0.36-0.573,0.546-1.307,0.558-2.201c-0.015-1.127-0.348-2.03-0.999-2.707
			C63.797,114.156,62.921,113.809,61.818,113.791z M61.773,115.14c0.418,0.009,0.758,0.136,1.02,0.38
			c0.261,0.245,0.452,0.553,0.572,0.924c0.121,0.372,0.181,0.751,0.179,1.141c-0.009,0.748-0.175,1.349-0.499,1.804
			c-0.324,0.455-0.753,0.689-1.287,0.702c-0.568-0.015-1.011-0.251-1.33-0.709c-0.318-0.458-0.48-1.047-0.486-1.767
			c-0.001-0.413,0.06-0.807,0.185-1.182s0.322-0.682,0.591-0.922C60.987,115.271,61.339,115.147,61.773,115.14z"/>
		<path fill="#1D1D1B" d="M66.952,121.259h1.858v-4.29c0-0.106,0.004-0.212,0.015-0.317c0.01-0.104,0.03-0.199,0.06-0.283
			c0.1-0.288,0.272-0.538,0.518-0.749c0.246-0.211,0.553-0.321,0.923-0.332c0.498,0.011,0.856,0.188,1.075,0.529
			c0.219,0.341,0.326,0.78,0.321,1.316v4.125h1.843v-4.335c-0.008-0.766-0.138-1.378-0.389-1.838s-0.573-0.792-0.965-0.996
			s-0.806-0.303-1.239-0.299c-0.609,0.017-1.109,0.156-1.501,0.416c-0.391,0.26-0.667,0.541-0.825,0.843h-0.045l-0.09-1.094h-1.619
			c0.022,0.314,0.038,0.65,0.047,1.009c0.009,0.358,0.014,0.747,0.013,1.166V121.259z"/>
		<path fill="#1D1D1B" d="M77.402,121.259v-7.303h-1.858v7.303H77.402z M76.473,110.911c-0.312,0.006-0.561,0.103-0.748,0.289
			c-0.187,0.186-0.282,0.425-0.287,0.716c0.004,0.284,0.097,0.518,0.279,0.702c0.182,0.184,0.429,0.28,0.74,0.287
			c0.326-0.006,0.581-0.102,0.766-0.287c0.186-0.185,0.28-0.418,0.283-0.702c-0.01-0.291-0.106-0.53-0.287-0.716
			C77.038,111.014,76.791,110.917,76.473,110.911z"/>
		<path fill="#1D1D1B" d="M79.688,112.306v1.65h-1.049v1.378h1.049v3.437c0,0.479,0.045,0.886,0.14,1.222
			c0.093,0.336,0.235,0.608,0.431,0.817c0.176,0.189,0.398,0.335,0.672,0.44c0.271,0.104,0.577,0.158,0.918,0.159
			c0.293-0.001,0.557-0.018,0.785-0.05c0.229-0.032,0.412-0.076,0.549-0.129l-0.029-1.408c-0.084,0.021-0.184,0.044-0.305,0.062
			c-0.119,0.018-0.259,0.027-0.416,0.028c-0.348-0.001-0.593-0.115-0.736-0.343c-0.145-0.228-0.213-0.563-0.209-1.007v-3.226h1.757
			v-1.378h-1.757v-2.085L79.688,112.306z"/>
		<path fill="#1D1D1B" d="M87.86,113.791c-1.121,0.011-2.027,0.356-2.715,1.034c-0.689,0.679-1.043,1.624-1.063,2.835
			c0.022,1.181,0.374,2.101,1.053,2.76s1.548,0.994,2.606,1.004c0.632,0.002,1.232-0.135,1.799-0.41s1.031-0.7,1.393-1.273
			c0.359-0.573,0.545-1.307,0.56-2.201c-0.017-1.127-0.349-2.03-0.999-2.707C89.842,114.156,88.964,113.809,87.86,113.791z
			 M87.815,115.14c0.42,0.009,0.76,0.136,1.021,0.38s0.452,0.553,0.572,0.924c0.12,0.372,0.181,0.751,0.179,1.141
			c-0.009,0.748-0.175,1.349-0.499,1.804c-0.323,0.455-0.753,0.689-1.287,0.702c-0.567-0.015-1.011-0.251-1.329-0.709
			s-0.479-1.047-0.486-1.767c-0.002-0.413,0.061-0.807,0.186-1.182s0.322-0.682,0.594-0.922
			C87.03,115.271,87.382,115.147,87.815,115.14z"/>
		<path fill="#1D1D1B" d="M92.996,121.259h1.843v-3.779c0.001-0.106,0.008-0.207,0.02-0.303c0.013-0.096,0.024-0.186,0.041-0.269
			c0.084-0.419,0.271-0.754,0.556-1.007c0.282-0.252,0.647-0.381,1.095-0.388c0.112,0,0.211,0.006,0.299,0.019
			c0.088,0.012,0.168,0.025,0.241,0.041v-1.738c-0.071-0.015-0.141-0.026-0.206-0.034c-0.064-0.008-0.141-0.012-0.229-0.012
			c-0.401,0-0.786,0.131-1.154,0.392c-0.368,0.261-0.648,0.65-0.84,1.167h-0.061l-0.061-1.394h-1.604
			c0.021,0.325,0.039,0.676,0.047,1.054c0.01,0.377,0.014,0.811,0.014,1.301L92.996,121.259L92.996,121.259z"/>
		<path fill="#1D1D1B" d="M104.403,118.125c0.016-0.083,0.029-0.19,0.041-0.322c0.012-0.132,0.018-0.284,0.019-0.457
			c0.005-0.549-0.091-1.095-0.29-1.635s-0.527-0.992-0.99-1.354c-0.461-0.362-1.084-0.55-1.869-0.565
			c-0.779,0.011-1.437,0.201-1.965,0.569c-0.529,0.368-0.93,0.849-1.199,1.441c-0.27,0.593-0.403,1.233-0.403,1.918
			c0.009,1.132,0.34,2.027,0.991,2.684c0.654,0.657,1.578,0.992,2.771,1.006c0.526-0.002,1.004-0.046,1.434-0.129
			s0.802-0.19,1.117-0.32l-0.271-1.274c-0.272,0.105-0.573,0.187-0.899,0.244c-0.326,0.057-0.701,0.086-1.125,0.086
			c-0.604,0.004-1.119-0.146-1.548-0.45c-0.429-0.304-0.663-0.785-0.704-1.441L104.403,118.125L104.403,118.125z M99.513,116.836
			c0.023-0.259,0.098-0.524,0.221-0.797s0.306-0.504,0.545-0.694c0.242-0.188,0.553-0.288,0.932-0.296
			c0.407,0.01,0.723,0.114,0.941,0.313c0.225,0.199,0.377,0.436,0.461,0.71c0.084,0.274,0.121,0.529,0.113,0.764H99.513z"/>
		<path fill="#1D1D1B" d="M109.256,113.791c-1.123,0.011-2.028,0.356-2.717,1.034c-0.688,0.679-1.043,1.624-1.063,2.835
			c0.023,1.181,0.375,2.101,1.053,2.76c0.681,0.659,1.549,0.994,2.606,1.004c0.632,0.002,1.231-0.135,1.8-0.41
			c0.566-0.275,1.03-0.7,1.393-1.273c0.359-0.573,0.547-1.307,0.559-2.201c-0.015-1.127-0.348-2.03-0.998-2.707
			C111.235,114.156,110.358,113.809,109.256,113.791z M109.211,115.14c0.419,0.009,0.759,0.136,1.021,0.38
			c0.262,0.245,0.451,0.553,0.572,0.924c0.121,0.372,0.18,0.751,0.18,1.141c-0.01,0.748-0.176,1.349-0.5,1.804
			c-0.322,0.455-0.752,0.689-1.287,0.702c-0.566-0.015-1.012-0.251-1.328-0.709c-0.319-0.458-0.479-1.047-0.486-1.767
			c-0.002-0.413,0.061-0.807,0.186-1.182s0.322-0.682,0.592-0.922C108.426,115.271,108.776,115.147,109.211,115.14z"/>
	</g>
	<g>
		<polygon fill="#1D1D1B" points="46.505,100.276 42.695,100.276 42.695,97.665 46.73,97.665 46.73,96.151 40.852,96.151 
			40.852,106.259 46.955,106.259 46.955,104.746 42.695,104.746 42.695,101.774 46.505,101.774 		"/>
		<path fill="#1D1D1B" d="M48.089,105.9c0.273,0.152,0.6,0.275,0.979,0.367c0.379,0.092,0.793,0.14,1.239,0.142
			c0.971-0.012,1.708-0.227,2.211-0.644s0.756-0.962,0.759-1.634c-0.005-0.536-0.167-0.983-0.485-1.343
			c-0.318-0.36-0.806-0.657-1.463-0.893c-0.46-0.158-0.79-0.311-0.987-0.459c-0.197-0.148-0.294-0.335-0.289-0.561
			c0.001-0.229,0.089-0.413,0.263-0.551c0.174-0.139,0.427-0.21,0.759-0.214c0.327,0.006,0.625,0.054,0.896,0.143
			s0.486,0.181,0.648,0.277l0.359-1.304c-0.213-0.116-0.487-0.217-0.82-0.301s-0.705-0.129-1.114-0.133
			c-0.857,0.015-1.528,0.236-2.016,0.663c-0.487,0.427-0.735,0.971-0.744,1.631c-0.012,0.432,0.143,0.832,0.464,1.2
			c0.322,0.368,0.836,0.678,1.544,0.93c0.444,0.151,0.757,0.307,0.939,0.465c0.181,0.159,0.269,0.359,0.263,0.6
			c0.002,0.244-0.092,0.438-0.282,0.585c-0.189,0.146-0.486,0.221-0.89,0.225c-0.341-0.006-0.683-0.062-1.027-0.167
			c-0.344-0.105-0.626-0.225-0.847-0.358L48.089,105.9z"/>
		<path fill="#1D1D1B" d="M59.694,109.229h1.843v-8.16c0-0.382,0.007-0.747,0.019-1.097c0.012-0.35,0.026-0.688,0.042-1.017h-1.783
			l-0.045,0.974l-0.03-0.015c-0.196-0.349-0.472-0.622-0.829-0.82c-0.357-0.199-0.791-0.3-1.302-0.304
			c-0.532,0-1.045,0.141-1.542,0.425c-0.496,0.285-0.905,0.717-1.227,1.298c-0.322,0.581-0.489,1.316-0.5,2.206
			c0.007,0.764,0.151,1.422,0.43,1.974c0.279,0.552,0.648,0.978,1.109,1.276c0.46,0.299,0.967,0.45,1.52,0.454
			c0.534-0.004,0.99-0.111,1.37-0.32c0.379-0.208,0.678-0.491,0.896-0.848h0.03L59.694,109.229L59.694,109.229z M59.694,103.186
			c0,0.091-0.007,0.187-0.022,0.285c-0.015,0.098-0.038,0.194-0.068,0.285c-0.11,0.372-0.306,0.667-0.585,0.883
			c-0.28,0.217-0.61,0.327-0.991,0.332c-0.588-0.014-1.037-0.237-1.347-0.669c-0.311-0.433-0.467-0.99-0.469-1.671
			c0.003-0.704,0.166-1.273,0.486-1.711c0.321-0.437,0.779-0.662,1.375-0.675c0.417,0.01,0.762,0.136,1.036,0.379
			c0.274,0.242,0.454,0.541,0.541,0.896c0.015,0.068,0.026,0.142,0.034,0.219c0.007,0.078,0.011,0.155,0.011,0.231L59.694,103.186
			L59.694,103.186z"/>
		<path fill="#1D1D1B" d="M70.041,98.956h-1.843v4.41c0,0.105-0.01,0.206-0.03,0.302c-0.02,0.096-0.044,0.186-0.075,0.268
			c-0.098,0.245-0.266,0.468-0.503,0.669c-0.237,0.202-0.54,0.309-0.908,0.321c-0.484-0.007-0.833-0.188-1.049-0.542
			c-0.216-0.354-0.321-0.838-0.317-1.453v-3.975h-1.843v4.29c0.022,1.176,0.28,2.003,0.773,2.483
			c0.493,0.48,1.085,0.711,1.775,0.695c0.649-0.021,1.163-0.167,1.542-0.44s0.645-0.551,0.799-0.833h0.03l0.09,1.108h1.619
			c-0.016-0.299-0.029-0.63-0.041-0.993c-0.012-0.363-0.019-0.762-0.019-1.196V98.956z"/>
		<path fill="#1D1D1B" d="M78.216,103.125c0.016-0.083,0.029-0.19,0.041-0.322c0.012-0.132,0.018-0.284,0.019-0.457
			c0.005-0.549-0.092-1.095-0.29-1.635c-0.198-0.54-0.528-0.992-0.989-1.354c-0.462-0.362-1.085-0.55-1.87-0.565
			c-0.781,0.011-1.437,0.201-1.966,0.569c-0.529,0.368-0.929,0.849-1.198,1.441c-0.27,0.593-0.404,1.233-0.405,1.918
			c0.009,1.132,0.34,2.027,0.993,2.684c0.653,0.657,1.577,0.992,2.771,1.006c0.526-0.002,1.004-0.046,1.433-0.129
			c0.429-0.083,0.801-0.19,1.117-0.32l-0.27-1.274c-0.273,0.105-0.573,0.187-0.899,0.244c-0.326,0.057-0.701,0.086-1.125,0.086
			c-0.604,0.004-1.119-0.146-1.548-0.45c-0.429-0.304-0.663-0.785-0.704-1.441L78.216,103.125L78.216,103.125z M73.326,101.836
			c0.023-0.259,0.097-0.524,0.22-0.797s0.305-0.504,0.546-0.694c0.241-0.188,0.551-0.288,0.93-0.296
			c0.407,0.01,0.721,0.114,0.943,0.313c0.223,0.199,0.376,0.436,0.46,0.71c0.084,0.274,0.122,0.529,0.113,0.764H73.326z"/>
		<path fill="#1D1D1B" d="M79.756,106.259h1.798v-4.32c0-0.105,0.008-0.209,0.024-0.312c0.017-0.102,0.043-0.198,0.081-0.289
			c0.084-0.267,0.238-0.505,0.463-0.716c0.225-0.21,0.511-0.322,0.857-0.333c0.428,0.009,0.744,0.171,0.951,0.487
			s0.312,0.734,0.311,1.252v4.23h1.798v-4.38c0.001-0.106,0.01-0.212,0.028-0.319c0.018-0.106,0.039-0.205,0.062-0.296
			c0.101-0.271,0.261-0.499,0.481-0.685c0.223-0.186,0.492-0.283,0.81-0.291c0.44,0.004,0.771,0.175,0.985,0.512
			c0.214,0.337,0.322,0.811,0.32,1.423v4.035h1.799v-4.305c-0.008-0.776-0.129-1.396-0.364-1.86
			c-0.235-0.464-0.537-0.799-0.907-1.003s-0.761-0.304-1.173-0.3c-0.298,0-0.567,0.038-0.81,0.111
			c-0.24,0.073-0.461,0.181-0.662,0.324c-0.346,0.208-0.646,0.512-0.9,0.914h-0.029c-0.162-0.41-0.42-0.736-0.771-0.978
			c-0.353-0.242-0.771-0.365-1.255-0.371c-0.609,0.017-1.094,0.152-1.451,0.409c-0.358,0.256-0.625,0.534-0.799,0.835h-0.045
			l-0.075-1.079h-1.589c0.021,0.314,0.039,0.65,0.048,1.009c0.009,0.358,0.013,0.747,0.013,1.166L79.756,106.259L79.756,106.259z"/>
		<path fill="#1D1D1B" d="M98.237,106.259c-0.037-0.229-0.064-0.495-0.082-0.799c-0.016-0.304-0.024-0.623-0.023-0.956v-2.639
			c0.006-0.539-0.081-1.041-0.261-1.504c-0.181-0.464-0.491-0.839-0.933-1.126c-0.44-0.287-1.047-0.435-1.82-0.444
			c-0.582,0.006-1.1,0.073-1.551,0.199c-0.452,0.126-0.815,0.274-1.09,0.446l0.359,1.2c0.253-0.161,0.553-0.29,0.896-0.389
			c0.346-0.099,0.701-0.149,1.066-0.152c0.627,0.023,1.036,0.176,1.227,0.458c0.191,0.282,0.279,0.555,0.261,0.818v0.12
			c-1.362-0.007-2.422,0.22-3.181,0.682c-0.758,0.462-1.144,1.154-1.154,2.077c0.004,0.577,0.203,1.078,0.596,1.504
			c0.395,0.426,0.959,0.649,1.697,0.67c0.477-0.005,0.896-0.096,1.268-0.273c0.368-0.177,0.668-0.411,0.896-0.7h0.045l0.12,0.809
			L98.237,106.259L98.237,106.259z M96.334,103.695c0,0.061-0.004,0.126-0.013,0.197c-0.01,0.07-0.025,0.14-0.047,0.208
			c-0.086,0.271-0.256,0.505-0.508,0.7c-0.252,0.195-0.563,0.297-0.936,0.306c-0.301,0.001-0.548-0.084-0.745-0.255
			c-0.196-0.171-0.299-0.437-0.308-0.795c0.025-0.545,0.287-0.916,0.787-1.111c0.5-0.196,1.088-0.281,1.768-0.255L96.334,103.695
			L96.334,103.695z"/>
		<path fill="#1D1D1B" d="M108.095,95.611v4.139h-0.031c-0.166-0.276-0.426-0.503-0.773-0.682c-0.35-0.179-0.775-0.271-1.281-0.277
			c-0.593,0.003-1.137,0.159-1.631,0.468c-0.494,0.309-0.891,0.753-1.188,1.333c-0.297,0.58-0.447,1.28-0.451,2.098
			c0.021,1.14,0.324,2.044,0.908,2.711c0.582,0.667,1.319,1.008,2.211,1.023c0.539-0.004,1.016-0.123,1.431-0.355
			c0.415-0.233,0.733-0.554,0.957-0.963h0.03l0.074,1.153h1.647c-0.017-0.255-0.028-0.566-0.042-0.932
			c-0.014-0.366-0.02-0.74-0.02-1.123v-8.593H108.095z M108.095,103.094c0.002,0.196-0.019,0.376-0.061,0.542
			c-0.098,0.402-0.292,0.719-0.582,0.951c-0.29,0.231-0.626,0.35-1.01,0.354c-0.588-0.013-1.039-0.231-1.354-0.655
			c-0.313-0.424-0.473-0.976-0.478-1.656c0.004-0.698,0.162-1.271,0.479-1.72c0.316-0.449,0.771-0.681,1.368-0.696
			c0.424,0.009,0.771,0.137,1.049,0.383c0.276,0.246,0.456,0.553,0.542,0.923c0.017,0.076,0.026,0.156,0.034,0.24
			c0.008,0.083,0.012,0.164,0.012,0.24V103.094L108.095,103.094z"/>
		<path fill="#1D1D1B" d="M118.097,103.125c0.016-0.083,0.028-0.19,0.041-0.322c0.012-0.132,0.018-0.284,0.018-0.457
			c0.007-0.549-0.092-1.095-0.288-1.635c-0.198-0.54-0.528-0.992-0.989-1.354c-0.462-0.362-1.085-0.55-1.87-0.565
			c-0.78,0.011-1.438,0.201-1.966,0.569c-0.527,0.368-0.93,0.849-1.198,1.441c-0.27,0.593-0.403,1.233-0.403,1.918
			c0.008,1.132,0.34,2.027,0.992,2.684c0.652,0.657,1.576,0.992,2.771,1.006c0.524-0.002,1.004-0.046,1.433-0.129
			c0.43-0.083,0.803-0.19,1.117-0.32l-0.271-1.274c-0.271,0.105-0.571,0.187-0.897,0.244c-0.326,0.057-0.701,0.086-1.125,0.086
			c-0.604,0.004-1.119-0.146-1.548-0.45c-0.43-0.304-0.663-0.785-0.704-1.441L118.097,103.125L118.097,103.125z M113.206,101.836
			c0.023-0.259,0.098-0.524,0.22-0.797c0.123-0.273,0.306-0.504,0.546-0.694c0.241-0.188,0.551-0.288,0.93-0.296
			c0.408,0.01,0.723,0.114,0.943,0.313c0.223,0.199,0.377,0.436,0.461,0.71c0.084,0.274,0.121,0.529,0.112,0.764H113.206z"/>
	</g>
</g>
<line fill="none" stroke="#006600" stroke-miterlimit="3.8637" stroke-dasharray="1,1" x1="-17.239" y1="112.181" x2="29.515" y2="112.181"/>
<line fill="none" stroke="#006600" stroke-miterlimit="3.8637" stroke-dasharray="1,1" x1="136.644" y1="112.181" x2="183.397" y2="112.181"/>
</svg>
