<?xml version="1.0" encoding="utf-8"?>
<!-- Generator: Adobe Illustrator 16.0.0, SVG Export Plug-In . SVG Version: 6.00 Build 0)  -->
<!DOCTYPE svg PUBLIC "-//W3C//DTD SVG 1.0//EN" "http://www.w3.org/TR/2001/REC-SVG-20010904/DTD/svg10.dtd">
<svg version="1.0" id="Capa_1" xmlns="http://www.w3.org/2000/svg" xmlns:xlink="http://www.w3.org/1999/xlink" x="0px" y="0px"
	 width="327px" height="308.084px" viewBox="0 0 327 308.084" enable-background="new 0 0 327 308.084" xml:space="preserve">
<g id="Fondo">
</g>
<g id="Guías">
</g>
<g id="Primer_plano">
</g>
<g id="Capa-1">
	
		<linearGradient id="SVGID_1_" gradientUnits="userSpaceOnUse" x1="3.562" y1="501.1631" x2="323.1572" y2="501.1631" gradientTransform="matrix(1 0 0 1 0 -458.5)">
		<stop  offset="0" style="stop-color:#88AFB5"/>
		<stop  offset="1" style="stop-color:#0082C0"/>
	</linearGradient>
	<path fill="url(#SVGID_1_)" d="M3.605,83.327L3.562,43.219C3.562,20.454,22.016,2,44.781,2h237.155
		c22.767,0,41.222,18.454,41.222,41.219v40.107L3.605,83.327L3.605,83.327z"/>
	<g>
		<path fill="#FFFFFF" d="M256.225,71.248c-3.959,0-7.146-1.778-9.564-5.334c-2.682-3.908-4.021-9.438-4.021-16.595
			c0-7.244,1.43-12.864,4.286-16.858c2.595-3.644,5.957-5.466,10.091-5.466c4.176,0,7.463,1.822,9.859,5.466
			c2.396,3.643,3.594,9.021,3.594,16.134c0,7.375-1.252,12.995-3.758,16.858C264.205,69.316,260.708,71.248,256.225,71.248z
			 M256.355,67.951c3.254,0,5.717-1.711,7.387-5.135c1.671-3.424,2.506-8.055,2.506-13.892c0-5.749-0.77-10.226-2.309-13.43
			c-1.672-3.467-4.155-5.201-7.453-5.201c-2.9,0-5.254,1.712-7.055,5.135c-1.805,3.424-2.705,7.922-2.705,13.496
			c0,5.794,0.868,10.415,2.604,13.859C251.068,66.228,253.409,67.951,256.355,67.951z"/>
		<path fill="#FFFFFF" d="M275.866,68.346l1.389-3.1c1.017,0.643,2.361,1.233,4.036,1.769c1.677,0.536,3.439,0.804,5.292,0.804
			c3.75,0,6.551-1.07,8.403-3.209c1.41-1.659,2.115-3.667,2.115-6.025c0-3.144-1.259-5.566-3.774-7.269
			c-2.208-1.484-4.99-2.227-8.349-2.227h-2.914v-3.297h2.981c2.652,0,4.95-0.638,6.894-1.912c2.344-1.539,3.514-3.605,3.514-6.2
			c0-2.11-0.617-3.802-1.854-5.078c-1.412-1.45-3.483-2.176-6.223-2.176c-1.633,0-3.154,0.264-4.566,0.792
			c-1.412,0.527-2.691,1.231-3.84,2.11l-1.391-2.902c1.188-0.94,2.727-1.748,4.617-2.42c1.891-0.673,3.824-1.009,5.805-1.009
			c3.824,0,6.77,1.058,8.837,3.171c1.804,1.805,2.704,4.117,2.704,6.934c0,2.202-0.691,4.206-2.078,6.01
			c-1.385,1.807-3.353,3.194-5.902,4.162c2.771,0.569,5.068,1.851,6.893,3.843c1.825,1.993,2.736,4.456,2.736,7.389
			c0,3.547-1.209,6.482-3.627,8.802c-2.727,2.627-6.463,3.941-11.211,3.941c-2.111,0-4.121-0.285-6.035-0.857
			C278.404,69.819,276.922,69.138,275.866,68.346z"/>
	</g>
	
		<linearGradient id="SVGID_2_" gradientUnits="userSpaceOnUse" x1="241.0996" y1="494.4404" x2="85.6384" y2="763.7071" gradientTransform="matrix(1 0 0 1 0 -458.5)">
		<stop  offset="0" style="stop-color:#FAFCFC"/>
		<stop  offset="1" style="stop-color:#D6EBF5"/>
	</linearGradient>
	<polygon fill="url(#SVGID_2_)" points="3.605,257.845 3.563,83.327 323.177,83.327 323.158,257.845 	"/>
	<path fill="#3399CC" d="M44.781,306.631c-22.765,0-41.219-18.454-41.219-41.218v-7.568h319.616l-0.021,7.568
		c0,22.764-18.455,41.218-41.222,41.218"/>
	<g>
		<path fill="#FFFFFF" d="M234.023,69.659c0.511-0.831,0.938-2.045,0.938-3.323c0-1.896-1.002-3.003-2.45-3.003
			c-1.342,0-2.108,0.767-2.854,2.706c-0.83,2.343-2.045,3.792-4.068,3.792c-2.236,0-3.898-1.853-3.898-4.644
			c0-1.47,0.341-2.535,0.703-3.174l1.513,0.511c-0.256,0.468-0.682,1.427-0.682,2.727c0,1.959,1.172,2.705,2.151,2.705
			c1.342,0,2.002-0.874,2.77-2.854c0.937-2.428,2.108-3.664,4.217-3.664c2.216,0,4.133,1.64,4.133,5.027
			c0,1.385-0.404,2.897-0.916,3.664L234.023,69.659z"/>
		<path fill="#FFFFFF" d="M223.5,56.178v4.367h-1.576V49.915h1.576v4.388h12.781v1.875H223.5z"/>
		<path fill="#FFFFFF" d="M229.55,40.885v5.581h5.177v-6.22h1.555v8.073h-14.357v-7.754h1.556v5.9h4.537v-5.581H229.55z"/>
		<path fill="#FFFFFF" d="M222.095,37.841c-0.149-0.895-0.277-2.066-0.277-3.557c0-1.832,0.427-3.174,1.193-4.026
			c0.682-0.788,1.726-1.257,3.003-1.257c1.3,0,2.322,0.383,3.067,1.108c1.044,0.979,1.577,2.577,1.577,4.388
			c0,0.554-0.021,1.065-0.128,1.491h5.751v1.853H222.095z M229.018,35.988c0.106-0.405,0.149-0.916,0.149-1.534
			c0-2.236-1.087-3.6-3.067-3.6c-1.896,0-2.813,1.342-2.813,3.387c0,0.81,0.064,1.427,0.149,1.747H229.018z"/>
	</g>
</g>
<g>
	<path d="M12.75,100.533c0.672-0.112,1.553-0.208,2.673-0.208c1.376,0,2.385,0.32,3.025,0.896c0.592,0.512,0.944,1.297,0.944,2.257
		c0,0.977-0.288,1.745-0.833,2.305c-0.736,0.784-1.937,1.185-3.297,1.185c-0.416,0-0.8-0.016-1.121-0.096v4.322H12.75V100.533z
		 M14.143,105.735c0.304,0.08,0.688,0.112,1.153,0.112c1.681,0,2.705-0.816,2.705-2.305c0-1.425-1.009-2.113-2.545-2.113
		c-0.608,0-1.072,0.048-1.313,0.112V105.735z"/>
	<path d="M20.958,105.863c0-0.913-0.016-1.697-0.064-2.417h1.232l0.048,1.521h0.064c0.352-1.041,1.2-1.697,2.145-1.697
		c0.16,0,0.272,0.016,0.4,0.048v1.328c-0.144-0.032-0.288-0.048-0.48-0.048c-0.992,0-1.696,0.752-1.889,1.809
		c-0.032,0.192-0.064,0.417-0.064,0.656v4.13h-1.393V105.863z"/>
	<path d="M26.815,107.576c0.032,1.905,1.249,2.689,2.657,2.689c1.008,0,1.617-0.176,2.145-0.4l0.24,1.008
		c-0.496,0.224-1.344,0.48-2.577,0.48c-2.385,0-3.81-1.569-3.81-3.906s1.376-4.178,3.633-4.178c2.529,0,3.201,2.225,3.201,3.649
		c0,0.288-0.032,0.512-0.048,0.656H26.815z M30.945,106.567c0.016-0.896-0.368-2.289-1.953-2.289c-1.425,0-2.049,1.313-2.161,2.289
		H30.945z"/>
	<path d="M34.046,105.975c0-0.992-0.032-1.792-0.064-2.529h1.265l0.064,1.329h0.032c0.576-0.944,1.489-1.505,2.753-1.505
		c1.873,0,3.281,1.585,3.281,3.938c0,2.785-1.697,4.162-3.521,4.162c-1.024,0-1.921-0.448-2.385-1.217h-0.032v4.21h-1.393V105.975z
		 M35.439,108.04c0,0.208,0.032,0.4,0.064,0.576c0.256,0.977,1.104,1.649,2.113,1.649c1.489,0,2.353-1.217,2.353-2.993
		c0-1.553-0.816-2.881-2.305-2.881c-0.96,0-1.857,0.688-2.129,1.745c-0.048,0.176-0.096,0.384-0.096,0.576V108.04z"/>
	<path d="M47.439,111.193l-0.112-0.977H47.28c-0.432,0.608-1.265,1.153-2.369,1.153c-1.569,0-2.369-1.104-2.369-2.225
		c0-1.873,1.665-2.897,4.658-2.881v-0.16c0-0.641-0.176-1.793-1.761-1.793c-0.72,0-1.473,0.224-2.017,0.576l-0.32-0.928
		c0.64-0.416,1.568-0.688,2.545-0.688c2.369,0,2.945,1.617,2.945,3.169v2.897c0,0.672,0.032,1.329,0.128,1.857H47.439z
		 M47.231,107.24c-1.537-0.032-3.281,0.24-3.281,1.745c0,0.913,0.608,1.345,1.329,1.345c1.008,0,1.648-0.64,1.873-1.296
		c0.048-0.145,0.08-0.304,0.08-0.448V107.24z"/>
	<path d="M50.862,105.863c0-0.913-0.016-1.697-0.064-2.417h1.232l0.048,1.521h0.064c0.352-1.041,1.2-1.697,2.145-1.697
		c0.16,0,0.272,0.016,0.4,0.048v1.328c-0.144-0.032-0.288-0.048-0.48-0.048c-0.992,0-1.696,0.752-1.889,1.809
		c-0.032,0.192-0.064,0.417-0.064,0.656v4.13h-1.393V105.863z"/>
	<path d="M60.304,111.193l-0.112-0.977h-0.048c-0.432,0.608-1.265,1.153-2.369,1.153c-1.569,0-2.369-1.104-2.369-2.225
		c0-1.873,1.665-2.897,4.658-2.881v-0.16c0-0.641-0.176-1.793-1.761-1.793c-0.72,0-1.473,0.224-2.017,0.576l-0.32-0.928
		c0.64-0.416,1.568-0.688,2.545-0.688c2.369,0,2.945,1.617,2.945,3.169v2.897c0,0.672,0.032,1.329,0.128,1.857H60.304z
		 M60.096,107.24c-1.537-0.032-3.281,0.24-3.281,1.745c0,0.913,0.608,1.345,1.329,1.345c1.008,0,1.648-0.64,1.873-1.296
		c0.048-0.145,0.08-0.304,0.08-0.448V107.24z"/>
	<path d="M65.359,101.221v2.225h2.017v1.072h-2.017v4.178c0,0.96,0.272,1.505,1.056,1.505c0.368,0,0.641-0.048,0.816-0.096
		l0.064,1.056c-0.272,0.112-0.704,0.192-1.249,0.192c-0.656,0-1.184-0.208-1.521-0.592c-0.4-0.416-0.544-1.104-0.544-2.017v-4.226
		h-1.201v-1.072h1.201v-1.857L65.359,101.221z"/>
	<path d="M70.527,101.27c0.016,0.48-0.336,0.864-0.896,0.864c-0.496,0-0.849-0.384-0.849-0.864c0-0.497,0.368-0.88,0.88-0.88
		C70.19,100.389,70.527,100.773,70.527,101.27z M68.958,111.193v-7.747h1.409v7.747H68.958z"/>
	<path d="M79.712,107.256c0,2.865-1.985,4.114-3.857,4.114c-2.097,0-3.713-1.537-3.713-3.986c0-2.593,1.696-4.114,3.841-4.114
		C78.208,103.27,79.712,104.887,79.712,107.256z M73.566,107.336c0,1.697,0.977,2.977,2.353,2.977c1.345,0,2.353-1.265,2.353-3.009
		c0-1.313-0.656-2.977-2.321-2.977C74.286,104.327,73.566,105.863,73.566,107.336z"/>
	<path d="M81.486,105.543c0-0.8-0.016-1.457-0.064-2.097h1.249l0.08,1.28h0.032c0.384-0.736,1.281-1.457,2.561-1.457
		c1.073,0,2.737,0.641,2.737,3.297v4.626h-1.409v-4.466c0-1.249-0.464-2.289-1.792-2.289c-0.929,0-1.649,0.656-1.889,1.441
		c-0.064,0.176-0.096,0.416-0.096,0.656v4.658h-1.409V105.543z"/>
	<path d="M100.768,107.256c0,2.865-1.985,4.114-3.857,4.114c-2.097,0-3.713-1.537-3.713-3.986c0-2.593,1.696-4.114,3.841-4.114
		C99.264,103.27,100.768,104.887,100.768,107.256z M94.622,107.336c0,1.697,0.977,2.977,2.353,2.977
		c1.345,0,2.353-1.265,2.353-3.009c0-1.313-0.656-2.977-2.321-2.977C95.342,104.327,94.622,105.863,94.622,107.336z"/>
	<path d="M102.686,111.193v-6.675h-1.088v-1.072h1.088v-0.368c0-1.088,0.24-2.081,0.896-2.705c0.528-0.512,1.232-0.72,1.889-0.72
		c0.496,0,0.928,0.112,1.201,0.224l-0.192,1.088c-0.208-0.096-0.496-0.176-0.896-0.176c-1.2,0-1.504,1.057-1.504,2.241v0.416h1.873
		v1.072h-1.873v6.675H102.686z"/>
	<path d="M110.605,105.975c0-0.992-0.032-1.792-0.064-2.529h1.265l0.064,1.329h0.032c0.576-0.944,1.489-1.505,2.753-1.505
		c1.873,0,3.281,1.585,3.281,3.938c0,2.785-1.697,4.162-3.521,4.162c-1.024,0-1.921-0.448-2.385-1.217h-0.032v4.21h-1.393V105.975z
		 M111.998,108.04c0,0.208,0.032,0.4,0.064,0.576c0.256,0.977,1.104,1.649,2.113,1.649c1.489,0,2.353-1.217,2.353-2.993
		c0-1.553-0.816-2.881-2.305-2.881c-0.96,0-1.857,0.688-2.129,1.745c-0.048,0.176-0.096,0.384-0.096,0.576V108.04z"/>
	<path d="M119.708,105.863c0-0.913-0.016-1.697-0.064-2.417h1.232l0.048,1.521h0.064c0.352-1.041,1.2-1.697,2.145-1.697
		c0.16,0,0.272,0.016,0.4,0.048v1.328c-0.144-0.032-0.288-0.048-0.48-0.048c-0.992,0-1.696,0.752-1.889,1.809
		c-0.032,0.192-0.064,0.417-0.064,0.656v4.13h-1.393V105.863z"/>
	<path d="M131.792,107.256c0,2.865-1.985,4.114-3.857,4.114c-2.097,0-3.713-1.537-3.713-3.986c0-2.593,1.696-4.114,3.841-4.114
		C130.287,103.27,131.792,104.887,131.792,107.256z M125.645,107.336c0,1.697,0.977,2.977,2.353,2.977
		c1.345,0,2.353-1.265,2.353-3.009c0-1.313-0.656-2.977-2.321-2.977C126.365,104.327,125.645,105.863,125.645,107.336z"/>
	<path d="M140.239,103.446c-0.032,0.56-0.064,1.185-0.064,2.129v4.498c0,1.777-0.353,2.865-1.104,3.538
		c-0.752,0.704-1.841,0.928-2.817,0.928c-0.928,0-1.953-0.224-2.577-0.64l0.353-1.072c0.512,0.32,1.313,0.608,2.273,0.608
		c1.44,0,2.497-0.752,2.497-2.705v-0.864h-0.032c-0.432,0.72-1.265,1.296-2.465,1.296c-1.921,0-3.297-1.632-3.297-3.777
		c0-2.625,1.712-4.114,3.489-4.114c1.345,0,2.081,0.705,2.417,1.345h0.032l0.064-1.168H140.239z M138.782,106.503
		c0-0.24-0.016-0.448-0.08-0.64c-0.256-0.816-0.944-1.489-1.969-1.489c-1.345,0-2.305,1.137-2.305,2.929
		c0,1.521,0.769,2.785,2.289,2.785c0.864,0,1.648-0.544,1.953-1.44c0.08-0.24,0.112-0.512,0.112-0.752V106.503z"/>
	<path d="M142.412,105.863c0-0.913-0.016-1.697-0.064-2.417h1.232l0.048,1.521h0.064c0.352-1.041,1.2-1.697,2.145-1.697
		c0.16,0,0.272,0.016,0.4,0.048v1.328c-0.144-0.032-0.288-0.048-0.48-0.048c-0.992,0-1.697,0.752-1.889,1.809
		c-0.032,0.192-0.064,0.417-0.064,0.656v4.13h-1.393V105.863z"/>
	<path d="M148.268,107.576c0.032,1.905,1.249,2.689,2.657,2.689c1.008,0,1.617-0.176,2.145-0.4l0.24,1.008
		c-0.496,0.224-1.344,0.48-2.577,0.48c-2.385,0-3.81-1.569-3.81-3.906s1.376-4.178,3.633-4.178c2.529,0,3.201,2.225,3.201,3.649
		c0,0.288-0.032,0.512-0.048,0.656H148.268z M152.398,106.567c0.016-0.896-0.368-2.289-1.953-2.289
		c-1.425,0-2.049,1.313-2.161,2.289H152.398z"/>
	<path d="M155.308,109.753c0.416,0.272,1.152,0.56,1.856,0.56c1.024,0,1.505-0.512,1.505-1.152c0-0.672-0.4-1.041-1.441-1.425
		c-1.393-0.496-2.049-1.264-2.049-2.193c0-1.249,1.009-2.273,2.673-2.273c0.784,0,1.473,0.224,1.905,0.48l-0.352,1.024
		c-0.304-0.192-0.865-0.448-1.585-0.448c-0.832,0-1.296,0.48-1.296,1.056c0,0.641,0.464,0.929,1.473,1.313
		c1.345,0.512,2.033,1.185,2.033,2.337c0,1.36-1.056,2.321-2.897,2.321c-0.849,0-1.633-0.208-2.177-0.528L155.308,109.753z"/>
	<path d="M161.644,109.753c0.416,0.272,1.152,0.56,1.856,0.56c1.024,0,1.505-0.512,1.505-1.152c0-0.672-0.4-1.041-1.441-1.425
		c-1.393-0.496-2.049-1.264-2.049-2.193c0-1.249,1.009-2.273,2.673-2.273c0.784,0,1.473,0.224,1.904,0.48l-0.352,1.024
		c-0.304-0.192-0.864-0.448-1.585-0.448c-0.832,0-1.296,0.48-1.296,1.056c0,0.641,0.464,0.929,1.472,1.313
		c1.345,0.512,2.033,1.185,2.033,2.337c0,1.36-1.057,2.321-2.897,2.321c-0.849,0-1.633-0.208-2.177-0.528L161.644,109.753z"/>
	<path d="M171.563,105.863c0-0.913-0.017-1.697-0.064-2.417h1.232l0.048,1.521h0.064c0.352-1.041,1.2-1.697,2.145-1.697
		c0.16,0,0.272,0.016,0.4,0.048v1.328c-0.145-0.032-0.288-0.048-0.48-0.048c-0.992,0-1.696,0.752-1.889,1.809
		c-0.032,0.192-0.063,0.417-0.063,0.656v4.13h-1.393V105.863z"/>
	<path d="M177.421,107.576c0.031,1.905,1.248,2.689,2.656,2.689c1.009,0,1.617-0.176,2.146-0.4l0.24,1.008
		c-0.496,0.224-1.345,0.48-2.577,0.48c-2.385,0-3.81-1.569-3.81-3.906s1.376-4.178,3.634-4.178c2.528,0,3.201,2.225,3.201,3.649
		c0,0.288-0.032,0.512-0.049,0.656H177.421z M181.55,106.567c0.017-0.896-0.368-2.289-1.952-2.289c-1.425,0-2.049,1.313-2.161,2.289
		H181.55z"/>
	<path d="M184.652,105.975c0-0.992-0.032-1.792-0.064-2.529h1.265l0.063,1.329h0.032c0.576-0.944,1.488-1.505,2.753-1.505
		c1.873,0,3.281,1.585,3.281,3.938c0,2.785-1.696,4.162-3.521,4.162c-1.024,0-1.92-0.448-2.385-1.217h-0.032v4.21h-1.392V105.975z
		 M186.044,108.04c0,0.208,0.032,0.4,0.064,0.576c0.256,0.977,1.104,1.649,2.113,1.649c1.488,0,2.353-1.217,2.353-2.993
		c0-1.553-0.816-2.881-2.305-2.881c-0.961,0-1.857,0.688-2.129,1.745c-0.048,0.176-0.097,0.384-0.097,0.576V108.04z"/>
	<path d="M200.767,107.256c0,2.865-1.985,4.114-3.858,4.114c-2.097,0-3.713-1.537-3.713-3.986c0-2.593,1.696-4.114,3.842-4.114
		C199.262,103.27,200.767,104.887,200.767,107.256z M194.62,107.336c0,1.697,0.976,2.977,2.353,2.977
		c1.345,0,2.353-1.265,2.353-3.009c0-1.313-0.656-2.977-2.32-2.977C195.34,104.327,194.62,105.863,194.62,107.336z"/>
	<path d="M202.539,105.863c0-0.913-0.017-1.697-0.064-2.417h1.232l0.048,1.521h0.064c0.352-1.041,1.2-1.697,2.145-1.697
		c0.16,0,0.272,0.016,0.4,0.048v1.328c-0.145-0.032-0.288-0.048-0.48-0.048c-0.992,0-1.696,0.752-1.889,1.809
		c-0.032,0.192-0.064,0.417-0.064,0.656v4.13h-1.392V105.863z"/>
	<path d="M209.851,101.221v2.225h2.017v1.072h-2.017v4.178c0,0.96,0.272,1.505,1.057,1.505c0.368,0,0.64-0.048,0.816-0.096
		l0.063,1.056c-0.271,0.112-0.704,0.192-1.248,0.192c-0.656,0-1.185-0.208-1.521-0.592c-0.4-0.416-0.545-1.104-0.545-2.017v-4.226
		h-1.2v-1.072h1.2v-1.857L209.851,101.221z"/>
	<path d="M213.259,109.753c0.416,0.272,1.152,0.56,1.856,0.56c1.024,0,1.505-0.512,1.505-1.152c0-0.672-0.4-1.041-1.44-1.425
		c-1.393-0.496-2.049-1.264-2.049-2.193c0-1.249,1.008-2.273,2.673-2.273c0.784,0,1.473,0.224,1.904,0.48l-0.352,1.024
		c-0.305-0.192-0.864-0.448-1.585-0.448c-0.832,0-1.296,0.48-1.296,1.056c0,0.641,0.464,0.929,1.472,1.313
		c1.345,0.512,2.033,1.185,2.033,2.337c0,1.36-1.057,2.321-2.897,2.321c-0.848,0-1.632-0.208-2.177-0.528L213.259,109.753z"/>
	<path d="M219.274,110.361c0-0.592,0.4-1.008,0.961-1.008c0.56,0,0.944,0.416,0.944,1.008c0,0.576-0.368,1.009-0.961,1.009
		C219.659,111.37,219.274,110.937,219.274,110.361z"/>
	<path d="M227.755,101.589h-3.281v-1.185h7.987v1.185h-3.298v9.604h-1.408V101.589z"/>
	<path d="M233.498,99.829h1.408v4.834h0.032c0.224-0.4,0.576-0.752,1.008-0.992c0.416-0.24,0.913-0.4,1.44-0.4
		c1.041,0,2.705,0.641,2.705,3.313v4.61h-1.408v-4.45c0-1.249-0.464-2.305-1.793-2.305c-0.912,0-1.633,0.641-1.889,1.409
		c-0.08,0.192-0.096,0.4-0.096,0.672v4.674h-1.408V99.829z"/>
	<path d="M243.163,107.576c0.031,1.905,1.248,2.689,2.656,2.689c1.009,0,1.617-0.176,2.146-0.4l0.24,1.008
		c-0.496,0.224-1.345,0.48-2.577,0.48c-2.385,0-3.81-1.569-3.81-3.906s1.376-4.178,3.634-4.178c2.528,0,3.201,2.225,3.201,3.649
		c0,0.288-0.032,0.512-0.049,0.656H243.163z M247.292,106.567c0.017-0.896-0.368-2.289-1.952-2.289
		c-1.425,0-2.049,1.313-2.161,2.289H247.292z"/>
	<path d="M253.785,105.863c0-0.913-0.017-1.697-0.064-2.417h1.232l0.048,1.521h0.064c0.352-1.041,1.2-1.697,2.145-1.697
		c0.16,0,0.272,0.016,0.4,0.048v1.328c-0.145-0.032-0.288-0.048-0.48-0.048c-0.992,0-1.696,0.752-1.889,1.809
		c-0.032,0.192-0.064,0.417-0.064,0.656v4.13h-1.392V105.863z"/>
	<path d="M259.643,107.576c0.031,1.905,1.248,2.689,2.657,2.689c1.008,0,1.616-0.176,2.145-0.4l0.24,1.008
		c-0.496,0.224-1.345,0.48-2.577,0.48c-2.385,0-3.81-1.569-3.81-3.906s1.376-4.178,3.634-4.178c2.528,0,3.201,2.225,3.201,3.649
		c0,0.288-0.032,0.512-0.049,0.656H259.643z M263.771,106.567c0.017-0.896-0.368-2.289-1.952-2.289
		c-1.425,0-2.049,1.313-2.161,2.289H263.771z"/>
	<path d="M266.874,105.975c0-0.992-0.032-1.792-0.064-2.529h1.265l0.063,1.329h0.032c0.576-0.944,1.488-1.505,2.753-1.505
		c1.873,0,3.281,1.585,3.281,3.938c0,2.785-1.696,4.162-3.521,4.162c-1.024,0-1.92-0.448-2.385-1.217h-0.031v4.21h-1.393V105.975z
		 M268.267,108.04c0,0.208,0.031,0.4,0.063,0.576c0.256,0.977,1.104,1.649,2.113,1.649c1.488,0,2.353-1.217,2.353-2.993
		c0-1.553-0.816-2.881-2.305-2.881c-0.961,0-1.857,0.688-2.129,1.745c-0.048,0.176-0.096,0.384-0.096,0.576V108.04z"/>
	<path d="M282.988,107.256c0,2.865-1.985,4.114-3.858,4.114c-2.097,0-3.713-1.537-3.713-3.986c0-2.593,1.696-4.114,3.842-4.114
		C281.483,103.27,282.988,104.887,282.988,107.256z M276.842,107.336c0,1.697,0.976,2.977,2.353,2.977
		c1.345,0,2.353-1.265,2.353-3.009c0-1.313-0.656-2.977-2.32-2.977C277.562,104.327,276.842,105.863,276.842,107.336z"/>
	<path d="M284.762,105.863c0-0.913-0.017-1.697-0.064-2.417h1.232l0.048,1.521h0.064c0.352-1.041,1.2-1.697,2.145-1.697
		c0.16,0,0.272,0.016,0.4,0.048v1.328c-0.145-0.032-0.288-0.048-0.48-0.048c-0.992,0-1.696,0.752-1.889,1.809
		c-0.032,0.192-0.064,0.417-0.064,0.656v4.13h-1.392V105.863z"/>
	<path d="M292.073,101.221v2.225h2.017v1.072h-2.017v4.178c0,0.96,0.272,1.505,1.057,1.505c0.368,0,0.64-0.048,0.816-0.096
		l0.063,1.056c-0.271,0.112-0.704,0.192-1.248,0.192c-0.656,0-1.185-0.208-1.521-0.592c-0.4-0.416-0.545-1.104-0.545-2.017v-4.226
		h-1.2v-1.072h1.2v-1.857L292.073,101.221z"/>
	<path d="M295.48,109.753c0.416,0.272,1.152,0.56,1.856,0.56c1.024,0,1.505-0.512,1.505-1.152c0-0.672-0.4-1.041-1.44-1.425
		c-1.393-0.496-2.049-1.264-2.049-2.193c0-1.249,1.008-2.273,2.673-2.273c0.784,0,1.473,0.224,1.904,0.48l-0.352,1.024
		c-0.305-0.192-0.864-0.448-1.585-0.448c-0.832,0-1.296,0.48-1.296,1.056c0,0.641,0.464,0.929,1.472,1.313
		c1.345,0.512,2.033,1.185,2.033,2.337c0,1.36-1.057,2.321-2.897,2.321c-0.848,0-1.632-0.208-2.177-0.528L295.48,109.753z"/>
	<path d="M12.511,128.953c0.416,0.272,1.152,0.56,1.856,0.56c1.024,0,1.505-0.512,1.505-1.152c0-0.672-0.4-1.041-1.441-1.425
		c-1.393-0.496-2.049-1.264-2.049-2.193c0-1.249,1.009-2.273,2.673-2.273c0.784,0,1.473,0.224,1.905,0.48l-0.352,1.024
		c-0.304-0.192-0.865-0.448-1.585-0.448c-0.832,0-1.296,0.48-1.296,1.056c0,0.641,0.464,0.929,1.473,1.313
		c1.345,0.512,2.033,1.185,2.033,2.337c0,1.36-1.056,2.321-2.897,2.321c-0.849,0-1.633-0.208-2.177-0.528L12.511,128.953z"/>
	<path d="M19.039,119.029h1.409v4.834h0.032c0.224-0.4,0.576-0.752,1.009-0.992c0.416-0.24,0.912-0.4,1.44-0.4
		c1.041,0,2.705,0.641,2.705,3.313v4.61h-1.409v-4.45c0-1.249-0.464-2.305-1.792-2.305c-0.913,0-1.633,0.641-1.889,1.409
		c-0.08,0.192-0.096,0.4-0.096,0.672v4.674h-1.409V119.029z"/>
	<path d="M34.929,126.456c0,2.865-1.985,4.114-3.857,4.114c-2.097,0-3.713-1.537-3.713-3.986c0-2.593,1.696-4.114,3.841-4.114
		C33.425,122.47,34.929,124.087,34.929,126.456z M28.783,126.536c0,1.697,0.977,2.977,2.353,2.977c1.345,0,2.353-1.265,2.353-3.009
		c0-1.313-0.656-2.977-2.321-2.977C29.503,123.527,28.783,125.063,28.783,126.536z"/>
	<path d="M43.185,128.281c0,0.8,0.016,1.504,0.064,2.113h-1.249l-0.08-1.265h-0.032c-0.368,0.625-1.185,1.441-2.561,1.441
		c-1.216,0-2.673-0.672-2.673-3.394v-4.53h1.408v4.29c0,1.473,0.448,2.465,1.729,2.465c0.944,0,1.601-0.656,1.856-1.281
		c0.08-0.208,0.128-0.464,0.128-0.72v-4.754h1.408V128.281z"/>
	<path d="M45.519,119.029h1.409v11.365h-1.409V119.029z"/>
	<path d="M55.985,119.029v9.364c0,0.688,0.016,1.473,0.064,2.001h-1.265l-0.064-1.345h-0.032c-0.432,0.865-1.376,1.521-2.641,1.521
		c-1.873,0-3.313-1.585-3.313-3.938c-0.016-2.577,1.584-4.162,3.473-4.162c1.185,0,1.985,0.561,2.337,1.185h0.032v-4.626H55.985z
		 M54.577,125.8c0-0.176-0.016-0.417-0.064-0.592c-0.208-0.896-0.977-1.633-2.033-1.633c-1.457,0-2.321,1.281-2.321,2.993
		c0,1.569,0.769,2.865,2.289,2.865c0.944,0,1.809-0.624,2.065-1.681c0.048-0.192,0.064-0.384,0.064-0.608V125.8z"/>
	<path d="M61.71,124.743c0-0.8-0.016-1.457-0.064-2.097h1.249l0.08,1.28h0.032c0.384-0.736,1.281-1.457,2.561-1.457
		c1.073,0,2.737,0.641,2.737,3.297v4.626h-1.409v-4.466c0-1.249-0.464-2.289-1.792-2.289c-0.929,0-1.649,0.656-1.889,1.441
		c-0.064,0.176-0.096,0.416-0.096,0.656v4.658H61.71V124.743z"/>
	<path d="M77.601,126.456c0,2.865-1.985,4.114-3.857,4.114c-2.097,0-3.713-1.537-3.713-3.986c0-2.593,1.696-4.114,3.841-4.114
		C76.097,122.47,77.601,124.087,77.601,126.456z M71.455,126.536c0,1.697,0.977,2.977,2.353,2.977c1.345,0,2.353-1.265,2.353-3.009
		c0-1.313-0.656-2.977-2.321-2.977C72.175,123.527,71.455,125.063,71.455,126.536z"/>
	<path d="M81.071,120.421v2.225h2.017v1.072h-2.017v4.178c0,0.96,0.272,1.505,1.056,1.505c0.368,0,0.641-0.048,0.816-0.096
		l0.064,1.056c-0.272,0.112-0.704,0.192-1.249,0.192c-0.656,0-1.184-0.208-1.521-0.592c-0.4-0.416-0.544-1.104-0.544-2.017v-4.226
		h-1.201v-1.072h1.201v-1.857L81.071,120.421z"/>
	<path d="M86.173,132.634c0.64-0.048,1.2-0.224,1.537-0.592c0.384-0.448,0.528-1.056,0.528-2.913v-6.482h1.408v7.027
		c0,1.504-0.24,2.481-0.928,3.185c-0.624,0.625-1.648,0.88-2.401,0.88L86.173,132.634z M89.807,120.47
		c0.016,0.464-0.32,0.864-0.88,0.864c-0.528,0-0.864-0.4-0.864-0.864c0-0.497,0.368-0.88,0.896-0.88
		C89.471,119.589,89.807,119.973,89.807,120.47z"/>
	<path d="M98.432,128.281c0,0.8,0.016,1.504,0.064,2.113h-1.249l-0.08-1.265h-0.032c-0.368,0.625-1.185,1.441-2.561,1.441
		c-1.216,0-2.673-0.672-2.673-3.394v-4.53h1.408v4.29c0,1.473,0.448,2.465,1.729,2.465c0.944,0,1.601-0.656,1.856-1.281
		c0.08-0.208,0.128-0.464,0.128-0.72v-4.754h1.408V128.281z"/>
	<path d="M100.574,128.953c0.416,0.272,1.152,0.56,1.856,0.56c1.024,0,1.505-0.512,1.505-1.152c0-0.672-0.4-1.041-1.441-1.425
		c-1.393-0.496-2.049-1.264-2.049-2.193c0-1.249,1.009-2.273,2.673-2.273c0.784,0,1.473,0.224,1.905,0.48l-0.352,1.024
		c-0.304-0.192-0.865-0.448-1.585-0.448c-0.832,0-1.296,0.48-1.296,1.056c0,0.641,0.464,0.929,1.473,1.313
		c1.345,0.512,2.033,1.185,2.033,2.337c0,1.36-1.056,2.321-2.897,2.321c-0.849,0-1.633-0.208-2.177-0.528L100.574,128.953z"/>
	<path d="M108.798,120.421v2.225h2.017v1.072h-2.017v4.178c0,0.96,0.272,1.505,1.056,1.505c0.368,0,0.641-0.048,0.816-0.096
		l0.064,1.056c-0.272,0.112-0.704,0.192-1.249,0.192c-0.656,0-1.184-0.208-1.521-0.592c-0.4-0.416-0.544-1.104-0.544-2.017v-4.226
		h-1.201v-1.072h1.201v-1.857L108.798,120.421z"/>
	<path d="M115.726,130.394c0.032-0.528,0.064-1.313,0.064-2.001v-9.364h1.393v4.866h0.032c0.496-0.864,1.393-1.425,2.641-1.425
		c1.921,0,3.282,1.601,3.266,3.954c0,2.769-1.745,4.146-3.474,4.146c-1.12,0-2.017-0.433-2.593-1.457h-0.048l-0.064,1.281H115.726z
		 M117.182,127.288c0,0.176,0.032,0.353,0.064,0.512c0.272,0.977,1.088,1.649,2.113,1.649c1.473,0,2.353-1.201,2.353-2.977
		c0-1.553-0.8-2.881-2.305-2.881c-0.96,0-1.857,0.656-2.145,1.729c-0.032,0.16-0.08,0.353-0.08,0.576V127.288z"/>
	<path d="M125.677,126.776c0.032,1.905,1.249,2.689,2.657,2.689c1.008,0,1.617-0.176,2.145-0.4l0.24,1.008
		c-0.496,0.224-1.344,0.48-2.577,0.48c-2.385,0-3.81-1.569-3.81-3.906s1.376-4.178,3.633-4.178c2.529,0,3.201,2.225,3.201,3.649
		c0,0.288-0.032,0.512-0.048,0.656H125.677z M129.807,125.768c0.016-0.896-0.368-2.289-1.953-2.289
		c-1.425,0-2.049,1.313-2.161,2.289H129.807z"/>
	<path d="M140.59,130.394l-0.112-0.977h-0.048c-0.432,0.608-1.265,1.153-2.369,1.153c-1.569,0-2.369-1.104-2.369-2.225
		c0-1.873,1.665-2.897,4.658-2.881v-0.16c0-0.641-0.176-1.793-1.761-1.793c-0.72,0-1.473,0.224-2.017,0.576l-0.32-0.928
		c0.64-0.416,1.568-0.688,2.545-0.688c2.369,0,2.945,1.617,2.945,3.169v2.897c0,0.672,0.032,1.329,0.128,1.857H140.59z
		 M140.382,126.44c-1.537-0.032-3.281,0.24-3.281,1.745c0,0.913,0.608,1.345,1.329,1.345c1.008,0,1.648-0.64,1.873-1.296
		c0.048-0.145,0.08-0.304,0.08-0.448V126.44z"/>
	<path d="M147.34,130.394c0.032-0.528,0.064-1.313,0.064-2.001v-9.364h1.393v4.866h0.032c0.496-0.864,1.393-1.425,2.641-1.425
		c1.921,0,3.282,1.601,3.266,3.954c0,2.769-1.745,4.146-3.474,4.146c-1.12,0-2.017-0.433-2.593-1.457h-0.048l-0.064,1.281H147.34z
		 M148.796,127.288c0,0.176,0.032,0.353,0.064,0.512c0.272,0.977,1.088,1.649,2.113,1.649c1.473,0,2.353-1.201,2.353-2.977
		c0-1.553-0.8-2.881-2.305-2.881c-0.96,0-1.857,0.656-2.145,1.729c-0.032,0.16-0.08,0.353-0.08,0.576V127.288z"/>
	<path d="M156.507,125.063c0-0.913-0.016-1.697-0.064-2.417h1.232l0.048,1.521h0.064c0.352-1.041,1.2-1.697,2.145-1.697
		c0.16,0,0.272,0.016,0.4,0.048v1.328c-0.144-0.032-0.288-0.048-0.48-0.048c-0.992,0-1.696,0.752-1.889,1.809
		c-0.032,0.192-0.064,0.417-0.064,0.656v4.13h-1.393V125.063z"/>
	<path d="M163.372,120.47c0.016,0.48-0.336,0.864-0.896,0.864c-0.496,0-0.849-0.384-0.849-0.864c0-0.497,0.368-0.88,0.88-0.88
		C163.036,119.589,163.372,119.973,163.372,120.47z M161.803,130.394v-7.747h1.409v7.747H161.803z"/>
	<path d="M166.331,126.776c0.032,1.905,1.249,2.689,2.657,2.689c1.009,0,1.616-0.176,2.145-0.4l0.24,1.008
		c-0.496,0.224-1.345,0.48-2.577,0.48c-2.385,0-3.81-1.569-3.81-3.906s1.377-4.178,3.634-4.178c2.529,0,3.201,2.225,3.201,3.649
		c0,0.288-0.032,0.512-0.048,0.656H166.331z M170.461,125.768c0.016-0.896-0.368-2.289-1.953-2.289c-1.424,0-2.049,1.313-2.16,2.289
		H170.461z"/>
	<path d="M173.706,130.394v-6.675h-1.089v-1.072h1.089v-0.368c0-1.088,0.24-2.081,0.896-2.705c0.528-0.512,1.232-0.72,1.889-0.72
		c0.496,0,0.929,0.112,1.2,0.224l-0.191,1.088c-0.208-0.096-0.497-0.176-0.896-0.176c-1.201,0-1.505,1.057-1.505,2.241v0.416h1.873
		v1.072h-1.873v6.675H173.706z"/>
	<path d="M188.317,119.029v9.364c0,0.688,0.016,1.473,0.063,2.001h-1.265l-0.063-1.345h-0.032c-0.432,0.865-1.376,1.521-2.641,1.521
		c-1.873,0-3.313-1.585-3.313-3.938c-0.017-2.577,1.585-4.162,3.474-4.162c1.185,0,1.984,0.561,2.337,1.185h0.031v-4.626H188.317z
		 M186.908,125.8c0-0.176-0.016-0.417-0.063-0.592c-0.208-0.896-0.977-1.633-2.033-1.633c-1.456,0-2.32,1.281-2.32,2.993
		c0,1.569,0.768,2.865,2.288,2.865c0.945,0,1.81-0.624,2.065-1.681c0.048-0.192,0.063-0.384,0.063-0.608V125.8z"/>
	<path d="M191.435,126.776c0.031,1.905,1.248,2.689,2.656,2.689c1.009,0,1.617-0.176,2.146-0.4l0.24,1.008
		c-0.496,0.224-1.345,0.48-2.577,0.48c-2.385,0-3.81-1.569-3.81-3.906s1.376-4.178,3.634-4.178c2.528,0,3.201,2.225,3.201,3.649
		c0,0.288-0.032,0.512-0.049,0.656H191.435z M195.563,125.768c0.017-0.896-0.368-2.289-1.952-2.289
		c-1.425,0-2.049,1.313-2.161,2.289H195.563z"/>
	<path d="M198.474,128.953c0.416,0.272,1.152,0.56,1.856,0.56c1.024,0,1.505-0.512,1.505-1.152c0-0.672-0.4-1.041-1.44-1.425
		c-1.393-0.496-2.049-1.264-2.049-2.193c0-1.249,1.008-2.273,2.673-2.273c0.784,0,1.473,0.224,1.904,0.48l-0.352,1.024
		c-0.305-0.192-0.864-0.448-1.585-0.448c-0.832,0-1.296,0.48-1.296,1.056c0,0.641,0.464,0.929,1.472,1.313
		c1.345,0.512,2.033,1.185,2.033,2.337c0,1.36-1.057,2.321-2.897,2.321c-0.848,0-1.632-0.208-2.177-0.528L198.474,128.953z"/>
	<path d="M210.523,130.105c-0.368,0.192-1.185,0.448-2.225,0.448c-2.337,0-3.857-1.585-3.857-3.954c0-2.385,1.633-4.114,4.161-4.114
		c0.833,0,1.569,0.208,1.953,0.4l-0.32,1.088c-0.336-0.192-0.864-0.368-1.633-0.368c-1.776,0-2.736,1.313-2.736,2.929
		c0,1.792,1.152,2.897,2.688,2.897c0.801,0,1.329-0.208,1.729-0.384L210.523,130.105z"/>
	<path d="M212.17,125.063c0-0.913-0.017-1.697-0.064-2.417h1.232l0.048,1.521h0.064c0.352-1.041,1.2-1.697,2.145-1.697
		c0.16,0,0.272,0.016,0.4,0.048v1.328c-0.145-0.032-0.288-0.048-0.48-0.048c-0.992,0-1.696,0.752-1.889,1.809
		c-0.032,0.192-0.064,0.417-0.064,0.656v4.13h-1.392V125.063z"/>
	<path d="M219.034,120.47c0.016,0.48-0.336,0.864-0.896,0.864c-0.496,0-0.849-0.384-0.849-0.864c0-0.497,0.368-0.88,0.881-0.88
		C218.698,119.589,219.034,119.973,219.034,120.47z M217.466,130.394v-7.747h1.408v7.747H217.466z"/>
	<path d="M221.21,125.175c0-0.992-0.032-1.792-0.064-2.529h1.265l0.063,1.329h0.032c0.576-0.944,1.488-1.505,2.753-1.505
		c1.873,0,3.281,1.585,3.281,3.938c0,2.785-1.696,4.162-3.521,4.162c-1.024,0-1.92-0.448-2.385-1.217h-0.031v4.21h-1.393V125.175z
		 M222.603,127.24c0,0.208,0.031,0.4,0.063,0.576c0.256,0.977,1.104,1.649,2.113,1.649c1.488,0,2.353-1.217,2.353-2.993
		c0-1.553-0.816-2.881-2.305-2.881c-0.961,0-1.857,0.688-2.129,1.745c-0.048,0.176-0.096,0.384-0.096,0.576V127.24z"/>
	<path d="M232.01,120.421v2.225h2.017v1.072h-2.017v4.178c0,0.96,0.272,1.505,1.057,1.505c0.368,0,0.64-0.048,0.816-0.096
		l0.063,1.056c-0.271,0.112-0.704,0.192-1.248,0.192c-0.656,0-1.185-0.208-1.521-0.592c-0.4-0.416-0.545-1.104-0.545-2.017v-4.226
		h-1.2v-1.072h1.2v-1.857L232.01,120.421z"/>
	<path d="M237.178,120.47c0.016,0.48-0.336,0.864-0.896,0.864c-0.496,0-0.849-0.384-0.849-0.864c0-0.497,0.368-0.88,0.881-0.88
		C236.842,119.589,237.178,119.973,237.178,120.47z M235.609,130.394v-7.747h1.408v7.747H235.609z"/>
	<path d="M246.364,126.456c0,2.865-1.985,4.114-3.858,4.114c-2.097,0-3.713-1.537-3.713-3.986c0-2.593,1.696-4.114,3.842-4.114
		C244.859,122.47,246.364,124.087,246.364,126.456z M240.218,126.536c0,1.697,0.976,2.977,2.353,2.977
		c1.345,0,2.353-1.265,2.353-3.009c0-1.313-0.656-2.977-2.32-2.977C240.938,123.527,240.218,125.063,240.218,126.536z"/>
	<path d="M248.138,124.743c0-0.8-0.017-1.457-0.064-2.097h1.248l0.08,1.28h0.032c0.385-0.736,1.28-1.457,2.562-1.457
		c1.072,0,2.736,0.641,2.736,3.297v4.626h-1.408v-4.466c0-1.249-0.464-2.289-1.793-2.289c-0.928,0-1.648,0.656-1.889,1.441
		c-0.063,0.176-0.096,0.416-0.096,0.656v4.658h-1.408V124.743z"/>
	<path d="M267.42,126.456c0,2.865-1.985,4.114-3.858,4.114c-2.097,0-3.713-1.537-3.713-3.986c0-2.593,1.696-4.114,3.842-4.114
		C265.915,122.47,267.42,124.087,267.42,126.456z M261.273,126.536c0,1.697,0.976,2.977,2.353,2.977
		c1.345,0,2.353-1.265,2.353-3.009c0-1.313-0.656-2.977-2.32-2.977C261.993,123.527,261.273,125.063,261.273,126.536z"/>
	<path d="M269.337,130.394v-6.675h-1.089v-1.072h1.089v-0.368c0-1.088,0.24-2.081,0.896-2.705c0.528-0.512,1.232-0.72,1.889-0.72
		c0.496,0,0.929,0.112,1.2,0.224l-0.191,1.088c-0.208-0.096-0.497-0.176-0.896-0.176c-1.201,0-1.505,1.057-1.505,2.241v0.416h1.873
		v1.072h-1.873v6.675H269.337z"/>
	<path d="M278.953,120.421v2.225h2.017v1.072h-2.017v4.178c0,0.96,0.272,1.505,1.057,1.505c0.368,0,0.64-0.048,0.816-0.096
		l0.063,1.056c-0.271,0.112-0.704,0.192-1.248,0.192c-0.656,0-1.185-0.208-1.521-0.592c-0.4-0.416-0.545-1.104-0.545-2.017v-4.226
		h-1.2v-1.072h1.2v-1.857L278.953,120.421z"/>
	<path d="M282.553,119.029h1.408v4.834h0.032c0.224-0.4,0.576-0.752,1.008-0.992c0.416-0.24,0.913-0.4,1.44-0.4
		c1.041,0,2.705,0.641,2.705,3.313v4.61h-1.408v-4.45c0-1.249-0.464-2.305-1.793-2.305c-0.912,0-1.633,0.641-1.889,1.409
		c-0.08,0.192-0.096,0.4-0.096,0.672v4.674h-1.408V119.029z"/>
	<path d="M292.217,126.776c0.031,1.905,1.248,2.689,2.657,2.689c1.008,0,1.616-0.176,2.145-0.4l0.24,1.008
		c-0.496,0.224-1.345,0.48-2.577,0.48c-2.385,0-3.81-1.569-3.81-3.906s1.376-4.178,3.634-4.178c2.528,0,3.201,2.225,3.201,3.649
		c0,0.288-0.032,0.512-0.049,0.656H292.217z M296.346,125.768c0.017-0.896-0.368-2.289-1.952-2.289
		c-1.425,0-2.049,1.313-2.161,2.289H296.346z"/>
	<path d="M18.225,149.305c-0.368,0.192-1.185,0.448-2.225,0.448c-2.337,0-3.857-1.585-3.857-3.954c0-2.385,1.632-4.114,4.162-4.114
		c0.832,0,1.568,0.208,1.953,0.4l-0.32,1.088c-0.336-0.192-0.864-0.368-1.632-0.368c-1.777,0-2.737,1.313-2.737,2.929
		c0,1.792,1.152,2.897,2.689,2.897c0.801,0,1.329-0.208,1.729-0.384L18.225,149.305z"/>
	<path d="M26.353,147.48c0,0.8,0.016,1.504,0.064,2.113h-1.249l-0.08-1.265h-0.032c-0.368,0.625-1.185,1.441-2.561,1.441
		c-1.216,0-2.673-0.672-2.673-3.394v-4.53h1.408v4.29c0,1.473,0.448,2.465,1.729,2.465c0.944,0,1.601-0.656,1.856-1.281
		c0.08-0.208,0.128-0.464,0.128-0.72v-4.754h1.408V147.48z"/>
	<path d="M28.687,144.263c0-0.913-0.016-1.697-0.064-2.417h1.232l0.048,1.521h0.064c0.352-1.041,1.2-1.697,2.145-1.697
		c0.16,0,0.272,0.016,0.4,0.048v1.328c-0.144-0.032-0.288-0.048-0.48-0.048c-0.992,0-1.697,0.752-1.889,1.809
		c-0.032,0.192-0.064,0.417-0.064,0.656v4.13h-1.393V144.263z"/>
	<path d="M33.982,144.263c0-0.913-0.016-1.697-0.064-2.417h1.232l0.048,1.521h0.064c0.352-1.041,1.2-1.697,2.145-1.697
		c0.16,0,0.272,0.016,0.4,0.048v1.328c-0.144-0.032-0.288-0.048-0.48-0.048c-0.992,0-1.697,0.752-1.889,1.809
		c-0.032,0.192-0.064,0.417-0.064,0.656v4.13h-1.393V144.263z"/>
	<path d="M39.838,145.976c0.032,1.905,1.249,2.689,2.657,2.689c1.008,0,1.617-0.176,2.145-0.4l0.24,1.008
		c-0.496,0.224-1.344,0.48-2.577,0.48c-2.385,0-3.81-1.569-3.81-3.906s1.376-4.178,3.633-4.178c2.529,0,3.201,2.225,3.201,3.649
		c0,0.288-0.032,0.512-0.048,0.656H39.838z M43.968,144.967c0.016-0.896-0.368-2.289-1.953-2.289c-1.425,0-2.049,1.313-2.161,2.289
		H43.968z"/>
	<path d="M47.071,143.943c0-0.8-0.016-1.457-0.064-2.097h1.249l0.08,1.28h0.032c0.384-0.736,1.281-1.457,2.561-1.457
		c1.073,0,2.737,0.641,2.737,3.297v4.626h-1.409v-4.466c0-1.249-0.464-2.289-1.792-2.289c-0.929,0-1.649,0.656-1.889,1.441
		c-0.064,0.176-0.096,0.416-0.096,0.656v4.658h-1.409V143.943z"/>
	<path d="M57.583,139.621v2.225H59.6v1.072h-2.017v4.178c0,0.96,0.272,1.505,1.056,1.505c0.368,0,0.641-0.048,0.816-0.096
		l0.064,1.056c-0.272,0.112-0.704,0.192-1.249,0.192c-0.656,0-1.184-0.208-1.521-0.592c-0.4-0.416-0.544-1.104-0.544-2.017v-4.226
		h-1.201v-1.072h1.201v-1.857L57.583,139.621z"/>
	<path d="M64.382,148.153c0.416,0.272,1.152,0.56,1.856,0.56c1.024,0,1.505-0.512,1.505-1.152c0-0.672-0.4-1.041-1.441-1.425
		c-1.393-0.496-2.049-1.264-2.049-2.193c0-1.249,1.009-2.273,2.673-2.273c0.784,0,1.473,0.224,1.905,0.48l-0.352,1.024
		c-0.304-0.192-0.865-0.448-1.585-0.448c-0.832,0-1.296,0.48-1.296,1.056c0,0.641,0.464,0.929,1.473,1.313
		c1.345,0.512,2.033,1.185,2.033,2.337c0,1.36-1.056,2.321-2.897,2.321c-0.849,0-1.633-0.208-2.177-0.528L64.382,148.153z"/>
	<path d="M72.479,139.669c0.016,0.48-0.336,0.864-0.896,0.864c-0.496,0-0.849-0.384-0.849-0.864c0-0.497,0.368-0.88,0.88-0.88
		C72.142,138.789,72.479,139.173,72.479,139.669z M70.91,149.593v-7.747h1.409v7.747H70.91z"/>
	<path d="M76.351,139.621v2.225h2.017v1.072h-2.017v4.178c0,0.96,0.272,1.505,1.056,1.505c0.368,0,0.641-0.048,0.816-0.096
		l0.064,1.056c-0.272,0.112-0.704,0.192-1.249,0.192c-0.656,0-1.184-0.208-1.521-0.592c-0.4-0.416-0.544-1.104-0.544-2.017v-4.226
		h-1.201v-1.072h1.201v-1.857L76.351,139.621z"/>
	<path d="M86.432,147.48c0,0.8,0.016,1.504,0.064,2.113h-1.249l-0.08-1.265h-0.032c-0.368,0.625-1.185,1.441-2.561,1.441
		c-1.216,0-2.673-0.672-2.673-3.394v-4.53h1.408v4.29c0,1.473,0.448,2.465,1.729,2.465c0.944,0,1.601-0.656,1.856-1.281
		c0.08-0.208,0.128-0.464,0.128-0.72v-4.754h1.408V147.48z"/>
	<path d="M93.056,149.593l-0.112-0.977h-0.048c-0.432,0.608-1.265,1.153-2.369,1.153c-1.569,0-2.369-1.104-2.369-2.225
		c0-1.873,1.665-2.897,4.658-2.881v-0.16c0-0.641-0.176-1.793-1.761-1.793c-0.72,0-1.473,0.224-2.017,0.576l-0.32-0.928
		c0.64-0.416,1.568-0.688,2.545-0.688c2.369,0,2.945,1.617,2.945,3.169v2.897c0,0.672,0.032,1.329,0.128,1.857H93.056z
		 M92.848,145.64c-1.537-0.032-3.281,0.24-3.281,1.745c0,0.913,0.608,1.345,1.329,1.345c1.008,0,1.648-0.64,1.873-1.296
		c0.048-0.144,0.08-0.304,0.08-0.448V145.64z"/>
	<path d="M98.11,139.621v2.225h2.017v1.072H98.11v4.178c0,0.96,0.272,1.505,1.056,1.505c0.368,0,0.641-0.048,0.816-0.096
		l0.064,1.056c-0.272,0.112-0.704,0.192-1.249,0.192c-0.656,0-1.184-0.208-1.521-0.592c-0.4-0.416-0.544-1.104-0.544-2.017v-4.226
		h-1.201v-1.072h1.201v-1.857L98.11,139.621z"/>
	<path d="M103.278,139.669c0.016,0.48-0.336,0.864-0.896,0.864c-0.496,0-0.849-0.384-0.849-0.864c0-0.497,0.368-0.88,0.88-0.88
		C102.942,138.789,103.278,139.173,103.278,139.669z M101.709,149.593v-7.747h1.409v7.747H101.709z"/>
	<path d="M112.464,145.656c0,2.865-1.985,4.114-3.857,4.114c-2.097,0-3.713-1.537-3.713-3.986c0-2.593,1.696-4.114,3.841-4.114
		C110.96,141.67,112.464,143.287,112.464,145.656z M106.318,145.736c0,1.697,0.977,2.977,2.353,2.977
		c1.345,0,2.353-1.265,2.353-3.009c0-1.313-0.656-2.977-2.321-2.977C107.038,142.727,106.318,144.263,106.318,145.736z"/>
	<path d="M114.238,143.943c0-0.8-0.016-1.457-0.064-2.097h1.249l0.08,1.28h0.032c0.384-0.736,1.281-1.457,2.561-1.457
		c1.073,0,2.737,0.641,2.737,3.297v4.626h-1.409v-4.466c0-1.249-0.464-2.289-1.792-2.289c-0.929,0-1.649,0.656-1.889,1.441
		c-0.064,0.176-0.096,0.416-0.096,0.656v4.658h-1.409V143.943z"/>
	<path d="M133.52,145.656c0,2.865-1.985,4.114-3.857,4.114c-2.097,0-3.713-1.537-3.713-3.986c0-2.593,1.696-4.114,3.841-4.114
		C132.016,141.67,133.52,143.287,133.52,145.656z M127.374,145.736c0,1.697,0.977,2.977,2.353,2.977
		c1.345,0,2.353-1.265,2.353-3.009c0-1.313-0.656-2.977-2.321-2.977C128.094,142.727,127.374,144.263,127.374,145.736z"/>
	<path d="M135.293,144.263c0-0.913-0.016-1.697-0.064-2.417h1.232l0.048,1.521h0.064c0.352-1.041,1.2-1.697,2.145-1.697
		c0.16,0,0.272,0.016,0.4,0.048v1.328c-0.144-0.032-0.288-0.048-0.48-0.048c-0.992,0-1.696,0.752-1.889,1.809
		c-0.032,0.192-0.064,0.417-0.064,0.656v4.13h-1.393V144.263z"/>
	<path d="M148.207,149.593l-0.112-0.977h-0.048c-0.432,0.608-1.265,1.153-2.369,1.153c-1.569,0-2.369-1.104-2.369-2.225
		c0-1.873,1.665-2.897,4.658-2.881v-0.16c0-0.641-0.176-1.793-1.761-1.793c-0.72,0-1.473,0.224-2.017,0.576l-0.32-0.928
		c0.64-0.416,1.568-0.688,2.545-0.688c2.369,0,2.945,1.617,2.945,3.169v2.897c0,0.672,0.032,1.329,0.128,1.857H148.207z
		 M147.999,145.64c-1.537-0.032-3.281,0.24-3.281,1.745c0,0.913,0.608,1.345,1.329,1.345c1.008,0,1.648-0.64,1.873-1.296
		c0.048-0.144,0.08-0.304,0.08-0.448V145.64z"/>
	<path d="M155.021,138.229h1.409v4.834h0.032c0.224-0.4,0.576-0.752,1.009-0.992c0.416-0.24,0.912-0.4,1.44-0.4
		c1.041,0,2.705,0.641,2.705,3.313v4.61h-1.409v-4.45c0-1.249-0.464-2.305-1.792-2.305c-0.913,0-1.633,0.641-1.889,1.409
		c-0.08,0.192-0.096,0.4-0.096,0.672v4.674h-1.409V138.229z"/>
	<path d="M165.47,139.669c0.016,0.48-0.337,0.864-0.896,0.864c-0.496,0-0.849-0.384-0.849-0.864c0-0.497,0.368-0.88,0.881-0.88
		C165.133,138.789,165.47,139.173,165.47,139.669z M163.901,149.593v-7.747h1.409v7.747H163.901z"/>
	<path d="M167.453,148.153c0.416,0.272,1.152,0.56,1.856,0.56c1.024,0,1.505-0.512,1.505-1.152c0-0.672-0.4-1.041-1.44-1.425
		c-1.393-0.496-2.049-1.264-2.049-2.193c0-1.249,1.008-2.273,2.673-2.273c0.784,0,1.473,0.224,1.904,0.48l-0.352,1.024
		c-0.305-0.192-0.864-0.448-1.585-0.448c-0.832,0-1.296,0.48-1.296,1.056c0,0.641,0.464,0.929,1.472,1.313
		c1.345,0.512,2.033,1.185,2.033,2.337c0,1.36-1.057,2.321-2.897,2.321c-0.848,0-1.632-0.208-2.177-0.528L167.453,148.153z"/>
	<path d="M175.678,139.621v2.225h2.017v1.072h-2.017v4.178c0,0.96,0.272,1.505,1.057,1.505c0.368,0,0.64-0.048,0.816-0.096
		l0.063,1.056c-0.271,0.112-0.704,0.192-1.248,0.192c-0.656,0-1.185-0.208-1.521-0.592c-0.4-0.416-0.545-1.104-0.545-2.017v-4.226
		h-1.2v-1.072h1.2v-1.857L175.678,139.621z"/>
	<path d="M186.192,145.656c0,2.865-1.985,4.114-3.858,4.114c-2.097,0-3.713-1.537-3.713-3.986c0-2.593,1.696-4.114,3.842-4.114
		C184.688,141.67,186.192,143.287,186.192,145.656z M180.046,145.736c0,1.697,0.976,2.977,2.353,2.977
		c1.345,0,2.353-1.265,2.353-3.009c0-1.313-0.656-2.977-2.32-2.977C180.766,142.727,180.046,144.263,180.046,145.736z"/>
	<path d="M187.965,144.263c0-0.913-0.017-1.697-0.064-2.417h1.232l0.048,1.521h0.064c0.352-1.041,1.2-1.697,2.145-1.697
		c0.16,0,0.272,0.016,0.4,0.048v1.328c-0.145-0.032-0.288-0.048-0.48-0.048c-0.992,0-1.696,0.752-1.889,1.809
		c-0.032,0.192-0.064,0.417-0.064,0.656v4.13h-1.392V144.263z"/>
	<path d="M194.83,139.669c0.016,0.48-0.336,0.864-0.896,0.864c-0.496,0-0.849-0.384-0.849-0.864c0-0.497,0.368-0.88,0.881-0.88
		C194.494,138.789,194.83,139.173,194.83,139.669z M193.262,149.593v-7.747h1.408v7.747H193.262z"/>
	<path d="M202.527,149.305c-0.368,0.192-1.185,0.448-2.225,0.448c-2.337,0-3.857-1.585-3.857-3.954c0-2.385,1.633-4.114,4.161-4.114
		c0.833,0,1.569,0.208,1.953,0.4l-0.32,1.088c-0.336-0.192-0.864-0.368-1.633-0.368c-1.776,0-2.736,1.313-2.736,2.929
		c0,1.792,1.152,2.897,2.688,2.897c0.801,0,1.329-0.208,1.729-0.384L202.527,149.305z"/>
	<path d="M208.463,149.593l-0.112-0.977h-0.048c-0.432,0.608-1.265,1.153-2.369,1.153c-1.568,0-2.368-1.104-2.368-2.225
		c0-1.873,1.664-2.897,4.657-2.881v-0.16c0-0.641-0.176-1.793-1.761-1.793c-0.72,0-1.473,0.224-2.017,0.576l-0.32-0.928
		c0.641-0.416,1.569-0.688,2.545-0.688c2.369,0,2.945,1.617,2.945,3.169v2.897c0,0.672,0.032,1.329,0.128,1.857H208.463z
		 M208.255,145.64c-1.536-0.032-3.281,0.24-3.281,1.745c0,0.913,0.608,1.345,1.328,1.345c1.009,0,1.649-0.64,1.873-1.296
		c0.048-0.144,0.08-0.304,0.08-0.448V145.64z"/>
	<path d="M211.886,138.229h1.408v11.365h-1.408V138.229z"/>
	<path d="M219.054,144.263c0-0.913-0.017-1.697-0.064-2.417h1.232l0.048,1.521h0.064c0.352-1.041,1.2-1.697,2.145-1.697
		c0.16,0,0.272,0.016,0.4,0.048v1.328c-0.145-0.032-0.288-0.048-0.48-0.048c-0.992,0-1.696,0.752-1.889,1.809
		c-0.032,0.192-0.063,0.417-0.063,0.656v4.13h-1.393V144.263z"/>
	<path d="M224.909,145.976c0.031,1.905,1.248,2.689,2.656,2.689c1.009,0,1.617-0.176,2.146-0.4l0.24,1.008
		c-0.496,0.224-1.345,0.48-2.577,0.48c-2.385,0-3.81-1.569-3.81-3.906s1.376-4.178,3.634-4.178c2.528,0,3.201,2.225,3.201,3.649
		c0,0.288-0.032,0.512-0.049,0.656H224.909z M229.038,144.967c0.017-0.896-0.368-2.289-1.952-2.289
		c-1.425,0-2.049,1.313-2.161,2.289H229.038z"/>
	<path d="M237.662,149.305c-0.368,0.192-1.185,0.448-2.225,0.448c-2.337,0-3.857-1.585-3.857-3.954c0-2.385,1.633-4.114,4.161-4.114
		c0.833,0,1.569,0.208,1.953,0.4l-0.32,1.088c-0.336-0.192-0.864-0.368-1.633-0.368c-1.776,0-2.736,1.313-2.736,2.929
		c0,1.792,1.152,2.897,2.688,2.897c0.801,0,1.329-0.208,1.729-0.384L237.662,149.305z"/>
	<path d="M246.224,145.656c0,2.865-1.985,4.114-3.858,4.114c-2.097,0-3.713-1.537-3.713-3.986c0-2.593,1.696-4.114,3.842-4.114
		C244.719,141.67,246.224,143.287,246.224,145.656z M240.077,145.736c0,1.697,0.976,2.977,2.353,2.977
		c1.345,0,2.353-1.265,2.353-3.009c0-1.313-0.656-2.977-2.32-2.977C240.797,142.727,240.077,144.263,240.077,145.736z"/>
	<path d="M247.997,144.263c0-0.913-0.017-1.697-0.064-2.417h1.232l0.048,1.521h0.064c0.352-1.041,1.2-1.697,2.145-1.697
		c0.16,0,0.272,0.016,0.4,0.048v1.328c-0.145-0.032-0.288-0.048-0.48-0.048c-0.992,0-1.696,0.752-1.889,1.809
		c-0.032,0.192-0.063,0.417-0.063,0.656v4.13h-1.393V144.263z"/>
	<path d="M259.759,138.229v9.364c0,0.688,0.016,1.473,0.063,2.001h-1.265l-0.063-1.345h-0.032c-0.432,0.865-1.376,1.521-2.641,1.521
		c-1.873,0-3.313-1.585-3.313-3.938c-0.017-2.577,1.585-4.162,3.474-4.162c1.185,0,1.984,0.561,2.337,1.185h0.031v-4.626H259.759z
		 M258.35,145c0-0.176-0.016-0.417-0.063-0.592c-0.208-0.896-0.977-1.633-2.033-1.633c-1.456,0-2.32,1.281-2.32,2.993
		c0,1.569,0.768,2.865,2.288,2.865c0.945,0,1.81-0.624,2.065-1.681c0.048-0.192,0.063-0.384,0.063-0.608V145z"/>
	<path d="M272.494,145.656c0,2.865-1.985,4.114-3.858,4.114c-2.097,0-3.713-1.537-3.713-3.986c0-2.593,1.696-4.114,3.842-4.114
		C270.989,141.67,272.494,143.287,272.494,145.656z M266.348,145.736c0,1.697,0.976,2.977,2.353,2.977
		c1.345,0,2.353-1.265,2.353-3.009c0-1.313-0.656-2.977-2.32-2.977C267.067,142.727,266.348,144.263,266.348,145.736z"/>
	<path d="M274.411,149.593v-6.675h-1.089v-1.072h1.089v-0.368c0-1.088,0.24-2.081,0.896-2.705c0.528-0.512,1.232-0.72,1.889-0.72
		c0.496,0,0.929,0.112,1.2,0.224l-0.191,1.088c-0.208-0.096-0.497-0.176-0.896-0.176c-1.201,0-1.505,1.057-1.505,2.241v0.416h1.873
		v1.072h-1.873v6.675H274.411z"/>
	<path d="M284.027,139.621v2.225h2.017v1.072h-2.017v4.178c0,0.96,0.272,1.505,1.057,1.505c0.368,0,0.64-0.048,0.816-0.096
		l0.063,1.056c-0.271,0.112-0.704,0.192-1.248,0.192c-0.656,0-1.185-0.208-1.521-0.592c-0.4-0.416-0.545-1.104-0.545-2.017v-4.226
		h-1.2v-1.072h1.2v-1.857L284.027,139.621z"/>
	<path d="M287.627,138.229h1.408v4.834h0.032c0.224-0.4,0.576-0.752,1.008-0.992c0.416-0.24,0.913-0.4,1.44-0.4
		c1.041,0,2.705,0.641,2.705,3.313v4.61h-1.408v-4.45c0-1.249-0.464-2.305-1.793-2.305c-0.912,0-1.633,0.641-1.889,1.409
		c-0.08,0.192-0.096,0.4-0.096,0.672v4.674h-1.408V138.229z"/>
	<path d="M297.291,145.976c0.031,1.905,1.248,2.689,2.657,2.689c1.008,0,1.616-0.176,2.145-0.4l0.24,1.008
		c-0.496,0.224-1.345,0.48-2.577,0.48c-2.385,0-3.81-1.569-3.81-3.906s1.376-4.178,3.634-4.178c2.528,0,3.201,2.225,3.201,3.649
		c0,0.288-0.032,0.512-0.049,0.656H297.291z M301.42,144.967c0.017-0.896-0.368-2.289-1.952-2.289c-1.425,0-2.049,1.313-2.161,2.289
		H301.42z"/>
	<path d="M16.992,168.794l-0.112-0.977h-0.048c-0.432,0.607-1.265,1.152-2.369,1.152c-1.569,0-2.369-1.104-2.369-2.225
		c0-1.873,1.665-2.897,4.658-2.882v-0.159c0-0.641-0.176-1.793-1.761-1.793c-0.72,0-1.473,0.224-2.017,0.576l-0.32-0.929
		c0.64-0.416,1.568-0.688,2.545-0.688c2.369,0,2.945,1.617,2.945,3.17v2.896c0,0.672,0.032,1.328,0.128,1.857H16.992z
		 M16.784,164.84c-1.537-0.032-3.281,0.24-3.281,1.745c0,0.912,0.608,1.344,1.329,1.344c1.008,0,1.648-0.64,1.873-1.296
		c0.048-0.144,0.08-0.304,0.08-0.448V164.84z"/>
	<path d="M25.937,168.505c-0.368,0.192-1.185,0.449-2.225,0.449c-2.337,0-3.857-1.586-3.857-3.954c0-2.386,1.632-4.114,4.162-4.114
		c0.832,0,1.568,0.209,1.953,0.4l-0.32,1.089c-0.336-0.192-0.864-0.368-1.632-0.368c-1.777,0-2.737,1.313-2.737,2.93
		c0,1.792,1.152,2.896,2.689,2.896c0.801,0,1.329-0.208,1.729-0.385L25.937,168.505z"/>
	<path d="M29.487,158.821v2.225h2.017v1.072h-2.017v4.178c0,0.961,0.272,1.506,1.056,1.506c0.368,0,0.641-0.049,0.816-0.097
		l0.064,1.056c-0.272,0.113-0.704,0.193-1.249,0.193c-0.656,0-1.184-0.209-1.521-0.593c-0.4-0.416-0.544-1.104-0.544-2.017v-4.227
		H26.91v-1.072h1.201v-1.856L29.487,158.821z"/>
	<path d="M34.655,158.87c0.016,0.479-0.336,0.863-0.896,0.863c-0.496,0-0.849-0.384-0.849-0.863c0-0.497,0.368-0.881,0.88-0.881
		C34.319,157.989,34.655,158.373,34.655,158.87z M33.086,168.794v-7.748h1.409v7.748H33.086z"/>
	<path d="M43.841,164.856c0,2.865-1.985,4.113-3.857,4.113c-2.097,0-3.713-1.537-3.713-3.986c0-2.592,1.696-4.113,3.841-4.113
		C42.337,160.87,43.841,162.487,43.841,164.856z M37.695,164.937c0,1.696,0.977,2.977,2.353,2.977c1.345,0,2.353-1.265,2.353-3.01
		c0-1.313-0.656-2.977-2.321-2.977C38.415,161.927,37.695,163.464,37.695,164.937z"/>
	<path d="M45.615,163.144c0-0.801-0.016-1.457-0.064-2.098h1.249l0.08,1.281h0.032c0.384-0.736,1.281-1.457,2.561-1.457
		c1.073,0,2.737,0.641,2.737,3.297v4.627h-1.409v-4.467c0-1.248-0.464-2.289-1.792-2.289c-0.929,0-1.649,0.656-1.889,1.441
		c-0.064,0.176-0.096,0.416-0.096,0.656v4.658h-1.409V163.144z"/>
	<path d="M54.303,167.353c0.416,0.272,1.152,0.561,1.856,0.561c1.024,0,1.505-0.512,1.505-1.152c0-0.672-0.4-1.041-1.441-1.425
		c-1.393-0.496-2.049-1.265-2.049-2.192c0-1.249,1.009-2.273,2.673-2.273c0.784,0,1.473,0.225,1.905,0.48l-0.352,1.024
		c-0.304-0.192-0.865-0.448-1.585-0.448c-0.832,0-1.296,0.48-1.296,1.057c0,0.641,0.464,0.928,1.473,1.313
		c1.345,0.512,2.033,1.184,2.033,2.337c0,1.36-1.056,2.321-2.897,2.321c-0.849,0-1.633-0.209-2.177-0.529L54.303,167.353z"/>
	<path d="M71.233,164.856c0,2.865-1.985,4.113-3.857,4.113c-2.097,0-3.713-1.537-3.713-3.986c0-2.592,1.696-4.113,3.841-4.113
		C69.729,160.87,71.233,162.487,71.233,164.856z M65.086,164.937c0,1.696,0.977,2.977,2.353,2.977c1.345,0,2.353-1.265,2.353-3.01
		c0-1.313-0.656-2.977-2.321-2.977C65.807,161.927,65.086,163.464,65.086,164.937z"/>
	<path d="M73.15,168.794v-6.676h-1.088v-1.072h1.088v-0.367c0-1.089,0.24-2.082,0.896-2.705c0.528-0.513,1.232-0.721,1.889-0.721
		c0.496,0,0.928,0.111,1.201,0.225l-0.192,1.088c-0.208-0.096-0.496-0.176-0.896-0.176c-1.2,0-1.504,1.057-1.504,2.24v0.416h1.873
		v1.072h-1.873v6.676H73.15z"/>
	<path d="M82.767,158.821v2.225h2.017v1.072h-2.017v4.178c0,0.961,0.272,1.506,1.056,1.506c0.368,0,0.641-0.049,0.816-0.097
		l0.064,1.056c-0.272,0.113-0.704,0.193-1.249,0.193c-0.656,0-1.184-0.209-1.521-0.593c-0.4-0.416-0.544-1.104-0.544-2.017v-4.227
		h-1.201v-1.072h1.201v-1.856L82.767,158.821z"/>
	<path d="M86.366,157.429h1.409v4.834h0.032c0.224-0.4,0.576-0.752,1.009-0.992c0.416-0.24,0.912-0.4,1.44-0.4
		c1.041,0,2.705,0.641,2.705,3.313v4.61h-1.409v-4.45c0-1.249-0.464-2.306-1.792-2.306c-0.913,0-1.633,0.641-1.889,1.409
		c-0.08,0.192-0.096,0.4-0.096,0.673v4.674h-1.409V157.429z"/>
	<path d="M96.03,165.176c0.032,1.905,1.249,2.689,2.657,2.689c1.008,0,1.617-0.177,2.145-0.4l0.24,1.009
		c-0.496,0.224-1.344,0.48-2.577,0.48c-2.385,0-3.81-1.569-3.81-3.906s1.376-4.178,3.633-4.178c2.529,0,3.201,2.225,3.201,3.649
		c0,0.288-0.032,0.513-0.048,0.656H96.03z M100.16,164.167c0.016-0.896-0.368-2.289-1.953-2.289c-1.425,0-2.049,1.313-2.161,2.289
		H100.16z"/>
	<path d="M106.653,163.575c0-0.992-0.032-1.793-0.064-2.529h1.265l0.064,1.329h0.032c0.576-0.944,1.489-1.505,2.753-1.505
		c1.873,0,3.281,1.585,3.281,3.938c0,2.785-1.697,4.162-3.521,4.162c-1.024,0-1.921-0.448-2.385-1.217h-0.032v4.21h-1.393V163.575z
		 M108.045,165.64c0,0.209,0.032,0.4,0.064,0.576c0.256,0.977,1.104,1.649,2.113,1.649c1.489,0,2.353-1.217,2.353-2.993
		c0-1.553-0.816-2.881-2.305-2.881c-0.96,0-1.857,0.688-2.129,1.744c-0.048,0.176-0.096,0.385-0.096,0.576V165.64z"/>
	<path d="M115.756,163.464c0-0.913-0.016-1.697-0.064-2.418h1.232l0.048,1.521h0.064c0.352-1.041,1.2-1.697,2.145-1.697
		c0.16,0,0.272,0.016,0.4,0.049v1.328c-0.144-0.032-0.288-0.049-0.48-0.049c-0.992,0-1.696,0.753-1.889,1.809
		c-0.032,0.193-0.064,0.417-0.064,0.656v4.131h-1.393V163.464z"/>
	<path d="M127.839,164.856c0,2.865-1.985,4.113-3.857,4.113c-2.097,0-3.713-1.537-3.713-3.986c0-2.592,1.697-4.113,3.841-4.113
		C126.334,160.87,127.839,162.487,127.839,164.856z M121.692,164.937c0,1.696,0.977,2.977,2.353,2.977
		c1.345,0,2.353-1.265,2.353-3.01c0-1.313-0.656-2.977-2.321-2.977C122.413,161.927,121.692,163.464,121.692,164.937z"/>
	<path d="M127.723,171.034c0.64-0.048,1.2-0.225,1.537-0.592c0.384-0.448,0.528-1.057,0.528-2.914v-6.482h1.408v7.027
		c0,1.504-0.24,2.48-0.928,3.186c-0.624,0.624-1.648,0.88-2.401,0.88L127.723,171.034z M131.356,158.87
		c0.016,0.463-0.32,0.863-0.88,0.863c-0.528,0-0.864-0.4-0.864-0.863c0-0.497,0.368-0.881,0.896-0.881
		C131.021,157.989,131.356,158.373,131.356,158.87z"/>
	<path d="M134.284,165.176c0.032,1.905,1.249,2.689,2.657,2.689c1.008,0,1.617-0.177,2.145-0.4l0.24,1.009
		c-0.496,0.224-1.344,0.48-2.577,0.48c-2.385,0-3.81-1.569-3.81-3.906s1.376-4.178,3.633-4.178c2.529,0,3.201,2.225,3.201,3.649
		c0,0.288-0.032,0.513-0.048,0.656H134.284z M138.414,164.167c0.016-0.896-0.368-2.289-1.953-2.289
		c-1.425,0-2.049,1.313-2.161,2.289H138.414z"/>
	<path d="M147.038,168.505c-0.368,0.192-1.185,0.449-2.225,0.449c-2.337,0-3.857-1.586-3.857-3.954c0-2.386,1.632-4.114,4.162-4.114
		c0.832,0,1.568,0.209,1.953,0.4l-0.32,1.089c-0.336-0.192-0.864-0.368-1.632-0.368c-1.777,0-2.737,1.313-2.737,2.93
		c0,1.792,1.152,2.896,2.689,2.896c0.801,0,1.329-0.208,1.729-0.385L147.038,168.505z"/>
	<path d="M150.588,158.821v2.225h2.017v1.072h-2.017v4.178c0,0.961,0.272,1.506,1.056,1.506c0.368,0,0.641-0.049,0.816-0.097
		l0.064,1.056c-0.272,0.113-0.704,0.193-1.249,0.193c-0.656,0-1.184-0.209-1.521-0.593c-0.4-0.416-0.544-1.104-0.544-2.017v-4.227
		h-1.201v-1.072h1.201v-1.856L150.588,158.821z"/>
	<path d="M153.227,170.763c0.353-0.945,0.785-2.658,0.96-3.826l1.569-0.16c-0.368,1.361-1.072,3.138-1.521,3.89L153.227,170.763z"/>
	<path d="M160.778,168.794c0.032-0.529,0.064-1.313,0.064-2.002v-9.363h1.393v4.866h0.032c0.496-0.864,1.393-1.425,2.641-1.425
		c1.921,0,3.281,1.601,3.265,3.953c0,2.77-1.744,4.146-3.474,4.146c-1.12,0-2.016-0.432-2.592-1.457h-0.048l-0.064,1.281H160.778z
		 M162.235,165.688c0,0.176,0.032,0.352,0.064,0.512c0.272,0.977,1.088,1.648,2.113,1.648c1.473,0,2.353-1.2,2.353-2.977
		c0-1.553-0.8-2.881-2.305-2.881c-0.96,0-1.857,0.656-2.145,1.729c-0.032,0.16-0.08,0.352-0.08,0.576V165.688z"/>
	<path d="M176.429,166.681c0,0.801,0.016,1.504,0.063,2.113h-1.248l-0.08-1.266h-0.032c-0.368,0.625-1.185,1.441-2.561,1.441
		c-1.217,0-2.674-0.672-2.674-3.394v-4.53h1.409v4.29c0,1.473,0.448,2.466,1.729,2.466c0.944,0,1.601-0.656,1.856-1.281
		c0.08-0.208,0.128-0.465,0.128-0.721v-4.754h1.409V166.681z"/>
	<path d="M180.459,158.821v2.225h2.017v1.072h-2.017v4.178c0,0.961,0.272,1.506,1.057,1.506c0.368,0,0.64-0.049,0.816-0.097
		l0.063,1.056c-0.271,0.113-0.704,0.193-1.248,0.193c-0.656,0-1.185-0.209-1.521-0.593c-0.4-0.416-0.545-1.104-0.545-2.017v-4.227
		h-1.2v-1.072h1.2v-1.856L180.459,158.821z"/>
	<path d="M187.258,167.353c0.416,0.272,1.152,0.561,1.856,0.561c1.024,0,1.505-0.512,1.505-1.152c0-0.672-0.4-1.041-1.44-1.425
		c-1.393-0.496-2.049-1.265-2.049-2.192c0-1.249,1.008-2.273,2.673-2.273c0.784,0,1.473,0.225,1.904,0.48l-0.352,1.024
		c-0.305-0.192-0.864-0.448-1.585-0.448c-0.832,0-1.296,0.48-1.296,1.057c0,0.641,0.464,0.928,1.472,1.313
		c1.345,0.512,2.033,1.184,2.033,2.337c0,1.36-1.057,2.321-2.897,2.321c-0.848,0-1.632-0.209-2.177-0.529L187.258,167.353z"/>
	<path d="M193.786,157.429h1.408v4.834h0.032c0.224-0.4,0.576-0.752,1.008-0.992c0.416-0.24,0.913-0.4,1.44-0.4
		c1.041,0,2.705,0.641,2.705,3.313v4.61h-1.408v-4.45c0-1.249-0.464-2.306-1.793-2.306c-0.912,0-1.633,0.641-1.889,1.409
		c-0.08,0.192-0.096,0.4-0.096,0.673v4.674h-1.408V157.429z"/>
	<path d="M209.677,164.856c0,2.865-1.985,4.113-3.858,4.113c-2.097,0-3.713-1.537-3.713-3.986c0-2.592,1.696-4.113,3.842-4.113
		C208.172,160.87,209.677,162.487,209.677,164.856z M203.53,164.937c0,1.696,0.976,2.977,2.353,2.977
		c1.345,0,2.353-1.265,2.353-3.01c0-1.313-0.656-2.977-2.32-2.977C204.25,161.927,203.53,163.464,203.53,164.937z"/>
	<path d="M217.933,166.681c0,0.801,0.016,1.504,0.063,2.113h-1.248l-0.08-1.266h-0.032c-0.368,0.625-1.185,1.441-2.561,1.441
		c-1.217,0-2.674-0.672-2.674-3.394v-4.53h1.409v4.29c0,1.473,0.448,2.466,1.729,2.466c0.944,0,1.601-0.656,1.856-1.281
		c0.08-0.208,0.128-0.465,0.128-0.721v-4.754h1.409V166.681z"/>
	<path d="M220.267,157.429h1.408v11.365h-1.408V157.429z"/>
	<path d="M230.732,157.429v9.363c0,0.689,0.016,1.473,0.063,2.002h-1.264l-0.064-1.346h-0.032c-0.432,0.865-1.376,1.521-2.641,1.521
		c-1.873,0-3.313-1.585-3.313-3.938c-0.017-2.577,1.585-4.162,3.474-4.162c1.185,0,1.984,0.561,2.337,1.185h0.031v-4.626H230.732z
		 M229.323,164.2c0-0.177-0.016-0.417-0.063-0.593c-0.208-0.896-0.977-1.633-2.033-1.633c-1.456,0-2.32,1.28-2.32,2.993
		c0,1.568,0.768,2.865,2.288,2.865c0.945,0,1.81-0.624,2.065-1.681c0.048-0.192,0.063-0.384,0.063-0.608V164.2z"/>
	<path d="M240.746,168.794l-0.112-0.977h-0.048c-0.432,0.607-1.265,1.152-2.369,1.152c-1.568,0-2.368-1.104-2.368-2.225
		c0-1.873,1.664-2.897,4.657-2.882v-0.159c0-0.641-0.176-1.793-1.761-1.793c-0.72,0-1.473,0.224-2.017,0.576l-0.32-0.929
		c0.641-0.416,1.569-0.688,2.545-0.688c2.369,0,2.945,1.617,2.945,3.17v2.896c0,0.672,0.032,1.328,0.128,1.857H240.746z
		 M240.538,164.84c-1.536-0.032-3.281,0.24-3.281,1.745c0,0.912,0.608,1.344,1.328,1.344c1.009,0,1.649-0.64,1.873-1.296
		c0.048-0.144,0.08-0.304,0.08-0.448V164.84z"/>
	<path d="M244.169,157.429h1.408v11.365h-1.408V157.429z"/>
	<path d="M247.752,167.353c0.416,0.272,1.152,0.561,1.856,0.561c1.024,0,1.505-0.512,1.505-1.152c0-0.672-0.4-1.041-1.44-1.425
		c-1.393-0.496-2.049-1.265-2.049-2.192c0-1.249,1.008-2.273,2.673-2.273c0.784,0,1.473,0.225,1.904,0.48l-0.352,1.024
		c-0.305-0.192-0.864-0.448-1.585-0.448c-0.832,0-1.296,0.48-1.296,1.057c0,0.641,0.464,0.928,1.472,1.313
		c1.345,0.512,2.033,1.184,2.033,2.337c0,1.36-1.057,2.321-2.897,2.321c-0.848,0-1.632-0.209-2.177-0.529L247.752,167.353z"/>
	<path d="M261.291,164.856c0,2.865-1.985,4.113-3.858,4.113c-2.097,0-3.713-1.537-3.713-3.986c0-2.592,1.696-4.113,3.842-4.113
		C259.786,160.87,261.291,162.487,261.291,164.856z M255.145,164.937c0,1.696,0.976,2.977,2.353,2.977
		c1.345,0,2.353-1.265,2.353-3.01c0-1.313-0.656-2.977-2.32-2.977C255.864,161.927,255.145,163.464,255.145,164.937z"/>
	<path d="M14.271,178.069c0.016,0.48-0.336,0.864-0.896,0.864c-0.496,0-0.849-0.384-0.849-0.864c0-0.496,0.368-0.881,0.88-0.881
		C13.935,177.188,14.271,177.573,14.271,178.069z M12.703,187.993v-7.747h1.409v7.747H12.703z"/>
	<path d="M16.447,182.343c0-0.801-0.016-1.457-0.064-2.097h1.249l0.08,1.28h0.032c0.384-0.736,1.281-1.457,2.561-1.457
		c1.073,0,2.737,0.641,2.737,3.298v4.626h-1.409v-4.466c0-1.249-0.464-2.289-1.792-2.289c-0.929,0-1.649,0.656-1.889,1.44
		c-0.064,0.176-0.096,0.416-0.096,0.656v4.658h-1.409V182.343z"/>
	<path d="M30.849,187.705c-0.368,0.192-1.185,0.448-2.225,0.448c-2.337,0-3.857-1.585-3.857-3.953c0-2.386,1.632-4.114,4.162-4.114
		c0.832,0,1.568,0.208,1.953,0.4l-0.32,1.089c-0.336-0.193-0.864-0.369-1.632-0.369c-1.777,0-2.737,1.313-2.737,2.93
		c0,1.793,1.152,2.896,2.689,2.896c0.801,0,1.329-0.207,1.729-0.384L30.849,187.705z"/>
	<path d="M32.495,176.628h1.409v11.365h-1.409V176.628z"/>
	<path d="M42.753,185.88c0,0.801,0.016,1.505,0.064,2.113h-1.249l-0.08-1.265h-0.032c-0.368,0.624-1.185,1.44-2.561,1.44
		c-1.216,0-2.673-0.672-2.673-3.393v-4.53h1.408v4.29c0,1.473,0.448,2.465,1.729,2.465c0.944,0,1.601-0.656,1.856-1.281
		c0.08-0.207,0.128-0.464,0.128-0.72v-4.754h1.408V185.88z"/>
	<path d="M51.777,176.628v9.364c0,0.688,0.016,1.473,0.064,2.001h-1.265l-0.064-1.345H50.48c-0.432,0.864-1.376,1.521-2.641,1.521
		c-1.873,0-3.313-1.584-3.313-3.938c-0.016-2.576,1.584-4.162,3.473-4.162c1.185,0,1.985,0.561,2.337,1.186h0.032v-4.627H51.777z
		 M50.369,183.399c0-0.176-0.016-0.416-0.064-0.592c-0.208-0.896-0.977-1.633-2.033-1.633c-1.457,0-2.321,1.28-2.321,2.992
		c0,1.569,0.769,2.865,2.289,2.865c0.944,0,1.809-0.623,2.065-1.68c0.048-0.192,0.064-0.385,0.064-0.609V183.399z"/>
	<path d="M54.895,184.376c0.032,1.904,1.249,2.689,2.657,2.689c1.008,0,1.617-0.177,2.145-0.4l0.24,1.008
		c-0.496,0.225-1.344,0.48-2.577,0.48c-2.385,0-3.81-1.568-3.81-3.906c0-2.336,1.376-4.178,3.633-4.178
		c2.529,0,3.201,2.226,3.201,3.65c0,0.287-0.032,0.512-0.048,0.656H54.895z M59.024,183.367c0.016-0.896-0.368-2.288-1.953-2.288
		c-1.425,0-2.049,1.313-2.161,2.288H59.024z"/>
	<path d="M65.518,182.663c0-0.912-0.016-1.697-0.064-2.417h1.232l0.048,1.521h0.064c0.352-1.041,1.2-1.697,2.145-1.697
		c0.16,0,0.272,0.017,0.4,0.049v1.328c-0.144-0.031-0.288-0.048-0.48-0.048c-0.992,0-1.696,0.753-1.889,1.809
		c-0.032,0.192-0.064,0.417-0.064,0.656v4.13h-1.393V182.663z"/>
	<path d="M71.375,184.376c0.032,1.904,1.249,2.689,2.657,2.689c1.008,0,1.617-0.177,2.145-0.4l0.24,1.008
		c-0.496,0.225-1.344,0.48-2.577,0.48c-2.385,0-3.81-1.568-3.81-3.906c0-2.336,1.376-4.178,3.633-4.178
		c2.529,0,3.201,2.226,3.201,3.65c0,0.287-0.032,0.512-0.048,0.656H71.375z M75.504,183.367c0.016-0.896-0.368-2.288-1.953-2.288
		c-1.425,0-2.049,1.313-2.161,2.288H75.504z"/>
	<path d="M84.128,187.705c-0.368,0.192-1.185,0.448-2.225,0.448c-2.337,0-3.857-1.585-3.857-3.953c0-2.386,1.632-4.114,4.162-4.114
		c0.832,0,1.568,0.208,1.953,0.4l-0.32,1.089c-0.336-0.193-0.864-0.369-1.632-0.369c-1.777,0-2.737,1.313-2.737,2.93
		c0,1.793,1.152,2.896,2.689,2.896c0.801,0,1.329-0.207,1.729-0.384L84.128,187.705z"/>
	<path d="M92.689,184.056c0,2.865-1.985,4.113-3.857,4.113c-2.097,0-3.713-1.536-3.713-3.985c0-2.593,1.696-4.114,3.841-4.114
		C91.185,180.069,92.689,181.687,92.689,184.056z M86.542,184.136c0,1.697,0.977,2.977,2.353,2.977c1.345,0,2.353-1.264,2.353-3.009
		c0-1.313-0.656-2.978-2.321-2.978C87.263,181.126,86.542,182.663,86.542,184.136z"/>
	<path d="M94.462,182.343c0-0.801-0.016-1.457-0.064-2.097h1.232l0.064,1.249h0.048c0.432-0.736,1.152-1.426,2.433-1.426
		c1.057,0,1.857,0.641,2.193,1.553h0.032c0.24-0.432,0.544-0.768,0.864-1.008c0.464-0.352,0.977-0.545,1.713-0.545
		c1.024,0,2.545,0.673,2.545,3.361v4.563h-1.376v-4.386c0-1.489-0.544-2.385-1.681-2.385c-0.8,0-1.425,0.592-1.665,1.28
		c-0.064,0.191-0.112,0.448-0.112,0.704v4.786h-1.376v-4.643c0-1.232-0.544-2.128-1.617-2.128c-0.88,0-1.521,0.704-1.745,1.408
		c-0.08,0.208-0.112,0.448-0.112,0.688v4.674h-1.376V182.343z"/>
	<path d="M107.806,182.343c0-0.801-0.016-1.457-0.064-2.097h1.232l0.064,1.249h0.048c0.432-0.736,1.152-1.426,2.433-1.426
		c1.057,0,1.857,0.641,2.193,1.553h0.032c0.24-0.432,0.544-0.768,0.864-1.008c0.464-0.352,0.977-0.545,1.713-0.545
		c1.024,0,2.545,0.673,2.545,3.361v4.563h-1.376v-4.386c0-1.489-0.544-2.385-1.681-2.385c-0.8,0-1.425,0.592-1.665,1.28
		c-0.064,0.191-0.112,0.448-0.112,0.704v4.786h-1.376v-4.643c0-1.232-0.544-2.128-1.617-2.128c-0.88,0-1.521,0.704-1.745,1.408
		c-0.08,0.208-0.112,0.448-0.112,0.688v4.674h-1.376V182.343z"/>
	<path d="M121.934,184.376c0.032,1.904,1.249,2.689,2.657,2.689c1.008,0,1.617-0.177,2.145-0.4l0.24,1.008
		c-0.496,0.225-1.344,0.48-2.577,0.48c-2.385,0-3.81-1.568-3.81-3.906c0-2.336,1.376-4.178,3.633-4.178
		c2.529,0,3.201,2.226,3.201,3.65c0,0.287-0.032,0.512-0.048,0.656H121.934z M126.064,183.367c0.016-0.896-0.368-2.288-1.953-2.288
		c-1.425,0-2.049,1.313-2.161,2.288H126.064z"/>
	<path d="M129.166,182.343c0-0.801-0.016-1.457-0.064-2.097h1.249l0.08,1.28h0.032c0.384-0.736,1.281-1.457,2.561-1.457
		c1.073,0,2.737,0.641,2.737,3.298v4.626h-1.409v-4.466c0-1.249-0.464-2.289-1.792-2.289c-0.929,0-1.649,0.656-1.889,1.44
		c-0.064,0.176-0.096,0.416-0.096,0.656v4.658h-1.409V182.343z"/>
	<path d="M144.736,176.628v9.364c0,0.688,0.016,1.473,0.064,2.001h-1.265l-0.064-1.345h-0.032c-0.432,0.864-1.376,1.521-2.641,1.521
		c-1.873,0-3.313-1.584-3.313-3.938c-0.016-2.576,1.584-4.162,3.473-4.162c1.185,0,1.985,0.561,2.337,1.186h0.032v-4.627H144.736z
		 M143.328,183.399c0-0.176-0.016-0.416-0.064-0.592c-0.208-0.896-0.977-1.633-2.033-1.633c-1.457,0-2.321,1.28-2.321,2.992
		c0,1.569,0.769,2.865,2.289,2.865c0.944,0,1.809-0.623,2.065-1.68c0.048-0.192,0.064-0.385,0.064-0.609V183.399z"/>
	<path d="M151.359,187.993l-0.112-0.977h-0.048c-0.433,0.608-1.265,1.152-2.369,1.152c-1.569,0-2.369-1.104-2.369-2.225
		c0-1.873,1.665-2.896,4.658-2.881v-0.16c0-0.641-0.176-1.793-1.761-1.793c-0.72,0-1.473,0.225-2.017,0.576l-0.32-0.928
		c0.64-0.416,1.568-0.689,2.545-0.689c2.369,0,2.945,1.617,2.945,3.17v2.896c0,0.673,0.032,1.329,0.128,1.857H151.359z
		 M151.151,184.04c-1.537-0.033-3.281,0.24-3.281,1.744c0,0.912,0.608,1.345,1.329,1.345c1.008,0,1.648-0.64,1.873-1.296
		c0.048-0.145,0.08-0.305,0.08-0.449V184.04z"/>
	<path d="M156.414,178.021v2.226h2.017v1.072h-2.017v4.178c0,0.96,0.272,1.505,1.056,1.505c0.368,0,0.641-0.049,0.816-0.096
		l0.064,1.056c-0.272,0.112-0.704,0.192-1.249,0.192c-0.656,0-1.184-0.208-1.521-0.592c-0.4-0.416-0.544-1.105-0.544-2.018v-4.226
		h-1.201v-1.072h1.201v-1.856L156.414,178.021z"/>
	<path d="M161.582,178.069c0.016,0.48-0.336,0.864-0.896,0.864c-0.496,0-0.849-0.384-0.849-0.864c0-0.496,0.368-0.881,0.88-0.881
		C161.246,177.188,161.582,177.573,161.582,178.069z M160.013,187.993v-7.747h1.409v7.747H160.013z"/>
	<path d="M170.768,184.056c0,2.865-1.984,4.113-3.857,4.113c-2.097,0-3.713-1.536-3.713-3.985c0-2.593,1.697-4.114,3.841-4.114
		C169.263,180.069,170.768,181.687,170.768,184.056z M164.621,184.136c0,1.697,0.977,2.977,2.354,2.977
		c1.344,0,2.353-1.264,2.353-3.009c0-1.313-0.656-2.978-2.321-2.978C165.342,181.126,164.621,182.663,164.621,184.136z"/>
	<path d="M172.541,182.343c0-0.801-0.017-1.457-0.064-2.097h1.248l0.08,1.28h0.032c0.385-0.736,1.28-1.457,2.562-1.457
		c1.072,0,2.736,0.641,2.736,3.298v4.626h-1.408v-4.466c0-1.249-0.464-2.289-1.793-2.289c-0.928,0-1.648,0.656-1.889,1.44
		c-0.063,0.176-0.096,0.416-0.096,0.656v4.658h-1.408V182.343z"/>
	<path d="M181.229,186.553c0.416,0.272,1.152,0.56,1.856,0.56c1.024,0,1.505-0.512,1.505-1.152c0-0.672-0.4-1.04-1.44-1.424
		c-1.393-0.496-2.049-1.265-2.049-2.193c0-1.248,1.008-2.273,2.673-2.273c0.784,0,1.473,0.225,1.904,0.48l-0.352,1.025
		c-0.305-0.193-0.864-0.449-1.585-0.449c-0.832,0-1.296,0.48-1.296,1.057c0,0.641,0.464,0.929,1.472,1.313
		c1.345,0.512,2.033,1.185,2.033,2.338c0,1.359-1.057,2.32-2.897,2.32c-0.848,0-1.632-0.208-2.177-0.528L181.229,186.553z"/>
	<path d="M191.292,187.993v-6.675h-1.089v-1.072h1.089v-0.368c0-1.088,0.24-2.081,0.896-2.705c0.528-0.512,1.232-0.721,1.889-0.721
		c0.496,0,0.929,0.112,1.2,0.225l-0.191,1.088c-0.208-0.096-0.497-0.176-0.896-0.176c-1.201,0-1.505,1.057-1.505,2.241v0.416h1.873
		v1.072h-1.873v6.675H191.292z"/>
	<path d="M195.82,182.663c0-0.912-0.017-1.697-0.064-2.417h1.232l0.048,1.521h0.064c0.352-1.041,1.2-1.697,2.145-1.697
		c0.16,0,0.272,0.017,0.4,0.049v1.328c-0.145-0.031-0.288-0.048-0.48-0.048c-0.992,0-1.696,0.753-1.889,1.809
		c-0.032,0.192-0.064,0.417-0.064,0.656v4.13h-1.392V182.663z"/>
	<path d="M207.904,184.056c0,2.865-1.985,4.113-3.858,4.113c-2.097,0-3.713-1.536-3.713-3.985c0-2.593,1.696-4.114,3.842-4.114
		C206.399,180.069,207.904,181.687,207.904,184.056z M201.758,184.136c0,1.697,0.976,2.977,2.353,2.977
		c1.345,0,2.353-1.264,2.353-3.009c0-1.313-0.656-2.978-2.32-2.978C202.478,181.126,201.758,182.663,201.758,184.136z"/>
	<path d="M209.678,182.343c0-0.801-0.017-1.457-0.064-2.097h1.232l0.064,1.249h0.048c0.432-0.736,1.152-1.426,2.433-1.426
		c1.057,0,1.856,0.641,2.193,1.553h0.031c0.24-0.432,0.545-0.768,0.865-1.008c0.464-0.352,0.976-0.545,1.712-0.545
		c1.024,0,2.545,0.673,2.545,3.361v4.563h-1.376v-4.386c0-1.489-0.544-2.385-1.681-2.385c-0.801,0-1.425,0.592-1.665,1.28
		c-0.063,0.191-0.112,0.448-0.112,0.704v4.786h-1.376v-4.643c0-1.232-0.544-2.128-1.617-2.128c-0.88,0-1.521,0.704-1.744,1.408
		c-0.08,0.208-0.112,0.448-0.112,0.688v4.674h-1.376V182.343z"/>
	<path d="M228.109,178.021v2.226h2.017v1.072h-2.017v4.178c0,0.96,0.272,1.505,1.057,1.505c0.368,0,0.64-0.049,0.816-0.096
		l0.063,1.056c-0.271,0.112-0.704,0.192-1.248,0.192c-0.656,0-1.185-0.208-1.521-0.592c-0.4-0.416-0.545-1.105-0.545-2.018v-4.226
		h-1.2v-1.072h1.2v-1.856L228.109,178.021z"/>
	<path d="M231.709,176.628h1.408v4.834h0.032c0.224-0.399,0.576-0.752,1.008-0.992c0.416-0.24,0.913-0.4,1.44-0.4
		c1.041,0,2.705,0.641,2.705,3.314v4.609h-1.408v-4.449c0-1.249-0.464-2.306-1.793-2.306c-0.912,0-1.633,0.641-1.889,1.409
		c-0.08,0.191-0.096,0.4-0.096,0.672v4.674h-1.408V176.628z"/>
	<path d="M241.373,184.376c0.031,1.904,1.248,2.689,2.657,2.689c1.008,0,1.616-0.177,2.145-0.4l0.24,1.008
		c-0.496,0.225-1.345,0.48-2.577,0.48c-2.385,0-3.81-1.568-3.81-3.906c0-2.336,1.376-4.178,3.634-4.178
		c2.528,0,3.201,2.226,3.201,3.65c0,0.287-0.032,0.512-0.049,0.656H241.373z M245.502,183.367c0.017-0.896-0.368-2.288-1.952-2.288
		c-1.425,0-2.049,1.313-2.161,2.288H245.502z"/>
	<path d="M251.996,182.774c0-0.992-0.032-1.792-0.064-2.528h1.265l0.063,1.329h0.032c0.576-0.945,1.488-1.506,2.753-1.506
		c1.873,0,3.281,1.586,3.281,3.938c0,2.785-1.696,4.162-3.521,4.162c-1.024,0-1.92-0.447-2.385-1.217h-0.032v4.211h-1.392V182.774z
		 M253.388,184.84c0,0.208,0.032,0.4,0.064,0.576c0.256,0.977,1.104,1.649,2.113,1.649c1.488,0,2.353-1.217,2.353-2.994
		c0-1.553-0.816-2.881-2.305-2.881c-0.961,0-1.857,0.688-2.129,1.744c-0.048,0.177-0.097,0.385-0.097,0.576V184.84z"/>
	<path d="M261.1,182.663c0-0.912-0.017-1.697-0.064-2.417h1.232l0.048,1.521h0.064c0.352-1.041,1.2-1.697,2.145-1.697
		c0.16,0,0.272,0.017,0.4,0.049v1.328c-0.145-0.031-0.288-0.048-0.48-0.048c-0.992,0-1.696,0.753-1.889,1.809
		c-0.032,0.192-0.064,0.417-0.064,0.656v4.13H261.1V182.663z"/>
	<path d="M273.182,184.056c0,2.865-1.985,4.113-3.858,4.113c-2.097,0-3.713-1.536-3.713-3.985c0-2.593,1.696-4.114,3.842-4.114
		C271.677,180.069,273.182,181.687,273.182,184.056z M267.035,184.136c0,1.697,0.976,2.977,2.353,2.977
		c1.345,0,2.353-1.264,2.353-3.009c0-1.313-0.656-2.978-2.32-2.978C267.755,181.126,267.035,182.663,267.035,184.136z"/>
	<path d="M273.065,190.233c0.641-0.047,1.201-0.224,1.537-0.592c0.384-0.447,0.528-1.057,0.528-2.913v-6.482h1.408v7.026
		c0,1.505-0.24,2.481-0.928,3.186c-0.625,0.625-1.649,0.881-2.401,0.881L273.065,190.233z M276.699,178.069
		c0.016,0.464-0.32,0.864-0.88,0.864c-0.528,0-0.864-0.4-0.864-0.864c0-0.496,0.368-0.881,0.896-0.881
		C276.363,177.188,276.699,177.573,276.699,178.069z"/>
	<path d="M279.627,184.376c0.031,1.904,1.248,2.689,2.657,2.689c1.008,0,1.616-0.177,2.145-0.4l0.24,1.008
		c-0.496,0.225-1.345,0.48-2.577,0.48c-2.385,0-3.81-1.568-3.81-3.906c0-2.336,1.376-4.178,3.634-4.178
		c2.528,0,3.201,2.226,3.201,3.65c0,0.287-0.032,0.512-0.049,0.656H279.627z M283.756,183.367c0.017-0.896-0.368-2.288-1.952-2.288
		c-1.425,0-2.049,1.313-2.161,2.288H283.756z"/>
	<path d="M292.38,187.705c-0.368,0.192-1.185,0.448-2.225,0.448c-2.337,0-3.857-1.585-3.857-3.953c0-2.386,1.633-4.114,4.161-4.114
		c0.833,0,1.569,0.208,1.953,0.4l-0.32,1.089c-0.336-0.193-0.864-0.369-1.633-0.369c-1.776,0-2.736,1.313-2.736,2.93
		c0,1.793,1.152,2.896,2.688,2.896c0.801,0,1.329-0.207,1.729-0.384L292.38,187.705z"/>
	<path d="M295.931,178.021v2.226h2.017v1.072h-2.017v4.178c0,0.96,0.272,1.505,1.057,1.505c0.368,0,0.64-0.049,0.816-0.096
		l0.063,1.056c-0.271,0.112-0.704,0.192-1.248,0.192c-0.656,0-1.185-0.208-1.521-0.592c-0.4-0.416-0.545-1.105-0.545-2.018v-4.226
		h-1.2v-1.072h1.2v-1.856L295.931,178.021z"/>
	<path d="M14.399,197.222v2.225h2.017v1.072h-2.017v4.178c0,0.961,0.272,1.505,1.056,1.505c0.368,0,0.641-0.048,0.816-0.097
		l0.064,1.057c-0.272,0.112-0.704,0.192-1.249,0.192c-0.656,0-1.184-0.208-1.521-0.593c-0.4-0.416-0.544-1.104-0.544-2.017v-4.226
		h-1.201v-1.072h1.201v-1.857L14.399,197.222z"/>
	<path d="M18.687,203.575c0.032,1.905,1.249,2.689,2.657,2.689c1.008,0,1.617-0.176,2.145-0.4l0.24,1.009
		c-0.496,0.224-1.344,0.48-2.577,0.48c-2.385,0-3.81-1.569-3.81-3.905c0-2.338,1.376-4.178,3.633-4.178
		c2.529,0,3.201,2.225,3.201,3.648c0,0.289-0.032,0.513-0.048,0.656H18.687z M22.817,202.567c0.016-0.896-0.368-2.289-1.953-2.289
		c-1.425,0-2.049,1.313-2.161,2.289H22.817z"/>
	<path d="M30.208,207.193l-0.112-0.977h-0.048c-0.432,0.608-1.265,1.153-2.369,1.153c-1.569,0-2.369-1.105-2.369-2.226
		c0-1.872,1.665-2.897,4.658-2.882v-0.159c0-0.641-0.176-1.793-1.761-1.793c-0.72,0-1.473,0.224-2.017,0.576l-0.32-0.929
		c0.64-0.416,1.568-0.688,2.545-0.688c2.369,0,2.945,1.616,2.945,3.169v2.897c0,0.672,0.032,1.328,0.128,1.856H30.208z M30,203.239
		c-1.537-0.031-3.281,0.24-3.281,1.745c0,0.913,0.608,1.345,1.329,1.345c1.008,0,1.648-0.641,1.873-1.297
		c0.048-0.145,0.08-0.304,0.08-0.447V203.239z"/>
	<path d="M33.63,201.543c0-0.8-0.016-1.456-0.064-2.097h1.232l0.064,1.248h0.048c0.432-0.736,1.152-1.424,2.433-1.424
		c1.057,0,1.857,0.641,2.193,1.553h0.032c0.24-0.433,0.544-0.769,0.864-1.009c0.464-0.353,0.977-0.544,1.713-0.544
		c1.024,0,2.545,0.672,2.545,3.361v4.562h-1.376v-4.386c0-1.488-0.544-2.385-1.681-2.385c-0.8,0-1.425,0.592-1.665,1.28
		c-0.064,0.192-0.112,0.448-0.112,0.704v4.786H38.48v-4.642c0-1.232-0.544-2.129-1.617-2.129c-0.88,0-1.521,0.704-1.745,1.408
		c-0.08,0.208-0.112,0.448-0.112,0.688v4.674H33.63V201.543z"/>
	<path d="M54.655,207.193l-0.112-0.977h-0.048c-0.432,0.608-1.265,1.153-2.369,1.153c-1.569,0-2.369-1.105-2.369-2.226
		c0-1.872,1.665-2.897,4.658-2.882v-0.159c0-0.641-0.176-1.793-1.761-1.793c-0.72,0-1.473,0.224-2.017,0.576l-0.32-0.929
		c0.64-0.416,1.568-0.688,2.545-0.688c2.369,0,2.945,1.616,2.945,3.169v2.897c0,0.672,0.032,1.328,0.128,1.856H54.655z
		 M54.447,203.239c-1.537-0.031-3.281,0.24-3.281,1.745c0,0.913,0.608,1.345,1.329,1.345c1.008,0,1.648-0.641,1.873-1.297
		c0.048-0.145,0.08-0.304,0.08-0.447V203.239z"/>
	<path d="M58.078,201.543c0-0.8-0.016-1.456-0.064-2.097h1.249l0.08,1.28h0.032c0.384-0.736,1.281-1.456,2.561-1.456
		c1.073,0,2.737,0.641,2.737,3.297v4.626h-1.409v-4.466c0-1.248-0.464-2.289-1.792-2.289c-0.929,0-1.649,0.656-1.889,1.441
		c-0.064,0.176-0.096,0.416-0.096,0.656v4.657h-1.409V201.543z"/>
	<path d="M73.648,195.829v9.363c0,0.688,0.016,1.473,0.064,2.001h-1.265l-0.064-1.345h-0.032c-0.432,0.865-1.376,1.521-2.641,1.521
		c-1.873,0-3.313-1.586-3.313-3.938c-0.016-2.577,1.584-4.161,3.473-4.161c1.185,0,1.985,0.561,2.337,1.184h0.032v-4.625H73.648z
		 M72.24,202.6c0-0.177-0.016-0.417-0.064-0.593c-0.208-0.896-0.977-1.633-2.033-1.633c-1.457,0-2.321,1.281-2.321,2.994
		c0,1.568,0.769,2.865,2.289,2.865c0.944,0,1.809-0.625,2.065-1.682c0.048-0.191,0.064-0.384,0.064-0.607V202.6z"/>
	<path d="M79.374,201.543c0-0.8-0.016-1.456-0.064-2.097h1.232l0.064,1.248h0.048c0.432-0.736,1.152-1.424,2.433-1.424
		c1.057,0,1.857,0.641,2.193,1.553h0.032c0.24-0.433,0.544-0.769,0.864-1.009c0.464-0.353,0.977-0.544,1.713-0.544
		c1.024,0,2.545,0.672,2.545,3.361v4.562h-1.376v-4.386c0-1.488-0.544-2.385-1.681-2.385c-0.8,0-1.425,0.592-1.665,1.28
		c-0.064,0.192-0.112,0.448-0.112,0.704v4.786h-1.376v-4.642c0-1.232-0.544-2.129-1.617-2.129c-0.88,0-1.521,0.704-1.745,1.408
		c-0.08,0.208-0.112,0.448-0.112,0.688v4.674h-1.376V201.543z"/>
	<path d="M97.007,207.193l-0.112-0.977h-0.048c-0.432,0.608-1.265,1.153-2.369,1.153c-1.569,0-2.369-1.105-2.369-2.226
		c0-1.872,1.665-2.897,4.658-2.882v-0.159c0-0.641-0.176-1.793-1.761-1.793c-0.72,0-1.473,0.224-2.017,0.576l-0.32-0.929
		c0.64-0.416,1.568-0.688,2.545-0.688c2.369,0,2.945,1.616,2.945,3.169v2.897c0,0.672,0.032,1.328,0.128,1.856H97.007z
		 M96.799,203.239c-1.537-0.031-3.281,0.24-3.281,1.745c0,0.913,0.608,1.345,1.329,1.345c1.008,0,1.648-0.641,1.873-1.297
		c0.048-0.145,0.08-0.304,0.08-0.447V203.239z"/>
	<path d="M100.429,201.543c0-0.8-0.016-1.456-0.064-2.097h1.249l0.08,1.28h0.032c0.384-0.736,1.281-1.456,2.561-1.456
		c1.073,0,2.737,0.641,2.737,3.297v4.626h-1.409v-4.466c0-1.248-0.464-2.289-1.792-2.289c-0.929,0-1.649,0.656-1.889,1.441
		c-0.064,0.176-0.096,0.416-0.096,0.656v4.657h-1.409V201.543z"/>
	<path d="M113.599,207.193l-0.112-0.977h-0.048c-0.432,0.608-1.265,1.153-2.369,1.153c-1.569,0-2.369-1.105-2.369-2.226
		c0-1.872,1.665-2.897,4.658-2.882v-0.159c0-0.641-0.176-1.793-1.761-1.793c-0.72,0-1.473,0.224-2.017,0.576l-0.32-0.929
		c0.64-0.416,1.568-0.688,2.545-0.688c2.369,0,2.945,1.616,2.945,3.169v2.897c0,0.672,0.032,1.328,0.128,1.856H113.599z
		 M113.391,203.239c-1.537-0.031-3.281,0.24-3.281,1.745c0,0.913,0.608,1.345,1.329,1.345c1.008,0,1.648-0.641,1.873-1.297
		c0.048-0.145,0.08-0.304,0.08-0.447V203.239z"/>
	<path d="M123.696,199.446c-0.032,0.561-0.064,1.185-0.064,2.129v4.498c0,1.776-0.353,2.865-1.104,3.537
		c-0.752,0.704-1.841,0.928-2.817,0.928c-0.928,0-1.953-0.224-2.577-0.64l0.353-1.072c0.512,0.319,1.313,0.608,2.273,0.608
		c1.44,0,2.497-0.752,2.497-2.705v-0.865h-0.032c-0.432,0.721-1.265,1.297-2.465,1.297c-1.921,0-3.297-1.633-3.297-3.777
		c0-2.625,1.712-4.113,3.489-4.113c1.345,0,2.081,0.704,2.417,1.344h0.032l0.064-1.168H123.696z M122.239,202.503
		c0-0.24-0.016-0.447-0.08-0.64c-0.256-0.816-0.944-1.489-1.969-1.489c-1.345,0-2.305,1.137-2.305,2.93
		c0,1.521,0.769,2.785,2.289,2.785c0.864,0,1.648-0.544,1.953-1.44c0.08-0.24,0.112-0.513,0.112-0.753V202.503z"/>
	<path d="M126.749,203.575c0.032,1.905,1.249,2.689,2.657,2.689c1.008,0,1.617-0.176,2.145-0.4l0.24,1.009
		c-0.496,0.224-1.344,0.48-2.577,0.48c-2.385,0-3.81-1.569-3.81-3.905c0-2.338,1.376-4.178,3.633-4.178
		c2.529,0,3.201,2.225,3.201,3.648c0,0.289-0.032,0.513-0.048,0.656H126.749z M130.878,202.567c0.016-0.896-0.368-2.289-1.953-2.289
		c-1.425,0-2.049,1.313-2.161,2.289H130.878z"/>
	<path d="M133.981,201.543c0-0.8-0.016-1.456-0.064-2.097h1.232l0.064,1.248h0.048c0.432-0.736,1.152-1.424,2.433-1.424
		c1.057,0,1.857,0.641,2.193,1.553h0.032c0.24-0.433,0.544-0.769,0.864-1.009c0.464-0.353,0.977-0.544,1.713-0.544
		c1.024,0,2.545,0.672,2.545,3.361v4.562h-1.376v-4.386c0-1.488-0.544-2.385-1.681-2.385c-0.8,0-1.425,0.592-1.665,1.28
		c-0.064,0.192-0.112,0.448-0.112,0.704v4.786h-1.376v-4.642c0-1.232-0.544-2.129-1.617-2.129c-0.88,0-1.521,0.704-1.745,1.408
		c-0.08,0.208-0.112,0.448-0.112,0.688v4.674h-1.376V201.543z"/>
	<path d="M148.109,203.575c0.032,1.905,1.249,2.689,2.657,2.689c1.008,0,1.617-0.176,2.145-0.4l0.24,1.009
		c-0.496,0.224-1.344,0.48-2.577,0.48c-2.385,0-3.81-1.569-3.81-3.905c0-2.338,1.376-4.178,3.633-4.178
		c2.529,0,3.201,2.225,3.201,3.648c0,0.289-0.032,0.513-0.048,0.656H148.109z M152.239,202.567c0.016-0.896-0.368-2.289-1.953-2.289
		c-1.425,0-2.049,1.313-2.161,2.289H152.239z"/>
	<path d="M155.34,201.543c0-0.8-0.016-1.456-0.064-2.097h1.249l0.08,1.28h0.032c0.384-0.736,1.281-1.456,2.561-1.456
		c1.073,0,2.737,0.641,2.737,3.297v4.626h-1.409v-4.466c0-1.248-0.464-2.289-1.792-2.289c-0.929,0-1.649,0.656-1.889,1.441
		c-0.064,0.176-0.096,0.416-0.096,0.656v4.657h-1.409V201.543z"/>
	<path d="M165.853,197.222v2.225h2.017v1.072h-2.017v4.178c0,0.961,0.272,1.505,1.057,1.505c0.368,0,0.64-0.048,0.816-0.097
		l0.063,1.057c-0.271,0.112-0.704,0.192-1.248,0.192c-0.656,0-1.185-0.208-1.521-0.593c-0.399-0.416-0.543-1.104-0.543-2.017v-4.226
		h-1.201v-1.072h1.201v-1.857L165.853,197.222z"/>
	<path d="M174.54,197.222v2.225h2.017v1.072h-2.017v4.178c0,0.961,0.272,1.505,1.057,1.505c0.368,0,0.64-0.048,0.816-0.097
		l0.063,1.057c-0.271,0.112-0.704,0.192-1.248,0.192c-0.656,0-1.185-0.208-1.521-0.593c-0.4-0.416-0.545-1.104-0.545-2.017v-4.226
		h-1.2v-1.072h1.2v-1.857L174.54,197.222z"/>
	<path d="M185.055,203.256c0,2.865-1.985,4.114-3.858,4.114c-2.097,0-3.713-1.537-3.713-3.986c0-2.594,1.696-4.113,3.842-4.113
		C183.55,199.271,185.055,200.887,185.055,203.256z M178.908,203.336c0,1.696,0.976,2.978,2.353,2.978
		c1.345,0,2.353-1.266,2.353-3.01c0-1.313-0.656-2.977-2.32-2.977C179.628,200.327,178.908,201.863,178.908,203.336z"/>
	<path d="M191.788,197.27c0.016,0.479-0.336,0.864-0.896,0.864c-0.496,0-0.849-0.385-0.849-0.864c0-0.497,0.368-0.88,0.881-0.88
		C191.452,196.39,191.788,196.772,191.788,197.27z M190.22,207.193v-7.747h1.408v7.747H190.22z"/>
	<path d="M193.964,201.543c0-0.8-0.017-1.456-0.064-2.097h1.232l0.064,1.248h0.048c0.432-0.736,1.152-1.424,2.433-1.424
		c1.057,0,1.856,0.641,2.193,1.553h0.031c0.24-0.433,0.545-0.769,0.865-1.009c0.464-0.353,0.976-0.544,1.712-0.544
		c1.024,0,2.545,0.672,2.545,3.361v4.562h-1.376v-4.386c0-1.488-0.544-2.385-1.681-2.385c-0.801,0-1.425,0.592-1.665,1.28
		c-0.063,0.192-0.112,0.448-0.112,0.704v4.786h-1.376v-4.642c0-1.232-0.544-2.129-1.617-2.129c-0.88,0-1.521,0.704-1.744,1.408
		c-0.08,0.208-0.112,0.448-0.112,0.688v4.674h-1.376V201.543z"/>
	<path d="M207.308,201.976c0-0.992-0.032-1.793-0.064-2.529h1.265l0.063,1.328h0.032c0.576-0.943,1.488-1.504,2.753-1.504
		c1.873,0,3.281,1.584,3.281,3.938c0,2.785-1.696,4.162-3.521,4.162c-1.024,0-1.92-0.449-2.385-1.217H208.7v4.209h-1.393V201.976z
		 M208.7,204.04c0,0.208,0.031,0.4,0.063,0.576c0.256,0.977,1.104,1.648,2.113,1.648c1.488,0,2.353-1.217,2.353-2.992
		c0-1.553-0.816-2.882-2.305-2.882c-0.961,0-1.857,0.688-2.129,1.745c-0.048,0.176-0.096,0.384-0.096,0.576V204.04z"/>
	<path d="M216.411,201.863c0-0.913-0.017-1.696-0.064-2.417h1.232l0.048,1.521h0.064c0.352-1.04,1.2-1.696,2.145-1.696
		c0.16,0,0.272,0.016,0.4,0.048v1.328c-0.145-0.032-0.288-0.048-0.48-0.048c-0.992,0-1.696,0.752-1.889,1.809
		c-0.032,0.192-0.063,0.416-0.063,0.656v4.13h-1.393V201.863z"/>
	<path d="M228.493,203.256c0,2.865-1.985,4.114-3.858,4.114c-2.097,0-3.713-1.537-3.713-3.986c0-2.594,1.696-4.113,3.842-4.113
		C226.988,199.271,228.493,200.887,228.493,203.256z M222.347,203.336c0,1.696,0.976,2.978,2.353,2.978
		c1.345,0,2.353-1.266,2.353-3.01c0-1.313-0.656-2.977-2.32-2.977C223.066,200.327,222.347,201.863,222.347,203.336z"/>
	<path d="M230.699,199.446l1.521,4.354c0.256,0.705,0.464,1.345,0.624,1.984h0.048c0.177-0.64,0.4-1.279,0.656-1.984l1.505-4.354
		h1.473l-3.041,7.747h-1.345l-2.945-7.747H230.699z"/>
	<path d="M238.476,203.575c0.031,1.905,1.248,2.689,2.656,2.689c1.009,0,1.617-0.176,2.146-0.4l0.24,1.009
		c-0.496,0.224-1.345,0.48-2.577,0.48c-2.385,0-3.81-1.569-3.81-3.905c0-2.338,1.376-4.178,3.634-4.178
		c2.528,0,3.201,2.225,3.201,3.648c0,0.289-0.032,0.513-0.049,0.656H238.476z M242.604,202.567c0.017-0.896-0.368-2.289-1.952-2.289
		c-1.425,0-2.049,1.313-2.161,2.289H242.604z"/>
	<path d="M250.795,197.222v2.225h2.017v1.072h-2.017v4.178c0,0.961,0.272,1.505,1.057,1.505c0.368,0,0.64-0.048,0.816-0.097
		l0.063,1.057c-0.271,0.112-0.704,0.192-1.248,0.192c-0.656,0-1.185-0.208-1.521-0.593c-0.4-0.416-0.545-1.104-0.545-2.017v-4.226
		h-1.2v-1.072h1.2v-1.857L250.795,197.222z"/>
	<path d="M254.395,195.829h1.408v4.834h0.032c0.224-0.4,0.576-0.752,1.008-0.992c0.416-0.24,0.913-0.4,1.44-0.4
		c1.041,0,2.705,0.641,2.705,3.313v4.61h-1.408v-4.45c0-1.248-0.464-2.305-1.793-2.305c-0.912,0-1.633,0.641-1.889,1.408
		c-0.08,0.192-0.096,0.4-0.096,0.673v4.674h-1.408V195.829z"/>
	<path d="M264.059,203.575c0.031,1.905,1.248,2.689,2.657,2.689c1.008,0,1.616-0.176,2.145-0.4l0.24,1.009
		c-0.496,0.224-1.345,0.48-2.577,0.48c-2.385,0-3.81-1.569-3.81-3.905c0-2.338,1.376-4.178,3.634-4.178
		c2.528,0,3.201,2.225,3.201,3.648c0,0.289-0.032,0.513-0.049,0.656H264.059z M268.188,202.567c0.017-0.896-0.368-2.289-1.952-2.289
		c-1.425,0-2.049,1.313-2.161,2.289H268.188z"/>
	<path d="M13.487,222.776c0.032,1.904,1.249,2.689,2.657,2.689c1.008,0,1.617-0.177,2.145-0.4l0.24,1.008
		c-0.496,0.225-1.344,0.48-2.577,0.48c-2.385,0-3.81-1.568-3.81-3.906c0-2.336,1.376-4.178,3.633-4.178
		c2.529,0,3.201,2.226,3.201,3.65c0,0.287-0.032,0.512-0.048,0.656H13.487z M17.617,221.768c0.016-0.896-0.368-2.288-1.953-2.288
		c-1.425,0-2.049,1.313-2.161,2.288H17.617z"/>
	<path d="M25.504,226.394v-6.675h-3.25v6.675h-1.393v-6.675h-1.088v-1.072h1.088v-0.257c0-1.088,0.256-2.032,0.864-2.641
		c0.448-0.447,1.088-0.721,1.953-0.721c0.448,0,0.864,0.145,1.104,0.273l-0.288,1.039c-0.208-0.096-0.512-0.191-0.832-0.191
		c-1.104,0-1.409,0.944-1.409,2.16v0.337h3.25v-0.368c0-1.088,0.256-2.081,0.912-2.705c0.528-0.512,1.232-0.721,1.873-0.721
		c0.512,0,0.928,0.112,1.2,0.225l-0.176,1.088c-0.224-0.096-0.497-0.176-0.913-0.176c-1.185,0-1.504,1.057-1.504,2.241v0.416h1.873
		v1.072h-1.857v6.675H25.504z"/>
	<path d="M30.623,222.776c0.032,1.904,1.249,2.689,2.657,2.689c1.008,0,1.617-0.177,2.145-0.4l0.24,1.008
		c-0.496,0.225-1.344,0.48-2.577,0.48c-2.385,0-3.81-1.568-3.81-3.906c0-2.336,1.376-4.178,3.633-4.178
		c2.529,0,3.201,2.226,3.201,3.65c0,0.287-0.032,0.512-0.048,0.656H30.623z M34.752,221.768c0.016-0.896-0.368-2.288-1.953-2.288
		c-1.425,0-2.049,1.313-2.161,2.288H34.752z"/>
	<path d="M43.376,226.105c-0.368,0.192-1.185,0.448-2.225,0.448c-2.337,0-3.857-1.585-3.857-3.953c0-2.386,1.632-4.114,4.162-4.114
		c0.832,0,1.568,0.208,1.953,0.4l-0.32,1.089c-0.336-0.193-0.864-0.369-1.632-0.369c-1.777,0-2.737,1.313-2.737,2.93
		c0,1.793,1.152,2.896,2.689,2.896c0.801,0,1.329-0.207,1.729-0.384L43.376,226.105z"/>
	<path d="M46.927,216.421v2.226h2.017v1.072h-2.017v4.178c0,0.96,0.272,1.505,1.056,1.505c0.368,0,0.641-0.049,0.816-0.096
		l0.064,1.056c-0.272,0.112-0.704,0.192-1.249,0.192c-0.656,0-1.184-0.208-1.521-0.592c-0.4-0.416-0.544-1.105-0.544-2.018v-4.226
		H44.35v-1.072h1.201v-1.856L46.927,216.421z"/>
	<path d="M52.095,216.47c0.016,0.48-0.336,0.864-0.896,0.864c-0.496,0-0.849-0.384-0.849-0.864c0-0.496,0.368-0.881,0.88-0.881
		C51.758,215.589,52.095,215.974,52.095,216.47z M50.526,226.394v-7.747h1.409v7.747H50.526z"/>
	<path d="M54.814,218.646L56.335,223c0.256,0.704,0.464,1.345,0.624,1.985h0.048c0.176-0.641,0.4-1.281,0.656-1.985l1.504-4.354
		h1.473l-3.041,7.747h-1.345l-2.945-7.747H54.814z"/>
	<path d="M62.59,222.776c0.032,1.904,1.249,2.689,2.657,2.689c1.008,0,1.617-0.177,2.145-0.4l0.24,1.008
		c-0.496,0.225-1.344,0.48-2.577,0.48c-2.385,0-3.81-1.568-3.81-3.906c0-2.336,1.376-4.178,3.633-4.178
		c2.529,0,3.201,2.226,3.201,3.65c0,0.287-0.032,0.512-0.048,0.656H62.59z M66.72,221.768c0.016-0.896-0.368-2.288-1.953-2.288
		c-1.425,0-2.049,1.313-2.161,2.288H66.72z"/>
	<path d="M69.822,220.743c0-0.801-0.016-1.457-0.064-2.097h1.249l0.08,1.28h0.032c0.384-0.736,1.281-1.457,2.561-1.457
		c1.073,0,2.737,0.641,2.737,3.298v4.626h-1.409v-4.466c0-1.249-0.464-2.289-1.792-2.289c-0.929,0-1.649,0.656-1.889,1.44
		c-0.064,0.176-0.096,0.416-0.096,0.656v4.658h-1.409V220.743z"/>
	<path d="M79.486,222.776c0.032,1.904,1.249,2.689,2.657,2.689c1.008,0,1.617-0.177,2.145-0.4l0.24,1.008
		c-0.496,0.225-1.344,0.48-2.577,0.48c-2.385,0-3.81-1.568-3.81-3.906c0-2.336,1.376-4.178,3.633-4.178
		c2.529,0,3.201,2.226,3.201,3.65c0,0.287-0.032,0.512-0.048,0.656H79.486z M83.616,221.768c0.016-0.896-0.368-2.288-1.953-2.288
		c-1.425,0-2.049,1.313-2.161,2.288H83.616z"/>
	<path d="M86.525,224.953c0.416,0.272,1.152,0.56,1.856,0.56c1.024,0,1.505-0.512,1.505-1.152c0-0.672-0.4-1.04-1.441-1.424
		c-1.393-0.496-2.049-1.265-2.049-2.193c0-1.248,1.009-2.273,2.673-2.273c0.784,0,1.473,0.225,1.905,0.48l-0.352,1.025
		c-0.304-0.193-0.865-0.449-1.585-0.449c-0.832,0-1.296,0.48-1.296,1.057c0,0.641,0.464,0.929,1.473,1.313
		c1.345,0.512,2.033,1.185,2.033,2.338c0,1.359-1.056,2.32-2.897,2.32c-0.849,0-1.633-0.208-2.177-0.528L86.525,224.953z"/>
	<path d="M92.861,224.953c0.416,0.272,1.152,0.56,1.856,0.56c1.024,0,1.505-0.512,1.505-1.152c0-0.672-0.4-1.04-1.441-1.424
		c-1.393-0.496-2.049-1.265-2.049-2.193c0-1.248,1.009-2.273,2.673-2.273c0.784,0,1.473,0.225,1.905,0.48l-0.352,1.025
		c-0.304-0.193-0.865-0.449-1.585-0.449c-0.832,0-1.296,0.48-1.296,1.057c0,0.641,0.464,0.929,1.473,1.313
		c1.345,0.512,2.033,1.185,2.033,2.338c0,1.359-1.056,2.32-2.897,2.32c-0.849,0-1.633-0.208-2.177-0.528L92.861,224.953z"/>
	<path d="M107.07,226.394l-0.112-0.977h-0.048c-0.432,0.608-1.265,1.152-2.369,1.152c-1.569,0-2.369-1.104-2.369-2.225
		c0-1.873,1.665-2.896,4.658-2.881v-0.16c0-0.641-0.176-1.793-1.761-1.793c-0.72,0-1.473,0.225-2.017,0.576l-0.32-0.928
		c0.64-0.416,1.568-0.689,2.545-0.689c2.369,0,2.945,1.617,2.945,3.17v2.896c0,0.673,0.032,1.329,0.128,1.857H107.07z
		 M106.862,222.44c-1.537-0.033-3.281,0.24-3.281,1.744c0,0.912,0.608,1.345,1.329,1.345c1.008,0,1.648-0.64,1.873-1.296
		c0.048-0.145,0.08-0.305,0.08-0.449V222.44z"/>
	<path d="M110.493,220.743c0-0.801-0.016-1.457-0.064-2.097h1.249l0.08,1.28h0.032c0.384-0.736,1.281-1.457,2.561-1.457
		c1.073,0,2.737,0.641,2.737,3.298v4.626h-1.409v-4.466c0-1.249-0.464-2.289-1.792-2.289c-0.929,0-1.649,0.656-1.889,1.44
		c-0.064,0.176-0.096,0.416-0.096,0.656v4.658h-1.409V220.743z"/>
	<path d="M126.063,215.028v9.364c0,0.688,0.016,1.473,0.064,2.001h-1.265l-0.064-1.345h-0.032c-0.432,0.864-1.376,1.521-2.641,1.521
		c-1.873,0-3.313-1.584-3.313-3.938c-0.016-2.576,1.584-4.162,3.473-4.162c1.185,0,1.985,0.561,2.337,1.186h0.032v-4.627H126.063z
		 M124.655,221.8c0-0.176-0.016-0.416-0.064-0.592c-0.208-0.896-0.977-1.633-2.033-1.633c-1.457,0-2.321,1.28-2.321,2.992
		c0,1.569,0.769,2.865,2.289,2.865c0.944,0,1.809-0.623,2.065-1.68c0.048-0.192,0.064-0.385,0.064-0.609V221.8z"/>
	<path d="M132.573,222.776c0.032,1.904,1.249,2.689,2.657,2.689c1.008,0,1.617-0.177,2.145-0.4l0.24,1.008
		c-0.496,0.225-1.344,0.48-2.577,0.48c-2.385,0-3.81-1.568-3.81-3.906c0-2.336,1.376-4.178,3.633-4.178
		c2.529,0,3.201,2.226,3.201,3.65c0,0.287-0.032,0.512-0.048,0.656H132.573z M136.703,221.768c0.016-0.896-0.368-2.288-1.953-2.288
		c-1.425,0-2.049,1.313-2.161,2.288H136.703z"/>
	<path d="M149.504,216.405c-0.352-0.224-0.928-0.416-1.568-0.416c-1.489,0-1.937,1.041-1.937,2.273v0.384h4.514v7.747h-1.409v-6.675
		h-3.089v6.675h-1.409v-6.675h-3.265v6.675h-1.393v-6.675h-1.088v-1.072h1.088v-0.288c0-0.977,0.256-1.921,0.928-2.577
		c0.448-0.464,1.121-0.753,1.985-0.753c0.528,0,1.073,0.193,1.361,0.337l-0.384,1.04c-0.24-0.128-0.608-0.271-0.977-0.271
		c-0.448,0-0.768,0.16-1.008,0.416c-0.384,0.416-0.512,1.12-0.512,1.793v0.304h3.265v-0.416c0-2.049,1.217-3.378,3.394-3.378
		c0.704,0,1.504,0.209,1.921,0.496L149.504,216.405z"/>
	<path d="M158.367,226.105c-0.368,0.192-1.185,0.448-2.225,0.448c-2.337,0-3.857-1.585-3.857-3.953c0-2.386,1.632-4.114,4.162-4.114
		c0.832,0,1.568,0.208,1.953,0.4l-0.32,1.089c-0.336-0.193-0.864-0.369-1.632-0.369c-1.777,0-2.737,1.313-2.737,2.93
		c0,1.793,1.152,2.896,2.689,2.896c0.801,0,1.329-0.207,1.729-0.384L158.367,226.105z"/>
	<path d="M161.581,216.47c0.016,0.48-0.336,0.864-0.896,0.864c-0.496,0-0.849-0.384-0.849-0.864c0-0.496,0.368-0.881,0.88-0.881
		C161.245,215.589,161.581,215.974,161.581,216.47z M160.012,226.394v-7.747h1.409v7.747H160.012z"/>
	<path d="M164.541,222.776c0.031,1.904,1.248,2.689,2.657,2.689c1.008,0,1.616-0.177,2.145-0.4l0.24,1.008
		c-0.496,0.225-1.345,0.48-2.577,0.48c-2.385,0-3.81-1.568-3.81-3.906c0-2.336,1.376-4.178,3.634-4.178
		c2.528,0,3.201,2.226,3.201,3.65c0,0.287-0.032,0.512-0.049,0.656H164.541z M168.67,221.768c0.017-0.896-0.368-2.288-1.952-2.288
		c-1.425,0-2.049,1.313-2.161,2.288H168.67z"/>
	<path d="M171.772,220.743c0-0.801-0.017-1.457-0.064-2.097h1.248l0.08,1.28h0.032c0.385-0.736,1.28-1.457,2.562-1.457
		c1.072,0,2.736,0.641,2.736,3.298v4.626h-1.408v-4.466c0-1.249-0.464-2.289-1.793-2.289c-0.928,0-1.648,0.656-1.889,1.44
		c-0.063,0.176-0.096,0.416-0.096,0.656v4.658h-1.408V220.743z"/>
	<path d="M186.174,226.105c-0.368,0.192-1.185,0.448-2.225,0.448c-2.337,0-3.857-1.585-3.857-3.953c0-2.386,1.633-4.114,4.161-4.114
		c0.833,0,1.569,0.208,1.953,0.4l-0.32,1.089c-0.336-0.193-0.864-0.369-1.633-0.369c-1.776,0-2.736,1.313-2.736,2.93
		c0,1.793,1.152,2.896,2.688,2.896c0.801,0,1.329-0.207,1.729-0.384L186.174,226.105z"/>
	<path d="M188.62,218.646l1.696,4.577c0.177,0.513,0.368,1.121,0.497,1.586h0.031c0.145-0.465,0.305-1.057,0.496-1.617l1.537-4.546
		h1.488l-2.112,5.522c-1.009,2.656-1.697,4.018-2.657,4.85c-0.688,0.608-1.377,0.849-1.729,0.912l-0.353-1.184
		c0.353-0.113,0.816-0.337,1.232-0.689c0.385-0.304,0.864-0.848,1.185-1.568c0.064-0.144,0.112-0.256,0.112-0.336
		s-0.032-0.191-0.097-0.368l-2.864-7.139H188.62z"/>
	<path d="M206.047,222.456c0,2.865-1.985,4.113-3.858,4.113c-2.097,0-3.713-1.536-3.713-3.985c0-2.593,1.696-4.114,3.842-4.114
		C204.542,218.47,206.047,220.087,206.047,222.456z M199.9,222.536c0,1.697,0.976,2.977,2.353,2.977
		c1.345,0,2.353-1.264,2.353-3.009c0-1.313-0.656-2.978-2.32-2.978C200.62,219.526,199.9,221.063,199.9,222.536z"/>
	<path d="M207.964,226.394v-6.675h-1.089v-1.072h1.089v-0.368c0-1.088,0.24-2.081,0.896-2.705c0.528-0.512,1.232-0.721,1.889-0.721
		c0.496,0,0.929,0.112,1.2,0.225l-0.191,1.088c-0.208-0.096-0.497-0.176-0.896-0.176c-1.201,0-1.505,1.057-1.505,2.241v0.416h1.873
		v1.072h-1.873v6.675H207.964z"/>
	<path d="M217.58,216.421v2.226h2.017v1.072h-2.017v4.178c0,0.96,0.272,1.505,1.057,1.505c0.368,0,0.64-0.049,0.816-0.096
		l0.063,1.056c-0.271,0.112-0.704,0.192-1.248,0.192c-0.656,0-1.185-0.208-1.521-0.592c-0.4-0.416-0.545-1.105-0.545-2.018v-4.226
		h-1.2v-1.072h1.2v-1.856L217.58,216.421z"/>
	<path d="M221.18,215.028h1.408v4.834h0.032c0.224-0.399,0.576-0.752,1.008-0.992c0.416-0.24,0.913-0.4,1.44-0.4
		c1.041,0,2.705,0.641,2.705,3.314v4.609h-1.408v-4.449c0-1.249-0.464-2.306-1.793-2.306c-0.912,0-1.633,0.641-1.889,1.409
		c-0.08,0.191-0.096,0.4-0.096,0.672v4.674h-1.408V215.028z"/>
	<path d="M230.844,222.776c0.031,1.904,1.248,2.689,2.657,2.689c1.008,0,1.616-0.177,2.145-0.4l0.24,1.008
		c-0.496,0.225-1.345,0.48-2.577,0.48c-2.385,0-3.81-1.568-3.81-3.906c0-2.336,1.376-4.178,3.634-4.178
		c2.528,0,3.201,2.226,3.201,3.65c0,0.287-0.032,0.512-0.049,0.656H230.844z M234.973,221.768c0.017-0.896-0.368-2.288-1.952-2.288
		c-1.425,0-2.049,1.313-2.161,2.288H234.973z"/>
	<path d="M241.467,221.175c0-0.992-0.032-1.792-0.064-2.528h1.265l0.063,1.329h0.032c0.576-0.945,1.488-1.506,2.753-1.506
		c1.873,0,3.281,1.586,3.281,3.938c0,2.785-1.696,4.162-3.521,4.162c-1.024,0-1.92-0.447-2.385-1.217h-0.032v4.211h-1.392V221.175z
		 M242.858,223.24c0,0.208,0.032,0.4,0.064,0.576c0.256,0.977,1.104,1.649,2.113,1.649c1.488,0,2.353-1.217,2.353-2.994
		c0-1.553-0.816-2.881-2.305-2.881c-0.961,0-1.857,0.688-2.129,1.744c-0.048,0.177-0.097,0.385-0.097,0.576V223.24z"/>
	<path d="M250.57,221.063c0-0.912-0.017-1.697-0.064-2.417h1.232l0.048,1.521h0.064c0.352-1.041,1.2-1.697,2.145-1.697
		c0.16,0,0.272,0.017,0.4,0.049v1.328c-0.145-0.031-0.288-0.048-0.48-0.048c-0.992,0-1.696,0.753-1.889,1.809
		c-0.032,0.192-0.064,0.417-0.064,0.656v4.13h-1.392V221.063z"/>
	<path d="M262.652,222.456c0,2.865-1.985,4.113-3.858,4.113c-2.097,0-3.713-1.536-3.713-3.985c0-2.593,1.696-4.114,3.842-4.114
		C261.147,218.47,262.652,220.087,262.652,222.456z M256.506,222.536c0,1.697,0.976,2.977,2.353,2.977
		c1.345,0,2.353-1.264,2.353-3.009c0-1.313-0.656-2.978-2.32-2.978C257.226,219.526,256.506,221.063,256.506,222.536z"/>
	<path d="M262.536,228.634c0.641-0.047,1.201-0.224,1.537-0.592c0.384-0.447,0.528-1.057,0.528-2.913v-6.482h1.408v7.026
		c0,1.505-0.24,2.481-0.928,3.186c-0.625,0.625-1.649,0.881-2.401,0.881L262.536,228.634z M266.17,216.47
		c0.016,0.464-0.32,0.864-0.88,0.864c-0.528,0-0.864-0.4-0.864-0.864c0-0.496,0.368-0.881,0.896-0.881
		C265.834,215.589,266.17,215.974,266.17,216.47z"/>
	<path d="M269.098,222.776c0.031,1.904,1.248,2.689,2.657,2.689c1.008,0,1.616-0.177,2.145-0.4l0.24,1.008
		c-0.496,0.225-1.345,0.48-2.577,0.48c-2.385,0-3.81-1.568-3.81-3.906c0-2.336,1.376-4.178,3.634-4.178
		c2.528,0,3.201,2.226,3.201,3.65c0,0.287-0.032,0.512-0.049,0.656H269.098z M273.227,221.768c0.017-0.896-0.368-2.288-1.952-2.288
		c-1.425,0-2.049,1.313-2.161,2.288H273.227z"/>
	<path d="M281.851,226.105c-0.368,0.192-1.185,0.448-2.225,0.448c-2.337,0-3.857-1.585-3.857-3.953c0-2.386,1.633-4.114,4.161-4.114
		c0.833,0,1.569,0.208,1.953,0.4l-0.32,1.089c-0.336-0.193-0.864-0.369-1.633-0.369c-1.776,0-2.736,1.313-2.736,2.93
		c0,1.793,1.152,2.896,2.688,2.896c0.801,0,1.329-0.207,1.729-0.384L281.851,226.105z"/>
	<path d="M285.401,216.421v2.226h2.017v1.072h-2.017v4.178c0,0.96,0.272,1.505,1.057,1.505c0.368,0,0.64-0.049,0.816-0.096
		l0.063,1.056c-0.271,0.112-0.704,0.192-1.248,0.192c-0.656,0-1.185-0.208-1.521-0.592c-0.4-0.416-0.545-1.105-0.545-2.018v-4.226
		h-1.2v-1.072h1.2v-1.856L285.401,216.421z"/>
	<path d="M288.616,225.562c0-0.593,0.4-1.009,0.961-1.009c0.56,0,0.944,0.416,0.944,1.009c0,0.576-0.368,1.008-0.961,1.008
		C289.001,226.569,288.616,226.138,288.616,225.562z"/>
</g>
</svg>
